[
  {
    "total_img": 525,
    "number_page": 3,
    "title": "Cardcaptor Sakura",
    "tag": "Green Eyes, Nadeshiko Kinomoto, Night, Moon, Yukito Tsukishiro, Black Hair, Keroberos Card Captor Sakura, Eriol Hiiragizawa, Meiling Li, Long Hair, Blonde, Sakura Kinomoto, Toya Kinomoto, Wings, Anime, Japanese Clothes, Cardcaptor Sakura, Book, Chinese Dress, Feather, Short Hair, Ruby Moon, Merry Christmas, Flame, Flower, Dress, Brown Hair, Magic, School Uniform, Tomoyo Daidouji, Snail, Smile, Cerberus Cardcaptor Sakura, Syaoran Li, Boy, Spinel Sun, Blue Eyes, Crown, Blush, Teddy Bear, Junko Iwao, Yue Cardcaptor Sakura, Blossom, Halloween, Akiho Shinomoto",
    "description": "Cardcaptor Sakura",
    "link_thumb": "https://live.staticflickr.com/65535/47121600124_d8cfedde42_n.jpg",
    "id_album": "-991600421",
    "total_view": 525
  },
  {
    "total_img": 386,
    "number_page": 2,
    "title": "Sakura Kinomoto",
    "tag": "Sakura Kinomoto,",
    "description": "Sakura Kinomoto",
    "link_thumb": "https://live.staticflickr.com/65535/47955699157_745a51239f_n.jpg",
    "id_album": "-1017029057",
    "total_view": 386
  },
  {
    "total_img": 13,
    "number_page": 1,
    "title": "Yukito Tsukishiro",
    "tag": "Yukito Tsukishiro,",
    "description": "Yukito Tsukishiro",
    "link_thumb": "https://live.staticflickr.com/65535/47859541912_d53cbaeae1_n.jpg",
    "id_album": "-608720204",
    "total_view": 13
  }
]