[
  {
    "total_img": 53,
    "number_page": 1,
    "title": "Satsuriku no Tenshi",
    "tag": "Orange Eyes, Scythe, Angels of Death, Black Hair, Crying, Blonde, Long Hair, Satsuriku no Tenshi, Anime, Bandage, Abraham Gray, Zack Angels Of Death, Gray Angels Of Death, Hood, Coat, Catherine Ward, Brown Hair, Yellow Eyes, Boy, Edward Eddie Mason, Blue Eyes, Rachel Gardner, Daniel Dickens, Syringe, Halloween, Edward Mason, Tears",
    "description": "Satsuriku no Tenshi",
    "link_thumb": "https://live.staticflickr.com/65535/48055016336_79aedbeaca_n.jpg",
    "id_album": "1817957643",
    "total_view": 53
  },
  {
    "total_img": 752,
    "number_page": 4,
    "title": "Black Hair",
    "tag": "Black Hair,",
    "description": "Black Hair",
    "link_thumb": "https://live.staticflickr.com/65535/48066328668_b63565e5e3_n.jpg",
    "id_album": "1485204216",
    "total_view": 752
  },
  {
    "total_img": 2585,
    "number_page": 13,
    "title": "Boy",
    "tag": "Boy,",
    "description": "Boy",
    "link_thumb": "https://live.staticflickr.com/65535/51541746745_541d4f2e57_n.jpg",
    "id_album": "-1694302085",
    "total_view": 2226
  },
  {
    "total_img": 211,
    "number_page": 2,
    "title": "Yellow Eyes",
    "tag": "Yellow Eyes,",
    "description": "Yellow Eyes",
    "link_thumb": "https://live.staticflickr.com/65535/48066963397_8bc256f64f_n.jpg",
    "id_album": "187695074",
    "total_view": 211
  },
  {
    "total_img": 121,
    "number_page": 1,
    "title": "Zack Angels Of Death",
    "tag": "Zack Angels Of Death,",
    "description": "Zack Angels Of Death",
    "link_thumb": "https://live.staticflickr.com/65535/48055152712_84a582b204_n.jpg",
    "id_album": "2072764650",
    "total_view": 121
  }
]