[
  {
    "total_img": 2585,
    "number_page": 13,
    "title": "Boy",
    "tag": "Boy,",
    "description": "Boy",
    "link_thumb": "https://live.staticflickr.com/65535/51541746745_541d4f2e57_n.jpg",
    "id_album": "-1694302085",
    "total_view": 2226
  },
  {
    "total_img": 373,
    "number_page": 2,
    "title": "Scenery Arts",
    "tag": "Scenery Arts,",
    "description": "Scenery Arts",
    "link_thumb": "https://live.staticflickr.com/65535/51568271428_80649f6d9e_n.jpg",
    "id_album": "453515967",
    "total_view": 373
  }
]