[
  {
    "link_thumb": "https://live.staticflickr.com/65535/48077468966_ef3782a917_n.jpg",
    "id_album": "-656526651",
    "description": "Original_798512",
    "title": "Original_798512",
    "link_img": "https://live.staticflickr.com/65535/48077468966_32019d75f1_o.jpg",
    "id_image": "Original_798512",
    "count_view": 0
  },
  {
    "link_thumb": "https://live.staticflickr.com/65535/48079877793_968bb79d93_n.jpg",
    "id_album": "-656526651",
    "description": "Original_868633",
    "title": "Original_868633",
    "link_img": "https://live.staticflickr.com/65535/48079877793_9f99d88cf9_o.jpg",
    "id_image": "Original_868633",
    "count_view": 0
  },
  {
    "link_thumb": "https://live.staticflickr.com/65535/48079963626_5f38bf7480_n.jpg",
    "id_album": "-656526651",
    "description": "Original_871979",
    "title": "Original_871979",
    "link_img": "https://live.staticflickr.com/65535/48079963626_a7214f2db7_o.jpg",
    "id_image": "Original_871979",
    "count_view": 0
  },
  {
    "link_thumb": "https://live.staticflickr.com/65535/48082507371_656dd816fd_n.jpg",
    "id_album": "-656526651",
    "description": "Original_877003",
    "title": "Original_877003",
    "link_img": "https://live.staticflickr.com/65535/48082507371_00689aa327_o.jpg",
    "id_image": "Original_877003",
    "count_view": 0
  },
  {
    "link_thumb": "https://live.staticflickr.com/65535/48082648497_006c704e23_n.jpg",
    "id_album": "-656526651",
    "description": "Original_878911",
    "title": "Original_878911",
    "link_img": "https://live.staticflickr.com/65535/48082648497_7258741b93_o.jpg",
    "id_image": "Original_878911",
    "count_view": 0
  },
  {
    "link_thumb": "https://live.staticflickr.com/65535/48092212388_771f4c727e_n.jpg",
    "id_album": "-656526651",
    "description": "Original_906006",
    "title": "Original_906006",
    "link_img": "https://live.staticflickr.com/65535/48092212388_cef0e080ee_o.jpg",
    "id_image": "Original_906006",
    "count_view": 0
  },
  {
    "link_thumb": "https://live.staticflickr.com/65535/48052354697_ddb618bfe6_n.jpg",
    "id_album": "-656526651",
    "description": "PixivFantasiaNewWorld_852047",
    "title": "PixivFantasiaNewWorld_852047",
    "link_img": "https://live.staticflickr.com/65535/48052354697_e3ac0b171b_o.jpg",
    "id_image": "PixivFantasiaNewWorld_852047",
    "count_view": 0
  }
]