[
  {
    "total_img": 381,
    "number_page": 2,
    "title": "Vocaloid 2",
    "tag": "Sky, Water, IA Vocaloid, Green Hair, Moon, Colorful, Wink, Balloon, Wand, Kamui Gakupo, Black, Monochrome, Haku Yowane Vocaloid, Ribbon, White Hair, Una Otomachi, Braid, Fukase Vocaloid, Luka Megurine, Aoki Lapis, Stardust Vocaloid, GUMI Vocaloid, Yowane Haku, Black Dress, Smile, Aqua Eyes, Skirt, Blush, Magnet Vocaloid, Yuzuki Yukari, Mayu Vocaloid, Uni Vocaloid, Luo Tianyi, Piko Utatane, White Dress, Kokone Vocaloid, Japanese Clothes, Song Illustration, Fish, Feather, Turquoise, Guitar, Sachiko Vocaloid, Nekomura Iroha, Blue, Vocaloid 2, Brown Hair, SFA2 Miki, Oliver Vocaloid, Pink Hair, Sakura Miku, Tie, Gift, Meiko Vocaloid, Blue Eyes, Crown, Holiday, Galaco Vocaloid, Hat, Len Kagamine, kanon Vocaloid, Halloween, Rin Kagamine, Green Eyes, Candy Cane, Night, Pumpkin, Underwater, Hatsune Miku, Cantarella Vocaloid, Summer, Twinitails, Long Hair, Thigh Highs, Bubble, Anime, Light, Kimono, SeeU Vocaloid, Festival, Oriental, Cute, Birdcage, Vocaloid, Violin, Boy, Aqua Hair, Kaito Vocaloid, Akita Neru, Dark, Lily Vocaloid, Crystal, Microphone, Butterfly, Sitting, Maki Tsurumaki, Blonde, Twintails, Barefoot, Hatsune Mikuo, Plant, Mountain, China, bow Clothing, Zatsune Miku, Anon Vocaloid, Short Hair, Flower, Dress, Kaai Yuki, School Uniform, Traditional Costume, Gothic, Sadness, Bride, Sunset, Hachune Miku, White, Blue Hair, Whale, Love is War Vocaloid, Cloud, Instrument, Yukata, Green",
    "description": "Vocaloid 2",
    "link_thumb": "https://live.staticflickr.com/65535/48064956581_8c45dfc95a_n.jpg",
    "id_album": "-1889232457",
    "total_view": 381
  },
  {
    "total_img": 52,
    "number_page": 1,
    "title": "Kaito Vocaloid",
    "tag": "Kaito Vocaloid,",
    "description": "Kaito Vocaloid",
    "link_thumb": "https://live.staticflickr.com/65535/48065840178_8174a128e1_n.jpg",
    "id_album": "-1993431964",
    "total_view": 52
  }
]