[
  {
    "total_img": 238,
    "number_page": 2,
    "title": "No Game No Life",
    "tag": "Chess, Sky, Pink Dress, Plum No Game No Life, Wink, Stephanie Dola, Minimalist, Izuna Hatsuse, Glow, Long Hair, Thigh Highs, Anime, Riku Dola, White Hair, Book, Kimono, Shorts, Collar, Purple Eyes, Glove, Purple Hair, Yellow Eyes, Smile, Red Eyes, Ino Hatsuse, Skirt, Former King of Imanity, Blush, Shuvi Dola, Fiel Nirvalen, Shiro No Game No Life, Orange Eyes, Purple Dress, Sitting, Socks, Sora No Game No Life, Barefoot, Wings, Miko No Game No Life, Globe, bow Clothing, Tail, Jibril No Game No Life, Feather, TwoToned Hair, No Game No Life Zero, Dress, Brown Hair, Pink Eyes, Headband, Pink Hair, School Uniform, Tet No Game No Life, Crown, Thigh Boots, Blue Hair, Cyborg, Grey Hair, Cloud, Clammy Zell, Hat, Animal Ears, Tears, No Game No Life",
    "description": "No Game No Life",
    "link_thumb": "https://live.staticflickr.com/65535/48073121621_6245f0ce41_n.jpg",
    "id_album": "586688602",
    "total_view": 238
  },
  {
    "total_img": 8,
    "number_page": 1,
    "title": "Minimalist",
    "tag": "Minimalist,",
    "description": "Minimalist",
    "link_thumb": "https://live.staticflickr.com/65535/48060135217_f5ac97305b_n.jpg",
    "id_album": "-1737377240",
    "total_view": 8
  },
  {
    "total_img": 9,
    "number_page": 1,
    "title": "No Game No Life Zero",
    "tag": "No Game No Life Zero,",
    "description": "No Game No Life Zero",
    "link_thumb": "https://live.staticflickr.com/65535/48073333121_ff8e1cd463_n.jpg",
    "id_album": "217932843",
    "total_view": 9
  }
]