[
  {
    "total_img": 1337,
    "number_page": 7,
    "title": "Original 2",
    "tag": "Water, Heart, Green Hair, Wind, Creature, Shield, Wink, Onaji Hanashi, Interior, Black, Clock, Weapon, Throne, Stork, Sofa, Nekonaka, Helmet, Cyndaquil Pokemon, Curtain, Umbrella, Shorts, Lion, Street, Pool, Fence, Bike, Milk, Space, Arrow, Glove, Chibi, Black Dress, Blade, Sea, Terrace, Floating Island, Sunny, Building, Oekaki Musume, Orange Hair, Torii, Lips, Kamimura, Jaecheol Park, Cyber Diva Vocaloid, KiskilLlira, Satellite, Ichiyan, White Dress, Tiger, Dragon, Dhiea, Ilolamai, Tokunou Shoutarou, Tail, Watch, Feather, Ocean, Season, Kitten, Food, Bed, Original Anime, Motorcycle, Artistic, CGI, Blue, Watermelon, Brown Hair, Couch, Pink Hair, Baseball Bat, Red, Tie, Blue Eyes, Television, Cube, Teddy Bear, Boots, Rel, Fallen Angel, Hourglass, Elf, Fraternite, Green Eyes, Astronaut, Fishnet, Scythe, Stars, Underwater, Twilight, Tattoo, Dreamcatcher, Sawako Kuronuma, Subway, Long Hair, Pollution, Glance, Winter, Tokyo, Light, Kimono, Knight, Blur, Heterochromia, Camera, Collar, Futuristic City, Festival, Purple Hair, Tea Cup, Noconol, Kousaku, Paint, Hand, Fox, Fujima Takuya, Gunjouai, Skyscraper, Water Drop, Glasses, Dove, Eye Patch, Bridge, Smoking, Fork, Bird, Sitting, Gas Mask, Kuchibiru, Christmas Tree, Gate, Tokiti, While Hair, Brush, Blonde, Twintails, Field, School, Rainbow, Kaworu Nagisa, Classroom, Skeleton, Peak, Room, TwoToned Hair, Itto Maru, Maple Leaf, Barret 50, Hut, People, Baby, Pink Eyes, Apron, School Uniform, Underground, Gothic, Bicycle, Beast, Romantic, Apple, Jellyfish, Airplane, Candle, White, Sleeping, Pointed Ears, Stare, Purple, Grey Hair, Lying Down, Pen, Falling, Duck, Tomoki Kurogi Artist, Sparrow, Sky, Colorful, Flight, Crying, Peacock, Sword, Aquarium, Ribbon, Windmill, Braid, Dog, Hood, Gun, Pear, Scarf, Demon, Kazeno, Reflection, Tank, Japanese, Deer, Sci Fi, Sunglasses, Akaikitsune, Colors, Belt, Pantyhose, Yellow, Man, Train, Toy, Chain, Lantern, Ito Noizi, Water Lily, Evening, Chair, Black  White, Rabbit, Rose, Dutch Angle, Nao Tukiji, Wings, Chinese Dress, River, Fireworks, Planetscape, Headband, Pie, Gift, Sweater, Wedding, Temple, Ferret, Grey Eyes, Leona Ardealescu, Bathtub, Seashore, Boat, Black Eyes, Snow, Rafuschan, Cherry, Penguin, Digital Art, Shotgun, Chocolate Cake, Lake, Grass, Shota Kazehaya, Smoke, Glow, Gear, Cityscape, Brunette, Bandage, Swan, Strawberry, Coat, Explosion, Zombie, Hirose Madoka, Violin, Bow, Yellow Eyes, Boy, Furry Anthropomorphic, Piano, Shrine, Pink, Mage, Fantasy, Library, Fairy, Bench, Kozaki Yuusuke, Orange Eyes, Microphone, Wall, Cage, Butterfly, Socks, Mugon, Sheet Music, Barefoot, Blanket, Phone, Red Flower, bow Clothing, Horizon, Short Hair, Lamp, Sugar, Necklace, Dress, Shuiyituzi, Brown Eyes, Snake, Magic, Blue Dress, Pipe, Maid, Feet, Painting, Oiriginal, Backpack, Whale, Cyborg, Cloud, Instrument, Forest, Paper, Jar, Bahamut, Petal, Yukata, Peace Sign, Ball, Pilot, Black Hair, Staff, Monochrome, Blood, Ogre, Psychedelic, Goggles, Swing, Bush, Bikini, Redhead, Rifle, Eagle, Cup, Herbs, White Tiger, Benjamin Zhang Bin, Spider Web, Smile, Spring, Sun, Skirt, Bunny Ears, Running, London, Tower, Dagger, Squirrel, Miko Outfit, Group, Waterfall, Monkey, Cake, Hoshi Wo Ou Kodomo, Leather, Oni, Train Station, Shooting Star, Simple, Valentines Day, Weird, Japanese Clothes, Star, Caffein, Stairs, Yuri, Fish, Wolf, Face, Military, Nature, Video Game, Window, Bus, SooKyung Oh Artist, Nekomimi, Chocolate, Shigureteki, Ice, Pretty, Starry Sky, Pixiv Id 3944362, Thigh Boots, Hoodie, Vase, Ring, Kitsune, Fire, Hat, Sunrise, Arsenixc, Mermaid, Animal Ears, Parasol, Siri Apple, Ice Cream, OtNm, Futuristic, Telescope, Pumpkin, Scar, Snowfall, Syrup, Beret, Thigh Highs, Coin, Beach, Bracelet, Town, Crow, Snowflake, Desk, Headdress, Cute, Oriental, Stuffed Animal, Tsukioka Tsukiho, Monster Hunter, Bodysuit, PSP, Pigeon, Aqua Hair, M16 Rifle, Omaru09, Photographer, Twins, Bunny, Crystal, Neko Yanshoujie, Santa Hat, Drawing, Laptop, Archer, Factory, Basketball, Sniper Rifle, Yuuki Kira, Knife, Plant, Mountain, Armor, China, Phoenix, Magical, Katana, 5 Nenme no Houkago, Cape, Sadness, Sniper, Mirusa, Ruin, Axe, Sunset, Osu, Fan, Wind Turbine, Laser, Castle, Blossom, Bald Eagle, Vampire, Robot, Green, Tears, 420Chan Original Character, Secrets, Moon, Shark, Sherytan, Balloon, Suit, Asian, Flute, Cigarette, hack, Glitter, Bottle, Midori Foo, White Hair, Book, Fangs, Computer, Horns, Planet, Child, Trumpet, Flame, Purple Eyes, Suitcase, Log, Violinist, Mask, Witch Hat, Spodum, House, Shoe, Red Hair, Aqua Eyes, HairDress, Wave, Station, Lollipop, Shop, Mood, Blush, Animal, Requiem, Comic Toranoana, Sorcerer, Geisha, Original 2, Doll, Coffee, Soldier, Sunbeam, Monster, Leaf, Witch, Guitar, Wreath, Warrior, 88 Original Character, Table, Owl, Nun, Abstract, Road, Racing Queen, Bestia Vector, Dragon Rider, Crown, Creepy, Sunlight, Halloween, Robin Hood, Ferris Wheel, Sakura Blossom, Spear, Pillow, Hologram, Pink Dress, Night, Mecha, Summer, From Space, Uniform, Shinji Ikari, Drink, Twinitails, Wedding Dress, Bleached Eyes, Black Buraku, Rain, Bubble, Anime, Toshiki Yui, Necktie, Horse, Tree, Cemetery, Goldfish, Woman, Helicopter, Rock, Parrot, Japan, Kazamasu Uchio, Sakura, Red Eyes, Car, Dark, Love, Cat, Sad, Fall, Ponytail, Purple Dress, Cherry Blossom, Blackberry, Cross, Audi, Upside Down, Lance, Hair Ornament, Bikko Original Character, Sunshine, Broom, Bear, Lily, Earth, Swimsuit, Haseo Hack, MerryGoround, Flower, Cat Girl, Fruit, New Year 2016, Princess Mononoke, Red Dress, Bag, Woman Warrior, Spirit, Bride, Kumo Mitsumi, Post Apocalyptic, Assault Rifle, Hot Air Balloon, Whip, Tea, Blue Hair, Bat, Coral, Manipulation, Raspberry, Skull, Nagimiso, Fight",
    "description": "Original 2",
    "link_thumb": "https://live.staticflickr.com/65535/48074661042_8eb0b71148_n.jpg",
    "id_album": "1164920286",
    "total_view": 1337
  },
  {
    "total_img": 39,
    "number_page": 1,
    "title": "Nekomimi",
    "tag": "Nekomimi,",
    "description": "Nekomimi",
    "link_thumb": "https://live.staticflickr.com/65535/48064490973_6d89db6c50_n.jpg",
    "id_album": "1978717469",
    "total_view": 39
  },
  {
    "total_img": 1376,
    "number_page": 7,
    "title": "Original Anime",
    "tag": "Original Anime,",
    "description": "Original Anime",
    "link_thumb": "https://live.staticflickr.com/65535/48066086398_88977312bf_n.jpg",
    "id_album": "-335032857",
    "total_view": 1376
  }
]