[
  {
    "total_img": 104,
    "number_page": 1,
    "title": "Akame ga Kill",
    "tag": "Sky, Green Hair, Pink Dress, Esdeath Akame Ga Kill, Night, Moon, Black Hair, Susanoo Akame Ga Kill, Uniform, Tatsumi Akame Ga Kill, Glow, Blood, Weapon, Long Hair, Thigh Highs, Brunette, Anime, Sword, Bulat Akame Ga Kill, Sheele Akame Ga Kill, Fangs, Kurome Akame Ga Kill, Shorts, Woman, Akame Akame Ga Kill, Gun, Glove, Purple Eyes, Purple Hair, Scarf, Incursio, Black Dress, Smile, Yellow Eyes, Blade, Red Hair, Red Eyes, Skirt, Belt, Blush, Pantyhose, Akame ga Kill, Zank Akame Ga Kill, Bench, Orange Eyes, Orange Hair, Bird, Sitting, Socks, Najenda Akame Ga Kill, White Dress, Twintails, Blonde, Mountain, TwoToned Hair, Katana, Leone Akame Ga Kill, Mine Akame Ga Kill, Dress, Blue, Brown Hair, Ice, Headband, Pink Eyes, Pink Hair, Lubbock Akame Ga Kill, Red, Tie, Blue Eyes, Bols Akame Ga Kill, Blue Hair, Thigh Boots, Boots, Wave Akame Ga Kill, Hat, Fight, Animal Ears, Chelsea Akame ga Kill",
    "description": "Akame ga Kill",
    "link_thumb": "https://live.staticflickr.com/65535/47101728064_df5849348f_n.jpg",
    "id_album": "725609345",
    "total_view": 104
  },
  {
    "total_img": 690,
    "number_page": 4,
    "title": "Blush",
    "tag": "Blush,",
    "description": "Blush",
    "link_thumb": "https://live.staticflickr.com/65535/48066945096_efda4835b6_n.jpg",
    "id_album": "1964454893",
    "total_view": 690
  },
  {
    "total_img": 807,
    "number_page": 5,
    "title": "Smile",
    "tag": "Smile,",
    "description": "Smile",
    "link_thumb": "https://live.staticflickr.com/65535/48066953706_2771a62522_n.jpg",
    "id_album": "419891285",
    "total_view": 807
  }
]