[
  {
    "link_thumb": "https://live.staticflickr.com/65535/47952209306_52567d6cde_n.jpg",
    "id_album": "106293676",
    "description": "Clannad_537368,[isGirlAnime],[isCuteAnime],[Clannad]",
    "title": "Clannad_537368",
    "link_img": "https://live.staticflickr.com/65535/47952209306_0cce317b7b_o.jpg",
    "id_image": "Clannad_537368",
    "count_view": 0
  },
  {
    "link_thumb": "https://live.staticflickr.com/65535/47952165477_d08da59a67_n.jpg",
    "id_album": "106293676",
    "description": "Clannad_537369,[isGirlAnime],[isCuteAnime],[Clannad]",
    "title": "Clannad_537369",
    "link_img": "https://live.staticflickr.com/65535/47952165477_a2ddf27b2a_o.jpg",
    "id_image": "Clannad_537369",
    "count_view": 0
  },
  {
    "link_thumb": "https://live.staticflickr.com/65535/47952211511_5e28f0bc31_n.jpg",
    "id_album": "106293676",
    "description": "Clannad_537372,[isGirlAnime],[isCuteAnime],[isGirlsLoliAnime],[Clannad]",
    "title": "Clannad_537372",
    "link_img": "https://live.staticflickr.com/65535/47952211511_6549a08652_o.jpg",
    "id_image": "Clannad_537372",
    "count_view": 0
  },
  {
    "link_thumb": "https://live.staticflickr.com/65535/47952173547_d7490b9c49_n.jpg",
    "id_album": "106293676",
    "description": "Clannad_537386,[isGirlAnime],[isCuteAnime],[isGirlsLoliAnime],[Clannad]",
    "title": "Clannad_537386",
    "link_img": "https://live.staticflickr.com/65535/47952173547_bcde097292_o.jpg",
    "id_image": "Clannad_537386",
    "count_view": 0
  },
  {
    "link_thumb": "https://live.staticflickr.com/65535/47952178402_b7e909f1ca_n.jpg",
    "id_album": "106293676",
    "description": "Clannad_537396,[isGirlAnime],[isSadAnime],[isSadAnimeGirl],[isCuteAnime],[isGirlsLoliAnime],[Clannad]",
    "title": "Clannad_537396",
    "link_img": "https://live.staticflickr.com/65535/47952178402_769c1eec2d_o.jpg",
    "id_image": "Clannad_537396",
    "count_view": 0
  },
  {
    "link_thumb": "https://live.staticflickr.com/65535/47952201903_f8497cbf33_n.jpg",
    "id_album": "106293676",
    "description": "Clannad_537407,[isGirlAnime],[isCuteAnime],[isGirlsLoliAnime],[Clannad]",
    "title": "Clannad_537407",
    "link_img": "https://live.staticflickr.com/65535/47952201903_bb58680046_o.jpg",
    "id_image": "Clannad_537407",
    "count_view": 0
  },
  {
    "link_thumb": "https://live.staticflickr.com/65535/47952204628_2d6106b775_n.jpg",
    "id_album": "106293676",
    "description": "Clannad_537417,[isGirlAnime],[isSadAnime],[isSadAnimeGirl],[isCuteAnime],[isGirlsLoliAnime],[Clannad]",
    "title": "Clannad_537417",
    "link_img": "https://live.staticflickr.com/65535/47952204628_7ba25a086f_o.jpg",
    "id_image": "Clannad_537417",
    "count_view": 0
  },
  {
    "link_thumb": "https://live.staticflickr.com/65535/47952231991_6c5c95310f_n.jpg",
    "id_album": "106293676",
    "description": "Clannad_537420,[isGirlAnime],[isBoyAnime],[isCuteAnime],[isGirlsLoliAnime],[Clannad]",
    "title": "Clannad_537420",
    "link_img": "https://live.staticflickr.com/65535/47952231991_7a369716f9_o.jpg",
    "id_image": "Clannad_537420",
    "count_view": 0
  },
  {
    "link_thumb": "https://live.staticflickr.com/65535/47952188722_72cb855ee2_n.jpg",
    "id_album": "106293676",
    "description": "Clannad_537422,[isGirlAnime],[isCuteAnime],[isGirlsLoliAnime],[Clannad]",
    "title": "Clannad_537422",
    "link_img": "https://live.staticflickr.com/65535/47952188722_aa9e897375_o.jpg",
    "id_image": "Clannad_537422",
    "count_view": 0
  },
  {
    "link_thumb": "https://live.staticflickr.com/65535/47952189972_604d27fd75_n.jpg",
    "id_album": "106293676",
    "description": "Clannad_537424,[isGirlAnime],[isSadAnime],[isSadAnimeGirl],[isCuteAnime],[isGirlsLoliAnime],[Clannad]",
    "title": "Clannad_537424",
    "link_img": "https://live.staticflickr.com/65535/47952189972_8a411d9e92_o.jpg",
    "id_image": "Clannad_537424",
    "count_view": 0
  },
  {
    "link_thumb": "https://live.staticflickr.com/65535/47952236556_303f40a34c_n.jpg",
    "id_album": "106293676",
    "description": "Clannad_537428,[isGirlAnime],[isBoyAnime],[isCoupleAnime],[Clannad]",
    "title": "Clannad_537428",
    "link_img": "https://live.staticflickr.com/65535/47952236556_827362144c_o.jpg",
    "id_image": "Clannad_537428",
    "count_view": 0
  },
  {
    "link_thumb": "https://live.staticflickr.com/65535/47952211173_c899658f0b_n.jpg",
    "id_album": "106293676",
    "description": "Clannad_537429,[isGirlAnime],[isCuteAnime],[isGirlsLoliAnime],[Clannad]",
    "title": "Clannad_537429",
    "link_img": "https://live.staticflickr.com/65535/47952211173_08f1e476eb_o.jpg",
    "id_image": "Clannad_537429",
    "count_view": 0
  },
  {
    "link_thumb": "https://live.staticflickr.com/65535/47952211663_a4981c2e0f_n.jpg",
    "id_album": "106293676",
    "description": "Clannad_537430,[isGirlAnime],[isCuteAnime],[isGirlsLoliAnime],[Clannad]",
    "title": "Clannad_537430",
    "link_img": "https://live.staticflickr.com/65535/47952211663_e9c2a4a59d_o.jpg",
    "id_image": "Clannad_537430",
    "count_view": 0
  },
  {
    "link_thumb": "https://live.staticflickr.com/65535/47952194257_2b61a477b1_n.jpg",
    "id_album": "106293676",
    "description": "Clannad_537432,[isGirlAnime],[isBoyAnime],[isCoupleAnime],[isCuteAnime],[isGirlsLoliAnime],[Clannad]",
    "title": "Clannad_537432",
    "link_img": "https://live.staticflickr.com/65535/47952194257_3660cb69f5_o.jpg",
    "id_image": "Clannad_537432",
    "count_view": 0
  },
  {
    "link_thumb": "https://live.staticflickr.com/65535/47952213418_328f0d4f59_n.jpg",
    "id_album": "106293676",
    "description": "Clannad_537434,[isGirlAnime],[isCuteAnime],[isGirlsLoliAnime],[Clannad]",
    "title": "Clannad_537434",
    "link_img": "https://live.staticflickr.com/65535/47952213418_213eb4c143_o.jpg",
    "id_image": "Clannad_537434",
    "count_view": 0
  },
  {
    "link_thumb": "https://live.staticflickr.com/65535/47952202737_372074bd84_n.jpg",
    "id_album": "106293676",
    "description": "Clannad_537451,[isGirlAnime],[isCuteAnime],[isKimonoAnime],[Clannad]",
    "title": "Clannad_537451",
    "link_img": "https://live.staticflickr.com/65535/47952202737_e8a7ea42c9_o.jpg",
    "id_image": "Clannad_537451",
    "count_view": 0
  },
  {
    "link_thumb": "https://live.staticflickr.com/65535/47952208247_9816cbed5a_n.jpg",
    "id_album": "106293676",
    "description": "Clannad_537462,[isGirlAnime],[isSadAnime],[isSadAnimeGirl],[isCuteAnime],[isGirlsLoliAnime],[Clannad]",
    "title": "Clannad_537462",
    "link_img": "https://live.staticflickr.com/65535/47952208247_f85ea1d754_o.jpg",
    "id_image": "Clannad_537462",
    "count_view": 0
  },
  {
    "link_thumb": "https://live.staticflickr.com/65535/47952229428_4c085b6cbe_n.jpg",
    "id_album": "106293676",
    "description": "Clannad_537468,[isGirlAnime],[isCuteAnime],[isGirlsLoliAnime],[Clannad]",
    "title": "Clannad_537468",
    "link_img": "https://live.staticflickr.com/65535/47952229428_070d960be5_o.jpg",
    "id_image": "Clannad_537468",
    "count_view": 0
  },
  {
    "link_thumb": "https://live.staticflickr.com/65535/47952255741_4366917872_n.jpg",
    "id_album": "106293676",
    "description": "Clannad_537469,[isGirlAnime],[isCuteAnime],[isGirlsLoliAnime],[Clannad]",
    "title": "Clannad_537469",
    "link_img": "https://live.staticflickr.com/65535/47952255741_d539060735_o.jpg",
    "id_image": "Clannad_537469",
    "count_view": 0
  },
  {
    "link_thumb": "https://live.staticflickr.com/65535/47952233493_180604f9b1_n.jpg",
    "id_album": "106293676",
    "description": "Clannad_537476,[isGirlAnime],[isCuteAnime],[isGirlsLoliAnime],[Clannad]",
    "title": "Clannad_537476",
    "link_img": "https://live.staticflickr.com/65535/47952233493_d308d0b427_o.jpg",
    "id_image": "Clannad_537476",
    "count_view": 0
  },
  {
    "link_thumb": "https://live.staticflickr.com/65535/47952260861_2b9d5fd65e_n.jpg",
    "id_album": "106293676",
    "description": "Clannad_537479,[isGirlAnime],[isCuteAnime],[isGirlsLoliAnime],[Clannad]",
    "title": "Clannad_537479",
    "link_img": "https://live.staticflickr.com/65535/47952260861_1715caf749_o.jpg",
    "id_image": "Clannad_537479",
    "count_view": 0
  },
  {
    "link_thumb": "https://live.staticflickr.com/65535/47952237023_a5c0c64fc3_n.jpg",
    "id_album": "106293676",
    "description": "Clannad_537483,[isGirlAnime],[isBoyAnime],[isCoupleAnime],[isCuteAnime],[isGirlsLoliAnime],[Clannad]",
    "title": "Clannad_537483",
    "link_img": "https://live.staticflickr.com/65535/47952237023_2fa1382248_o.jpg",
    "id_image": "Clannad_537483",
    "count_view": 0
  },
  {
    "link_thumb": "https://live.staticflickr.com/65535/47952220867_e0042ffc32_n.jpg",
    "id_album": "106293676",
    "description": "Clannad_537489,[isGirlAnime],[isCuteAnime],[isGirlsLoliAnime],[Clannad]",
    "title": "Clannad_537489",
    "link_img": "https://live.staticflickr.com/65535/47952220867_2b2a64f52c_o.jpg",
    "id_image": "Clannad_537489",
    "count_view": 0
  },
  {
    "link_thumb": "https://live.staticflickr.com/65535/47952266156_d04d340ba6_n.jpg",
    "id_album": "106293676",
    "description": "Clannad_537492,[isBoyAnime],[isSadAnime],[isSadAnimeBoy],[Clannad]",
    "title": "Clannad_537492",
    "link_img": "https://live.staticflickr.com/65535/47952266156_a8a7236aea_o.jpg",
    "id_image": "Clannad_537492",
    "count_view": 0
  },
  {
    "link_thumb": "https://live.staticflickr.com/65535/47952244763_0cdd5fc269_n.jpg",
    "id_album": "106293676",
    "description": "Clannad_537500,[isGirlAnime],[isSadAnime],[isSadAnimeGirl],[isCuteAnime],[isGirlsLoliAnime],[Clannad]",
    "title": "Clannad_537500",
    "link_img": "https://live.staticflickr.com/65535/47952244763_1bf5d31577_o.jpg",
    "id_image": "Clannad_537500",
    "count_view": 0
  },
  {
    "link_thumb": "https://live.staticflickr.com/65535/47952228627_dee93d4e61_n.jpg",
    "id_album": "106293676",
    "description": "Clannad_537504,[isGirlAnime],[isSadAnime],[isSadAnimeGirl],[isCuteAnime],[isGirlsLoliAnime],[Clannad]",
    "title": "Clannad_537504",
    "link_img": "https://live.staticflickr.com/65535/47952228627_3fa56db594_o.jpg",
    "id_image": "Clannad_537504",
    "count_view": 0
  },
  {
    "link_thumb": "https://live.staticflickr.com/65535/47952230892_847bf41bba_n.jpg",
    "id_album": "106293676",
    "description": "Clannad_537507,[isGirlAnime],[isCuteAnime],[isGirlsLoliAnime],[Clannad]",
    "title": "Clannad_537507",
    "link_img": "https://live.staticflickr.com/65535/47952230892_0d7b0a57e3_o.jpg",
    "id_image": "Clannad_537507",
    "count_view": 0
  },
  {
    "link_thumb": "https://live.staticflickr.com/65535/47952277931_21af878a88_n.jpg",
    "id_album": "106293676",
    "description": "Clannad_537513,[isGirlAnime],[isCuteAnime],[isGirlsLoliAnime],[Clannad]",
    "title": "Clannad_537513",
    "link_img": "https://live.staticflickr.com/65535/47952277931_1e76d49544_o.jpg",
    "id_image": "Clannad_537513",
    "count_view": 0
  },
  {
    "link_thumb": "https://live.staticflickr.com/65535/47952235182_9611ac4dae_n.jpg",
    "id_album": "106293676",
    "description": "Clannad_537515,[isGirlAnime],[isCuteAnime],[isGirlsLoliAnime],[Clannad]",
    "title": "Clannad_537515",
    "link_img": "https://live.staticflickr.com/65535/47952235182_bc0a9099d2_o.jpg",
    "id_image": "Clannad_537515",
    "count_view": 0
  },
  {
    "link_thumb": "https://live.staticflickr.com/65535/47952254103_ba5e1278e5_n.jpg",
    "id_album": "106293676",
    "description": "Clannad_537516,[isGirlAnime],[isCuteAnime],[isGirlsLoliAnime],[Clannad]",
    "title": "Clannad_537516",
    "link_img": "https://live.staticflickr.com/65535/47952254103_f4aa925fe7_o.jpg",
    "id_image": "Clannad_537516",
    "count_view": 0
  },
  {
    "link_thumb": "https://live.staticflickr.com/65535/47952255798_8bb0f1843f_n.jpg",
    "id_album": "106293676",
    "description": "Clannad_537519,[isGirlAnime],[isCuteAnime],[isGirlsLoliAnime],[Clannad]",
    "title": "Clannad_537519",
    "link_img": "https://live.staticflickr.com/65535/47952255798_aac4e52a16_o.jpg",
    "id_image": "Clannad_537519",
    "count_view": 0
  },
  {
    "link_thumb": "https://live.staticflickr.com/65535/47952256213_91e6fc1258_n.jpg",
    "id_album": "106293676",
    "description": "Clannad_537520,[isGirlAnime],[isSadAnime],[isSadAnimeGirl],[isCuteAnime],[isGirlsLoliAnime],[Clannad]",
    "title": "Clannad_537520",
    "link_img": "https://live.staticflickr.com/65535/47952256213_77b1367605_o.jpg",
    "id_image": "Clannad_537520",
    "count_view": 0
  },
  {
    "link_thumb": "https://live.staticflickr.com/65535/47952256648_5289569516_n.jpg",
    "id_album": "106293676",
    "description": "Clannad_537521,[isGirlAnime],[isCuteAnime],[isGirlsLoliAnime],[Clannad]",
    "title": "Clannad_537521",
    "link_img": "https://live.staticflickr.com/65535/47952256648_77be90e0ba_o.jpg",
    "id_image": "Clannad_537521",
    "count_view": 0
  },
  {
    "link_thumb": "https://live.staticflickr.com/65535/47952286001_3e1fe736b5_n.jpg",
    "id_album": "106293676",
    "description": "Clannad_537529,[isGirlAnime],[isBoyAnime],[isSadAnime],[isSadAnimeGirl],[isCoupleAnime],[isCuteAnime],[isGirlsLoliAnime],[Clannad]",
    "title": "Clannad_537529",
    "link_img": "https://live.staticflickr.com/65535/47952286001_44172d4446_o.jpg",
    "id_image": "Clannad_537529",
    "count_view": 0
  },
  {
    "link_thumb": "https://live.staticflickr.com/65535/47952287646_23a7274486_n.jpg",
    "id_album": "106293676",
    "description": "Clannad_537533,[isGirlAnime],[isCuteAnime],[isGirlsLoliAnime],[Clannad]",
    "title": "Clannad_537533",
    "link_img": "https://live.staticflickr.com/65535/47952287646_07105fb419_o.jpg",
    "id_image": "Clannad_537533",
    "count_view": 0
  },
  {
    "link_thumb": "https://live.staticflickr.com/65535/47952263273_2d2a9bd433_n.jpg",
    "id_album": "106293676",
    "description": "Clannad_537534,[isBoyAnime],[isSadAnime],[isSadAnimeBoy],[Clannad]",
    "title": "Clannad_537534",
    "link_img": "https://live.staticflickr.com/65535/47952263273_9e8e4743df_o.jpg",
    "id_image": "Clannad_537534",
    "count_view": 0
  },
  {
    "link_thumb": "https://live.staticflickr.com/65535/47952247147_70194e468c_n.jpg",
    "id_album": "106293676",
    "description": "Clannad_537540,[isGirlAnime],[isSadAnime],[isSadAnimeGirl],[isCuteAnime],[isGirlsLoliAnime],[Clannad]",
    "title": "Clannad_537540",
    "link_img": "https://live.staticflickr.com/65535/47952247147_19f10b4daa_o.jpg",
    "id_image": "Clannad_537540",
    "count_view": 0
  },
  {
    "link_thumb": "https://live.staticflickr.com/65535/47952266058_72c4991af0_n.jpg",
    "id_album": "106293676",
    "description": "Clannad_537541,[isGirlAnime],[isCuteAnime],[Clannad]",
    "title": "Clannad_537541",
    "link_img": "https://live.staticflickr.com/65535/47952266058_50c8b6183a_o.jpg",
    "id_image": "Clannad_537541",
    "count_view": 0
  },
  {
    "link_thumb": "https://live.staticflickr.com/65535/47952293966_f2a493d0d6_n.jpg",
    "id_album": "106293676",
    "description": "Clannad_537547,[isGirlAnime],[isBoyAnime],[isCoupleAnime],[Clannad]",
    "title": "Clannad_537547",
    "link_img": "https://live.staticflickr.com/65535/47952293966_800f12b2a1_o.jpg",
    "id_image": "Clannad_537547",
    "count_view": 0
  },
  {
    "link_thumb": "https://live.staticflickr.com/65535/47952269168_c6c8371d4b_n.jpg",
    "id_album": "106293676",
    "description": "Clannad_537549,[isGirlAnime],[isSadAnime],[isSadAnimeGirl],[isCuteAnime],[isGirlsLoliAnime],[Clannad]",
    "title": "Clannad_537549",
    "link_img": "https://live.staticflickr.com/65535/47952269168_0c75253afe_o.jpg",
    "id_image": "Clannad_537549",
    "count_view": 0
  },
  {
    "link_thumb": "https://live.staticflickr.com/65535/47952272668_6fc31e7d6c_n.jpg",
    "id_album": "106293676",
    "description": "Clannad_537558,[isGirlAnime],[isBoyAnime],[isCoupleAnime],[isCuteAnime],[isGirlsLoliAnime],[Clannad]",
    "title": "Clannad_537558",
    "link_img": "https://live.staticflickr.com/65535/47952272668_be54d058a5_o.jpg",
    "id_image": "Clannad_537558",
    "count_view": 0
  },
  {
    "link_thumb": "https://live.staticflickr.com/65535/47952272913_12f90871e3_n.jpg",
    "id_album": "106293676",
    "description": "Clannad_537559,[isGirlAnime],[isSadAnime],[isSadAnimeGirl],[Clannad]",
    "title": "Clannad_537559",
    "link_img": "https://live.staticflickr.com/65535/47952272913_017d821614_o.jpg",
    "id_image": "Clannad_537559",
    "count_view": 0
  },
  {
    "link_thumb": "https://live.staticflickr.com/65535/47952274128_93686f2811_n.jpg",
    "id_album": "106293676",
    "description": "Clannad_537565,[isGirlAnime],[isCuteAnime],[isGirlsLoliAnime],[Clannad]",
    "title": "Clannad_537565",
    "link_img": "https://live.staticflickr.com/65535/47952274128_ae235c5963_o.jpg",
    "id_image": "Clannad_537565",
    "count_view": 0
  },
  {
    "link_thumb": "https://live.staticflickr.com/65535/47952257757_933784dde0_n.jpg",
    "id_album": "106293676",
    "description": "Clannad_537570,[isGirlAnime],[isSadAnime],[isSadAnimeGirl],[isCuteAnime],[isGirlsLoliAnime],[Clannad]",
    "title": "Clannad_537570",
    "link_img": "https://live.staticflickr.com/65535/47952257757_97023eab21_o.jpg",
    "id_image": "Clannad_537570",
    "count_view": 0
  },
  {
    "link_thumb": "https://live.staticflickr.com/65535/47952258202_3e60ba439e_n.jpg",
    "id_album": "106293676",
    "description": "Clannad_537572,[isGirlAnime],[isBoyAnime],[isCoupleAnime],[isCuteAnime],[isGirlsHatsHoodieAnime],[isGirlsLoliAnime],[Clannad]",
    "title": "Clannad_537572",
    "link_img": "https://live.staticflickr.com/65535/47952258202_b778fb5e08_o.jpg",
    "id_image": "Clannad_537572",
    "count_view": 0
  },
  {
    "link_thumb": "https://live.staticflickr.com/65535/47952301796_87d13d786e_n.jpg",
    "id_album": "106293676",
    "description": "Clannad_537573,[isGirlAnime],[isSadAnime],[isSadAnimeGirl],[isCuteAnime],[Clannad]",
    "title": "Clannad_537573",
    "link_img": "https://live.staticflickr.com/65535/47952301796_42025daf0a_o.jpg",
    "id_image": "Clannad_537573",
    "count_view": 0
  },
  {
    "link_thumb": "https://live.staticflickr.com/65535/47952280408_ab5f34d37b_n.jpg",
    "id_album": "106293676",
    "description": "Clannad_537586,[isGirlAnime],[isBoyAnime],[isCoupleAnime],[isCuteAnime],[isGirlsLoliAnime],[Clannad]",
    "title": "Clannad_537586",
    "link_img": "https://live.staticflickr.com/65535/47952280408_bd889a0ac4_o.jpg",
    "id_image": "Clannad_537586",
    "count_view": 0
  },
  {
    "link_thumb": "https://live.staticflickr.com/65535/47952263867_455bd84c05_n.jpg",
    "id_album": "106293676",
    "description": "Clannad_537588,[isGirlAnime],[isCuteAnime],[isGirlsLoliAnime],[Clannad]",
    "title": "Clannad_537588",
    "link_img": "https://live.staticflickr.com/65535/47952263867_15fd55e2dd_o.jpg",
    "id_image": "Clannad_537588",
    "count_view": 0
  },
  {
    "link_thumb": "https://live.staticflickr.com/65535/47952269942_e499432cb1_n.jpg",
    "id_album": "106293676",
    "description": "Clannad_537604,[isGirlAnime],[isBoyAnime],[isCuteAnime],[isGirlsLoliAnime],[Clannad]",
    "title": "Clannad_537604",
    "link_img": "https://live.staticflickr.com/65535/47952269942_03aa70e872_o.jpg",
    "id_image": "Clannad_537604",
    "count_view": 0
  },
  {
    "link_thumb": "https://live.staticflickr.com/65535/47952272567_190ba1c3e0_n.jpg",
    "id_album": "106293676",
    "description": "Clannad_537613,[isGirlAnime],[isCuteAnime],[isGirlsLoliAnime],[Clannad]",
    "title": "Clannad_537613",
    "link_img": "https://live.staticflickr.com/65535/47952272567_81a9e76e7d_o.jpg",
    "id_image": "Clannad_537613",
    "count_view": 0
  },
  {
    "link_thumb": "https://live.staticflickr.com/65535/47952296423_c40a142a6c_n.jpg",
    "id_album": "106293676",
    "description": "Clannad_537626,[isGirlAnime],[isCuteAnime],[isGirlsLoliAnime],[Clannad]",
    "title": "Clannad_537626",
    "link_img": "https://live.staticflickr.com/65535/47952296423_a2e7350942_o.jpg",
    "id_image": "Clannad_537626",
    "count_view": 0
  },
  {
    "link_thumb": "https://live.staticflickr.com/65535/47952302663_a3ee89a198_n.jpg",
    "id_album": "106293676",
    "description": "Clannad_537645,[isGirlAnime],[isCuteAnime],[isGirlsLoliAnime],[Clannad]",
    "title": "Clannad_537645",
    "link_img": "https://live.staticflickr.com/65535/47952302663_ce58fc46d5_o.jpg",
    "id_image": "Clannad_537645",
    "count_view": 0
  },
  {
    "link_thumb": "https://live.staticflickr.com/65535/47952310218_054dc38870_n.jpg",
    "id_album": "106293676",
    "description": "Clannad_657184,[isGirlAnime],[isCuteAnime],[Clannad]",
    "title": "Clannad_657184",
    "link_img": "https://live.staticflickr.com/65535/47952310218_b7b0b762ea_o.jpg",
    "id_image": "Clannad_657184",
    "count_view": 0
  },
  {
    "link_thumb": "https://live.staticflickr.com/65535/47952339151_e5b3002721_n.jpg",
    "id_album": "106293676",
    "description": "Clannad_713066,[isGirlAnime],[isCuteAnime],[isBlackAnime],[Clannad]",
    "title": "Clannad_713066",
    "link_img": "https://live.staticflickr.com/65535/47952339151_b317fe265c_o.jpg",
    "id_image": "Clannad_713066",
    "count_view": 0
  },
  {
    "link_thumb": "https://live.staticflickr.com/65535/47952318408_6d788a0a37_n.jpg",
    "id_album": "106293676",
    "description": "Clannad_756701,[isGirlAnime],[isCuteAnime],[isGirlsLoliAnime],[Clannad]",
    "title": "Clannad_756701",
    "link_img": "https://live.staticflickr.com/65535/47952318408_9ac53a723b_o.jpg",
    "id_image": "Clannad_756701",
    "count_view": 0
  },
  {
    "link_thumb": "https://live.staticflickr.com/65535/47952318998_069b385db7_n.jpg",
    "id_album": "106293676",
    "description": "Clannad_758030,[isGirlAnime],[isSadAnime],[isSadAnimeGirl],[isCuteAnime],[isGirlsLoliAnime],[Clannad]",
    "title": "Clannad_758030",
    "link_img": "https://live.staticflickr.com/65535/47952318998_5cabe29519_o.jpg",
    "id_image": "Clannad_758030",
    "count_view": 0
  },
  {
    "link_thumb": "https://live.staticflickr.com/65535/47952308267_5f3a02fc73_n.jpg",
    "id_album": "106293676",
    "description": "Clannad_771954,[isGirlAnime],[isCuteAnime],[isGirlsLoliAnime],[Clannad]",
    "title": "Clannad_771954",
    "link_img": "https://live.staticflickr.com/65535/47952308267_77a85a7afd_o.jpg",
    "id_image": "Clannad_771954",
    "count_view": 0
  },
  {
    "link_thumb": "https://live.staticflickr.com/65535/47952310807_dce5f43f16_n.jpg",
    "id_album": "106293676",
    "description": "Clannad_771955,[isGirlAnime],[isSceneryArts],[isCuteAnime],[isGirlsLoliAnime],[Clannad]",
    "title": "Clannad_771955",
    "link_img": "https://live.staticflickr.com/65535/47952310807_a18f7b33ce_o.jpg",
    "id_image": "Clannad_771955",
    "count_view": 0
  },
  {
    "link_thumb": "https://live.staticflickr.com/65535/47952328838_a820a1c83f_n.jpg",
    "id_album": "106293676",
    "description": "Clannad_771956,[isGirlAnime],[isBoyAnime],[isCoupleAnime],[isCuteAnime],[isGirlsLoliAnime],[Clannad]",
    "title": "Clannad_771956",
    "link_img": "https://live.staticflickr.com/65535/47952328838_d3a4950474_o.jpg",
    "id_image": "Clannad_771956",
    "count_view": 0
  },
  {
    "link_thumb": "https://live.staticflickr.com/65535/47952312387_0f87161ef9_n.jpg",
    "id_album": "106293676",
    "description": "Clannad_771960,[isGirlAnime],[isBoyAnime],[isCoupleAnime],[Clannad]",
    "title": "Clannad_771960",
    "link_img": "https://live.staticflickr.com/65535/47952312387_e7fee519e1_o.jpg",
    "id_image": "Clannad_771960",
    "count_view": 0
  },
  {
    "link_thumb": "https://live.staticflickr.com/65535/47952313997_0a4b44c2f0_n.jpg",
    "id_album": "106293676",
    "description": "Clannad_808375,[isGirlAnime],[isCuteAnime],[isGirlsLoliAnime],[Clannad]",
    "title": "Clannad_808375",
    "link_img": "https://live.staticflickr.com/65535/47952313997_06494a25ec_o.jpg",
    "id_image": "Clannad_808375",
    "count_view": 0
  },
  {
    "link_thumb": "https://live.staticflickr.com/65535/47952336013_cc064ecd29_n.jpg",
    "id_album": "106293676",
    "description": "Clannad_842101,[isGirlAnime],[isCuteAnime],[isGirlsHatsHoodieAnime],[isGirlsLoliAnime],[Clannad]",
    "title": "Clannad_842101",
    "link_img": "https://live.staticflickr.com/65535/47952336013_fa564d6690_o.jpg",
    "id_image": "Clannad_842101",
    "count_view": 0
  },
  {
    "link_thumb": "https://live.staticflickr.com/65535/47952319217_1d1e0b3b05_n.jpg",
    "id_album": "106293676",
    "description": "Clannad_842121,[isGirlAnime],[isCuteAnime],[Clannad]",
    "title": "Clannad_842121",
    "link_img": "https://live.staticflickr.com/65535/47952319217_7eb6515985_o.jpg",
    "id_image": "Clannad_842121",
    "count_view": 0
  },
  {
    "link_thumb": "https://live.staticflickr.com/65535/47952341753_9fddbd30fe_n.jpg",
    "id_album": "106293676",
    "description": "Clannad_84951,[isGirlAnime],[isCuteAnime],[Clannad]",
    "title": "Clannad_84951",
    "link_img": "https://live.staticflickr.com/65535/47952341753_7eed27fd38_o.jpg",
    "id_image": "Clannad_84951",
    "count_view": 0
  },
  {
    "link_thumb": "https://live.staticflickr.com/65535/47952333007_19e96f37db_n.jpg",
    "id_album": "106293676",
    "description": "Clannad_957189,[isGirlAnime],[isBoyAnime],[isCuteAnime],[isGirlsLoliAnime],[Clannad]",
    "title": "Clannad_957189",
    "link_img": "https://live.staticflickr.com/65535/47952333007_66653813c6_o.jpg",
    "id_image": "Clannad_957189",
    "count_view": 0
  },
  {
    "link_thumb": "https://live.staticflickr.com/65535/47952377621_ca8cee1be3_n.jpg",
    "id_album": "106293676",
    "description": "Clannad_959984,[isGirlAnime],[isCuteAnime],[isGirlsHatsHoodieAnime],[isGirlsLoliAnime],[Clannad]",
    "title": "Clannad_959984",
    "link_img": "https://live.staticflickr.com/65535/47952377621_367ed28d0f_o.jpg",
    "id_image": "Clannad_959984",
    "count_view": 0
  }
]