[
  {
    "link_thumb": "https://live.staticflickr.com/65535/48059771182_1bb2a1e6a7_n.jpg",
    "id_album": "310370692",
    "description": "TheiDOLMSTERCinderellaGirls_849440",
    "title": "TheiDOLMSTERCinderellaGirls_849440",
    "link_img": "https://live.staticflickr.com/65535/48059771182_3a116614c1_o.jpg",
    "id_image": "TheiDOLMSTERCinderellaGirls_849440",
    "count_view": 0
  },
  {
    "link_thumb": "https://live.staticflickr.com/65535/48059738578_10af189170_n.jpg",
    "id_album": "310370692",
    "description": "TheiDOLMSTERCinderellaGirls_903261",
    "title": "TheiDOLMSTERCinderellaGirls_903261",
    "link_img": "https://live.staticflickr.com/65535/48059738578_48ebe7cbea_o.jpg",
    "id_image": "TheiDOLMSTERCinderellaGirls_903261",
    "count_view": 0
  },
  {
    "link_thumb": "https://live.staticflickr.com/65535/48059778938_551503ab48_n.jpg",
    "id_album": "310370692",
    "description": "THEiDOLMSTERMillionLive_864542",
    "title": "THEiDOLMSTERMillionLive_864542",
    "link_img": "https://live.staticflickr.com/65535/48059778938_37e92fe337_o.jpg",
    "id_image": "THEiDOLMSTERMillionLive_864542",
    "count_view": 0
  }
]