[
  {
    "total_img": 482,
    "number_page": 3,
    "title": "Original 9",
    "tag": "Water, Ball, Green Hair, Creature, Straw Hat, Shield, Wink, Black Hair, Staff, High Heels, Weapon, Sofa, Seaweed, Helmet, Lonely Tree, Swing, Shorts, Umbrella, Bikini, Street, Fence, Rifle, Bike, Cup, Arrow, Space, Glove, Smile, Spring, Sun, Sea, Park, Skirt, Comet, Bunny Ears, Clockwork, Dagger, Top Hat, Sunny, Building, Torii, Cake, Traffic, Machine, Japanese Clothes, Star, Tail, Stairs, Yuri, Feather, Fish, Ocean, Tablet, Wolf, Face, Food, Window, Original Anime, Nekomimi, Blue, Brown Hair, Chocolate, Ice, Pink Hair, Starry Sky, Tie, Blue Eyes, Hoodie, Wrist Watch, Teddy Bear, Ghost, Boots, Hat, Animal Ears, Ice Cream, Green Eyes, Pumpkin, Stars, Scythe, Paw, Underwater, Snowfall, Long Hair, Vehicle, Thigh Highs, Beach, Winter, Rooftop, Light, Kimono, Desk, Heterochromia, Camera, Festival, Turtle, Purple Hair, Oriental, Cute, Tea Cup, Stuffed Animal, Bodysuit, Puppy, Fox, Aqua Hair, Happy Halloween, Biplane, Glasses, Keith Voltron, Poro, Heckler  Koch MP5, Sunflower, Bridge, Bunny, Laptop, Bird, Light Bulb, Sitting, Gas Mask, War, Musical Note, Rocket, Blonde, Twintails, School, Plant, Mountain, orange Color, Rainbow, Armor, Classroom, Onmyoji, Phoenix, Room, Katana, Scenery, People, Apron, Pink Eyes, School Uniform, 5 Nenme no Houkago, Cape, Battlefield 1, Gothic, Sniper, Ruin, Sunset, Airplane, Jellyfish, Candle, Dust, Sleeping, Pointed Ears, Grey Hair, Blimp, Lying Down, Broomstick, Blossom, Robot, Tears, Sky, Moon, Colorful, Dolphin, Shark, Balloon, Lipstick, Schoolgirl, Sword, Shirt, Ribbon, White Hair, Book, Pistol, Fangs, Horns, Braid, Planet, Dog, Child, Earrings, Gun, Jacket, Purple Eyes, Cold, Scarf, Violinist, Mask, Shrub, Reflection, Witch Hat, House, Tank, Red Hair, Aqua Eyes, Sci Fi, Cosplay, Volcano, Wave, Flying, Mood, Colors, Blush, Belt, Pantyhose, Animal, Hamster, Chain, Lantern, Original 9, Water Lily, Evening, Aurora Borealis, Silhouette, Doll, Wings, Sunbeam, Leaf, Fireworks, Guitar, Railroad, Road, Text, Controller, Gift, Teapot, Sunlight, Hydrangea, Steampunk, Lance Voltron, Halloween, Pancake, Night, Snow, Tomoe Gozen FateGrand Order, Digital Art, Summer, Uniform, Lake, Grass, Bleached Eyes, Brunette, Bubble, Rain, Anime, Bandage, Horse, Candy, Tree, Woman, Coat, Cafe, Samurai, Violin, Bosque, Yellow Eyes, Sakura, Boy, Red Eyes, Piano, Car, Dark, Mage, Cat, Fantasy, Fall, Giant, Ponytail, Fairy, Greenery, Steps, Bench, Orange Eyes, Cherry Blossom, Butterfly, Cross, Sunshine, Octaviagrace, Dinosaur, Phone, bow Clothing, Horizon, Short Hair, Necklace, Flower, Dress, Cat Girl, Fruit, Brown Eyes, Magic, Bag, Maid, Spirit, Door, Blue Hair, Whale, Bat, Treehouse, Costume, Cloud, Paper, Skull, Wizard, Yukata, Aircraft, Petal",
    "description": "Original 9",
    "link_thumb": "https://live.staticflickr.com/65535/48079963626_5f38bf7480_n.jpg",
    "id_album": "1165379038",
    "total_view": 482
  },
  {
    "total_img": 111,
    "number_page": 1,
    "title": "Bird",
    "tag": "Bird,",
    "description": "Bird",
    "link_thumb": "https://live.staticflickr.com/65535/48066344622_9137ffb0ba_n.jpg",
    "id_album": "-1846011410",
    "total_view": 111
  },
  {
    "total_img": 771,
    "number_page": 4,
    "title": "Blonde",
    "tag": "Blonde,",
    "description": "Blonde",
    "link_thumb": "https://live.staticflickr.com/65535/48066912028_16d8f475b6_n.jpg",
    "id_album": "-768622073",
    "total_view": 771
  },
  {
    "total_img": 234,
    "number_page": 2,
    "title": "Cloud",
    "tag": "Cloud,",
    "description": "Cloud",
    "link_thumb": "https://live.staticflickr.com/65535/48066759286_633ba4266f_n.jpg",
    "id_album": "-1193819610",
    "total_view": 234
  },
  {
    "total_img": 240,
    "number_page": 2,
    "title": "Sky",
    "tag": "Sky,",
    "description": "Sky",
    "link_thumb": "https://live.staticflickr.com/65535/48066759286_633ba4266f_n.jpg",
    "id_album": "-1694039926",
    "total_view": 240
  },
  {
    "total_img": 103,
    "number_page": 1,
    "title": "Sunset",
    "tag": "Sunset,",
    "description": "Sunset",
    "link_thumb": "https://live.staticflickr.com/65535/48065811356_5329d395c0_n.jpg",
    "id_album": "773148508",
    "total_view": 103
  }
]