[
  {
    "link_thumb": "https://live.staticflickr.com/65535/47102111924_d928f79946_n.jpg",
    "id_album": "-1836726037",
    "description": "AliceInWonderland_290389",
    "title": "AliceInWonderland_290389",
    "link_img": "https://live.staticflickr.com/65535/47102111924_571ed33768_o.jpg",
    "id_image": "AliceInWonderland_290389",
    "count_view": 0
  },
  {
    "link_thumb": "https://live.staticflickr.com/65535/48078181213_69998d32d6_n.jpg",
    "id_album": "-1836726037",
    "description": "Original_848252",
    "title": "Original_848252",
    "link_img": "https://live.staticflickr.com/65535/48078181213_a62661c890_o.jpg",
    "id_image": "Original_848252",
    "count_view": 0
  },
  {
    "link_thumb": "https://live.staticflickr.com/65535/48053457428_88b35ca9ee_n.jpg",
    "id_album": "-1836726037",
    "description": "ReZEROStartingLifeinAnotherWorld_935035",
    "title": "ReZEROStartingLifeinAnotherWorld_935035",
    "link_img": "https://live.staticflickr.com/65535/48053457428_d6321bebd7_o.jpg",
    "id_image": "ReZEROStartingLifeinAnotherWorld_935035",
    "count_view": 0
  }
]