[
  {
    "link_thumb": "https://live.staticflickr.com/65535/48089364017_9bcdec5a8e_n.jpg",
    "id_album": "84764597",
    "description": "DiabolikLovers_551468,[isBoyAnime],[isSadAnime],[isSadAnimeBoy],[isBlackAnime],[Diabolik Lovers],[DiabolikLovers]",
    "title": "DiabolikLovers_551468",
    "link_img": "https://live.staticflickr.com/65535/48089364017_b3da815a3a_o.jpg",
    "id_image": "DiabolikLovers_551468",
    "count_view": 0
  },
  {
    "link_thumb": "https://live.staticflickr.com/65535/48089303703_7ff3861356_n.jpg",
    "id_album": "84764597",
    "description": "DiabolikLovers_693721,[isBoyAnime],[isSadAnime],[isSadAnimeBoy],[isBlackAnime],[Diabolik Lovers],[DiabolikLovers]",
    "title": "DiabolikLovers_693721",
    "link_img": "https://live.staticflickr.com/65535/48089303703_03db038c6e_o.jpg",
    "id_image": "DiabolikLovers_693721",
    "count_view": 0
  },
  {
    "link_thumb": "https://live.staticflickr.com/65535/48089270431_4b600df37b_n.jpg",
    "id_album": "84764597",
    "description": "DiabolikLovers_756862,[isGirlAnime],[isSadAnime],[isSadAnimeGirl],[isCuteAnime],[isGirlsLoliAnime],[Diabolik Lovers],[DiabolikLovers]",
    "title": "DiabolikLovers_756862",
    "link_img": "https://live.staticflickr.com/65535/48089270431_bfbaed8d5f_o.jpg",
    "id_image": "DiabolikLovers_756862",
    "count_view": 0
  },
  {
    "link_thumb": "https://live.staticflickr.com/65535/48089270616_8f0f4da8fb_n.jpg",
    "id_album": "84764597",
    "description": "DiabolikLovers_814004,[isBoyAnime],[isSadAnime],[isSadAnimeBoy],[isBlackAnime],[Diabolik Lovers],[DiabolikLovers]",
    "title": "DiabolikLovers_814004",
    "link_img": "https://live.staticflickr.com/65535/48089270616_454d0dd23c_o.jpg",
    "id_image": "DiabolikLovers_814004",
    "count_view": 0
  },
  {
    "link_thumb": "https://live.staticflickr.com/65535/48089272706_7750a3212c_n.jpg",
    "id_album": "84764597",
    "description": "DiabolikLovers_954878,[isBoyAnime],[isSadAnime],[isSadAnimeBoy],[isBlackAnime],[Diabolik Lovers],[DiabolikLovers]",
    "title": "DiabolikLovers_954878",
    "link_img": "https://live.staticflickr.com/65535/48089272706_33f73d55b4_o.jpg",
    "id_image": "DiabolikLovers_954878",
    "count_view": 0
  }
]