[
  {
    "total_img": 102,
    "number_page": 1,
    "title": "Aokana Four Rhythm Across the Blue",
    "tag": "Purple Eyes, Saki Inui, Mashiro Arisaka, Masaya Hinata, Misaki Tobisawa, Aoi Kagami, Reiko Satouin, Maid, Aokana Four Rhythm Across the Blue, Blonde, Long Hair, Twintails, Asuka Kurashina, Blush, bow Clothing, Madoka Aoyagi, Irina Avalon, Rika Ichinose",
    "description": "Aokana Four Rhythm Across the Blue",
    "link_thumb": "https://live.staticflickr.com/65535/46976860375_3ff6862e83_n.jpg",
    "id_album": "-674917297",
    "total_view": 102
  },
  {
    "total_img": 19,
    "number_page": 1,
    "title": "Asuka Kurashina",
    "tag": "Asuka Kurashina,",
    "description": "Asuka Kurashina",
    "link_thumb": "https://live.staticflickr.com/65535/46976997365_02a7cb0783_n.jpg",
    "id_album": "-192821923",
    "total_view": 19
  },
  {
    "total_img": 21,
    "number_page": 1,
    "title": "Mashiro Arisaka",
    "tag": "Mashiro Arisaka,",
    "description": "Mashiro Arisaka",
    "link_thumb": "https://live.staticflickr.com/65535/47841014432_6126665642_n.jpg",
    "id_album": "-1168711922",
    "total_view": 21
  },
  {
    "total_img": 23,
    "number_page": 1,
    "title": "Misaki Tobisawa",
    "tag": "Misaki Tobisawa,",
    "description": "Misaki Tobisawa",
    "link_thumb": "https://live.staticflickr.com/65535/47103766634_7b8a572be4_n.jpg",
    "id_album": "-756723672",
    "total_view": 23
  }
]