[
  {
    "total_img": 5,
    "number_page": 1,
    "title": "To LoveRu Darkness",
    "tag": "Pink Dress, Green Eyes, Nemesis To LOVERu, Sitting, Socks, Momo Velia Deviluke, Nana Astar Deviluke, Blonde, Long Hair, Hairpin, Thigh Highs, Anime, Shirt, To LOVERu Darkness, Kimono, bow Clothing, Tail, Shorts, Short Hair, Braid, Mea Kurosaki, Lala Satalin Deviluke, Fireworks, Yui Kotegawa, Cup, Haruna Sairenji, Rito Yuuki, Purple Hair, Dress, To LoveRu Darkness, Mikan Yuuki, Shizu Murasame, Pink Eyes, Pink Hair, Maid, School Uniform, Smile, Red Hair, Red Eyes, Skirt, Sunset, Blush, Golden Darkness, Cloud, To LoveRu",
    "description": "To LoveRu Darkness",
    "link_thumb": "https://live.staticflickr.com/65535/48060242571_24c4497550_n.jpg",
    "id_album": "-1244183674",
    "total_view": 5
  },
  {
    "total_img": 8,
    "number_page": 1,
    "title": "Momo Velia Deviluke",
    "tag": "Momo Velia Deviluke,",
    "description": "Momo Velia Deviluke",
    "link_thumb": "https://live.staticflickr.com/65535/48060288963_716df05f17_n.jpg",
    "id_album": "-114931452",
    "total_view": 8
  },
  {
    "total_img": 295,
    "number_page": 2,
    "title": "Pink Hair",
    "tag": "Pink Hair,",
    "description": "Pink Hair",
    "link_thumb": "https://live.staticflickr.com/65535/48066953706_2771a62522_n.jpg",
    "id_album": "-30741026",
    "total_view": 295
  },
  {
    "total_img": 70,
    "number_page": 1,
    "title": "Tail",
    "tag": "Tail,",
    "description": "Tail",
    "link_thumb": "https://live.staticflickr.com/65535/48064094668_db9c1dae87_n.jpg",
    "id_album": "1605126713",
    "total_view": 70
  }
]