[
  {
    "total_img": 21,
    "number_page": 1,
    "title": "THE iDOLMSTER Million Live",
    "tag": "Reika Kitakami, Konomi Baba, Mizuki Makabe, Emily Stewart, Iku Nakatani, Elena Shimabara, Kana Yabuki, THE iDOLMSTER Million Live, Serika Hakozaki, Matsuri Tokugawa, Hibiki Ganaha, Tsubasa Ibuki, Miya Miyao, Kotoha Tanaka, Sayoko Takayama, Haruka Amami, Ayumu Maihama, Azusa Miura, Arisa Matsuda, Anna Mochizuki, Ami Futami, Shizuka Mogami, Chihaya Kisaragi, Megumi Tokoro, Subaru Nagayoshi, Kaori Sakuramori, Nao Yokoyama, Minako Satake, Tomoka Tenkubashi, Yuriko Nanao, Tsumugi Shiraishi, Yukiho Hagiwara, Momoko Suou, Miki Hoshii, Shiho Kitazawa, Mirai Kasuga, Akane Nonohara",
    "description": "THE iDOLMSTER Million Live",
    "link_thumb": "https://live.staticflickr.com/65535/48059827392_ed160154d8_n.jpg",
    "id_album": "-1771674422",
    "total_view": 21
  },
  {
    "total_img": 25,
    "number_page": 1,
    "title": "Haruka Amami",
    "tag": "Haruka Amami,",
    "description": "Haruka Amami",
    "link_thumb": "https://live.staticflickr.com/65535/48059709117_9588d02a17_n.jpg",
    "id_album": "-1470294598",
    "total_view": 25
  }
]