[
  {
    "link_thumb": "https://live.staticflickr.com/65535/47983061223_0581c58124_n.jpg",
    "id_album": "1187722797",
    "description": "Fortissimo_853075",
    "title": "Fortissimo_853075",
    "link_img": "https://live.staticflickr.com/65535/47983061223_d6903bbae4_o.jpg",
    "id_image": "Fortissimo_853075",
    "count_view": 0
  },
  {
    "link_thumb": "https://live.staticflickr.com/65535/47983069937_3dd76c729f_n.jpg",
    "id_album": "1187722797",
    "description": "Fortissimo_853098",
    "title": "Fortissimo_853098",
    "link_img": "https://live.staticflickr.com/65535/47983069937_b4ffd95270_o.jpg",
    "id_image": "Fortissimo_853098",
    "count_view": 0
  }
]