[
  {
    "total_img": 6163,
    "number_page": 31,
    "title": "Girls Hats Hoodie",
    "tag": "Girls Hats Hoodie,",
    "description": "Girls Hats Hoodie",
    "link_thumb": "https://live.staticflickr.com/65535/49998137463_3c222b8f53_n.jpg",
    "id_album": "1409782213",
    "total_view": 6163
  },
  {
    "total_img": 1012,
    "number_page": 6,
    "title": "Girls Kimono Yukata Cheongsam",
    "tag": "Girls Kimono Yukata Cheongsam,",
    "description": "Girls Kimono Yukata Cheongsam",
    "link_thumb": "https://live.staticflickr.com/65535/50016508376_e4bb0bf7e3_n.jpg",
    "id_album": "489994677",
    "total_view": 1012
  },
  {
    "total_img": 296,
    "number_page": 2,
    "title": "Girls Water Rain",
    "tag": "Girls Water Rain,",
    "description": "Girls Water Rain",
    "link_thumb": "https://live.staticflickr.com/65535/50152183536_82f938c093_n.jpg",
    "id_album": "621451164",
    "total_view": 296
  }
]