[
  {
    "link_thumb": "https://live.staticflickr.com/65535/51545740886_96ee873ca2_n.jpg",
    "id_album": "-316663319",
    "description": "ANIME_PIC_a5e80f1f8e756b4773d158b740b3c52a,[Girl],[isGirlAnime],[isCuteAnime],[isSadAnimeGirl],[isSadAnime]",
    "title": "ANIME_PIC_a5e80f1f8e756b4773d158b740b3c52a",
    "link_img": "https://live.staticflickr.com/65535/51545740886_aec44a1d1d_o.jpg",
    "id_image": "ANIME_PIC_a5e80f1f8e756b4773d158b740b3c52a",
    "count_view": 0
  },
  {
    "link_thumb": "https://live.staticflickr.com/65535/51545741311_225a613250_n.jpg",
    "id_album": "-316663319",
    "description": "ANIME_PIC_a5e83c91f070b4ac25d19450d8d91843,[Girl],[isGirlAnime],[isCuteAnime],[isGirlEarsNekoAnime],[isGirlsHatsHoodieAnime],[isGirlsLoliAnime],[isSadAnimeGirl],[isSadAnime]",
    "title": "ANIME_PIC_a5e83c91f070b4ac25d19450d8d91843",
    "link_img": "https://live.staticflickr.com/65535/51545741311_092b4f8c08_o.jpg",
    "id_image": "ANIME_PIC_a5e83c91f070b4ac25d19450d8d91843",
    "count_view": 0
  },
  {
    "link_thumb": "https://live.staticflickr.com/65535/51544944557_2184c3dc63_n.jpg",
    "id_album": "-316663319",
    "description": "ANIME_PIC_a5ee0eeae80a0d0468cb7c65703e2939,[Girl],[isGirlAnime],[isCuteAnime],[isGirlsHatsHoodieAnime]",
    "title": "ANIME_PIC_a5ee0eeae80a0d0468cb7c65703e2939",
    "link_img": "https://live.staticflickr.com/65535/51544944557_64433486bd_o.png",
    "id_image": "ANIME_PIC_a5ee0eeae80a0d0468cb7c65703e2939",
    "count_view": 0
  },
  {
    "link_thumb": "https://live.staticflickr.com/65535/51544945307_870acb69bb_n.jpg",
    "id_album": "-316663319",
    "description": "ANIME_PIC_a5f592d52ea143a49c94c6b98fb6086f,[Girl],[isGirlAnime],[isCuteAnime],[isGirlEarsNekoAnime],[isGirlsHatsHoodieAnime],[isGirlsLoliAnime]",
    "title": "ANIME_PIC_a5f592d52ea143a49c94c6b98fb6086f",
    "link_img": "https://live.staticflickr.com/65535/51544945307_588f144b26_o.png",
    "id_image": "ANIME_PIC_a5f592d52ea143a49c94c6b98fb6086f",
    "count_view": 0
  },
  {
    "link_thumb": "https://live.staticflickr.com/65535/51546469399_58fd4bffcc_n.jpg",
    "id_album": "-316663319",
    "description": "ANIME_PIC_a5f95cdba09970d5bc58cf4215dd2676,[Girl],[isGirlAnime],[isCuteAnime],[isSadAnimeGirl],[isSadAnime]",
    "title": "ANIME_PIC_a5f95cdba09970d5bc58cf4215dd2676",
    "link_img": "https://live.staticflickr.com/65535/51546469399_88cc391bba_o.jpg",
    "id_image": "ANIME_PIC_a5f95cdba09970d5bc58cf4215dd2676",
    "count_view": 0
  },
  {
    "link_thumb": "https://live.staticflickr.com/65535/51545743301_8ec15265f2_n.jpg",
    "id_album": "-316663319",
    "description": "ANIME_PIC_a5fa90cb356fddf7bc7e429bc2edd332,[Girl],[isGirlAnime],[isCuteAnime],[isGirlFaceMasksAnime],[isGirlsLoliAnime]",
    "title": "ANIME_PIC_a5fa90cb356fddf7bc7e429bc2edd332",
    "link_img": "https://live.staticflickr.com/65535/51545743301_11f1e99505_o.jpg",
    "id_image": "ANIME_PIC_a5fa90cb356fddf7bc7e429bc2edd332",
    "count_view": 0
  },
  {
    "link_thumb": "https://live.staticflickr.com/65535/51545743731_9825a82bff_n.jpg",
    "id_album": "-316663319",
    "description": "ANIME_PIC_a5fef19cbb9f99626a45cf6996544dd6,[Girl],[isGirlAnime],[isCuteAnime],[isGirlsLoliAnime]",
    "title": "ANIME_PIC_a5fef19cbb9f99626a45cf6996544dd6",
    "link_img": "https://live.staticflickr.com/65535/51545743731_92db658cb5_o.jpg",
    "id_image": "ANIME_PIC_a5fef19cbb9f99626a45cf6996544dd6",
    "count_view": 0
  },
  {
    "link_thumb": "https://live.staticflickr.com/65535/51544947062_e9a5a818fc_n.jpg",
    "id_album": "-316663319",
    "description": "ANIME_PIC_a600444cd8a2c662da2fe8d863914ab8,[Girl],[isGirlAnime],[isCuteAnime],[isGirlsLoliAnime],[isSadAnimeGirl],[isSadAnime]",
    "title": "ANIME_PIC_a600444cd8a2c662da2fe8d863914ab8",
    "link_img": "https://live.staticflickr.com/65535/51544947062_e1081d38e9_o.jpg",
    "id_image": "ANIME_PIC_a600444cd8a2c662da2fe8d863914ab8",
    "count_view": 0
  },
  {
    "link_thumb": "https://live.staticflickr.com/65535/51545744346_03dc57dc03_n.jpg",
    "id_album": "-316663319",
    "description": "ANIME_PIC_a600e2be484aa29084826dac37124d2c,[Girl],[isGirlAnime],[isCuteAnime],[isGirlsHatsHoodieAnime],[isGirlsLoliAnime]",
    "title": "ANIME_PIC_a600e2be484aa29084826dac37124d2c",
    "link_img": "https://live.staticflickr.com/65535/51545744346_8e55e841b4_o.png",
    "id_image": "ANIME_PIC_a600e2be484aa29084826dac37124d2c",
    "count_view": 0
  },
  {
    "link_thumb": "https://live.staticflickr.com/65535/51546471469_c5139c3d69_n.jpg",
    "id_album": "-316663319",
    "description": "ANIME_PIC_a6025e7475431660c34e3e8beb33f13d,[Girl],[isGirlAnime],[isCuteAnime],[isBlackAnime],[isSadAnimeGirl],[isSadAnime]",
    "title": "ANIME_PIC_a6025e7475431660c34e3e8beb33f13d",
    "link_img": "https://live.staticflickr.com/65535/51546471469_6e183a8ebd_o.png",
    "id_image": "ANIME_PIC_a6025e7475431660c34e3e8beb33f13d",
    "count_view": 0
  },
  {
    "link_thumb": "https://live.staticflickr.com/65535/51544948477_2791aab415_n.jpg",
    "id_album": "-316663319",
    "description": "ANIME_PIC_a6035f14ee2320f150393841ce3997cf,[Girl],[isGirlAnime],[isCuteAnime]",
    "title": "ANIME_PIC_a6035f14ee2320f150393841ce3997cf",
    "link_img": "https://live.staticflickr.com/65535/51544948477_c4ef442087_o.jpg",
    "id_image": "ANIME_PIC_a6035f14ee2320f150393841ce3997cf",
    "count_view": 0
  },
  {
    "link_thumb": "https://live.staticflickr.com/65535/51545988613_408e203403_n.jpg",
    "id_album": "-316663319",
    "description": "ANIME_PIC_a603ff258ab1b94fd3ebeb52fd55342b,[Girl],[isGirlAnime],[isCuteAnime],[isGirlsLoliAnime],[isSadAnimeGirl],[isSadAnime]",
    "title": "ANIME_PIC_a603ff258ab1b94fd3ebeb52fd55342b",
    "link_img": "https://live.staticflickr.com/65535/51545988613_4d9b3bc8d7_o.jpg",
    "id_image": "ANIME_PIC_a603ff258ab1b94fd3ebeb52fd55342b",
    "count_view": 0
  },
  {
    "link_thumb": "https://live.staticflickr.com/65535/51545988968_85bd9d28a6_n.jpg",
    "id_album": "-316663319",
    "description": "ANIME_PIC_a6044902c8bb84a34fd6676c635ba248,[Girl],[isGirlAnime],[isCuteAnime],[isGirlsHatsHoodieAnime],[isGirlsLoliAnime],[isSadAnimeGirl],[isSadAnime]",
    "title": "ANIME_PIC_a6044902c8bb84a34fd6676c635ba248",
    "link_img": "https://live.staticflickr.com/65535/51545988968_2854d2729a_o.png",
    "id_image": "ANIME_PIC_a6044902c8bb84a34fd6676c635ba248",
    "count_view": 0
  },
  {
    "link_thumb": "https://live.staticflickr.com/65535/51544949752_23d1c3c352_n.jpg",
    "id_album": "-316663319",
    "description": "ANIME_PIC_a606dadffacd06d2fd062e3ae7eab472,[Girl],[isGirlAnime],[isCuteAnime],[isGirlsLoliAnime]",
    "title": "ANIME_PIC_a606dadffacd06d2fd062e3ae7eab472",
    "link_img": "https://live.staticflickr.com/65535/51544949752_bf026bb92e_o.jpg",
    "id_image": "ANIME_PIC_a606dadffacd06d2fd062e3ae7eab472",
    "count_view": 0
  },
  {
    "link_thumb": "https://live.staticflickr.com/65535/51545989898_3e9f2c51b1_n.jpg",
    "id_album": "-316663319",
    "description": "ANIME_PIC_a60758294639619b5d04f8e6098d3073,[Girl],[isGirlAnime],[isCuteAnime],[isGirlsLoliAnime]",
    "title": "ANIME_PIC_a60758294639619b5d04f8e6098d3073",
    "link_img": "https://live.staticflickr.com/65535/51545989898_24778bdc8c_o.jpg",
    "id_image": "ANIME_PIC_a60758294639619b5d04f8e6098d3073",
    "count_view": 0
  },
  {
    "link_thumb": "https://live.staticflickr.com/65535/51544950387_ff9b33c646_n.jpg",
    "id_album": "-316663319",
    "description": "ANIME_PIC_a6086a85cdcf2f03838413d9a825b02e,[Girl],[isGirlAnime],[isCuteAnime],[isGirlsHatsHoodieAnime],[isGirlsLoliAnime]",
    "title": "ANIME_PIC_a6086a85cdcf2f03838413d9a825b02e",
    "link_img": "https://live.staticflickr.com/65535/51544950387_c9c008b765_o.jpg",
    "id_image": "ANIME_PIC_a6086a85cdcf2f03838413d9a825b02e",
    "count_view": 0
  },
  {
    "link_thumb": "https://live.staticflickr.com/65535/51544950782_ccaa4ff215_n.jpg",
    "id_album": "-316663319",
    "description": "ANIME_PIC_a60a5feefa6e595de9decca7bdf43e4b,[Girl],[isGirlAnime],[isCuteAnime]",
    "title": "ANIME_PIC_a60a5feefa6e595de9decca7bdf43e4b",
    "link_img": "https://live.staticflickr.com/65535/51544950782_09918412fc_o.jpg",
    "id_image": "ANIME_PIC_a60a5feefa6e595de9decca7bdf43e4b",
    "count_view": 0
  },
  {
    "link_thumb": "https://live.staticflickr.com/65535/51546671710_e6414478d8_n.jpg",
    "id_album": "-316663319",
    "description": "ANIME_PIC_a60cdfa968714c3876248e870cd23c04,[Girl],[isGirlAnime],[isCuteAnime],[isGirlsHatsHoodieAnime],[isGirlsLoliAnime]",
    "title": "ANIME_PIC_a60cdfa968714c3876248e870cd23c04",
    "link_img": "https://live.staticflickr.com/65535/51546671710_5b58a35707_o.png",
    "id_image": "ANIME_PIC_a60cdfa968714c3876248e870cd23c04",
    "count_view": 0
  },
  {
    "link_thumb": "https://live.staticflickr.com/65535/51545991508_cebb166f75_n.jpg",
    "id_album": "-316663319",
    "description": "ANIME_PIC_a60cf03e2e26175e2dd79fd442e654c0,[Girl],[isGirlAnime],[isCuteAnime],[isGirlsLoliAnime]",
    "title": "ANIME_PIC_a60cf03e2e26175e2dd79fd442e654c0",
    "link_img": "https://live.staticflickr.com/65535/51545991508_a7dce81377_o.jpg",
    "id_image": "ANIME_PIC_a60cf03e2e26175e2dd79fd442e654c0",
    "count_view": 0
  },
  {
    "link_thumb": "https://live.staticflickr.com/65535/51544951862_43b32b2e70_n.jpg",
    "id_album": "-316663319",
    "description": "ANIME_PIC_a60d13557a91f3551594d351dce810ad,[Girl],[isGirlAnime],[isCuteAnime],[isGirlsLoliAnime]",
    "title": "ANIME_PIC_a60d13557a91f3551594d351dce810ad",
    "link_img": "https://live.staticflickr.com/65535/51544951862_c490ea33ab_o.png",
    "id_image": "ANIME_PIC_a60d13557a91f3551594d351dce810ad",
    "count_view": 0
  },
  {
    "link_thumb": "https://live.staticflickr.com/65535/51546672930_6365f95dc4_n.jpg",
    "id_album": "-316663319",
    "description": "ANIME_PIC_a612d0e1c53ec5209515bb6428f75965,[Girl],[isGirlAnime],[isCuteAnime],[isGirlsLoliAnime]",
    "title": "ANIME_PIC_a612d0e1c53ec5209515bb6428f75965",
    "link_img": "https://live.staticflickr.com/65535/51546672930_dc79625375_o.png",
    "id_image": "ANIME_PIC_a612d0e1c53ec5209515bb6428f75965",
    "count_view": 0
  },
  {
    "link_thumb": "https://live.staticflickr.com/65535/51545992923_bd03ab6f3d_n.jpg",
    "id_album": "-316663319",
    "description": "ANIME_PIC_a6169d72d3c2d69fb960e2e02b4620d1,[Girl],[isGirlAnime],[isCuteAnime],[isBlackAnime],[isGirlsHatsHoodieAnime],[isGirlsLoliAnime]",
    "title": "ANIME_PIC_a6169d72d3c2d69fb960e2e02b4620d1",
    "link_img": "https://live.staticflickr.com/65535/51545992923_bb91690e4d_o.png",
    "id_image": "ANIME_PIC_a6169d72d3c2d69fb960e2e02b4620d1",
    "count_view": 0
  },
  {
    "link_thumb": "https://live.staticflickr.com/65535/51546673970_4af8bd374f_n.jpg",
    "id_album": "-316663319",
    "description": "ANIME_PIC_a617fe598f24cf5b6cd9bd9a94e776dc,[Girl],[isGirlAnime],[isCuteAnime],[isGirlsLoliAnime]",
    "title": "ANIME_PIC_a617fe598f24cf5b6cd9bd9a94e776dc",
    "link_img": "https://live.staticflickr.com/65535/51546673970_0fa3a2048c_o.jpg",
    "id_image": "ANIME_PIC_a617fe598f24cf5b6cd9bd9a94e776dc",
    "count_view": 0
  },
  {
    "link_thumb": "https://live.staticflickr.com/65535/51545751121_18b0d63cc6_n.jpg",
    "id_album": "-316663319",
    "description": "ANIME_PIC_a619941edcebc00f2412fdb6e0765ecc,[Girl],[isGirlAnime],[isCuteAnime],[isGirlsLoliAnime],[isGirlsSharpCanineToothAnime]",
    "title": "ANIME_PIC_a619941edcebc00f2412fdb6e0765ecc",
    "link_img": "https://live.staticflickr.com/65535/51545751121_c0e2ce8d42_o.jpg",
    "id_image": "ANIME_PIC_a619941edcebc00f2412fdb6e0765ecc",
    "count_view": 0
  },
  {
    "link_thumb": "https://live.staticflickr.com/65535/51545994443_a85eda49ee_n.jpg",
    "id_album": "-316663319",
    "description": "ANIME_PIC_a61cc12bec4e7df8fd32c7b94f2111f0,[Girl],[isGirlAnime],[isCuteAnime],[isGirlsLoliAnime]",
    "title": "ANIME_PIC_a61cc12bec4e7df8fd32c7b94f2111f0",
    "link_img": "https://live.staticflickr.com/65535/51545994443_1cb60046f9_o.jpg",
    "id_image": "ANIME_PIC_a61cc12bec4e7df8fd32c7b94f2111f0",
    "count_view": 0
  },
  {
    "link_thumb": "https://live.staticflickr.com/65535/51546675105_ac80dca64d_n.jpg",
    "id_album": "-316663319",
    "description": "ANIME_PIC_a61e71b51bb6b15cea40ae52e48bf51d,[Girl],[isGirlAnime],[isCuteAnime],[isGirlEarsNekoAnime]",
    "title": "ANIME_PIC_a61e71b51bb6b15cea40ae52e48bf51d",
    "link_img": "https://live.staticflickr.com/65535/51546675105_cafaa68bfe_o.jpg",
    "id_image": "ANIME_PIC_a61e71b51bb6b15cea40ae52e48bf51d",
    "count_view": 0
  },
  {
    "link_thumb": "https://live.staticflickr.com/65535/51546675445_44547069aa_n.jpg",
    "id_album": "-316663319",
    "description": "ANIME_PIC_a623ce9198278327f340d6dd586fb9b4,[Girl],[isGirlAnime],[isCuteAnime],[isGirlsLoliAnime]",
    "title": "ANIME_PIC_a623ce9198278327f340d6dd586fb9b4",
    "link_img": "https://live.staticflickr.com/65535/51546675445_2cbb18dddb_o.jpg",
    "id_image": "ANIME_PIC_a623ce9198278327f340d6dd586fb9b4",
    "count_view": 0
  },
  {
    "link_thumb": "https://live.staticflickr.com/65535/51546479174_ee6b0dbfdf_n.jpg",
    "id_album": "-316663319",
    "description": "ANIME_PIC_a625444f282add9431431e1599c9def1,[Girl],[isGirlAnime],[isCuteAnime]",
    "title": "ANIME_PIC_a625444f282add9431431e1599c9def1",
    "link_img": "https://live.staticflickr.com/65535/51546479174_b89a5c40c7_o.jpg",
    "id_image": "ANIME_PIC_a625444f282add9431431e1599c9def1",
    "count_view": 0
  },
  {
    "link_thumb": "https://live.staticflickr.com/65535/51546676365_fdcdcd32ae_n.jpg",
    "id_album": "-316663319",
    "description": "ANIME_PIC_a62827a83a72c8a163c03cfc0b589cf4,[Girl],[isGirlAnime],[isCuteAnime]",
    "title": "ANIME_PIC_a62827a83a72c8a163c03cfc0b589cf4",
    "link_img": "https://live.staticflickr.com/65535/51546676365_6166c8f26e_o.png",
    "id_image": "ANIME_PIC_a62827a83a72c8a163c03cfc0b589cf4",
    "count_view": 0
  },
  {
    "link_thumb": "https://live.staticflickr.com/65535/51544956202_7f26553bfe_n.jpg",
    "id_album": "-316663319",
    "description": "ANIME_PIC_a62a95fa3ef3a63bd2197bffc4634f96,[Girl],[isGirlAnime],[isCuteAnime],[isGirlsLoliAnime]",
    "title": "ANIME_PIC_a62a95fa3ef3a63bd2197bffc4634f96",
    "link_img": "https://live.staticflickr.com/65535/51544956202_9462b67070_o.jpg",
    "id_image": "ANIME_PIC_a62a95fa3ef3a63bd2197bffc4634f96",
    "count_view": 0
  },
  {
    "link_thumb": "https://live.staticflickr.com/65535/51544956492_6bdd4d22de_n.jpg",
    "id_album": "-316663319",
    "description": "ANIME_PIC_a62c9d100a42f3a8d4b680187862de6f,[Girl],[isGirlAnime],[isCuteAnime]",
    "title": "ANIME_PIC_a62c9d100a42f3a8d4b680187862de6f",
    "link_img": "https://live.staticflickr.com/65535/51544956492_821b93eb5a_o.png",
    "id_image": "ANIME_PIC_a62c9d100a42f3a8d4b680187862de6f",
    "count_view": 0
  },
  {
    "link_thumb": "https://live.staticflickr.com/65535/51546481189_26a4796b12_n.jpg",
    "id_album": "-316663319",
    "description": "ANIME_PIC_a63022b34e1bc6438bfdbe3cf3a79184,[Girl],[isGirlAnime],[isCuteAnime]",
    "title": "ANIME_PIC_a63022b34e1bc6438bfdbe3cf3a79184",
    "link_img": "https://live.staticflickr.com/65535/51546481189_f84c4d4a03_o.jpg",
    "id_image": "ANIME_PIC_a63022b34e1bc6438bfdbe3cf3a79184",
    "count_view": 0
  },
  {
    "link_thumb": "https://live.staticflickr.com/65535/51546481614_aaf87757c3_n.jpg",
    "id_album": "-316663319",
    "description": "ANIME_PIC_a630b1c2674a56ef9f7e2db20310e63f,[Girl],[isGirlAnime],[isCuteAnime],[isGirlsLoliAnime]",
    "title": "ANIME_PIC_a630b1c2674a56ef9f7e2db20310e63f",
    "link_img": "https://live.staticflickr.com/65535/51546481614_c83d8ca271_o.jpg",
    "id_image": "ANIME_PIC_a630b1c2674a56ef9f7e2db20310e63f",
    "count_view": 0
  },
  {
    "link_thumb": "https://live.staticflickr.com/65535/51545755061_c645a882a6_n.jpg",
    "id_album": "-316663319",
    "description": "ANIME_PIC_a63283b46cd43f29df0bb778d0a21471,[Girl],[isGirlAnime],[isCuteAnime],[isGirlsHatsHoodieAnime]",
    "title": "ANIME_PIC_a63283b46cd43f29df0bb778d0a21471",
    "link_img": "https://live.staticflickr.com/65535/51545755061_7623b44dfd_o.png",
    "id_image": "ANIME_PIC_a63283b46cd43f29df0bb778d0a21471",
    "count_view": 0
  },
  {
    "link_thumb": "https://live.staticflickr.com/65535/51544958372_97715d174a_n.jpg",
    "id_album": "-316663319",
    "description": "ANIME_PIC_a6354d428900b0248c81886767837dc4,[Girl],[isGirlAnime],[isCuteAnime],[isGirlsHatsHoodieAnime],[isGirlsLoliAnime]",
    "title": "ANIME_PIC_a6354d428900b0248c81886767837dc4",
    "link_img": "https://live.staticflickr.com/65535/51544958372_f5585e6b8c_o.jpg",
    "id_image": "ANIME_PIC_a6354d428900b0248c81886767837dc4",
    "count_view": 0
  },
  {
    "link_thumb": "https://live.staticflickr.com/65535/51546679105_47e9e25c0b_n.jpg",
    "id_album": "-316663319",
    "description": "ANIME_PIC_a636c33aa8980140277482d187da874d,[Girl],[isGirlAnime],[isCuteAnime],[isGirlsHatsHoodieAnime],[isGirlsLoliAnime]",
    "title": "ANIME_PIC_a636c33aa8980140277482d187da874d",
    "link_img": "https://live.staticflickr.com/65535/51546679105_de65a94cee_o.jpg",
    "id_image": "ANIME_PIC_a636c33aa8980140277482d187da874d",
    "count_view": 0
  },
  {
    "link_thumb": "https://live.staticflickr.com/65535/51546679595_fef7d774c1_n.jpg",
    "id_album": "-316663319",
    "description": "ANIME_PIC_a636d98b9f9833f9da5f949ebf53916e,[Girl],[isGirlAnime],[isCuteAnime],[isGirlEarsNekoAnime],[isSadAnimeGirl],[isSadAnime]",
    "title": "ANIME_PIC_a636d98b9f9833f9da5f949ebf53916e",
    "link_img": "https://live.staticflickr.com/65535/51546679595_f3a2ac03d2_o.jpg",
    "id_image": "ANIME_PIC_a636d98b9f9833f9da5f949ebf53916e",
    "count_view": 0
  },
  {
    "link_thumb": "https://live.staticflickr.com/65535/51546483509_cac45d6fb1_n.jpg",
    "id_album": "-316663319",
    "description": "ANIME_PIC_a6392ae766daf1f0b54cd0e27493ff2f,[Girl],[isGirlAnime],[isCuteAnime],[isGirlsLoliAnime]",
    "title": "ANIME_PIC_a6392ae766daf1f0b54cd0e27493ff2f",
    "link_img": "https://live.staticflickr.com/65535/51546483509_2c4fa22c99_o.png",
    "id_image": "ANIME_PIC_a6392ae766daf1f0b54cd0e27493ff2f",
    "count_view": 0
  },
  {
    "link_thumb": "https://live.staticflickr.com/65535/51546483854_eaf37f6b68_n.jpg",
    "id_album": "-316663319",
    "description": "ANIME_PIC_a63fc9f3faa5c41d904ba45d82ee8932,[Girl],[isGirlAnime],[isCuteAnime]",
    "title": "ANIME_PIC_a63fc9f3faa5c41d904ba45d82ee8932",
    "link_img": "https://live.staticflickr.com/65535/51546483854_e1faf038f3_o.jpg",
    "id_image": "ANIME_PIC_a63fc9f3faa5c41d904ba45d82ee8932",
    "count_view": 0
  },
  {
    "link_thumb": "https://live.staticflickr.com/65535/51546680620_fd92f88842_n.jpg",
    "id_album": "-316663319",
    "description": "ANIME_PIC_a646ba799989857aa125583ead62dfa1,[Girl],[isGirlAnime],[isCuteAnime],[isGirlsLoliAnime],[isSadAnimeGirl],[isSadAnime]",
    "title": "ANIME_PIC_a646ba799989857aa125583ead62dfa1",
    "link_img": "https://live.staticflickr.com/65535/51546680620_b2f3abeca9_o.png",
    "id_image": "ANIME_PIC_a646ba799989857aa125583ead62dfa1",
    "count_view": 0
  },
  {
    "link_thumb": "https://live.staticflickr.com/65535/51544960377_17ab63fb7a_n.jpg",
    "id_album": "-316663319",
    "description": "ANIME_PIC_a64cf036c8807c0ade18b501cecf01d5,[Girl],[isGirlAnime],[isCuteAnime],[isGirlsLoliAnime]",
    "title": "ANIME_PIC_a64cf036c8807c0ade18b501cecf01d5",
    "link_img": "https://live.staticflickr.com/65535/51544960377_1dc534142d_o.jpg",
    "id_image": "ANIME_PIC_a64cf036c8807c0ade18b501cecf01d5",
    "count_view": 0
  },
  {
    "link_thumb": "https://live.staticflickr.com/65535/51546681385_72a7ef353b_n.jpg",
    "id_album": "-316663319",
    "description": "ANIME_PIC_a64e949874d10670db484c5c097950ec,[Girl],[isGirlAnime],[isCuteAnime],[isGirlsLoliAnime]",
    "title": "ANIME_PIC_a64e949874d10670db484c5c097950ec",
    "link_img": "https://live.staticflickr.com/65535/51546681385_d074616832_o.jpg",
    "id_image": "ANIME_PIC_a64e949874d10670db484c5c097950ec",
    "count_view": 0
  },
  {
    "link_thumb": "https://live.staticflickr.com/65535/51544961097_36d65674d0_n.jpg",
    "id_album": "-316663319",
    "description": "ANIME_PIC_a650ca6d55febbc410aaa266b7f71388,[Girl],[isGirlAnime],[isCuteAnime],[isGirlEarsNekoAnime],[isGirlsHatsHoodieAnime],[isGirlsLoliAnime]",
    "title": "ANIME_PIC_a650ca6d55febbc410aaa266b7f71388",
    "link_img": "https://live.staticflickr.com/65535/51544961097_6c9146e2b2_o.jpg",
    "id_image": "ANIME_PIC_a650ca6d55febbc410aaa266b7f71388",
    "count_view": 0
  },
  {
    "link_thumb": "https://live.staticflickr.com/65535/51546485644_ace3499c47_n.jpg",
    "id_album": "-316663319",
    "description": "ANIME_PIC_a6517654aaa34408e2de7c7d8d101218,[Girl],[isGirlAnime],[isCuteAnime]",
    "title": "ANIME_PIC_a6517654aaa34408e2de7c7d8d101218",
    "link_img": "https://live.staticflickr.com/65535/51546485644_705fb7332d_o.jpg",
    "id_image": "ANIME_PIC_a6517654aaa34408e2de7c7d8d101218",
    "count_view": 0
  },
  {
    "link_thumb": "https://live.staticflickr.com/65535/51546486074_798aa91e41_n.jpg",
    "id_album": "-316663319",
    "description": "ANIME_PIC_a652af0917935d6856486d5a2f309643,[Girl],[isGirlAnime],[isCuteAnime],[isGirlsLoliAnime]",
    "title": "ANIME_PIC_a652af0917935d6856486d5a2f309643",
    "link_img": "https://live.staticflickr.com/65535/51546486074_8261fc50a8_o.jpg",
    "id_image": "ANIME_PIC_a652af0917935d6856486d5a2f309643",
    "count_view": 0
  },
  {
    "link_thumb": "https://live.staticflickr.com/65535/51546682790_fe062c685c_n.jpg",
    "id_album": "-316663319",
    "description": "ANIME_PIC_a6546a97cd33824a8ec87ad4356196cb,[Girl],[isGirlAnime],[isCuteAnime],[isGirlEarsNekoAnime],[isGirlsHatsHoodieAnime]",
    "title": "ANIME_PIC_a6546a97cd33824a8ec87ad4356196cb",
    "link_img": "https://live.staticflickr.com/65535/51546682790_d91b591314_o.jpg",
    "id_image": "ANIME_PIC_a6546a97cd33824a8ec87ad4356196cb",
    "count_view": 0
  },
  {
    "link_thumb": "https://live.staticflickr.com/65535/51546002933_55902ce84c_n.jpg",
    "id_album": "-316663319",
    "description": "ANIME_PIC_a65656b65616150f43145460e42ebca1,[Girl],[isGirlAnime],[isCuteAnime],[isGirlsHatsHoodieAnime],[isGirlsLoliAnime],[isSadAnimeGirl],[isGirlsSharpCanineToothAnime],[isSadAnime]",
    "title": "ANIME_PIC_a65656b65616150f43145460e42ebca1",
    "link_img": "https://live.staticflickr.com/65535/51546002933_71ed1d8297_o.jpg",
    "id_image": "ANIME_PIC_a65656b65616150f43145460e42ebca1",
    "count_view": 0
  },
  {
    "link_thumb": "https://live.staticflickr.com/65535/51546003218_bb552ce3d1_n.jpg",
    "id_album": "-316663319",
    "description": "ANIME_PIC_a6565f279ed81c11ceaaca2b11d92a1b,[Girl],[isGirlAnime],[isCuteAnime],[isGirlsHatsHoodieAnime],[isGirlsLoliAnime],[isSadAnimeGirl],[isGirlsSharpCanineToothAnime],[isSadAnime]",
    "title": "ANIME_PIC_a6565f279ed81c11ceaaca2b11d92a1b",
    "link_img": "https://live.staticflickr.com/65535/51546003218_aab1874ffe_o.png",
    "id_image": "ANIME_PIC_a6565f279ed81c11ceaaca2b11d92a1b",
    "count_view": 0
  },
  {
    "link_thumb": "https://live.staticflickr.com/65535/51544963032_e9b03c0e34_n.jpg",
    "id_album": "-316663319",
    "description": "ANIME_PIC_a6570e5ca664dae13d717e7d131516df,[Girl],[isGirlAnime],[isCuteAnime],[isGirlsLoliAnime]",
    "title": "ANIME_PIC_a6570e5ca664dae13d717e7d131516df",
    "link_img": "https://live.staticflickr.com/65535/51544963032_ee7594f948_o.jpg",
    "id_image": "ANIME_PIC_a6570e5ca664dae13d717e7d131516df",
    "count_view": 0
  },
  {
    "link_thumb": "https://live.staticflickr.com/65535/51545760816_1d12ec1629_n.jpg",
    "id_album": "-316663319",
    "description": "ANIME_PIC_a658f86286932c90310b3604207df12b,[Girl],[isGirlAnime],[isCuteAnime],[isGirlsLoliAnime],[isSadAnimeGirl],[isSadAnime]",
    "title": "ANIME_PIC_a658f86286932c90310b3604207df12b",
    "link_img": "https://live.staticflickr.com/65535/51545760816_4dff3ddaf1_o.png",
    "id_image": "ANIME_PIC_a658f86286932c90310b3604207df12b",
    "count_view": 0
  },
  {
    "link_thumb": "https://live.staticflickr.com/65535/51545761196_92aa789fb8_n.jpg",
    "id_album": "-316663319",
    "description": "ANIME_PIC_a659b847ee17a5a77a03b25390467936,[Girl],[isGirlAnime],[isCuteAnime],[isGirlsHatsHoodieAnime],[isGirlsLoliAnime]",
    "title": "ANIME_PIC_a659b847ee17a5a77a03b25390467936",
    "link_img": "https://live.staticflickr.com/65535/51545761196_69b2d4cd56_o.png",
    "id_image": "ANIME_PIC_a659b847ee17a5a77a03b25390467936",
    "count_view": 0
  },
  {
    "link_thumb": "https://live.staticflickr.com/65535/51546684825_8926999778_n.jpg",
    "id_album": "-316663319",
    "description": "ANIME_PIC_a65a341e3fec7a52077708f118e01ce1,[Girl],[isGirlAnime],[isCuteAnime],[isGirlsLoliAnime]",
    "title": "ANIME_PIC_a65a341e3fec7a52077708f118e01ce1",
    "link_img": "https://live.staticflickr.com/65535/51546684825_6e590ab1d9_o.jpg",
    "id_image": "ANIME_PIC_a65a341e3fec7a52077708f118e01ce1",
    "count_view": 0
  },
  {
    "link_thumb": "https://live.staticflickr.com/65535/51546685160_1d3ba4754c_n.jpg",
    "id_album": "-316663319",
    "description": "ANIME_PIC_a65ca427e27475df25e3ce16df155729,[Girl],[isGirlAnime],[isCuteAnime],[isGirlEarsNekoAnime],[isGirlsHatsHoodieAnime],[isGirlsLoliAnime]",
    "title": "ANIME_PIC_a65ca427e27475df25e3ce16df155729",
    "link_img": "https://live.staticflickr.com/65535/51546685160_5d4636c771_o.png",
    "id_image": "ANIME_PIC_a65ca427e27475df25e3ce16df155729",
    "count_view": 0
  },
  {
    "link_thumb": "https://live.staticflickr.com/65535/51546489344_5562cc837a_n.jpg",
    "id_album": "-316663319",
    "description": "ANIME_PIC_a66605a6b662248bd6192a81c01cb40d,[Girl],[isGirlAnime],[isCuteAnime],[isGirlsHatsHoodieAnime],[isSadAnimeGirl],[isSadAnime]",
    "title": "ANIME_PIC_a66605a6b662248bd6192a81c01cb40d",
    "link_img": "https://live.staticflickr.com/65535/51546489344_5d8a15272f_o.jpg",
    "id_image": "ANIME_PIC_a66605a6b662248bd6192a81c01cb40d",
    "count_view": 0
  },
  {
    "link_thumb": "https://live.staticflickr.com/65535/51545762681_7ae608837d_n.jpg",
    "id_album": "-316663319",
    "description": "ANIME_PIC_a6692a35d9302bb6d5f751af5c9c2b2d,[Girl],[isGirlAnime],[isCuteAnime],[isSadAnimeGirl],[isSadAnime]",
    "title": "ANIME_PIC_a6692a35d9302bb6d5f751af5c9c2b2d",
    "link_img": "https://live.staticflickr.com/65535/51545762681_276d2942ea_o.jpg",
    "id_image": "ANIME_PIC_a6692a35d9302bb6d5f751af5c9c2b2d",
    "count_view": 0
  },
  {
    "link_thumb": "https://live.staticflickr.com/65535/51545763036_d80b01798c_n.jpg",
    "id_album": "-316663319",
    "description": "ANIME_PIC_a66e4dcf5c16a00e6044943fc7a4489b,[Girl],[isGirlAnime],[isCuteAnime],[isGirlsLoliAnime]",
    "title": "ANIME_PIC_a66e4dcf5c16a00e6044943fc7a4489b",
    "link_img": "https://live.staticflickr.com/65535/51545763036_381258d853_o.png",
    "id_image": "ANIME_PIC_a66e4dcf5c16a00e6044943fc7a4489b",
    "count_view": 0
  },
  {
    "link_thumb": "https://live.staticflickr.com/65535/51546006683_6843628185_n.jpg",
    "id_album": "-316663319",
    "description": "ANIME_PIC_a66f073923848116f3ee0276d7f3f53f,[Girl],[isGirlAnime],[isCuteAnime],[isSadAnimeGirl],[isSadAnime]",
    "title": "ANIME_PIC_a66f073923848116f3ee0276d7f3f53f",
    "link_img": "https://live.staticflickr.com/65535/51546006683_da5032e5f4_o.png",
    "id_image": "ANIME_PIC_a66f073923848116f3ee0276d7f3f53f",
    "count_view": 0
  },
  {
    "link_thumb": "https://live.staticflickr.com/65535/51546687140_95c72b11ab_n.jpg",
    "id_album": "-316663319",
    "description": "ANIME_PIC_a6700ea98f3d38f66e1cd346ba6f7a58,[Girl],[isGirlAnime],[isCuteAnime],[isGirlsLoliAnime]",
    "title": "ANIME_PIC_a6700ea98f3d38f66e1cd346ba6f7a58",
    "link_img": "https://live.staticflickr.com/65535/51546687140_99bba05ed0_o.jpg",
    "id_image": "ANIME_PIC_a6700ea98f3d38f66e1cd346ba6f7a58",
    "count_view": 0
  },
  {
    "link_thumb": "https://live.staticflickr.com/65535/51544966837_8fa6351fde_n.jpg",
    "id_album": "-316663319",
    "description": "ANIME_PIC_a670e6ba2bf36174a74b9181c1341534,[Girl],[isGirlAnime],[isCuteAnime]",
    "title": "ANIME_PIC_a670e6ba2bf36174a74b9181c1341534",
    "link_img": "https://live.staticflickr.com/65535/51544966837_82b89a4498_o.jpg",
    "id_image": "ANIME_PIC_a670e6ba2bf36174a74b9181c1341534",
    "count_view": 0
  },
  {
    "link_thumb": "https://live.staticflickr.com/65535/51546687735_8cf608db64_n.jpg",
    "id_album": "-316663319",
    "description": "ANIME_PIC_a672c775956898580665632ae606065e,[Girl],[isGirlAnime],[isCuteAnime],[isGirlsLoliAnime]",
    "title": "ANIME_PIC_a672c775956898580665632ae606065e",
    "link_img": "https://live.staticflickr.com/65535/51546687735_f721453e48_o.jpg",
    "id_image": "ANIME_PIC_a672c775956898580665632ae606065e",
    "count_view": 0
  },
  {
    "link_thumb": "https://live.staticflickr.com/65535/51546688075_738d5b4d21_n.jpg",
    "id_album": "-316663319",
    "description": "ANIME_PIC_a677bec153ff3494e45e03db75d2cb76,[Girl],[isGirlAnime],[isCuteAnime]",
    "title": "ANIME_PIC_a677bec153ff3494e45e03db75d2cb76",
    "link_img": "https://live.staticflickr.com/65535/51546688075_93fb08c995_o.jpg",
    "id_image": "ANIME_PIC_a677bec153ff3494e45e03db75d2cb76",
    "count_view": 0
  },
  {
    "link_thumb": "https://live.staticflickr.com/65535/51545765371_da8c3b5958_n.jpg",
    "id_album": "-316663319",
    "description": "ANIME_PIC_a67e8aab058c1f2e741a4d92f7a6268e,[Girl],[isGirlAnime],[isCuteAnime],[isGirlsLoliAnime]",
    "title": "ANIME_PIC_a67e8aab058c1f2e741a4d92f7a6268e",
    "link_img": "https://live.staticflickr.com/65535/51545765371_d7442d179b_o.jpg",
    "id_image": "ANIME_PIC_a67e8aab058c1f2e741a4d92f7a6268e",
    "count_view": 0
  },
  {
    "link_thumb": "https://live.staticflickr.com/65535/51544968117_94fa314c3c_n.jpg",
    "id_album": "-316663319",
    "description": "ANIME_PIC_a6806a5bfdfbf4d857a495843c1234b8,[Girl],[isGirlAnime],[isCuteAnime],[isGirlsLoliAnime],[isSadAnimeGirl],[isSadAnime]",
    "title": "ANIME_PIC_a6806a5bfdfbf4d857a495843c1234b8",
    "link_img": "https://live.staticflickr.com/65535/51544968117_45b72a7f30_o.jpg",
    "id_image": "ANIME_PIC_a6806a5bfdfbf4d857a495843c1234b8",
    "count_view": 0
  },
  {
    "link_thumb": "https://live.staticflickr.com/65535/51546008968_a224933de7_n.jpg",
    "id_album": "-316663319",
    "description": "ANIME_PIC_a680e77d220055531d0f6b4fa75cb467,[Girl],[isGirlAnime],[isCuteAnime],[isGirlsLoliAnime]",
    "title": "ANIME_PIC_a680e77d220055531d0f6b4fa75cb467",
    "link_img": "https://live.staticflickr.com/65535/51546008968_304c055208_o.jpg",
    "id_image": "ANIME_PIC_a680e77d220055531d0f6b4fa75cb467",
    "count_view": 0
  },
  {
    "link_thumb": "https://live.staticflickr.com/65535/51544968547_fb3eb234a0_n.jpg",
    "id_album": "-316663319",
    "description": "ANIME_PIC_a68354f75deb346c9adddb4f696492f3,[Girl],[isGirlAnime],[isCuteAnime],[isGirlEarsNekoAnime],[isGirlsHatsHoodieAnime],[isGirlsLoliAnime],[isSadAnimeGirl],[isSadAnime]",
    "title": "ANIME_PIC_a68354f75deb346c9adddb4f696492f3",
    "link_img": "https://live.staticflickr.com/65535/51544968547_8d67601294_o.png",
    "id_image": "ANIME_PIC_a68354f75deb346c9adddb4f696492f3",
    "count_view": 0
  },
  {
    "link_thumb": "https://live.staticflickr.com/65535/51544969127_597ffb4196_n.jpg",
    "id_album": "-316663319",
    "description": "ANIME_PIC_a683d9ef30c2fba962676a2bb5efc0c2,[Girl],[isGirlAnime],[isCuteAnime],[isGirlEarsNekoAnime],[isGirlsLoliAnime],[isSadAnimeGirl],[isSadAnime]",
    "title": "ANIME_PIC_a683d9ef30c2fba962676a2bb5efc0c2",
    "link_img": "https://live.staticflickr.com/65535/51544969127_1f4eaea729_o.jpg",
    "id_image": "ANIME_PIC_a683d9ef30c2fba962676a2bb5efc0c2",
    "count_view": 0
  },
  {
    "link_thumb": "https://live.staticflickr.com/65535/51546010088_170c6c7597_n.jpg",
    "id_album": "-316663319",
    "description": "ANIME_PIC_a685f73c03a4d3fb1d6d3b320f2fa155,[Girl],[isGirlAnime],[isGirlFaceMasksAnime]",
    "title": "ANIME_PIC_a685f73c03a4d3fb1d6d3b320f2fa155",
    "link_img": "https://live.staticflickr.com/65535/51546010088_f92347fe7f_o.jpg",
    "id_image": "ANIME_PIC_a685f73c03a4d3fb1d6d3b320f2fa155",
    "count_view": 0
  },
  {
    "link_thumb": "https://live.staticflickr.com/65535/51546010383_605aa6d83d_n.jpg",
    "id_album": "-316663319",
    "description": "ANIME_PIC_a6882a3f84cba415a68e48d0133a5cf0,[Girl],[isGirlAnime],[isCuteAnime],[isGirlsLoliAnime],[isSadAnimeGirl],[isSadAnime]",
    "title": "ANIME_PIC_a6882a3f84cba415a68e48d0133a5cf0",
    "link_img": "https://live.staticflickr.com/65535/51546010383_c5cce7ee37_o.jpg",
    "id_image": "ANIME_PIC_a6882a3f84cba415a68e48d0133a5cf0",
    "count_view": 0
  },
  {
    "link_thumb": "https://live.staticflickr.com/65535/51546494544_4a09daebe4_n.jpg",
    "id_album": "-316663319",
    "description": "ANIME_PIC_a69028100608446c6f58b1de3d65d67a,[Girl],[isBoyAnime],[isGirlAnime],[isCuteAnime]",
    "title": "ANIME_PIC_a69028100608446c6f58b1de3d65d67a",
    "link_img": "https://live.staticflickr.com/65535/51546494544_a36784aedb_o.jpg",
    "id_image": "ANIME_PIC_a69028100608446c6f58b1de3d65d67a",
    "count_view": 0
  },
  {
    "link_thumb": "https://live.staticflickr.com/65535/51545767771_b26e7f06d2_n.jpg",
    "id_album": "-316663319",
    "description": "ANIME_PIC_a69b939d2567506c068fc92fda77964c,[Girl],[isGirlAnime],[isCuteAnime]",
    "title": "ANIME_PIC_a69b939d2567506c068fc92fda77964c",
    "link_img": "https://live.staticflickr.com/65535/51545767771_bd8e7204f8_o.jpg",
    "id_image": "ANIME_PIC_a69b939d2567506c068fc92fda77964c",
    "count_view": 0
  },
  {
    "link_thumb": "https://live.staticflickr.com/65535/51544971007_a0ec4493bf_n.jpg",
    "id_album": "-316663319",
    "description": "ANIME_PIC_a69f26b837bc8c6ff48abce8a85b32c5,[Girl],[isGirlAnime],[isCuteAnime],[isGirlsLoliAnime]",
    "title": "ANIME_PIC_a69f26b837bc8c6ff48abce8a85b32c5",
    "link_img": "https://live.staticflickr.com/65535/51544971007_3620caa6d7_o.jpg",
    "id_image": "ANIME_PIC_a69f26b837bc8c6ff48abce8a85b32c5",
    "count_view": 0
  },
  {
    "link_thumb": "https://live.staticflickr.com/65535/51546011918_6b2e93371e_n.jpg",
    "id_album": "-316663319",
    "description": "ANIME_PIC_a6a4798c693a58e15d43bd8806bfc385,[Girl],[isGirlAnime],[isCuteAnime],[isGirlsHatsHoodieAnime],[isSadAnimeGirl],[isSadAnime]",
    "title": "ANIME_PIC_a6a4798c693a58e15d43bd8806bfc385",
    "link_img": "https://live.staticflickr.com/65535/51546011918_25b11e1685_o.jpg",
    "id_image": "ANIME_PIC_a6a4798c693a58e15d43bd8806bfc385",
    "count_view": 0
  },
  {
    "link_thumb": "https://live.staticflickr.com/65535/51544971882_e82571634b_n.jpg",
    "id_album": "-316663319",
    "description": "ANIME_PIC_a6a5c70d84d186edae23486b05f722b0,[Girl],[isGirlAnime],[isCuteAnime],[isGirlEarsNekoAnime]",
    "title": "ANIME_PIC_a6a5c70d84d186edae23486b05f722b0",
    "link_img": "https://live.staticflickr.com/65535/51544971882_7e86136709_o.jpg",
    "id_image": "ANIME_PIC_a6a5c70d84d186edae23486b05f722b0",
    "count_view": 0
  },
  {
    "link_thumb": "https://live.staticflickr.com/65535/51545769351_4167aa747f_n.jpg",
    "id_album": "-316663319",
    "description": "ANIME_PIC_a6a6e4f0fe895d3a8a04542f55df48fe,[Girl],[isGirlAnime],[isCuteAnime]",
    "title": "ANIME_PIC_a6a6e4f0fe895d3a8a04542f55df48fe",
    "link_img": "https://live.staticflickr.com/65535/51545769351_c0878a3d14_o.jpg",
    "id_image": "ANIME_PIC_a6a6e4f0fe895d3a8a04542f55df48fe",
    "count_view": 0
  },
  {
    "link_thumb": "https://live.staticflickr.com/65535/51546496794_5733f94fa0_n.jpg",
    "id_album": "-316663319",
    "description": "ANIME_PIC_a6a9df69675287a89abca68271ab3bc3,[Girl],[isGirlAnime],[isCuteAnime],[isGirlEarsNekoAnime],[isGirlsLoliAnime],[isSadAnimeGirl],[isSadAnime]",
    "title": "ANIME_PIC_a6a9df69675287a89abca68271ab3bc3",
    "link_img": "https://live.staticflickr.com/65535/51546496794_0b132ac401_o.jpg",
    "id_image": "ANIME_PIC_a6a9df69675287a89abca68271ab3bc3",
    "count_view": 0
  },
  {
    "link_thumb": "https://live.staticflickr.com/65535/51546497354_21e27cd84e_n.jpg",
    "id_album": "-316663319",
    "description": "ANIME_PIC_a6aa666f34e9381b3613affba4d8e392,[Girl],[isGirlAnime],[isCuteAnime],[isGirlsLoliAnime]",
    "title": "ANIME_PIC_a6aa666f34e9381b3613affba4d8e392",
    "link_img": "https://live.staticflickr.com/65535/51546497354_a390f4c3bd_o.png",
    "id_image": "ANIME_PIC_a6aa666f34e9381b3613affba4d8e392",
    "count_view": 0
  },
  {
    "link_thumb": "https://live.staticflickr.com/65535/51544974207_f9b838cee6_n.jpg",
    "id_album": "-316663319",
    "description": "ANIME_PIC_a6b397c0f4a3fd2fe6a4cb738937fd13,[Girl],[isGirlAnime],[isCuteAnime],[isGirlsLoliAnime]",
    "title": "ANIME_PIC_a6b397c0f4a3fd2fe6a4cb738937fd13",
    "link_img": "https://live.staticflickr.com/65535/51544974207_b6ee8a87ef_o.jpg",
    "id_image": "ANIME_PIC_a6b397c0f4a3fd2fe6a4cb738937fd13",
    "count_view": 0
  },
  {
    "link_thumb": "https://live.staticflickr.com/65535/51544974397_3ec9ebda16_n.jpg",
    "id_album": "-316663319",
    "description": "ANIME_PIC_a6b4cceae5544d03f9204ad89e492aff,[Girl],[isGirlAnime],[isCuteAnime]",
    "title": "ANIME_PIC_a6b4cceae5544d03f9204ad89e492aff",
    "link_img": "https://live.staticflickr.com/65535/51544974397_2595baabb5_o.jpg",
    "id_image": "ANIME_PIC_a6b4cceae5544d03f9204ad89e492aff",
    "count_view": 0
  },
  {
    "link_thumb": "https://live.staticflickr.com/65535/51546498919_f5040fc654_n.jpg",
    "id_album": "-316663319",
    "description": "ANIME_PIC_a6b4d4449d5d267a1731ba6fdbe9d4ca,[Girl],[isGirlAnime],[isCuteAnime],[isGirlsHatsHoodieAnime]",
    "title": "ANIME_PIC_a6b4d4449d5d267a1731ba6fdbe9d4ca",
    "link_img": "https://live.staticflickr.com/65535/51546498919_468a404975_o.png",
    "id_image": "ANIME_PIC_a6b4d4449d5d267a1731ba6fdbe9d4ca",
    "count_view": 0
  },
  {
    "link_thumb": "https://live.staticflickr.com/65535/51544975137_916185d678_n.jpg",
    "id_album": "-316663319",
    "description": "ANIME_PIC_a6b550d038061939a1bada790c519a3f,[Girl],[isGirlAnime],[isCuteAnime],[isGirlsLoliAnime]",
    "title": "ANIME_PIC_a6b550d038061939a1bada790c519a3f",
    "link_img": "https://live.staticflickr.com/65535/51544975137_19eb2b6d97_o.jpg",
    "id_image": "ANIME_PIC_a6b550d038061939a1bada790c519a3f",
    "count_view": 0
  },
  {
    "link_thumb": "https://live.staticflickr.com/65535/51545772311_5762f673f4_n.jpg",
    "id_album": "-316663319",
    "description": "ANIME_PIC_a6b5af91cb71da13cc4c9681aa8f31ef,[Girl],[isGirlAnime],[isCuteAnime],[isGirlsLoliAnime],[isSadAnimeGirl],[isSadAnime]",
    "title": "ANIME_PIC_a6b5af91cb71da13cc4c9681aa8f31ef",
    "link_img": "https://live.staticflickr.com/65535/51545772311_3ed3a90a04_o.jpg",
    "id_image": "ANIME_PIC_a6b5af91cb71da13cc4c9681aa8f31ef",
    "count_view": 0
  },
  {
    "link_thumb": "https://live.staticflickr.com/65535/51544975772_2455334d3a_n.jpg",
    "id_album": "-316663319",
    "description": "ANIME_PIC_a6b629d38ea5d7e750d76a77326dfa4b,[Girl],[isGirlAnime],[isCuteAnime],[isGirlsHatsHoodieAnime],[isGirlsLoliAnime],[isSadAnimeGirl],[isSadAnime]",
    "title": "ANIME_PIC_a6b629d38ea5d7e750d76a77326dfa4b",
    "link_img": "https://live.staticflickr.com/65535/51544975772_c31e49b20d_o.jpg",
    "id_image": "ANIME_PIC_a6b629d38ea5d7e750d76a77326dfa4b",
    "count_view": 0
  },
  {
    "link_thumb": "https://live.staticflickr.com/65535/51546016433_09d5a8ffa7_n.jpg",
    "id_album": "-316663319",
    "description": "ANIME_PIC_a6b800acccda83d34b6986ca3dd0fd04,[Girl],[isGirlAnime],[isCuteAnime],[isGirlsLoliAnime]",
    "title": "ANIME_PIC_a6b800acccda83d34b6986ca3dd0fd04",
    "link_img": "https://live.staticflickr.com/65535/51546016433_7161047f3f_o.jpg",
    "id_image": "ANIME_PIC_a6b800acccda83d34b6986ca3dd0fd04",
    "count_view": 0
  },
  {
    "link_thumb": "https://live.staticflickr.com/65535/51546016688_6d65e7a3f2_n.jpg",
    "id_album": "-316663319",
    "description": "ANIME_PIC_a6b8d207e3b0a557e6c8a283edd5b279,[Girl],[isGirlAnime],[isCuteAnime],[isGirlsLoliAnime]",
    "title": "ANIME_PIC_a6b8d207e3b0a557e6c8a283edd5b279",
    "link_img": "https://live.staticflickr.com/65535/51546016688_f3b689945a_o.jpg",
    "id_image": "ANIME_PIC_a6b8d207e3b0a557e6c8a283edd5b279",
    "count_view": 0
  },
  {
    "link_thumb": "https://live.staticflickr.com/65535/51544976682_a460796474_n.jpg",
    "id_album": "-316663319",
    "description": "ANIME_PIC_a6bbe81fa9c3e9d00ab31c5efea9b5eb,[Girl],[isGirlAnime],[isCuteAnime],[isGirlEarsNekoAnime],[isGirlsLoliAnime]",
    "title": "ANIME_PIC_a6bbe81fa9c3e9d00ab31c5efea9b5eb",
    "link_img": "https://live.staticflickr.com/65535/51544976682_9d6c54f60e_o.jpg",
    "id_image": "ANIME_PIC_a6bbe81fa9c3e9d00ab31c5efea9b5eb",
    "count_view": 0
  },
  {
    "link_thumb": "https://live.staticflickr.com/65535/51546501354_2ca714d59d_n.jpg",
    "id_album": "-316663319",
    "description": "ANIME_PIC_a6c25d12b40fa3fe46fb147108691071,[Girl],[isGirlAnime],[isCuteAnime]",
    "title": "ANIME_PIC_a6c25d12b40fa3fe46fb147108691071",
    "link_img": "https://live.staticflickr.com/65535/51546501354_334e48841c_o.jpg",
    "id_image": "ANIME_PIC_a6c25d12b40fa3fe46fb147108691071",
    "count_view": 0
  },
  {
    "link_thumb": "https://live.staticflickr.com/65535/51544977657_93e8aeb3c5_n.jpg",
    "id_album": "-316663319",
    "description": "ANIME_PIC_a6c77d4b300cb1ae8e951f3155933d2f,[Girl],[isGirlAnime],[isCuteAnime]",
    "title": "ANIME_PIC_a6c77d4b300cb1ae8e951f3155933d2f",
    "link_img": "https://live.staticflickr.com/65535/51544977657_aa5ed7c8d5_o.jpg",
    "id_image": "ANIME_PIC_a6c77d4b300cb1ae8e951f3155933d2f",
    "count_view": 0
  },
  {
    "link_thumb": "https://live.staticflickr.com/65535/51545774821_f23db16a88_n.jpg",
    "id_album": "-316663319",
    "description": "ANIME_PIC_a6c8a3e5ce8ce822c90dd7fba1c3f330,[Girl],[isGirlAnime],[isCuteAnime]",
    "title": "ANIME_PIC_a6c8a3e5ce8ce822c90dd7fba1c3f330",
    "link_img": "https://live.staticflickr.com/65535/51545774821_bf72a730fe_o.jpg",
    "id_image": "ANIME_PIC_a6c8a3e5ce8ce822c90dd7fba1c3f330",
    "count_view": 0
  },
  {
    "link_thumb": "https://live.staticflickr.com/65535/51545775166_b1fc2e93ba_n.jpg",
    "id_album": "-316663319",
    "description": "ANIME_PIC_a6ca47f955b2059078e5d219ad8c0189,[Girl],[isBoyAnime],[isGirlAnime],[isCuteAnime]",
    "title": "ANIME_PIC_a6ca47f955b2059078e5d219ad8c0189",
    "link_img": "https://live.staticflickr.com/65535/51545775166_81ca66c095_o.png",
    "id_image": "ANIME_PIC_a6ca47f955b2059078e5d219ad8c0189",
    "count_view": 0
  },
  {
    "link_thumb": "https://live.staticflickr.com/65535/51544978822_eb662fd1a7_n.jpg",
    "id_album": "-316663319",
    "description": "ANIME_PIC_a6caf6732bd105f2a30f84f4b6c57562,[Girl],[isGirlAnime],[isCuteAnime],[isGirlsLoliAnime]",
    "title": "ANIME_PIC_a6caf6732bd105f2a30f84f4b6c57562",
    "link_img": "https://live.staticflickr.com/65535/51544978822_8fa4c43138_o.jpg",
    "id_image": "ANIME_PIC_a6caf6732bd105f2a30f84f4b6c57562",
    "count_view": 0
  },
  {
    "link_thumb": "https://live.staticflickr.com/65535/51546699540_5a5d26402f_n.jpg",
    "id_album": "-316663319",
    "description": "ANIME_PIC_a6cbd896f1d7c260899803fdcea15906,[Girl],[isGirlAnime],[isCuteAnime]",
    "title": "ANIME_PIC_a6cbd896f1d7c260899803fdcea15906",
    "link_img": "https://live.staticflickr.com/65535/51546699540_8873665ef8_o.jpg",
    "id_image": "ANIME_PIC_a6cbd896f1d7c260899803fdcea15906",
    "count_view": 0
  },
  {
    "link_thumb": "https://live.staticflickr.com/65535/51545776716_33877c5f14_n.jpg",
    "id_album": "-316663319",
    "description": "ANIME_PIC_a6cc83949fce7c68e40ba5d7e6dc5025,[Girl],[isGirlAnime],[isSadAnimeGirl],[isSadAnime],[isSceneryArts]",
    "title": "ANIME_PIC_a6cc83949fce7c68e40ba5d7e6dc5025",
    "link_img": "https://live.staticflickr.com/65535/51545776716_ea13d5193f_o.png",
    "id_image": "ANIME_PIC_a6cc83949fce7c68e40ba5d7e6dc5025",
    "count_view": 0
  },
  {
    "link_thumb": "https://live.staticflickr.com/65535/51544980267_544780a1c6_n.jpg",
    "id_album": "-316663319",
    "description": "ANIME_PIC_a6cc95f3ee48bb75a251efaef58dc36c,[Girl],[isGirlAnime],[isCuteAnime]",
    "title": "ANIME_PIC_a6cc95f3ee48bb75a251efaef58dc36c",
    "link_img": "https://live.staticflickr.com/65535/51544980267_91eb7fe4a1_o.jpg",
    "id_image": "ANIME_PIC_a6cc95f3ee48bb75a251efaef58dc36c",
    "count_view": 0
  },
  {
    "link_thumb": "https://live.staticflickr.com/65535/51546700925_83692b5739_n.jpg",
    "id_album": "-316663319",
    "description": "ANIME_PIC_a6ce26be9c98881f7ec83d8dfebb1f4f,[Girl],[isGirlAnime],[isCuteAnime],[isGirlsHatsHoodieAnime],[isGirlsLoliAnime]",
    "title": "ANIME_PIC_a6ce26be9c98881f7ec83d8dfebb1f4f",
    "link_img": "https://live.staticflickr.com/65535/51546700925_ff73ec3bae_o.jpg",
    "id_image": "ANIME_PIC_a6ce26be9c98881f7ec83d8dfebb1f4f",
    "count_view": 0
  },
  {
    "link_thumb": "https://live.staticflickr.com/65535/51546021418_d02b0fdf75_n.jpg",
    "id_album": "-316663319",
    "description": "ANIME_PIC_a6cf58abb178080e99fbeb1c4aa3d9c2,[Girl],[isGirlAnime],[isCuteAnime],[isGirlEarsNekoAnime],[isGirlsLoliAnime]",
    "title": "ANIME_PIC_a6cf58abb178080e99fbeb1c4aa3d9c2",
    "link_img": "https://live.staticflickr.com/65535/51546021418_15dcf9422b_o.jpg",
    "id_image": "ANIME_PIC_a6cf58abb178080e99fbeb1c4aa3d9c2",
    "count_view": 0
  },
  {
    "link_thumb": "https://live.staticflickr.com/65535/51546021788_484d429deb_n.jpg",
    "id_album": "-316663319",
    "description": "ANIME_PIC_a6d7bdd0978351c5dfca68f315f7509e,[Girl],[isGirlAnime],[isCuteAnime],[isGirlsLoliAnime]",
    "title": "ANIME_PIC_a6d7bdd0978351c5dfca68f315f7509e",
    "link_img": "https://live.staticflickr.com/65535/51546021788_87a8014056_o.jpg",
    "id_image": "ANIME_PIC_a6d7bdd0978351c5dfca68f315f7509e",
    "count_view": 0
  },
  {
    "link_thumb": "https://live.staticflickr.com/65535/51546701825_b8bd959d75_n.jpg",
    "id_album": "-316663319",
    "description": "ANIME_PIC_a6d8deff68dd207c8061ef43da54fa9a,[Girl],[isGirlAnime],[isCuteAnime]",
    "title": "ANIME_PIC_a6d8deff68dd207c8061ef43da54fa9a",
    "link_img": "https://live.staticflickr.com/65535/51546701825_fd58fb1f9a_o.png",
    "id_image": "ANIME_PIC_a6d8deff68dd207c8061ef43da54fa9a",
    "count_view": 0
  },
  {
    "link_thumb": "https://live.staticflickr.com/65535/51546702265_0ec10b221d_n.jpg",
    "id_album": "-316663319",
    "description": "ANIME_PIC_a6d94ee39d7d9c57ebf3abf505c4c1fa,[Girl],[isGirlAnime],[isCuteAnime],[isGirlsHatsHoodieAnime],[isGirlsLoliAnime],[isSadAnimeGirl],[isSadAnime]",
    "title": "ANIME_PIC_a6d94ee39d7d9c57ebf3abf505c4c1fa",
    "link_img": "https://live.staticflickr.com/65535/51546702265_2069eede66_o.jpg",
    "id_image": "ANIME_PIC_a6d94ee39d7d9c57ebf3abf505c4c1fa",
    "count_view": 0
  },
  {
    "link_thumb": "https://live.staticflickr.com/65535/51544982177_6be6fecb3c_n.jpg",
    "id_album": "-316663319",
    "description": "ANIME_PIC_a6d9b1d4ab88d0f9f14d96ba9d14e45a,[Girl],[isGirlAnime],[isCuteAnime],[isGirlsHatsHoodieAnime],[isGirlsLoliAnime]",
    "title": "ANIME_PIC_a6d9b1d4ab88d0f9f14d96ba9d14e45a",
    "link_img": "https://live.staticflickr.com/65535/51544982177_6b3e70449c_o.jpg",
    "id_image": "ANIME_PIC_a6d9b1d4ab88d0f9f14d96ba9d14e45a",
    "count_view": 0
  },
  {
    "link_thumb": "https://live.staticflickr.com/65535/51544982577_f243323fac_n.jpg",
    "id_album": "-316663319",
    "description": "ANIME_PIC_a6de908391fe07b9bf0367757096906e,[Girl],[isGirlAnime],[isCuteAnime]",
    "title": "ANIME_PIC_a6de908391fe07b9bf0367757096906e",
    "link_img": "https://live.staticflickr.com/65535/51544982577_5f3a506fc4_o.jpg",
    "id_image": "ANIME_PIC_a6de908391fe07b9bf0367757096906e",
    "count_view": 0
  },
  {
    "link_thumb": "https://live.staticflickr.com/65535/51546023603_18d039b0ea_n.jpg",
    "id_album": "-316663319",
    "description": "ANIME_PIC_a6defe5ab5d286610d867690ffdcca77,[Girl],[isGirlAnime],[isCuteAnime]",
    "title": "ANIME_PIC_a6defe5ab5d286610d867690ffdcca77",
    "link_img": "https://live.staticflickr.com/65535/51546023603_a649608005_o.jpg",
    "id_image": "ANIME_PIC_a6defe5ab5d286610d867690ffdcca77",
    "count_view": 0
  },
  {
    "link_thumb": "https://live.staticflickr.com/65535/51546507354_0df58f3d19_n.jpg",
    "id_album": "-316663319",
    "description": "ANIME_PIC_a6df7e8e2b9cc670f077e0c43f009d05,[Girl],[isGirlAnime],[isCuteAnime],[isGirlsLoliAnime]",
    "title": "ANIME_PIC_a6df7e8e2b9cc670f077e0c43f009d05",
    "link_img": "https://live.staticflickr.com/65535/51546507354_a83cef707e_o.png",
    "id_image": "ANIME_PIC_a6df7e8e2b9cc670f077e0c43f009d05",
    "count_view": 0
  },
  {
    "link_thumb": "https://live.staticflickr.com/65535/51545780116_6c9150919e_n.jpg",
    "id_album": "-316663319",
    "description": "ANIME_PIC_a6dfdca7790d0cd91c8e9318d1421a28,[Girl],[isGirlAnime],[isCuteAnime]",
    "title": "ANIME_PIC_a6dfdca7790d0cd91c8e9318d1421a28",
    "link_img": "https://live.staticflickr.com/65535/51545780116_c028271907_o.jpg",
    "id_image": "ANIME_PIC_a6dfdca7790d0cd91c8e9318d1421a28",
    "count_view": 0
  },
  {
    "link_thumb": "https://live.staticflickr.com/65535/51545780396_3d04c98061_n.jpg",
    "id_album": "-316663319",
    "description": "ANIME_PIC_a6e0308018d7237f56040af43f3b8d89,[Girl],[isGirlAnime],[isCuteAnime],[isGirlsLoliAnime],[isSadAnimeGirl],[isSadAnime]",
    "title": "ANIME_PIC_a6e0308018d7237f56040af43f3b8d89",
    "link_img": "https://live.staticflickr.com/65535/51545780396_a0683dd4f7_o.png",
    "id_image": "ANIME_PIC_a6e0308018d7237f56040af43f3b8d89",
    "count_view": 0
  },
  {
    "link_thumb": "https://live.staticflickr.com/65535/51546508694_49835548f1_n.jpg",
    "id_album": "-316663319",
    "description": "ANIME_PIC_a6e160eb251d7605481bc5c2a7061154,[Girl],[isGirlAnime],[isCuteAnime],[isGirlsLoliAnime]",
    "title": "ANIME_PIC_a6e160eb251d7605481bc5c2a7061154",
    "link_img": "https://live.staticflickr.com/65535/51546508694_a64ef46034_o.jpg",
    "id_image": "ANIME_PIC_a6e160eb251d7605481bc5c2a7061154",
    "count_view": 0
  },
  {
    "link_thumb": "https://live.staticflickr.com/65535/51544984852_f1b2614343_n.jpg",
    "id_album": "-316663319",
    "description": "ANIME_PIC_a6e394955d2d141c14ce4d9a48e25822,[Girl],[isGirlAnime],[isCuteAnime],[isGirlsHatsHoodieAnime],[isGirlsLoliAnime]",
    "title": "ANIME_PIC_a6e394955d2d141c14ce4d9a48e25822",
    "link_img": "https://live.staticflickr.com/65535/51544984852_43c2ae2179_o.jpg",
    "id_image": "ANIME_PIC_a6e394955d2d141c14ce4d9a48e25822",
    "count_view": 0
  },
  {
    "link_thumb": "https://live.staticflickr.com/65535/51544985202_7538f583cf_n.jpg",
    "id_album": "-316663319",
    "description": "ANIME_PIC_a6e58e1b2cc259adaef2912bd114e158,[Girl],[isGirlAnime],[isCuteAnime]",
    "title": "ANIME_PIC_a6e58e1b2cc259adaef2912bd114e158",
    "link_img": "https://live.staticflickr.com/65535/51544985202_9322100aac_o.jpg",
    "id_image": "ANIME_PIC_a6e58e1b2cc259adaef2912bd114e158",
    "count_view": 0
  },
  {
    "link_thumb": "https://live.staticflickr.com/65535/51544985537_c0ff17c5c1_n.jpg",
    "id_album": "-316663319",
    "description": "ANIME_PIC_a6e6bb550db50eb8508ae39a88e94012,[Girl],[isGirlAnime],[isCuteAnime],[isGirlsLoliAnime]",
    "title": "ANIME_PIC_a6e6bb550db50eb8508ae39a88e94012",
    "link_img": "https://live.staticflickr.com/65535/51544985537_1cf4b170b2_o.jpg",
    "id_image": "ANIME_PIC_a6e6bb550db50eb8508ae39a88e94012",
    "count_view": 0
  },
  {
    "link_thumb": "https://live.staticflickr.com/65535/51546026313_ab40346250_n.jpg",
    "id_album": "-316663319",
    "description": "ANIME_PIC_a6ec3095cb41880738637a9a92709587,[Girl],[isGirlAnime],[isCuteAnime]",
    "title": "ANIME_PIC_a6ec3095cb41880738637a9a92709587",
    "link_img": "https://live.staticflickr.com/65535/51546026313_5c1ac4d432_o.jpg",
    "id_image": "ANIME_PIC_a6ec3095cb41880738637a9a92709587",
    "count_view": 0
  },
  {
    "link_thumb": "https://live.staticflickr.com/65535/51546706620_88cdd3b90f_n.jpg",
    "id_album": "-316663319",
    "description": "ANIME_PIC_a6eedf90be2c83efe2fb8a8069ae86ec,[Girl],[isGirlAnime],[isCuteAnime],[isGirlEarsNekoAnime],[isGirlsLoliAnime]",
    "title": "ANIME_PIC_a6eedf90be2c83efe2fb8a8069ae86ec",
    "link_img": "https://live.staticflickr.com/65535/51546706620_6e8b118642_o.jpg",
    "id_image": "ANIME_PIC_a6eedf90be2c83efe2fb8a8069ae86ec",
    "count_view": 0
  },
  {
    "link_thumb": "https://live.staticflickr.com/65535/51544986597_9d3864ce49_n.jpg",
    "id_album": "-316663319",
    "description": "ANIME_PIC_a6f1a51922346067c960c2bbf70a9313,[Girl],[isGirlAnime],[isCuteAnime],[isGirlsLoliAnime]",
    "title": "ANIME_PIC_a6f1a51922346067c960c2bbf70a9313",
    "link_img": "https://live.staticflickr.com/65535/51544986597_7e1c754c98_o.png",
    "id_image": "ANIME_PIC_a6f1a51922346067c960c2bbf70a9313",
    "count_view": 0
  },
  {
    "link_thumb": "https://live.staticflickr.com/65535/51544987052_5b5ec8f6e3_n.jpg",
    "id_album": "-316663319",
    "description": "ANIME_PIC_a6f275b4af18e34885987b362fb5dd01,[Girl],[isGirlAnime],[isCuteAnime],[isGirlsLoliAnime]",
    "title": "ANIME_PIC_a6f275b4af18e34885987b362fb5dd01",
    "link_img": "https://live.staticflickr.com/65535/51544987052_2cbe90c4d0_o.jpg",
    "id_image": "ANIME_PIC_a6f275b4af18e34885987b362fb5dd01",
    "count_view": 0
  },
  {
    "link_thumb": "https://live.staticflickr.com/65535/51545783846_7cd485cbbc_n.jpg",
    "id_album": "-316663319",
    "description": "ANIME_PIC_a6f3ce4b418d9cef7e90104c6f08e931,[Girl],[isGirlAnime],[isSadAnimeGirl],[isSadAnime]",
    "title": "ANIME_PIC_a6f3ce4b418d9cef7e90104c6f08e931",
    "link_img": "https://live.staticflickr.com/65535/51545783846_eae91bb976_o.png",
    "id_image": "ANIME_PIC_a6f3ce4b418d9cef7e90104c6f08e931",
    "count_view": 0
  },
  {
    "link_thumb": "https://live.staticflickr.com/65535/51545784216_cc3400528a_n.jpg",
    "id_album": "-316663319",
    "description": "ANIME_PIC_a6f8c1f953f1f0af94d91738ac504ff2,[Girl],[isGirlAnime],[isCuteAnime],[isGirlsLoliAnime],[isSadAnimeGirl],[isSadAnime]",
    "title": "ANIME_PIC_a6f8c1f953f1f0af94d91738ac504ff2",
    "link_img": "https://live.staticflickr.com/65535/51545784216_506f27a915_o.png",
    "id_image": "ANIME_PIC_a6f8c1f953f1f0af94d91738ac504ff2",
    "count_view": 0
  },
  {
    "link_thumb": "https://live.staticflickr.com/65535/51544988142_b528d70d27_n.jpg",
    "id_album": "-316663319",
    "description": "ANIME_PIC_a6fa724f82d8a613fed5212d3ecc6b53,[Girl],[isGirlAnime],[isCuteAnime],[isGirlsLoliAnime]",
    "title": "ANIME_PIC_a6fa724f82d8a613fed5212d3ecc6b53",
    "link_img": "https://live.staticflickr.com/65535/51544988142_c5b64d1a67_o.jpg",
    "id_image": "ANIME_PIC_a6fa724f82d8a613fed5212d3ecc6b53",
    "count_view": 0
  },
  {
    "link_thumb": "https://live.staticflickr.com/65535/51545784851_bfbe455d1f_n.jpg",
    "id_album": "-316663319",
    "description": "ANIME_PIC_a6fb66ff096346833633b75f10a15efa,[Girl],[isGirlAnime],[isCuteAnime],[isGirlsHatsHoodieAnime],[isGirlsLoliAnime]",
    "title": "ANIME_PIC_a6fb66ff096346833633b75f10a15efa",
    "link_img": "https://live.staticflickr.com/65535/51545784851_f57131ee59_o.png",
    "id_image": "ANIME_PIC_a6fb66ff096346833633b75f10a15efa",
    "count_view": 0
  },
  {
    "link_thumb": "https://live.staticflickr.com/65535/51546512824_abcb11d70d_n.jpg",
    "id_album": "-316663319",
    "description": "ANIME_PIC_a6fb7eb62ea0529823cd63893d53a46e,[Girl],[isGirlAnime],[isCuteAnime],[isGirlsHatsHoodieAnime],[isGirlsLoliAnime],[isSadAnimeGirl],[isSadAnime]",
    "title": "ANIME_PIC_a6fb7eb62ea0529823cd63893d53a46e",
    "link_img": "https://live.staticflickr.com/65535/51546512824_e6bbe91b43_o.jpg",
    "id_image": "ANIME_PIC_a6fb7eb62ea0529823cd63893d53a46e",
    "count_view": 0
  },
  {
    "link_thumb": "https://live.staticflickr.com/65535/51546709320_b45956a801_n.jpg",
    "id_album": "-316663319",
    "description": "ANIME_PIC_a700c680fb4bdb9fa971c3421505650e,[Girl],[isGirlAnime],[isCuteAnime],[isGirlEarsNekoAnime]",
    "title": "ANIME_PIC_a700c680fb4bdb9fa971c3421505650e",
    "link_img": "https://live.staticflickr.com/65535/51546709320_17c17717e1_o.jpg",
    "id_image": "ANIME_PIC_a700c680fb4bdb9fa971c3421505650e",
    "count_view": 0
  },
  {
    "link_thumb": "https://live.staticflickr.com/65535/51545786321_a7701ea8fa_n.jpg",
    "id_album": "-316663319",
    "description": "ANIME_PIC_a702741f1549bef84febd1f63723d8f0,[Girl],[isGirlAnime],[isCuteAnime],[isGirlsHatsHoodieAnime],[isGirlsLoliAnime]",
    "title": "ANIME_PIC_a702741f1549bef84febd1f63723d8f0",
    "link_img": "https://live.staticflickr.com/65535/51545786321_ceeace6470_o.png",
    "id_image": "ANIME_PIC_a702741f1549bef84febd1f63723d8f0",
    "count_view": 0
  },
  {
    "link_thumb": "https://live.staticflickr.com/65535/51546711780_15958e86eb_n.jpg",
    "id_album": "-316663319",
    "description": "ANIME_PIC_a702ebe3b556832948aa77b7174b32ed,[Girl],[isGirlAnime],[isCuteAnime],[isGirlsLoliAnime]",
    "title": "ANIME_PIC_a702ebe3b556832948aa77b7174b32ed",
    "link_img": "https://live.staticflickr.com/65535/51546711780_41f5762e77_o.jpg",
    "id_image": "ANIME_PIC_a702ebe3b556832948aa77b7174b32ed",
    "count_view": 0
  },
  {
    "link_thumb": "https://live.staticflickr.com/65535/51544991867_e65b4f5457_n.jpg",
    "id_album": "-316663319",
    "description": "ANIME_PIC_a705eeebcb3c15d50722d19e4ed55230,[Girl],[isGirlAnime],[isCuteAnime]",
    "title": "ANIME_PIC_a705eeebcb3c15d50722d19e4ed55230",
    "link_img": "https://live.staticflickr.com/65535/51544991867_ed1d8ea765_o.png",
    "id_image": "ANIME_PIC_a705eeebcb3c15d50722d19e4ed55230",
    "count_view": 0
  },
  {
    "link_thumb": "https://live.staticflickr.com/65535/51546516629_2363357059_n.jpg",
    "id_album": "-316663319",
    "description": "ANIME_PIC_a70aa2fafbc11b492625a26cdb9960a8,[Girl],[isGirlAnime],[isCuteAnime]",
    "title": "ANIME_PIC_a70aa2fafbc11b492625a26cdb9960a8",
    "link_img": "https://live.staticflickr.com/65535/51546516629_f1804e74ac_o.jpg",
    "id_image": "ANIME_PIC_a70aa2fafbc11b492625a26cdb9960a8",
    "count_view": 0
  },
  {
    "link_thumb": "https://live.staticflickr.com/65535/51546033253_eb3396d2a0_n.jpg",
    "id_album": "-316663319",
    "description": "ANIME_PIC_a70c13be9e7ac6fc2f0058abc5e821ac,[Girl],[isGirlAnime],[isCuteAnime],[isGirlsLoliAnime],[isSadAnimeGirl],[isSadAnime]",
    "title": "ANIME_PIC_a70c13be9e7ac6fc2f0058abc5e821ac",
    "link_img": "https://live.staticflickr.com/65535/51546033253_58c4e8a7fa_o.jpg",
    "id_image": "ANIME_PIC_a70c13be9e7ac6fc2f0058abc5e821ac",
    "count_view": 0
  },
  {
    "link_thumb": "https://live.staticflickr.com/65535/51545789726_34d7f9e492_n.jpg",
    "id_album": "-316663319",
    "description": "ANIME_PIC_a70eeee4bb1976c78b48bfa5397cc939,[Girl],[isGirlAnime],[isCuteAnime],[isGirlsLoliAnime]",
    "title": "ANIME_PIC_a70eeee4bb1976c78b48bfa5397cc939",
    "link_img": "https://live.staticflickr.com/65535/51545789726_afd6847509_o.jpg",
    "id_image": "ANIME_PIC_a70eeee4bb1976c78b48bfa5397cc939",
    "count_view": 0
  },
  {
    "link_thumb": "https://live.staticflickr.com/65535/51545790021_899c52f432_n.jpg",
    "id_album": "-316663319",
    "description": "ANIME_PIC_a710e969d6d5d6191cb752b1cd7e83f1,[Girl],[isGirlAnime],[isCuteAnime],[isGirlsHatsHoodieAnime],[isGirlsLoliAnime]",
    "title": "ANIME_PIC_a710e969d6d5d6191cb752b1cd7e83f1",
    "link_img": "https://live.staticflickr.com/65535/51545790021_6537e0a7b4_o.jpg",
    "id_image": "ANIME_PIC_a710e969d6d5d6191cb752b1cd7e83f1",
    "count_view": 0
  },
  {
    "link_thumb": "https://live.staticflickr.com/65535/51546034188_7da7744e42_n.jpg",
    "id_album": "-316663319",
    "description": "ANIME_PIC_a711dc1020fcd41c981956f8e7c459fa,[Girl],[isGirlAnime],[isCuteAnime],[isGirlsLoliAnime]",
    "title": "ANIME_PIC_a711dc1020fcd41c981956f8e7c459fa",
    "link_img": "https://live.staticflickr.com/65535/51546034188_2962f33d63_o.png",
    "id_image": "ANIME_PIC_a711dc1020fcd41c981956f8e7c459fa",
    "count_view": 0
  },
  {
    "link_thumb": "https://live.staticflickr.com/65535/51546518324_33377cd87a_n.jpg",
    "id_album": "-316663319",
    "description": "ANIME_PIC_a7140647496b9c75c8442b6db2a8a08e,[Girl],[isGirlAnime],[isCuteAnime],[isSadAnimeGirl],[isSadAnime]",
    "title": "ANIME_PIC_a7140647496b9c75c8442b6db2a8a08e",
    "link_img": "https://live.staticflickr.com/65535/51546518324_492e4360d1_o.jpg",
    "id_image": "ANIME_PIC_a7140647496b9c75c8442b6db2a8a08e",
    "count_view": 0
  },
  {
    "link_thumb": "https://live.staticflickr.com/65535/51545791186_5912869260_n.jpg",
    "id_album": "-316663319",
    "description": "ANIME_PIC_a714de1a1c286b6eac32ac9706fdb358,[Girl],[isGirlAnime],[isCuteAnime],[isGirlFaceMasksAnime]",
    "title": "ANIME_PIC_a714de1a1c286b6eac32ac9706fdb358",
    "link_img": "https://live.staticflickr.com/65535/51545791186_7ec446a4a1_o.jpg",
    "id_image": "ANIME_PIC_a714de1a1c286b6eac32ac9706fdb358",
    "count_view": 0
  },
  {
    "link_thumb": "https://live.staticflickr.com/65535/51546715170_abb3ab5e18_n.jpg",
    "id_album": "-316663319",
    "description": "ANIME_PIC_a715e7db9e37b4b297ab03db5fdec640,[Girl],[isGirlAnime],[isCuteAnime],[isGirlEarsNekoAnime],[isGirlsLoliAnime]",
    "title": "ANIME_PIC_a715e7db9e37b4b297ab03db5fdec640",
    "link_img": "https://live.staticflickr.com/65535/51546715170_679473d4d1_o.jpg",
    "id_image": "ANIME_PIC_a715e7db9e37b4b297ab03db5fdec640",
    "count_view": 0
  },
  {
    "link_thumb": "https://live.staticflickr.com/65535/51546715435_626936b285_n.jpg",
    "id_album": "-316663319",
    "description": "ANIME_PIC_a719e9d9d97de9d4af6277bdfa96fe8a,[Girl],[isGirlAnime],[isCuteAnime]",
    "title": "ANIME_PIC_a719e9d9d97de9d4af6277bdfa96fe8a",
    "link_img": "https://live.staticflickr.com/65535/51546715435_3a237cc0fd_o.jpg",
    "id_image": "ANIME_PIC_a719e9d9d97de9d4af6277bdfa96fe8a",
    "count_view": 0
  },
  {
    "link_thumb": "https://live.staticflickr.com/65535/51546519584_a5cf4f0988_n.jpg",
    "id_album": "-316663319",
    "description": "ANIME_PIC_a72113af495012213075e3541ea8a140,[Girl],[isGirlAnime],[isCuteAnime],[isGirlsLoliAnime]",
    "title": "ANIME_PIC_a72113af495012213075e3541ea8a140",
    "link_img": "https://live.staticflickr.com/65535/51546519584_18dd724ae1_o.jpg",
    "id_image": "ANIME_PIC_a72113af495012213075e3541ea8a140",
    "count_view": 0
  },
  {
    "link_thumb": "https://live.staticflickr.com/65535/51546715970_096a0bb80f_n.jpg",
    "id_album": "-316663319",
    "description": "ANIME_PIC_a723c679919a992b3be3f592b38d567e,[Girl],[isGirlAnime],[isCuteAnime]",
    "title": "ANIME_PIC_a723c679919a992b3be3f592b38d567e",
    "link_img": "https://live.staticflickr.com/65535/51546715970_c12832909a_o.png",
    "id_image": "ANIME_PIC_a723c679919a992b3be3f592b38d567e",
    "count_view": 0
  },
  {
    "link_thumb": "https://live.staticflickr.com/65535/51544996242_8ffc4c57d2_n.jpg",
    "id_album": "-316663319",
    "description": "ANIME_PIC_a724144008f397d76123066de56c218a,[Girl],[isGirlAnime],[isCuteAnime],[isSadAnimeGirl],[isSadAnime]",
    "title": "ANIME_PIC_a724144008f397d76123066de56c218a",
    "link_img": "https://live.staticflickr.com/65535/51544996242_57c22772a7_o.png",
    "id_image": "ANIME_PIC_a724144008f397d76123066de56c218a",
    "count_view": 0
  },
  {
    "link_thumb": "https://live.staticflickr.com/65535/51544996687_0836cf88aa_n.jpg",
    "id_album": "-316663319",
    "description": "ANIME_PIC_a725ce7fe804bb2b50479cb598df0c59,[Girl],[isGirlAnime],[isCuteAnime],[isGirlsLoliAnime]",
    "title": "ANIME_PIC_a725ce7fe804bb2b50479cb598df0c59",
    "link_img": "https://live.staticflickr.com/65535/51544996687_085d2f14b1_o.jpg",
    "id_image": "ANIME_PIC_a725ce7fe804bb2b50479cb598df0c59",
    "count_view": 0
  },
  {
    "link_thumb": "https://live.staticflickr.com/65535/51546716985_73c17fa301_n.jpg",
    "id_album": "-316663319",
    "description": "ANIME_PIC_a7269020d077266f845b96282383afd4,[Girl],[isGirlAnime],[isCuteAnime]",
    "title": "ANIME_PIC_a7269020d077266f845b96282383afd4",
    "link_img": "https://live.staticflickr.com/65535/51546716985_88c90f2f54_o.jpg",
    "id_image": "ANIME_PIC_a7269020d077266f845b96282383afd4",
    "count_view": 0
  },
  {
    "link_thumb": "https://live.staticflickr.com/65535/51545793611_809a440344_n.jpg",
    "id_album": "-316663319",
    "description": "ANIME_PIC_a7316c6cf635263265b822f761a030b6,[Girl],[isGirlAnime],[isCuteAnime]",
    "title": "ANIME_PIC_a7316c6cf635263265b822f761a030b6",
    "link_img": "https://live.staticflickr.com/65535/51545793611_3077621edc_o.jpg",
    "id_image": "ANIME_PIC_a7316c6cf635263265b822f761a030b6",
    "count_view": 0
  },
  {
    "link_thumb": "https://live.staticflickr.com/65535/51546521474_129e989f1e_n.jpg",
    "id_album": "-316663319",
    "description": "ANIME_PIC_a73595196e555270616e41ece228ffe9,[Girl],[isGirlAnime],[isCuteAnime],[isSadAnimeGirl],[isSadAnime]",
    "title": "ANIME_PIC_a73595196e555270616e41ece228ffe9",
    "link_img": "https://live.staticflickr.com/65535/51546521474_135f0e3daa_o.jpg",
    "id_image": "ANIME_PIC_a73595196e555270616e41ece228ffe9",
    "count_view": 0
  },
  {
    "link_thumb": "https://live.staticflickr.com/65535/51545794176_d68682e81a_n.jpg",
    "id_album": "-316663319",
    "description": "ANIME_PIC_a73941b883777b352451624fbfd47a4d,[Girl],[isGirlAnime],[isCuteAnime],[isGirlsHatsHoodieAnime]",
    "title": "ANIME_PIC_a73941b883777b352451624fbfd47a4d",
    "link_img": "https://live.staticflickr.com/65535/51545794176_60d1c51752_o.png",
    "id_image": "ANIME_PIC_a73941b883777b352451624fbfd47a4d",
    "count_view": 0
  },
  {
    "link_thumb": "https://live.staticflickr.com/65535/51544998257_75a023061c_n.jpg",
    "id_album": "-316663319",
    "description": "ANIME_PIC_a741fcecf0f059b2e0bd9fb53bf54889,[Girl],[isGirlAnime],[isCuteAnime],[isGirlsHatsHoodieAnime],[isGirlsLoliAnime]",
    "title": "ANIME_PIC_a741fcecf0f059b2e0bd9fb53bf54889",
    "link_img": "https://live.staticflickr.com/65535/51544998257_0808f9d68e_o.jpg",
    "id_image": "ANIME_PIC_a741fcecf0f059b2e0bd9fb53bf54889",
    "count_view": 0
  },
  {
    "link_thumb": "https://live.staticflickr.com/65535/51546522369_ddb1eb9a61_n.jpg",
    "id_album": "-316663319",
    "description": "ANIME_PIC_a7426d6c1a99b9169ea370ec7fc2bf2b,[Girl],[isGirlAnime],[isCuteAnime],[isGirlsLoliAnime],[isSadAnimeGirl],[isSadAnime]",
    "title": "ANIME_PIC_a7426d6c1a99b9169ea370ec7fc2bf2b",
    "link_img": "https://live.staticflickr.com/65535/51546522369_3b6bcd1ef5_o.png",
    "id_image": "ANIME_PIC_a7426d6c1a99b9169ea370ec7fc2bf2b",
    "count_view": 0
  },
  {
    "link_thumb": "https://live.staticflickr.com/65535/51546718775_4543ca21e3_n.jpg",
    "id_album": "-316663319",
    "description": "ANIME_PIC_a745c01f38ad1b5faa023b9cebf821d2,[Girl],[isGirlAnime],[isCuteAnime],[isGirlsHatsHoodieAnime],[isGirlsLoliAnime]",
    "title": "ANIME_PIC_a745c01f38ad1b5faa023b9cebf821d2",
    "link_img": "https://live.staticflickr.com/65535/51546718775_50dcda87c3_o.jpg",
    "id_image": "ANIME_PIC_a745c01f38ad1b5faa023b9cebf821d2",
    "count_view": 0
  },
  {
    "link_thumb": "https://live.staticflickr.com/65535/51546039203_d423b8d8bd_n.jpg",
    "id_album": "-316663319",
    "description": "ANIME_PIC_a745e2b454902438c3d45442049e7afc,[Girl],[isGirlAnime],[isCuteAnime],[isGirlFaceMasksAnime],[isGirlsLoliAnime]",
    "title": "ANIME_PIC_a745e2b454902438c3d45442049e7afc",
    "link_img": "https://live.staticflickr.com/65535/51546039203_abb8eb4e52_o.jpg",
    "id_image": "ANIME_PIC_a745e2b454902438c3d45442049e7afc",
    "count_view": 0
  },
  {
    "link_thumb": "https://live.staticflickr.com/65535/51546719280_346c25cd1f_n.jpg",
    "id_album": "-316663319",
    "description": "ANIME_PIC_a7465042e8c2ed979c190cfba6812c9f,[Girl],[isGirlAnime],[isCuteAnime],[isGirlsLoliAnime]",
    "title": "ANIME_PIC_a7465042e8c2ed979c190cfba6812c9f",
    "link_img": "https://live.staticflickr.com/65535/51546719280_6b7c41a734_o.png",
    "id_image": "ANIME_PIC_a7465042e8c2ed979c190cfba6812c9f",
    "count_view": 0
  },
  {
    "link_thumb": "https://live.staticflickr.com/65535/51546719760_5a0e856923_n.jpg",
    "id_album": "-316663319",
    "description": "ANIME_PIC_a74a0ceb0e019b52c87481e6ce5f844f,[Girl],[isGirlAnime],[isCuteAnime],[isGirlsLoliAnime]",
    "title": "ANIME_PIC_a74a0ceb0e019b52c87481e6ce5f844f",
    "link_img": "https://live.staticflickr.com/65535/51546719760_8ef41fe206_o.png",
    "id_image": "ANIME_PIC_a74a0ceb0e019b52c87481e6ce5f844f",
    "count_view": 0
  },
  {
    "link_thumb": "https://live.staticflickr.com/65535/51545000332_2299a3e640_n.jpg",
    "id_album": "-316663319",
    "description": "ANIME_PIC_a74ba348e03bd5f2a1f832ecc2c67208,[Girl],[isGirlAnime],[isCuteAnime],[isGirlEarsNekoAnime],[isGirlsLoliAnime]",
    "title": "ANIME_PIC_a74ba348e03bd5f2a1f832ecc2c67208",
    "link_img": "https://live.staticflickr.com/65535/51545000332_3e7e8e421c_o.jpg",
    "id_image": "ANIME_PIC_a74ba348e03bd5f2a1f832ecc2c67208",
    "count_view": 0
  },
  {
    "link_thumb": "https://live.staticflickr.com/65535/51546720690_75ded6f036_n.jpg",
    "id_album": "-316663319",
    "description": "ANIME_PIC_a74dc57ff3fa7ce54e1e63e2869912c8,[Girl],[isGirlAnime],[isCuteAnime],[isGirlsLoliAnime]",
    "title": "ANIME_PIC_a74dc57ff3fa7ce54e1e63e2869912c8",
    "link_img": "https://live.staticflickr.com/65535/51546720690_ff856c5fff_o.jpg",
    "id_image": "ANIME_PIC_a74dc57ff3fa7ce54e1e63e2869912c8",
    "count_view": 0
  },
  {
    "link_thumb": "https://live.staticflickr.com/65535/51546041278_e9fe2200fc_n.jpg",
    "id_album": "-316663319",
    "description": "ANIME_PIC_a74ff4d5a86e47d7dccae986fc1ada50,[Girl],[isGirlAnime],[isCuteAnime]",
    "title": "ANIME_PIC_a74ff4d5a86e47d7dccae986fc1ada50",
    "link_img": "https://live.staticflickr.com/65535/51546041278_73e3857452_o.jpg",
    "id_image": "ANIME_PIC_a74ff4d5a86e47d7dccae986fc1ada50",
    "count_view": 0
  },
  {
    "link_thumb": "https://live.staticflickr.com/65535/51545001642_ed73e079de_n.jpg",
    "id_album": "-316663319",
    "description": "ANIME_PIC_a7503348f2b6365832360de4cf7d88f8,[Girl],[isGirlAnime],[isCuteAnime]",
    "title": "ANIME_PIC_a7503348f2b6365832360de4cf7d88f8",
    "link_img": "https://live.staticflickr.com/65535/51545001642_0cf1ebe55a_o.png",
    "id_image": "ANIME_PIC_a7503348f2b6365832360de4cf7d88f8",
    "count_view": 0
  },
  {
    "link_thumb": "https://live.staticflickr.com/65535/51546042363_8a43b28d96_n.jpg",
    "id_album": "-316663319",
    "description": "ANIME_PIC_a7552eebc7159f0d66ed5cd6307bc699,[Girl],[isGirlAnime],[isCuteAnime],[isGirlsLoliAnime]",
    "title": "ANIME_PIC_a7552eebc7159f0d66ed5cd6307bc699",
    "link_img": "https://live.staticflickr.com/65535/51546042363_5bf179342e_o.jpg",
    "id_image": "ANIME_PIC_a7552eebc7159f0d66ed5cd6307bc699",
    "count_view": 0
  },
  {
    "link_thumb": "https://live.staticflickr.com/65535/51546526519_4223cae8d1_n.jpg",
    "id_album": "-316663319",
    "description": "ANIME_PIC_a7583fa9cc17dff904cc9a0abeb9af5d,[Girl],[isGirlAnime],[isCuteAnime],[isSadAnimeGirl],[isSadAnime]",
    "title": "ANIME_PIC_a7583fa9cc17dff904cc9a0abeb9af5d",
    "link_img": "https://live.staticflickr.com/65535/51546526519_f67e6dd854_o.jpg",
    "id_image": "ANIME_PIC_a7583fa9cc17dff904cc9a0abeb9af5d",
    "count_view": 0
  },
  {
    "link_thumb": "https://live.staticflickr.com/65535/51545799511_5890b199a5_n.jpg",
    "id_album": "-316663319",
    "description": "ANIME_PIC_a75be06a33975335cfd80e0f31ca1d01,[Girl],[isGirlAnime],[isCuteAnime],[isGirlsLoliAnime],[isGirlsSharpCanineToothAnime]",
    "title": "ANIME_PIC_a75be06a33975335cfd80e0f31ca1d01",
    "link_img": "https://live.staticflickr.com/65535/51545799511_0d084b6299_o.jpg",
    "id_image": "ANIME_PIC_a75be06a33975335cfd80e0f31ca1d01",
    "count_view": 0
  },
  {
    "link_thumb": "https://live.staticflickr.com/65535/51546527514_73f5d1a010_n.jpg",
    "id_album": "-316663319",
    "description": "ANIME_PIC_a75c1b60948d5d61c4c9bafe6b2994a7,[Girl],[isGirlAnime],[isCuteAnime],[isGirlsLoliAnime]",
    "title": "ANIME_PIC_a75c1b60948d5d61c4c9bafe6b2994a7",
    "link_img": "https://live.staticflickr.com/65535/51546527514_b0596d1cd8_o.png",
    "id_image": "ANIME_PIC_a75c1b60948d5d61c4c9bafe6b2994a7",
    "count_view": 0
  },
  {
    "link_thumb": "https://live.staticflickr.com/65535/51546044503_e04a2541d1_n.jpg",
    "id_album": "-316663319",
    "description": "ANIME_PIC_a75dbb01f2574d19a4973cf8533119b9,[Girl],[isGirlAnime],[isCuteAnime],[isGirlsLoliAnime],[isSadAnimeGirl],[isSadAnime]",
    "title": "ANIME_PIC_a75dbb01f2574d19a4973cf8533119b9",
    "link_img": "https://live.staticflickr.com/65535/51546044503_c2a053670a_o.png",
    "id_image": "ANIME_PIC_a75dbb01f2574d19a4973cf8533119b9",
    "count_view": 0
  },
  {
    "link_thumb": "https://live.staticflickr.com/65535/51546045088_f162962638_n.jpg",
    "id_album": "-316663319",
    "description": "ANIME_PIC_a7616707800891807d51f507a79f1eeb,[Girl],[isGirlAnime],[isCuteAnime],[isGirlsLoliAnime]",
    "title": "ANIME_PIC_a7616707800891807d51f507a79f1eeb",
    "link_img": "https://live.staticflickr.com/65535/51546045088_57fed6f9b6_o.jpg",
    "id_image": "ANIME_PIC_a7616707800891807d51f507a79f1eeb",
    "count_view": 0
  },
  {
    "link_thumb": "https://live.staticflickr.com/65535/51546725345_d67f72d800_n.jpg",
    "id_album": "-316663319",
    "description": "ANIME_PIC_a7617a63b8cd06d068f9953708c78ab9,[Girl],[isGirlAnime],[isCuteAnime],[isGirlEarsNekoAnime]",
    "title": "ANIME_PIC_a7617a63b8cd06d068f9953708c78ab9",
    "link_img": "https://live.staticflickr.com/65535/51546725345_4a31bf8108_o.jpg",
    "id_image": "ANIME_PIC_a7617a63b8cd06d068f9953708c78ab9",
    "count_view": 0
  },
  {
    "link_thumb": "https://live.staticflickr.com/65535/51546529949_cbc72dce56_n.jpg",
    "id_album": "-316663319",
    "description": "ANIME_PIC_a762597a184bdf2cb27adb6254fbecdd,[Girl],[isGirlAnime],[isCuteAnime],[isGirlsLoliAnime]",
    "title": "ANIME_PIC_a762597a184bdf2cb27adb6254fbecdd",
    "link_img": "https://live.staticflickr.com/65535/51546529949_8654d84f83_o.jpg",
    "id_image": "ANIME_PIC_a762597a184bdf2cb27adb6254fbecdd",
    "count_view": 0
  },
  {
    "link_thumb": "https://live.staticflickr.com/65535/51545802766_2c766884b5_n.jpg",
    "id_album": "-316663319",
    "description": "ANIME_PIC_a762c87b35cd489ac2a3ef14e9eb574e,[Girl],[isGirlAnime],[isSadAnimeGirl],[isSadAnime]",
    "title": "ANIME_PIC_a762c87b35cd489ac2a3ef14e9eb574e",
    "link_img": "https://live.staticflickr.com/65535/51545802766_9857f3e67c_o.jpg",
    "id_image": "ANIME_PIC_a762c87b35cd489ac2a3ef14e9eb574e",
    "count_view": 0
  },
  {
    "link_thumb": "https://live.staticflickr.com/65535/51546726610_1b49c4a5af_n.jpg",
    "id_album": "-316663319",
    "description": "ANIME_PIC_a7647981c0b5be42bf9daa0328f103c6,[Girl],[isGirlAnime],[isCuteAnime],[isGirlEarsNekoAnime],[isGirlsLoliAnime],[isSadAnimeGirl],[isSadAnime]",
    "title": "ANIME_PIC_a7647981c0b5be42bf9daa0328f103c6",
    "link_img": "https://live.staticflickr.com/65535/51546726610_920e4098e7_o.png",
    "id_image": "ANIME_PIC_a7647981c0b5be42bf9daa0328f103c6",
    "count_view": 0
  },
  {
    "link_thumb": "https://live.staticflickr.com/65535/51546047183_a2ce971627_n.jpg",
    "id_album": "-316663319",
    "description": "ANIME_PIC_a766eb349d98e8e7ed742039d18b1e48,[Girl],[isGirlAnime],[isCuteAnime],[isGirlsLoliAnime]",
    "title": "ANIME_PIC_a766eb349d98e8e7ed742039d18b1e48",
    "link_img": "https://live.staticflickr.com/65535/51546047183_6341750ab1_o.jpg",
    "id_image": "ANIME_PIC_a766eb349d98e8e7ed742039d18b1e48",
    "count_view": 0
  },
  {
    "link_thumb": "https://live.staticflickr.com/65535/51546531699_f0fbaf3ef7_n.jpg",
    "id_album": "-316663319",
    "description": "ANIME_PIC_a767fce3431050adf7bfdc4b3996b280,[Girl],[isGirlAnime],[isCuteAnime],[isGirlsHatsHoodieAnime],[isGirlsLoliAnime]",
    "title": "ANIME_PIC_a767fce3431050adf7bfdc4b3996b280",
    "link_img": "https://live.staticflickr.com/65535/51546531699_1735e6759b_o.jpg",
    "id_image": "ANIME_PIC_a767fce3431050adf7bfdc4b3996b280",
    "count_view": 0
  },
  {
    "link_thumb": "https://live.staticflickr.com/65535/51546047923_5a1d645489_n.jpg",
    "id_album": "-316663319",
    "description": "ANIME_PIC_a76888778b8883f013b95ce4d1845bbb,[Girl],[isGirlAnime],[isCuteAnime],[isGirlsLoliAnime]",
    "title": "ANIME_PIC_a76888778b8883f013b95ce4d1845bbb",
    "link_img": "https://live.staticflickr.com/65535/51546047923_04786e846c_o.jpg",
    "id_image": "ANIME_PIC_a76888778b8883f013b95ce4d1845bbb",
    "count_view": 0
  },
  {
    "link_thumb": "https://live.staticflickr.com/65535/51545804926_11c49fdf41_n.jpg",
    "id_album": "-316663319",
    "description": "ANIME_PIC_a768bc93fa736c42222d8635d2fccc21,[Girl],[isGirlAnime],[isCuteAnime]",
    "title": "ANIME_PIC_a768bc93fa736c42222d8635d2fccc21",
    "link_img": "https://live.staticflickr.com/65535/51545804926_6b463a9b78_o.jpg",
    "id_image": "ANIME_PIC_a768bc93fa736c42222d8635d2fccc21",
    "count_view": 0
  },
  {
    "link_thumb": "https://live.staticflickr.com/65535/51546048833_67c81fc2fd_n.jpg",
    "id_album": "-316663319",
    "description": "ANIME_PIC_a76b1dc7c42da223be36878a21f02647,[Girl],[isGirlAnime],[isCuteAnime],[isGirlsHatsHoodieAnime]",
    "title": "ANIME_PIC_a76b1dc7c42da223be36878a21f02647",
    "link_img": "https://live.staticflickr.com/65535/51546048833_7956f95682_o.jpg",
    "id_image": "ANIME_PIC_a76b1dc7c42da223be36878a21f02647",
    "count_view": 0
  },
  {
    "link_thumb": "https://live.staticflickr.com/65535/51545805846_e2c49f689a_n.jpg",
    "id_album": "-316663319",
    "description": "ANIME_PIC_a76ea8e832d0574f50932a637d4f9c1f,[Girl],[isBoyAnime],[isGirlAnime],[isCuteAnime]",
    "title": "ANIME_PIC_a76ea8e832d0574f50932a637d4f9c1f",
    "link_img": "https://live.staticflickr.com/65535/51545805846_c73a91ff20_o.jpg",
    "id_image": "ANIME_PIC_a76ea8e832d0574f50932a637d4f9c1f",
    "count_view": 0
  },
  {
    "link_thumb": "https://live.staticflickr.com/65535/51546533914_9805dbd3b4_n.jpg",
    "id_album": "-316663319",
    "description": "ANIME_PIC_a77168d895e47f18b1f7d085693f90fe,[Girl],[isGirlAnime],[isCuteAnime],[isGirlsLoliAnime]",
    "title": "ANIME_PIC_a77168d895e47f18b1f7d085693f90fe",
    "link_img": "https://live.staticflickr.com/65535/51546533914_b7e4977a33_o.jpg",
    "id_image": "ANIME_PIC_a77168d895e47f18b1f7d085693f90fe",
    "count_view": 0
  },
  {
    "link_thumb": "https://live.staticflickr.com/65535/51545806516_6dbddfca63_n.jpg",
    "id_album": "-316663319",
    "description": "ANIME_PIC_a7748b982cda55b1da3f47a8dc8cefe7,[Girl],[isGirlAnime],[isCuteAnime],[isGirlsLoliAnime]",
    "title": "ANIME_PIC_a7748b982cda55b1da3f47a8dc8cefe7",
    "link_img": "https://live.staticflickr.com/65535/51545806516_810bea98fc_o.jpg",
    "id_image": "ANIME_PIC_a7748b982cda55b1da3f47a8dc8cefe7",
    "count_view": 0
  },
  {
    "link_thumb": "https://live.staticflickr.com/65535/51545806861_fe151da3cd_n.jpg",
    "id_album": "-316663319",
    "description": "ANIME_PIC_a77495fd7274b036ed7fe0e27bca2074,[Girl],[isGirlAnime],[isCuteAnime],[isGirlEarsNekoAnime],[isGirlsHatsHoodieAnime],[isGirlsLoliAnime]",
    "title": "ANIME_PIC_a77495fd7274b036ed7fe0e27bca2074",
    "link_img": "https://live.staticflickr.com/65535/51545806861_8744bc59d7_o.jpg",
    "id_image": "ANIME_PIC_a77495fd7274b036ed7fe0e27bca2074",
    "count_view": 0
  },
  {
    "link_thumb": "https://live.staticflickr.com/65535/51546730665_8eab964b29_n.jpg",
    "id_album": "-316663319",
    "description": "ANIME_PIC_a7771fcb6686be8cbc096f91ef02164b,[Girl],[isGirlAnime],[isCuteAnime],[isGirlsLoliAnime]",
    "title": "ANIME_PIC_a7771fcb6686be8cbc096f91ef02164b",
    "link_img": "https://live.staticflickr.com/65535/51546730665_8a6107303a_o.jpg",
    "id_image": "ANIME_PIC_a7771fcb6686be8cbc096f91ef02164b",
    "count_view": 0
  },
  {
    "link_thumb": "https://live.staticflickr.com/65535/51546535324_49cde979f1_n.jpg",
    "id_album": "-316663319",
    "description": "ANIME_PIC_a7778b95fac9f662559b3083574abf6f,[Girl],[isGirlAnime],[isCuteAnime],[isGirlsLoliAnime]",
    "title": "ANIME_PIC_a7778b95fac9f662559b3083574abf6f",
    "link_img": "https://live.staticflickr.com/65535/51546535324_f4db4378bb_o.jpg",
    "id_image": "ANIME_PIC_a7778b95fac9f662559b3083574abf6f",
    "count_view": 0
  },
  {
    "link_thumb": "https://live.staticflickr.com/65535/51546051118_2ce8cf6f95_n.jpg",
    "id_album": "-316663319",
    "description": "ANIME_PIC_a77b19e732e11d61944a3f37b1dbd773,[Girl],[isGirlAnime],[isCuteAnime],[isSadAnimeGirl],[isSadAnime]",
    "title": "ANIME_PIC_a77b19e732e11d61944a3f37b1dbd773",
    "link_img": "https://live.staticflickr.com/65535/51546051118_01a8852691_o.jpg",
    "id_image": "ANIME_PIC_a77b19e732e11d61944a3f37b1dbd773",
    "count_view": 0
  },
  {
    "link_thumb": "https://live.staticflickr.com/65535/51545808116_fee614f178_n.jpg",
    "id_album": "-316663319",
    "description": "ANIME_PIC_a77c7cedeb5173222a4faa80fd5af167,[Girl],[isGirlAnime],[isCuteAnime],[isGirlsHatsHoodieAnime],[isGirlsLoliAnime]",
    "title": "ANIME_PIC_a77c7cedeb5173222a4faa80fd5af167",
    "link_img": "https://live.staticflickr.com/65535/51545808116_c57bd9c6ac_o.jpg",
    "id_image": "ANIME_PIC_a77c7cedeb5173222a4faa80fd5af167",
    "count_view": 0
  },
  {
    "link_thumb": "https://live.staticflickr.com/65535/51545808436_1dc553e21c_n.jpg",
    "id_album": "-316663319",
    "description": "ANIME_PIC_a77e212143151bec70053128243f0e88,[Girl],[isGirlAnime],[isCuteAnime],[isGirlsLoliAnime]",
    "title": "ANIME_PIC_a77e212143151bec70053128243f0e88",
    "link_img": "https://live.staticflickr.com/65535/51545808436_2ebabfc10b_o.png",
    "id_image": "ANIME_PIC_a77e212143151bec70053128243f0e88",
    "count_view": 0
  },
  {
    "link_thumb": "https://live.staticflickr.com/65535/51545012282_1b3c7f08f1_n.jpg",
    "id_album": "-316663319",
    "description": "ANIME_PIC_a77f50f440f52fb2a44db4650b741cfc,[Girl],[isGirlAnime],[isCuteAnime],[isGirlsLoliAnime]",
    "title": "ANIME_PIC_a77f50f440f52fb2a44db4650b741cfc",
    "link_img": "https://live.staticflickr.com/65535/51545012282_f9ce2db0c5_o.png",
    "id_image": "ANIME_PIC_a77f50f440f52fb2a44db4650b741cfc",
    "count_view": 0
  },
  {
    "link_thumb": "https://live.staticflickr.com/65535/51546052808_0030c27b58_n.jpg",
    "id_album": "-316663319",
    "description": "ANIME_PIC_a780b2dedf8a99cf40a53dc523a10898,[Girl],[isGirlAnime],[isCuteAnime],[isGirlsLoliAnime]",
    "title": "ANIME_PIC_a780b2dedf8a99cf40a53dc523a10898",
    "link_img": "https://live.staticflickr.com/65535/51546052808_2dbf266218_o.jpg",
    "id_image": "ANIME_PIC_a780b2dedf8a99cf40a53dc523a10898",
    "count_view": 0
  },
  {
    "link_thumb": "https://live.staticflickr.com/65535/51546537874_e43cb60776_n.jpg",
    "id_album": "-316663319",
    "description": "ANIME_PIC_a7834daf588fa096fac40c76efe3780f,[Girl],[isBoyAnime],[isGirlAnime],[isCuteAnime]",
    "title": "ANIME_PIC_a7834daf588fa096fac40c76efe3780f",
    "link_img": "https://live.staticflickr.com/65535/51546537874_8c01ac962e_o.jpg",
    "id_image": "ANIME_PIC_a7834daf588fa096fac40c76efe3780f",
    "count_view": 0
  },
  {
    "link_thumb": "https://live.staticflickr.com/65535/51545810141_ea8cfd53ca_n.jpg",
    "id_album": "-316663319",
    "description": "ANIME_PIC_a785b515f73b0bc7a683b569798d67ce,[Girl],[isGirlAnime],[isCuteAnime],[isGirlsLoliAnime]",
    "title": "ANIME_PIC_a785b515f73b0bc7a683b569798d67ce",
    "link_img": "https://live.staticflickr.com/65535/51545810141_5de019c468_o.jpg",
    "id_image": "ANIME_PIC_a785b515f73b0bc7a683b569798d67ce",
    "count_view": 0
  },
  {
    "link_thumb": "https://live.staticflickr.com/65535/51545013752_7f4434349a_n.jpg",
    "id_album": "-316663319",
    "description": "ANIME_PIC_a786956213f3c41506141f185a02949b,[Girl],[isGirlAnime],[isCuteAnime],[isGirlsHatsHoodieAnime]",
    "title": "ANIME_PIC_a786956213f3c41506141f185a02949b",
    "link_img": "https://live.staticflickr.com/65535/51545013752_5bb68c0f74_o.jpg",
    "id_image": "ANIME_PIC_a786956213f3c41506141f185a02949b",
    "count_view": 0
  },
  {
    "link_thumb": "https://live.staticflickr.com/65535/51545014052_f506c63d19_n.jpg",
    "id_album": "-316663319",
    "description": "ANIME_PIC_a786e1e40b04055658f3d7ad84ecee44,[Girl],[isGirlAnime],[isCuteAnime]",
    "title": "ANIME_PIC_a786e1e40b04055658f3d7ad84ecee44",
    "link_img": "https://live.staticflickr.com/65535/51545014052_86120844b1_o.jpg",
    "id_image": "ANIME_PIC_a786e1e40b04055658f3d7ad84ecee44",
    "count_view": 0
  },
  {
    "link_thumb": "https://live.staticflickr.com/65535/51546539284_6d45c2c3fa_n.jpg",
    "id_album": "-316663319",
    "description": "ANIME_PIC_a788359bd165aa9e37df477f132facb5,[Girl],[isGirlAnime],[isCuteAnime],[isGirlsLoliAnime]",
    "title": "ANIME_PIC_a788359bd165aa9e37df477f132facb5",
    "link_img": "https://live.staticflickr.com/65535/51546539284_0fc188093a_o.png",
    "id_image": "ANIME_PIC_a788359bd165aa9e37df477f132facb5",
    "count_view": 0
  },
  {
    "link_thumb": "https://live.staticflickr.com/65535/51546539734_0a5f02cd2d_n.jpg",
    "id_album": "-316663319",
    "description": "ANIME_PIC_a788d40be11e2da89421d857416fdcf1,[Girl],[isGirlAnime],[isCuteAnime],[isGirlFaceMasksAnime],[isSadAnimeGirl],[isSadAnime]",
    "title": "ANIME_PIC_a788d40be11e2da89421d857416fdcf1",
    "link_img": "https://live.staticflickr.com/65535/51546539734_e81aa73089_o.jpg",
    "id_image": "ANIME_PIC_a788d40be11e2da89421d857416fdcf1",
    "count_view": 0
  },
  {
    "link_thumb": "https://live.staticflickr.com/65535/51545015352_71fb6fbd3a_n.jpg",
    "id_album": "-316663319",
    "description": "ANIME_PIC_a794d43b680b76920a07016d6634f672,[Girl],[isGirlAnime],[isCuteAnime]",
    "title": "ANIME_PIC_a794d43b680b76920a07016d6634f672",
    "link_img": "https://live.staticflickr.com/65535/51545015352_0337e47dc0_o.jpg",
    "id_image": "ANIME_PIC_a794d43b680b76920a07016d6634f672",
    "count_view": 0
  },
  {
    "link_thumb": "https://live.staticflickr.com/65535/51546055858_8b05951ac6_n.jpg",
    "id_album": "-316663319",
    "description": "ANIME_PIC_a79599d073c60d942d1cd3ac6c4abf85,[Girl],[isGirlAnime],[isCuteAnime],[isSadAnimeGirl],[isSadAnime]",
    "title": "ANIME_PIC_a79599d073c60d942d1cd3ac6c4abf85",
    "link_img": "https://live.staticflickr.com/65535/51546055858_1d0665d39e_o.jpg",
    "id_image": "ANIME_PIC_a79599d073c60d942d1cd3ac6c4abf85",
    "count_view": 0
  },
  {
    "link_thumb": "https://live.staticflickr.com/65535/51546540769_7d649fc7f1_n.jpg",
    "id_album": "-316663319",
    "description": "ANIME_PIC_a7991ba523df5261baab9399dff8cc51,[Girl],[isGirlAnime],[isCuteAnime]",
    "title": "ANIME_PIC_a7991ba523df5261baab9399dff8cc51",
    "link_img": "https://live.staticflickr.com/65535/51546540769_620bc6533c_o.jpg",
    "id_image": "ANIME_PIC_a7991ba523df5261baab9399dff8cc51",
    "count_view": 0
  },
  {
    "link_thumb": "https://live.staticflickr.com/65535/51546736520_82af92c188_n.jpg",
    "id_album": "-316663319",
    "description": "ANIME_PIC_a79ddbe45df116c82dc6cf9a5030a393,[Girl],[isGirlAnime],[isCuteAnime]",
    "title": "ANIME_PIC_a79ddbe45df116c82dc6cf9a5030a393",
    "link_img": "https://live.staticflickr.com/65535/51546736520_265f05c712_o.jpg",
    "id_image": "ANIME_PIC_a79ddbe45df116c82dc6cf9a5030a393",
    "count_view": 0
  },
  {
    "link_thumb": "https://live.staticflickr.com/65535/51546737010_b1c3df0fd3_n.jpg",
    "id_album": "-316663319",
    "description": "ANIME_PIC_a79e524c886246d6e8e0bec9b11237cc,[Girl],[isGirlAnime],[isCuteAnime],[isGirlsHatsHoodieAnime],[isGirlsLoliAnime],[isSadAnimeGirl],[isSadAnime]",
    "title": "ANIME_PIC_a79e524c886246d6e8e0bec9b11237cc",
    "link_img": "https://live.staticflickr.com/65535/51546737010_c452cf4157_o.jpg",
    "id_image": "ANIME_PIC_a79e524c886246d6e8e0bec9b11237cc",
    "count_view": 0
  },
  {
    "link_thumb": "https://live.staticflickr.com/65535/51546541964_783b1f65df_n.jpg",
    "id_album": "-316663319",
    "description": "ANIME_PIC_a79eed654df8a1d87f821c850743ec48,[Girl],[isGirlAnime],[isCuteAnime],[isGirlsHatsHoodieAnime],[isGirlsLoliAnime]",
    "title": "ANIME_PIC_a79eed654df8a1d87f821c850743ec48",
    "link_img": "https://live.staticflickr.com/65535/51546541964_876d434509_o.jpg",
    "id_image": "ANIME_PIC_a79eed654df8a1d87f821c850743ec48",
    "count_view": 0
  },
  {
    "link_thumb": "https://live.staticflickr.com/65535/51546057768_ae1f75f445_n.jpg",
    "id_album": "-316663319",
    "description": "ANIME_PIC_a7a161124a92feb937cb56af2661d348,[Girl],[isGirlAnime],[isCuteAnime],[isGirlsLoliAnime]",
    "title": "ANIME_PIC_a7a161124a92feb937cb56af2661d348",
    "link_img": "https://live.staticflickr.com/65535/51546057768_cd08c519a5_o.jpg",
    "id_image": "ANIME_PIC_a7a161124a92feb937cb56af2661d348",
    "count_view": 0
  },
  {
    "link_thumb": "https://live.staticflickr.com/65535/51546058113_9564337cc4_n.jpg",
    "id_album": "-316663319",
    "description": "ANIME_PIC_a7a3bbf90d7b219e11fddf4a659b3138,[Girl],[isGirlAnime],[isCuteAnime]",
    "title": "ANIME_PIC_a7a3bbf90d7b219e11fddf4a659b3138",
    "link_img": "https://live.staticflickr.com/65535/51546058113_312663a6f4_o.png",
    "id_image": "ANIME_PIC_a7a3bbf90d7b219e11fddf4a659b3138",
    "count_view": 0
  },
  {
    "link_thumb": "https://live.staticflickr.com/65535/51545018712_2705d336d6_n.jpg",
    "id_album": "-316663319",
    "description": "ANIME_PIC_a7a55ea9e623304ee40fd076f5818cbc,[Girl],[isGirlAnime],[isCuteAnime]",
    "title": "ANIME_PIC_a7a55ea9e623304ee40fd076f5818cbc",
    "link_img": "https://live.staticflickr.com/65535/51545018712_fcf7d614a3_o.jpg",
    "id_image": "ANIME_PIC_a7a55ea9e623304ee40fd076f5818cbc",
    "count_view": 0
  },
  {
    "link_thumb": "https://live.staticflickr.com/65535/51546739120_b34134ec61_n.jpg",
    "id_album": "-316663319",
    "description": "ANIME_PIC_a7ac3298f1fc426ba4ed6ca8de2e5d70,[Girl],[isGirlAnime],[isCuteAnime],[isGirlsLoliAnime]",
    "title": "ANIME_PIC_a7ac3298f1fc426ba4ed6ca8de2e5d70",
    "link_img": "https://live.staticflickr.com/65535/51546739120_0602e10fed_o.png",
    "id_image": "ANIME_PIC_a7ac3298f1fc426ba4ed6ca8de2e5d70",
    "count_view": 0
  },
  {
    "link_thumb": "https://live.staticflickr.com/65535/51546739915_54cee84333_n.jpg",
    "id_album": "-316663319",
    "description": "ANIME_PIC_a7ae6844b8cc76dbd2bf08404aac3a30,[Girl],[isGirlAnime],[isCuteAnime],[isSadAnimeGirl],[isSadAnime]",
    "title": "ANIME_PIC_a7ae6844b8cc76dbd2bf08404aac3a30",
    "link_img": "https://live.staticflickr.com/65535/51546739915_3ec0e63e23_o.jpg",
    "id_image": "ANIME_PIC_a7ae6844b8cc76dbd2bf08404aac3a30",
    "count_view": 0
  },
  {
    "link_thumb": "https://live.staticflickr.com/65535/51546740265_6aeeed6221_n.jpg",
    "id_album": "-316663319",
    "description": "ANIME_PIC_a7b6d1ab0bd2260cbb0fcea2bda534aa,[Girl],[isGirlAnime],[isCuteAnime]",
    "title": "ANIME_PIC_a7b6d1ab0bd2260cbb0fcea2bda534aa",
    "link_img": "https://live.staticflickr.com/65535/51546740265_6e801b795b_o.jpg",
    "id_image": "ANIME_PIC_a7b6d1ab0bd2260cbb0fcea2bda534aa",
    "count_view": 0
  },
  {
    "link_thumb": "https://live.staticflickr.com/65535/51545817451_c415298bda_n.jpg",
    "id_album": "-316663319",
    "description": "ANIME_PIC_a7b6f362bb614233eb4c5db5926ccccc,[Girl],[isGirlAnime],[isCuteAnime],[isGirlEarsNekoAnime],[isGirlsHornsAnime],[isGirlsLoliAnime],[isGirlsSharpCanineToothAnime]",
    "title": "ANIME_PIC_a7b6f362bb614233eb4c5db5926ccccc",
    "link_img": "https://live.staticflickr.com/65535/51545817451_f099963f5b_o.png",
    "id_image": "ANIME_PIC_a7b6f362bb614233eb4c5db5926ccccc",
    "count_view": 0
  },
  {
    "link_thumb": "https://live.staticflickr.com/65535/51545818046_950fe9ccaa_n.jpg",
    "id_album": "-316663319",
    "description": "ANIME_PIC_a7ba58304e128dd8ec99107e6d002401,[Girl],[isGirlAnime],[isCuteAnime]",
    "title": "ANIME_PIC_a7ba58304e128dd8ec99107e6d002401",
    "link_img": "https://live.staticflickr.com/65535/51545818046_ee35f1ccde_o.jpg",
    "id_image": "ANIME_PIC_a7ba58304e128dd8ec99107e6d002401",
    "count_view": 0
  },
  {
    "link_thumb": "https://live.staticflickr.com/65535/51546546359_103abd895e_n.jpg",
    "id_album": "-316663319",
    "description": "ANIME_PIC_a7bcb67282d5490d131462465ec845ff,[Girl],[isGirlAnime],[isCuteAnime],[isGirlsLoliAnime]",
    "title": "ANIME_PIC_a7bcb67282d5490d131462465ec845ff",
    "link_img": "https://live.staticflickr.com/65535/51546546359_5f736634d1_o.png",
    "id_image": "ANIME_PIC_a7bcb67282d5490d131462465ec845ff",
    "count_view": 0
  },
  {
    "link_thumb": "https://live.staticflickr.com/65535/51545819326_6cd6d6a4ce_n.jpg",
    "id_album": "-316663319",
    "description": "ANIME_PIC_a7bce2aea480adb6a5b3d881685a9cde,[Girl],[isGirlAnime],[isCuteAnime],[isGirlsLoliAnime]",
    "title": "ANIME_PIC_a7bce2aea480adb6a5b3d881685a9cde",
    "link_img": "https://live.staticflickr.com/65535/51545819326_4acfe94e22_o.jpg",
    "id_image": "ANIME_PIC_a7bce2aea480adb6a5b3d881685a9cde",
    "count_view": 0
  },
  {
    "link_thumb": "https://live.staticflickr.com/65535/51545022752_394ae0d9d2_n.jpg",
    "id_album": "-316663319",
    "description": "ANIME_PIC_a7bf3e3a9fc382dc5bd2513e51b28a69,[Girl],[isGirlAnime],[isCuteAnime],[isGirlsHatsHoodieAnime]",
    "title": "ANIME_PIC_a7bf3e3a9fc382dc5bd2513e51b28a69",
    "link_img": "https://live.staticflickr.com/65535/51545022752_21e03823b0_o.jpg",
    "id_image": "ANIME_PIC_a7bf3e3a9fc382dc5bd2513e51b28a69",
    "count_view": 0
  },
  {
    "link_thumb": "https://live.staticflickr.com/65535/51545023177_d3399e1726_n.jpg",
    "id_album": "-316663319",
    "description": "ANIME_PIC_a7c04b94c363d21207e67550e646d4c4,[Girl],[isGirlAnime],[isCuteAnime],[isGirlFaceMasksAnime]",
    "title": "ANIME_PIC_a7c04b94c363d21207e67550e646d4c4",
    "link_img": "https://live.staticflickr.com/65535/51545023177_c7b3e12f05_o.jpg",
    "id_image": "ANIME_PIC_a7c04b94c363d21207e67550e646d4c4",
    "count_view": 0
  },
  {
    "link_thumb": "https://live.staticflickr.com/65535/51545023792_93d2221283_n.jpg",
    "id_album": "-316663319",
    "description": "ANIME_PIC_a7c3dd904afe53ecd62a59fafb6d8c1d,[Girl],[isGirlAnime],[isCuteAnime],[isGirlsHatsHoodieAnime],[isGirlsLoliAnime]",
    "title": "ANIME_PIC_a7c3dd904afe53ecd62a59fafb6d8c1d",
    "link_img": "https://live.staticflickr.com/65535/51545023792_441aa06a0b_o.png",
    "id_image": "ANIME_PIC_a7c3dd904afe53ecd62a59fafb6d8c1d",
    "count_view": 0
  },
  {
    "link_thumb": "https://live.staticflickr.com/65535/51545024702_edc6621d3f_n.jpg",
    "id_album": "-316663319",
    "description": "ANIME_PIC_a7c868bb44cd1c7b9b9a4c66bf6175f5,[Girl],[isGirlAnime],[isCuteAnime],[isGirlsLoliAnime]",
    "title": "ANIME_PIC_a7c868bb44cd1c7b9b9a4c66bf6175f5",
    "link_img": "https://live.staticflickr.com/65535/51545024702_6fac0b056f_o.jpg",
    "id_image": "ANIME_PIC_a7c868bb44cd1c7b9b9a4c66bf6175f5",
    "count_view": 0
  }
]