[
  {
    "total_img": 16,
    "number_page": 1,
    "title": "Dragon Ball GT",
    "tag": "Martial Arts, Super Android 17 Dragon Ball, Dragon Ball GT, Vegeta Dragon Ball, Fur, Gogeta Dragon Ball, SS4 Vegeta, Giru Dragon Ball, Super Saiyan 4, Pan Dragon Ball, Android 17 Dragon Ball, Kamehameha, Goku, Anime, Belt, Trunks Dragon Ball, Tail, Omega Shenron Dragon Ball, Super Saiyan Blue",
    "description": "Dragon Ball GT",
    "link_thumb": "https://live.staticflickr.com/65535/47969443832_77e26c1b74_n.jpg",
    "id_album": "-155628022",
    "total_view": 16
  },
  {
    "total_img": 404,
    "number_page": 3,
    "title": "Goku",
    "tag": "Goku,",
    "description": "Goku",
    "link_thumb": "https://live.staticflickr.com/65535/47969501196_ef5d38c9f5_n.jpg",
    "id_album": "1958753116",
    "total_view": 404
  }
]