[
  {
    "link_thumb": "https://live.staticflickr.com/65535/47993362216_6d020420de_n.jpg",
    "id_album": "784555824",
    "description": "Haikyu_692745",
    "title": "Haikyu_692745",
    "link_img": "https://live.staticflickr.com/65535/47993362216_687b8a53ff_o.jpg",
    "id_image": "Haikyu_692745",
    "count_view": 0
  },
  {
    "link_thumb": "https://live.staticflickr.com/65535/47993315428_56555c98c6_n.jpg",
    "id_album": "784555824",
    "description": "Haikyu_692747",
    "title": "Haikyu_692747",
    "link_img": "https://live.staticflickr.com/65535/47993315428_df5ce820c6_o.jpg",
    "id_image": "Haikyu_692747",
    "count_view": 0
  },
  {
    "link_thumb": "https://live.staticflickr.com/65535/47993316153_0035cbb6d7_n.jpg",
    "id_album": "784555824",
    "description": "Haikyu_699054",
    "title": "Haikyu_699054",
    "link_img": "https://live.staticflickr.com/65535/47993316153_63f2849723_o.jpg",
    "id_image": "Haikyu_699054",
    "count_view": 0
  },
  {
    "link_thumb": "https://live.staticflickr.com/65535/47993351402_0bbd25d6a8_n.jpg",
    "id_album": "784555824",
    "description": "Haikyu_808011",
    "title": "Haikyu_808011",
    "link_img": "https://live.staticflickr.com/65535/47993351402_e2d06553b0_o.jpg",
    "id_image": "Haikyu_808011",
    "count_view": 0
  }
]