[
  {
    "total_img": 3863,
    "number_page": 20,
    "title": "Girls Ears Neko",
    "tag": "Girls Ears Neko,",
    "description": "Girls Ears Neko",
    "link_thumb": "https://live.staticflickr.com/65535/51542199025_2343ce2f5b_n.jpg",
    "id_album": "-2118541861",
    "total_view": 3863
  },
  {
    "total_img": 260,
    "number_page": 2,
    "title": "Girls Music",
    "tag": "Girls Music,",
    "description": "Girls Music",
    "link_thumb": "https://live.staticflickr.com/65535/50879648607_86a3e6456e_n.jpg",
    "id_album": "350999281",
    "total_view": 260
  }
]