[
  {
    "total_img": 32,
    "number_page": 1,
    "title": "To LoveRu",
    "tag": "Green Eyes, Yellow Dress, Black Hair, Snowfall, Momo Velia Deviluke, Long Hair, Thigh Highs, Anime, Ribbon, Book, Light, Kimono, Shorts, Bikini, Mea Kurosaki, Haruna Sairenji, Purple Eyes, Purple Hair, Scarf, Yo LoveRu, Mikan Yuuki, Chibi, Black Dress, Smile, Yellow Eyes, Kyouko Kirisaki, Boy, Red Hair, Red Eyes, Skirt, Lollipop, Run Elsie Jewelria, Blush, Golden Darkness, Glasses, Orange Eyes, Microphone, Assassin, Sitting, Rose, Socks, Ryoko Mikado, Nana Astar Deviluke, Blonde, Twintails, Tail, bow Clothing, Short Hair, Celine To LoveRu, Lala Satalin Deviluke, Yui Kotegawa, Food, Gymnastics, Bed, Eating, Rito Yuuki, Flower, Peke To LoveRu, Dress, Brown Eyes, Brown Hair, Red Dress, Saki Tenjouin, Bag, Pink Eyes, Blue Dress, Pink Hair, School Uniform, Selfie, Oshizu Murasame, Blue Eyes, Lying Down, Sunrise, To LoveRu, Tu LoveRu",
    "description": "To LoveRu",
    "link_thumb": "https://live.staticflickr.com/65535/48060213306_bfbbb314cc_n.jpg",
    "id_album": "2024846494",
    "total_view": 32
  },
  {
    "total_img": 10,
    "number_page": 1,
    "title": "Lala Satalin Deviluke",
    "tag": "Lala Satalin Deviluke,",
    "description": "Lala Satalin Deviluke",
    "link_thumb": "https://live.staticflickr.com/65535/48060288963_716df05f17_n.jpg",
    "id_album": "-250844864",
    "total_view": 10
  }
]