[
  {
    "total_img": 51,
    "number_page": 1,
    "title": "Yuru Camp",
    "tag": "Aoi Inuyama, Green Eyes, Chair, Mount Fuji, LaidBack Camp, Wink, Sitting, Minami Toba, Long Hair, Blonde, Ena Saitou, Nadeshiko Kagamihara, Thigh Highs, Chiaki Oogaki, Anime, Mountain, Shorts, Face, Chikuwa LaidBack Camp, Cup, Food, Eating, Purple Eyes, Jacket, Purple Hair, Sakura Kagamihara, Scarf, Brown Eyes, Yuru Camp, Brown Hair, Bag, Pink Hair, Smile, Rin Shima, Skirt, Tent, Blue Eyes, Blue Hair, Blush, Sleeping, Pantyhose, Boots, Fire, Glasses, Hat, Sunrise",
    "description": "Yuru Camp",
    "link_thumb": "https://live.staticflickr.com/65535/48609519643_90cef1e712_n.jpg",
    "id_album": "385796676",
    "total_view": 51
  },
  {
    "total_img": 12,
    "number_page": 1,
    "title": "Aoi Inuyama",
    "tag": "Aoi Inuyama,",
    "description": "Aoi Inuyama",
    "link_thumb": "https://live.staticflickr.com/65535/48609531148_1c29d72778_n.jpg",
    "id_album": "-316360497",
    "total_view": 12
  },
  {
    "total_img": 13,
    "number_page": 1,
    "title": "Chiaki Oogaki",
    "tag": "Chiaki Oogaki,",
    "description": "Chiaki Oogaki",
    "link_thumb": "https://live.staticflickr.com/65535/48609531148_1c29d72778_n.jpg",
    "id_album": "-1962425916",
    "total_view": 13
  },
  {
    "total_img": 63,
    "number_page": 1,
    "title": "Nadeshiko Kagamihara",
    "tag": "Nadeshiko Kagamihara,",
    "description": "Nadeshiko Kagamihara",
    "link_thumb": "https://live.staticflickr.com/65535/48609531148_1c29d72778_n.jpg",
    "id_album": "-795300841",
    "total_view": 63
  }
]