[
  {
    "total_img": 206,
    "number_page": 2,
    "title": "Azur Lane",
    "tag": "Unicorn Azur Lane, Helena Azur Lane, Izumo Azur Lane, Bili Girl 33, Matchless Azur Lane, Javelin Azur Lane, Glowworm Azur Lane, Ping Hai Azur Lane, White Hair, Umbrella, Fu Shun Azur Lane, Purple Eyes, Anshan Azur Lane, San Diego Azur Lane, Fortune Azur Lane, Cygnet Azur Lane, Harutsuki Azur Lane, Inazuma Kancolle, Smile, Hiryuu Azur Lane, Aqua Eyes, Red Hair, King of Wales Azur Lane, Skirt, Ayanami Azur Lane, Kawazake Azur Lane, Blush, Bilan Hangxian, Pantyhose, Queen Elizabeth Azur Lane, Sims Azur Lane, Kisaragi Azur Lane, Exeter Azur Lane, Gridley Azur Lane, Hood Azur Lane, Zuikaku Azur Lane, Renown Azur Lane, Uzuki Azur Lane, Mutsuki Azur Lane, Amikaze Azur Lane, Shoukaku Azur Lane, North Carolina Azur Lane, Glorious Azur Lane, Lexington Azur Lane, Maya Azur Lane, Wings, SaintLouis Azur Lane, Warspite Azur Lane, Wichita Azur Lane, Face, Hornet Azur Lane, Yorktown Azur Lane, Washington Azur Lane, Bili Girl 22, HMS Unicorn Azur Lane, Atago Azur Lane, Yuudachi Azur Lane, Pink Hair, Azur Lane, Saratoga Azur Lane, Ning Hai Azur Lane, Ark Royal Azur Lane, Hammann Azur Lane, Blue Eyes, I58 Azur Lane, Tanikaze Azur Lane, Leipzig Azur Lane, Comet Azur Lane, Hat, Animal Ears, Erebus Azur Lane, Sheffield Azur Lane, Honolulu Azur Lane, Sand, Admiral Graf Spee Azur Lane, Shiranui Azur Lane, Admiral Hipper Azur Lane, Richmond Azur Lane, Takao Azur Lane, Chang Chun Azur Lane, Uniform, Long Hair, Thigh Highs, Musketeer Azur Lane, Beach, Belchan Azur Lane, Akagi Azur Lane, Crescent Azur Lane, Repulse Azur Lane, Z46 Azur Lane, Nagato Azur Lane, Prince of Wales Azur Lane, Essex Azur Lane, Kaga Azur Lane, Enterprise Azur Lane, Purple Hair, Oriental, Terror Azur Lane, Niizuki Azur Lane, Z23 Azur Lane, Yat Sen Azur Lane, Fusou Azur Lane, Arethusa Azur Lane, Maya Bilan Hangxian, Red Eyes, Prinz Eugen Azur Lane, Aurora Azur Lane, Souryuu Azur Lane, Roon Azur Lane, Orange Eyes, Mikasa Azur Lane, Yamashiro Azur Lane, Edinburgh Azur Lane, Abukuma Azur Lane, Abercrombie Azur Lane, Blonde, Columbia Azur Lane, Trial Bulin MKII Azur Lane, Hiei Azur Lane, Short Hair, Vampire Azur Lane, Necklace, Hamakaze Azur Lane, Yukikaze Azur Lane, Dress, Laffey Azur Lane, Eldridge Azur Lane, Ikazuchi Kancolle, Deutschland Azur Lane, Arizona Azur Lane, Cleveland Azur Lane, Akashi Azur Lane, Fubuki Azur Lane, Fumizuki Azur Lane, London Azur Lane, Illustrious Azur Lane, Matsukaze Azur Lane, Tai Yuan Azur Lane, Maury Azur Lane, Amazon Azur Lane, Belfast Azur Lane, Kirishima Azur Lane, South Dakota Azur Lane",
    "description": "Azur Lane",
    "link_thumb": "https://live.staticflickr.com/65535/40928643243_64039dfa2b_n.jpg",
    "id_album": "-228710756",
    "total_view": 206
  },
  {
    "total_img": 4,
    "number_page": 1,
    "title": "Prinz Eugen Azur Lane",
    "tag": "Prinz Eugen Azur Lane,",
    "description": "Prinz Eugen Azur Lane",
    "link_thumb": "https://live.staticflickr.com/65535/46979104685_ca8e2c53ba_n.jpg",
    "id_album": "-1642155051",
    "total_view": 4
  }
]