[
  {
    "total_img": 6163,
    "number_page": 31,
    "title": "Girls Hats Hoodie",
    "tag": "Girls Hats Hoodie,",
    "description": "Girls Hats Hoodie",
    "link_thumb": "https://live.staticflickr.com/65535/49998137463_3c222b8f53_n.jpg",
    "id_album": "1409782213",
    "total_view": 6163
  },
  {
    "total_img": 260,
    "number_page": 2,
    "title": "Girls Music",
    "tag": "Girls Music,",
    "description": "Girls Music",
    "link_thumb": "https://live.staticflickr.com/65535/50879648607_86a3e6456e_n.jpg",
    "id_album": "350999281",
    "total_view": 260
  },
  {
    "total_img": 1063,
    "number_page": 6,
    "title": "Girls Sharp Canine Tooth",
    "tag": "Girls Sharp Canine Tooth,",
    "description": "Girls Sharp Canine Tooth",
    "link_thumb": "https://live.staticflickr.com/65535/51541280396_75d06cec3a_n.jpg",
    "id_album": "732099563",
    "total_view": 1063
  }
]