[
  {
    "total_img": 140,
    "number_page": 1,
    "title": "Blazblue",
    "tag": "Video Game, Litchi Faye Ling, Blue, Mu12 BlazBlue, Brown Hair, Blazblue, Noel Vermillion, Mai Natsume, Tsubaki Yayoi, Nu13 BlazBlue, Tusbaki Yayoi, Ragna The Bloodedge, Iron Tager, Makoto Nanaya, Hakumen BlazBlue, Long Hair, Wings, Anime, Rachel Alucard, Yuki Terumi, Taokaka Blazblue",
    "description": "Blazblue",
    "link_thumb": "https://live.staticflickr.com/65535/47900399901_a428633fda_n.jpg",
    "id_album": "-1840922970",
    "total_view": 140
  },
  {
    "total_img": 3,
    "number_page": 1,
    "title": "Makoto Nanaya",
    "tag": "Makoto Nanaya,",
    "description": "Makoto Nanaya",
    "link_thumb": "https://live.staticflickr.com/65535/47900503821_f63836896e_n.jpg",
    "id_album": "-1711955922",
    "total_view": 3
  }
]