[
  {
    "total_img": 9,
    "number_page": 1,
    "title": "Devil May Cry",
    "tag": "Red, Dante Devil May Cry, Dark, Devil May Cry, Lady Devil May Cry",
    "description": "Devil May Cry",
    "link_thumb": "https://live.staticflickr.com/65535/47967403321_9ecb3ced9b_n.jpg",
    "id_album": "-1953176676",
    "total_view": 9
  },
  {
    "total_img": 58,
    "number_page": 1,
    "title": "Dark",
    "tag": "Dark,",
    "description": "Dark",
    "link_thumb": "https://live.staticflickr.com/65535/48066127517_3fea9bf48a_n.jpg",
    "id_album": "2021464556",
    "total_view": 58
  },
  {
    "total_img": 18,
    "number_page": 1,
    "title": "Red",
    "tag": "Red,",
    "description": "Red",
    "link_thumb": "https://live.staticflickr.com/65535/48064309227_1b4193aa38_n.jpg",
    "id_album": "-1029288732",
    "total_view": 18
  }
]