[
  {
    "total_img": 11,
    "number_page": 1,
    "title": "If Its for My Daughter Id Even Defeat a Demon Lord",
    "tag": "Snow, Black Hair, Latina If Its for My Daughter, Twintails, Long Hair, Blonde, Winter, Sword, White Eyes, Rita Kruger, Wolf, Kenneth Kruger, Cookie, Bed, Purple Eyes, If Its for My Daughter Id Even Defeat a Demon Lord, Brown Eyes, Scarf, Brown Hair, Dale Lecky, Blush, Grey Eyes, Snowman, Hat, Man",
    "description": "If Its for My Daughter Id Even Defeat a Demon Lord",
    "link_thumb": "https://live.staticflickr.com/65535/48611337477_4f126756a5_n.jpg",
    "id_album": "-1097623974",
    "total_view": 11
  },
  {
    "total_img": 6,
    "number_page": 1,
    "title": "Dale Lecky",
    "tag": "Dale Lecky,",
    "description": "Dale Lecky",
    "link_thumb": "https://live.staticflickr.com/65535/48611187406_a882aa31ed_n.jpg",
    "id_album": "1285457665",
    "total_view": 6
  },
  {
    "total_img": 11,
    "number_page": 1,
    "title": "Latina If Its for My Daughter",
    "tag": "Latina If Its for My Daughter,",
    "description": "Latina If Its for My Daughter",
    "link_thumb": "https://live.staticflickr.com/65535/48610827483_a863fd4b10_n.jpg",
    "id_album": "-2114492154",
    "total_view": 11
  }
]