[
  {
    "link_thumb": "https://live.staticflickr.com/65535/51553432673_0b7c5f871c_n.jpg",
    "id_album": "-89234980",
    "description": "ANIME_PIC_8f0b27aee2673e8e3b8b3903e6595899,[GirlsCuteCool],[isGirlAnime],[isCuteAnime],[isGirlsLoliAnime]",
    "title": "ANIME_PIC_8f0b27aee2673e8e3b8b3903e6595899",
    "link_img": "https://live.staticflickr.com/65535/51553432673_bdafe4ee0c_o.jpg",
    "id_image": "ANIME_PIC_8f0b27aee2673e8e3b8b3903e6595899",
    "count_view": 0
  },
  {
    "link_thumb": "https://live.staticflickr.com/65535/51553198896_f5fb37dc79_n.jpg",
    "id_album": "-89234980",
    "description": "ANIME_PIC_8f0b3b24b42a5731481d5c0e5554a54c,[GirlsCuteCool],[isGirlAnime],[isCuteAnime],[isGirlEarsNekoAnime]",
    "title": "ANIME_PIC_8f0b3b24b42a5731481d5c0e5554a54c",
    "link_img": "https://live.staticflickr.com/65535/51553198896_cfa2afc5ea_o.jpg",
    "id_image": "ANIME_PIC_8f0b3b24b42a5731481d5c0e5554a54c",
    "count_view": 0
  },
  {
    "link_thumb": "https://live.staticflickr.com/65535/51554116935_c95c8da63d_n.jpg",
    "id_album": "-89234980",
    "description": "ANIME_PIC_8f0e62ff91b7c7e276c2e490141953fc,[GirlsCuteCool],[isGirlAnime],[isCuteAnime],[isGirlsLoliAnime]",
    "title": "ANIME_PIC_8f0e62ff91b7c7e276c2e490141953fc",
    "link_img": "https://live.staticflickr.com/65535/51554116935_5f4d9f001d_o.jpg",
    "id_image": "ANIME_PIC_8f0e62ff91b7c7e276c2e490141953fc",
    "count_view": 0
  },
  {
    "link_thumb": "https://live.staticflickr.com/65535/51553199281_66afeffffb_n.jpg",
    "id_album": "-89234980",
    "description": "ANIME_PIC_8f0ef713f4ff4e6ecd2d5b2233ed6264,[GirlsCuteCool],[isGirlAnime],[isCuteAnime],[isGirlsLoliAnime],[isSadAnimeGirl],[isSadAnime]",
    "title": "ANIME_PIC_8f0ef713f4ff4e6ecd2d5b2233ed6264",
    "link_img": "https://live.staticflickr.com/65535/51553199281_aafedb0905_o.jpg",
    "id_image": "ANIME_PIC_8f0ef713f4ff4e6ecd2d5b2233ed6264",
    "count_view": 0
  },
  {
    "link_thumb": "https://live.staticflickr.com/65535/51553433528_9b3a619526_n.jpg",
    "id_album": "-89234980",
    "description": "ANIME_PIC_8f14227b368fe8860795c6fab8aae11f,[GirlsCuteCool],[isGirlAnime],[isCuteAnime],[isGirlsLoliAnime]",
    "title": "ANIME_PIC_8f14227b368fe8860795c6fab8aae11f",
    "link_img": "https://live.staticflickr.com/65535/51553433528_c83ea42938_o.jpg",
    "id_image": "ANIME_PIC_8f14227b368fe8860795c6fab8aae11f",
    "count_view": 0
  },
  {
    "link_thumb": "https://live.staticflickr.com/65535/51553433693_0cdbeede74_n.jpg",
    "id_album": "-89234980",
    "description": "ANIME_PIC_8f1922c6c48aa15c3103bd9a6b4d5344,[GirlsCuteCool],[isGirlAnime],[isCuteAnime],[isGirlsHatsHoodieAnime],[isGirlsLoliAnime]",
    "title": "ANIME_PIC_8f1922c6c48aa15c3103bd9a6b4d5344",
    "link_img": "https://live.staticflickr.com/65535/51553433693_77b18b7f9c_o.jpg",
    "id_image": "ANIME_PIC_8f1922c6c48aa15c3103bd9a6b4d5344",
    "count_view": 0
  },
  {
    "link_thumb": "https://live.staticflickr.com/65535/51553199791_9543009af2_n.jpg",
    "id_album": "-89234980",
    "description": "ANIME_PIC_8f1ffd29166d605f18417cd4a821152a,[GirlsCuteCool],[isGirlAnime],[isCuteAnime],[isBlackAnime],[isGirlFaceMasksAnime],[isGirlsHatsHoodieAnime],[isGirlsLoliAnime]",
    "title": "ANIME_PIC_8f1ffd29166d605f18417cd4a821152a",
    "link_img": "https://live.staticflickr.com/65535/51553199791_887f56886c_o.jpg",
    "id_image": "ANIME_PIC_8f1ffd29166d605f18417cd4a821152a",
    "count_view": 0
  },
  {
    "link_thumb": "https://live.staticflickr.com/65535/51554117915_435b6b3f8c_n.jpg",
    "id_album": "-89234980",
    "description": "ANIME_PIC_8f231d081a33201e37641b05caa69298,[GirlsCuteCool],[isGirlAnime],[isCuteAnime],[isGirlsLoliAnime]",
    "title": "ANIME_PIC_8f231d081a33201e37641b05caa69298",
    "link_img": "https://live.staticflickr.com/65535/51554117915_8665a56302_o.jpg",
    "id_image": "ANIME_PIC_8f231d081a33201e37641b05caa69298",
    "count_view": 0
  },
  {
    "link_thumb": "https://live.staticflickr.com/65535/51553919324_9ce69e7bba_n.jpg",
    "id_album": "-89234980",
    "description": "ANIME_PIC_8f2580099a5c23de41c2be07cb98f17e,[GirlsCuteCool],[isGirlAnime],[isCuteAnime],[isGirlsLoliAnime],[isSadAnimeGirl],[isSadAnime]",
    "title": "ANIME_PIC_8f2580099a5c23de41c2be07cb98f17e",
    "link_img": "https://live.staticflickr.com/65535/51553919324_1251825b8c_o.png",
    "id_image": "ANIME_PIC_8f2580099a5c23de41c2be07cb98f17e",
    "count_view": 0
  },
  {
    "link_thumb": "https://live.staticflickr.com/65535/51553919574_f1a94b1984_n.jpg",
    "id_album": "-89234980",
    "description": "ANIME_PIC_8f260c410d8231103484634d8a722026,[GirlsCuteCool],[isGirlAnime],[isCuteAnime],[isGirlsHatsHoodieAnime],[isGirlsLoliAnime]",
    "title": "ANIME_PIC_8f260c410d8231103484634d8a722026",
    "link_img": "https://live.staticflickr.com/65535/51553919574_ef692fe90a_o.png",
    "id_image": "ANIME_PIC_8f260c410d8231103484634d8a722026",
    "count_view": 0
  },
  {
    "link_thumb": "https://live.staticflickr.com/65535/51552404812_c368096fe4_n.jpg",
    "id_album": "-89234980",
    "description": "ANIME_PIC_8f2660ac5a1d833ce27aeb7b9c3daf04,[GirlsCuteCool],[isGirlAnime],[isCuteAnime],[isGirlsLoliAnime],[isSadAnimeGirl],[isSadAnime]",
    "title": "ANIME_PIC_8f2660ac5a1d833ce27aeb7b9c3daf04",
    "link_img": "https://live.staticflickr.com/65535/51552404812_875a982484_o.jpg",
    "id_image": "ANIME_PIC_8f2660ac5a1d833ce27aeb7b9c3daf04",
    "count_view": 0
  },
  {
    "link_thumb": "https://live.staticflickr.com/65535/51553435338_a33077b3ab_n.jpg",
    "id_album": "-89234980",
    "description": "ANIME_PIC_8f2770bc127ed848002f26a1b78b05b8,[GirlsCuteCool],[isGirlAnime],[isCuteAnime],[isGirlsLoliAnime]",
    "title": "ANIME_PIC_8f2770bc127ed848002f26a1b78b05b8",
    "link_img": "https://live.staticflickr.com/65535/51553435338_55340c2111_o.jpg",
    "id_image": "ANIME_PIC_8f2770bc127ed848002f26a1b78b05b8",
    "count_view": 0
  },
  {
    "link_thumb": "https://live.staticflickr.com/65535/51552405277_13eb70ffe5_n.jpg",
    "id_album": "-89234980",
    "description": "ANIME_PIC_8f27d1731a3d4f83b5acef98ea2f48e6,[GirlsCuteCool],[isGirlAnime],[isCuteAnime],[isSadAnimeGirl],[isSadAnime]",
    "title": "ANIME_PIC_8f27d1731a3d4f83b5acef98ea2f48e6",
    "link_img": "https://live.staticflickr.com/65535/51552405277_1740198891_o.jpg",
    "id_image": "ANIME_PIC_8f27d1731a3d4f83b5acef98ea2f48e6",
    "count_view": 0
  },
  {
    "link_thumb": "https://live.staticflickr.com/65535/51553435778_00c4efcffe_n.jpg",
    "id_album": "-89234980",
    "description": "ANIME_PIC_8f2abae21c9fb5f46767e8aac6054b75,[GirlsCuteCool],[isGirlAnime],[isCuteAnime],[isGirlsLoliAnime],[isSadAnimeGirl],[isSadAnime]",
    "title": "ANIME_PIC_8f2abae21c9fb5f46767e8aac6054b75",
    "link_img": "https://live.staticflickr.com/65535/51553435778_dcafdf076f_o.png",
    "id_image": "ANIME_PIC_8f2abae21c9fb5f46767e8aac6054b75",
    "count_view": 0
  },
  {
    "link_thumb": "https://live.staticflickr.com/65535/51552405822_d7f8c32e04_n.jpg",
    "id_album": "-89234980",
    "description": "ANIME_PIC_8f2be7460fd544b589a0ac6dec8a0332,[GirlsCuteCool],[isGirlAnime],[isCuteAnime],[isGirlsLoliAnime]",
    "title": "ANIME_PIC_8f2be7460fd544b589a0ac6dec8a0332",
    "link_img": "https://live.staticflickr.com/65535/51552405822_b6193b92ca_o.jpg",
    "id_image": "ANIME_PIC_8f2be7460fd544b589a0ac6dec8a0332",
    "count_view": 0
  },
  {
    "link_thumb": "https://live.staticflickr.com/65535/51554119990_bfb8ab6bfd_n.jpg",
    "id_album": "-89234980",
    "description": "ANIME_PIC_8f33919432bd03efc5dba99f06b58ee0,[GirlsCuteCool],[isGirlAnime],[isCuteAnime]",
    "title": "ANIME_PIC_8f33919432bd03efc5dba99f06b58ee0",
    "link_img": "https://live.staticflickr.com/65535/51554119990_19c8636966_o.jpg",
    "id_image": "ANIME_PIC_8f33919432bd03efc5dba99f06b58ee0",
    "count_view": 0
  },
  {
    "link_thumb": "https://live.staticflickr.com/65535/51553202546_dc937c61a9_n.jpg",
    "id_album": "-89234980",
    "description": "ANIME_PIC_8f39d0024dd50126fe31b44fc4d3a321,[GirlsCuteCool],[isGirlAnime],[isCuteAnime]",
    "title": "ANIME_PIC_8f39d0024dd50126fe31b44fc4d3a321",
    "link_img": "https://live.staticflickr.com/65535/51553202546_144c1ba919_o.jpg",
    "id_image": "ANIME_PIC_8f39d0024dd50126fe31b44fc4d3a321",
    "count_view": 0
  },
  {
    "link_thumb": "https://live.staticflickr.com/65535/51553202831_a2a25feb83_n.jpg",
    "id_album": "-89234980",
    "description": "ANIME_PIC_8f3b6ca2a9949ce6133af9183cc016e9,[GirlsCuteCool],[isGirlAnime],[isCuteAnime],[isGirlsHatsHoodieAnime]",
    "title": "ANIME_PIC_8f3b6ca2a9949ce6133af9183cc016e9",
    "link_img": "https://live.staticflickr.com/65535/51553202831_8e4d9764eb_o.jpg",
    "id_image": "ANIME_PIC_8f3b6ca2a9949ce6133af9183cc016e9",
    "count_view": 0
  },
  {
    "link_thumb": "https://live.staticflickr.com/65535/51552406587_3691b0acab_n.jpg",
    "id_album": "-89234980",
    "description": "ANIME_PIC_8f3c0ad589f67390950c1f08601533a5,[GirlsCuteCool],[isGirlAnime],[isCuteAnime],[isGirlsLoliAnime]",
    "title": "ANIME_PIC_8f3c0ad589f67390950c1f08601533a5",
    "link_img": "https://live.staticflickr.com/65535/51552406587_bb21a77fb5_o.jpg",
    "id_image": "ANIME_PIC_8f3c0ad589f67390950c1f08601533a5",
    "count_view": 0
  },
  {
    "link_thumb": "https://live.staticflickr.com/65535/51553922124_8ce1cbf5de_n.jpg",
    "id_album": "-89234980",
    "description": "ANIME_PIC_8f3c344178222662bee3e6ba6da2f32f,[GirlsCuteCool],[isGirlAnime],[isCuteAnime],[isGirlsLoliAnime]",
    "title": "ANIME_PIC_8f3c344178222662bee3e6ba6da2f32f",
    "link_img": "https://live.staticflickr.com/65535/51553922124_65662caef9_o.png",
    "id_image": "ANIME_PIC_8f3c344178222662bee3e6ba6da2f32f",
    "count_view": 0
  },
  {
    "link_thumb": "https://live.staticflickr.com/65535/51553203766_854654bc23_n.jpg",
    "id_album": "-89234980",
    "description": "ANIME_PIC_8f3dddb6adc3a9de77ec437d45e83c9f,[GirlsCuteCool],[isGirlAnime],[isCuteAnime],[isGirlsHatsHoodieAnime],[isGirlsLoliAnime]",
    "title": "ANIME_PIC_8f3dddb6adc3a9de77ec437d45e83c9f",
    "link_img": "https://live.staticflickr.com/65535/51553203766_ebf393e111_o.jpg",
    "id_image": "ANIME_PIC_8f3dddb6adc3a9de77ec437d45e83c9f",
    "count_view": 0
  },
  {
    "link_thumb": "https://live.staticflickr.com/65535/51553204026_423c55102e_n.jpg",
    "id_album": "-89234980",
    "description": "ANIME_PIC_8f3f7ada55db09123ec54de126adcc74,[GirlsCuteCool],[isGirlAnime],[isCuteAnime],[isGirlsHatsHoodieAnime],[isGirlsLoliAnime]",
    "title": "ANIME_PIC_8f3f7ada55db09123ec54de126adcc74",
    "link_img": "https://live.staticflickr.com/65535/51553204026_742f0b56c6_o.jpg",
    "id_image": "ANIME_PIC_8f3f7ada55db09123ec54de126adcc74",
    "count_view": 0
  },
  {
    "link_thumb": "https://live.staticflickr.com/65535/51552407617_987839c797_n.jpg",
    "id_album": "-89234980",
    "description": "ANIME_PIC_8f4203842375d22b301c19658934cc19,[GirlsCuteCool],[isGirlAnime],[isCuteAnime],[isGirlsLoliAnime],[isSadAnimeGirl],[isSadAnime]",
    "title": "ANIME_PIC_8f4203842375d22b301c19658934cc19",
    "link_img": "https://live.staticflickr.com/65535/51552407617_19c76fd374_o.jpg",
    "id_image": "ANIME_PIC_8f4203842375d22b301c19658934cc19",
    "count_view": 0
  },
  {
    "link_thumb": "https://live.staticflickr.com/65535/51552407847_3a356949d4_n.jpg",
    "id_album": "-89234980",
    "description": "ANIME_PIC_8f43c3ca357a37b8d3144c9fef6d5741,[GirlsCuteCool],[isGirlAnime],[isCuteAnime]",
    "title": "ANIME_PIC_8f43c3ca357a37b8d3144c9fef6d5741",
    "link_img": "https://live.staticflickr.com/65535/51552407847_dc7d309152_o.png",
    "id_image": "ANIME_PIC_8f43c3ca357a37b8d3144c9fef6d5741",
    "count_view": 0
  },
  {
    "link_thumb": "https://live.staticflickr.com/65535/51554122260_c665d7a97b_n.jpg",
    "id_album": "-89234980",
    "description": "ANIME_PIC_8f43ed33d60c3f582ad51d4ab03823d2,[GirlsCuteCool],[isGirlAnime],[isCuteAnime],[isGirlEarsNekoAnime],[isGirlsLoliAnime]",
    "title": "ANIME_PIC_8f43ed33d60c3f582ad51d4ab03823d2",
    "link_img": "https://live.staticflickr.com/65535/51554122260_302038171b_o.png",
    "id_image": "ANIME_PIC_8f43ed33d60c3f582ad51d4ab03823d2",
    "count_view": 0
  },
  {
    "link_thumb": "https://live.staticflickr.com/65535/51554325429_7daf30e0fa_n.jpg",
    "id_album": "-89234980",
    "description": "ANIME_PIC_8f446d4513b21ec35ce5805ef4ab490b,[GirlsCuteCool],[isGirlAnime],[isCuteAnime]",
    "title": "ANIME_PIC_8f446d4513b21ec35ce5805ef4ab490b",
    "link_img": "https://live.staticflickr.com/65535/51554325429_0807f5e555_o.jpg",
    "id_image": "ANIME_PIC_8f446d4513b21ec35ce5805ef4ab490b",
    "count_view": 0
  },
  {
    "link_thumb": "https://live.staticflickr.com/65535/51552410927_0059f99e26_n.jpg",
    "id_album": "-89234980",
    "description": "ANIME_PIC_8f4545ae152e4d1cbb3abfb6ad0d35ce,[GirlsCuteCool],[isGirlAnime],[isCuteAnime]",
    "title": "ANIME_PIC_8f4545ae152e4d1cbb3abfb6ad0d35ce",
    "link_img": "https://live.staticflickr.com/65535/51552410927_042d89f915_o.jpg",
    "id_image": "ANIME_PIC_8f4545ae152e4d1cbb3abfb6ad0d35ce",
    "count_view": 0
  },
  {
    "link_thumb": "https://live.staticflickr.com/65535/51554125380_ed5c43c17f_n.jpg",
    "id_album": "-89234980",
    "description": "ANIME_PIC_8f458d3ba7ab047b1cb802ee5ad94c4b,[GirlsCuteCool],[isGirlAnime],[isCuteAnime]",
    "title": "ANIME_PIC_8f458d3ba7ab047b1cb802ee5ad94c4b",
    "link_img": "https://live.staticflickr.com/65535/51554125380_46aa55379e_o.png",
    "id_image": "ANIME_PIC_8f458d3ba7ab047b1cb802ee5ad94c4b",
    "count_view": 0
  },
  {
    "link_thumb": "https://live.staticflickr.com/65535/51552411642_e0690d311d_n.jpg",
    "id_album": "-89234980",
    "description": "ANIME_PIC_8f4630a628567bf012594521310501ae,[GirlsCuteCool],[isGirlAnime],[isCuteAnime],[isGirlsLoliAnime]",
    "title": "ANIME_PIC_8f4630a628567bf012594521310501ae",
    "link_img": "https://live.staticflickr.com/65535/51552411642_fd3ed348f8_o.jpg",
    "id_image": "ANIME_PIC_8f4630a628567bf012594521310501ae",
    "count_view": 0
  },
  {
    "link_thumb": "https://live.staticflickr.com/65535/51553927189_562fa59f20_n.jpg",
    "id_album": "-89234980",
    "description": "ANIME_PIC_8f46dd4066d99259508124f279c09793,[GirlsCuteCool],[isGirlAnime],[isCuteAnime],[isGirlsLoliAnime],[isSadAnimeGirl],[isSadAnime]",
    "title": "ANIME_PIC_8f46dd4066d99259508124f279c09793",
    "link_img": "https://live.staticflickr.com/65535/51553927189_7cab2aa6a9_o.png",
    "id_image": "ANIME_PIC_8f46dd4066d99259508124f279c09793",
    "count_view": 0
  },
  {
    "link_thumb": "https://live.staticflickr.com/65535/51553927534_bd711b8924_n.jpg",
    "id_album": "-89234980",
    "description": "ANIME_PIC_8f4898ca73f300a7c13568e566a12d5a,[GirlsCuteCool],[isBoyAnime],[isGirlAnime],[isCuteAnime]",
    "title": "ANIME_PIC_8f4898ca73f300a7c13568e566a12d5a",
    "link_img": "https://live.staticflickr.com/65535/51553927534_cb6f5274de_o.jpg",
    "id_image": "ANIME_PIC_8f4898ca73f300a7c13568e566a12d5a",
    "count_view": 0
  },
  {
    "link_thumb": "https://live.staticflickr.com/65535/51554126550_7b1fb33fe8_n.jpg",
    "id_album": "-89234980",
    "description": "ANIME_PIC_8f491ac76d90c82b0b307bf9f2bcbb54,[GirlsCuteCool],[isGirlAnime],[isCuteAnime]",
    "title": "ANIME_PIC_8f491ac76d90c82b0b307bf9f2bcbb54",
    "link_img": "https://live.staticflickr.com/65535/51554126550_ac2ebaa73b_o.jpg",
    "id_image": "ANIME_PIC_8f491ac76d90c82b0b307bf9f2bcbb54",
    "count_view": 0
  },
  {
    "link_thumb": "https://live.staticflickr.com/65535/51553928079_02e8f2f038_n.jpg",
    "id_album": "-89234980",
    "description": "ANIME_PIC_8f56f2b685f28ac9caff7806bcec9747,[GirlsCuteCool],[isGirlAnime],[isCuteAnime],[isGirlsLoliAnime]",
    "title": "ANIME_PIC_8f56f2b685f28ac9caff7806bcec9747",
    "link_img": "https://live.staticflickr.com/65535/51553928079_4f77bdc841_o.jpg",
    "id_image": "ANIME_PIC_8f56f2b685f28ac9caff7806bcec9747",
    "count_view": 0
  },
  {
    "link_thumb": "https://live.staticflickr.com/65535/51553928334_610db8f420_n.jpg",
    "id_album": "-89234980",
    "description": "ANIME_PIC_8f58cfcd5cc59f7171a8cebd14bb7848,[GirlsCuteCool],[isGirlAnime],[isCuteAnime],[isGirlsLoliAnime]",
    "title": "ANIME_PIC_8f58cfcd5cc59f7171a8cebd14bb7848",
    "link_img": "https://live.staticflickr.com/65535/51553928334_6fb1eb8b7c_o.png",
    "id_image": "ANIME_PIC_8f58cfcd5cc59f7171a8cebd14bb7848",
    "count_view": 0
  },
  {
    "link_thumb": "https://live.staticflickr.com/65535/51553928834_d24ac8fd58_n.jpg",
    "id_album": "-89234980",
    "description": "ANIME_PIC_8f5aa75ec36711ad237ced69d3d062f8,[GirlsCuteCool],[isGirlAnime],[isCuteAnime],[isGirlsLoliAnime]",
    "title": "ANIME_PIC_8f5aa75ec36711ad237ced69d3d062f8",
    "link_img": "https://live.staticflickr.com/65535/51553928834_b7a4ebc79f_o.gif",
    "id_image": "ANIME_PIC_8f5aa75ec36711ad237ced69d3d062f8",
    "count_view": 0
  },
  {
    "link_thumb": "https://live.staticflickr.com/65535/51554128125_3b30fe870e_n.jpg",
    "id_album": "-89234980",
    "description": "ANIME_PIC_8f5f1a4d91634885ba0623c49e277306,[GirlsCuteCool],[isGirlAnime],[isCuteAnime],[isGirlsHatsHoodieAnime]",
    "title": "ANIME_PIC_8f5f1a4d91634885ba0623c49e277306",
    "link_img": "https://live.staticflickr.com/65535/51554128125_b0d823ca3d_o.png",
    "id_image": "ANIME_PIC_8f5f1a4d91634885ba0623c49e277306",
    "count_view": 0
  },
  {
    "link_thumb": "https://live.staticflickr.com/65535/51553444843_104cd4e1f4_n.jpg",
    "id_album": "-89234980",
    "description": "ANIME_PIC_8f606e5f4206884b1b80f9eee79c22ae,[GirlsCuteCool],[isGirlAnime],[isCuteAnime],[isGirlEarsNekoAnime],[isGirlsLoliAnime],[isSadAnimeGirl],[isSadAnime]",
    "title": "ANIME_PIC_8f606e5f4206884b1b80f9eee79c22ae",
    "link_img": "https://live.staticflickr.com/65535/51553444843_74f38e6764_o.png",
    "id_image": "ANIME_PIC_8f606e5f4206884b1b80f9eee79c22ae",
    "count_view": 0
  },
  {
    "link_thumb": "https://live.staticflickr.com/65535/51553211821_a7ff8e4ee1_n.jpg",
    "id_album": "-89234980",
    "description": "ANIME_PIC_8f63b602af11f659215fedbae9c47d03,[GirlsCuteCool],[isGirlAnime],[isCuteAnime],[isGirlsHatsHoodieAnime],[isGirlsLoliAnime],[isGirlsSharpCanineToothAnime]",
    "title": "ANIME_PIC_8f63b602af11f659215fedbae9c47d03",
    "link_img": "https://live.staticflickr.com/65535/51553211821_da5c7cd423_o.png",
    "id_image": "ANIME_PIC_8f63b602af11f659215fedbae9c47d03",
    "count_view": 0
  },
  {
    "link_thumb": "https://live.staticflickr.com/65535/51553445863_bfb9e2a017_n.jpg",
    "id_album": "-89234980",
    "description": "ANIME_PIC_8f64100aadc79ab6b4e06577ec435aad,[GirlsCuteCool],[isGirlAnime],[isCuteAnime],[isGirlsLoliAnime],[isSadAnimeGirl],[isSadAnime]",
    "title": "ANIME_PIC_8f64100aadc79ab6b4e06577ec435aad",
    "link_img": "https://live.staticflickr.com/65535/51553445863_f2f2fe4879_o.jpg",
    "id_image": "ANIME_PIC_8f64100aadc79ab6b4e06577ec435aad",
    "count_view": 0
  },
  {
    "link_thumb": "https://live.staticflickr.com/65535/51553446068_ced014e628_n.jpg",
    "id_album": "-89234980",
    "description": "ANIME_PIC_8f6a0b5a1ecb86db237c8cab637e9026,[GirlsCuteCool],[isGirlAnime],[isCuteAnime],[isGirlEarsNekoAnime],[isGirlsLoliAnime]",
    "title": "ANIME_PIC_8f6a0b5a1ecb86db237c8cab637e9026",
    "link_img": "https://live.staticflickr.com/65535/51553446068_d40ef6f179_o.png",
    "id_image": "ANIME_PIC_8f6a0b5a1ecb86db237c8cab637e9026",
    "count_view": 0
  },
  {
    "link_thumb": "https://live.staticflickr.com/65535/51553212726_5bdb0d1c26_n.jpg",
    "id_album": "-89234980",
    "description": "ANIME_PIC_8f6a95f6e34cc594e79de7e83bcd42f7,[GirlsCuteCool],[isGirlAnime],[isCuteAnime],[isGirlsLoliAnime],[isSadAnimeGirl],[isSadAnime]",
    "title": "ANIME_PIC_8f6a95f6e34cc594e79de7e83bcd42f7",
    "link_img": "https://live.staticflickr.com/65535/51553212726_699d409033_o.png",
    "id_image": "ANIME_PIC_8f6a95f6e34cc594e79de7e83bcd42f7",
    "count_view": 0
  },
  {
    "link_thumb": "https://live.staticflickr.com/65535/51553446633_0284138d51_n.jpg",
    "id_album": "-89234980",
    "description": "ANIME_PIC_8f6fe0282959eeda482b29c556341573,[GirlsCuteCool],[isGirlAnime],[isCuteAnime],[isGirlsLoliAnime]",
    "title": "ANIME_PIC_8f6fe0282959eeda482b29c556341573",
    "link_img": "https://live.staticflickr.com/65535/51553446633_168e789489_o.jpg",
    "id_image": "ANIME_PIC_8f6fe0282959eeda482b29c556341573",
    "count_view": 0
  },
  {
    "link_thumb": "https://live.staticflickr.com/65535/51553931904_1fa1b6981c_n.jpg",
    "id_album": "-89234980",
    "description": "ANIME_PIC_8f70fb96e674e492d047e16a38fbb733,[GirlsCuteCool],[isGirlAnime],[isCuteAnime],[isGirlsLoliAnime]",
    "title": "ANIME_PIC_8f70fb96e674e492d047e16a38fbb733",
    "link_img": "https://live.staticflickr.com/65535/51553931904_65f9343ace_o.png",
    "id_image": "ANIME_PIC_8f70fb96e674e492d047e16a38fbb733",
    "count_view": 0
  },
  {
    "link_thumb": "https://live.staticflickr.com/65535/51553213841_3c8e5cb565_n.jpg",
    "id_album": "-89234980",
    "description": "ANIME_PIC_8f725e73f0e60f5796d1de1b2e5a128a,[GirlsCuteCool],[isGirlAnime],[isCuteAnime],[isGirlsHatsHoodieAnime],[isGirlsLoliAnime]",
    "title": "ANIME_PIC_8f725e73f0e60f5796d1de1b2e5a128a",
    "link_img": "https://live.staticflickr.com/65535/51553213841_f1b0efc642_o.png",
    "id_image": "ANIME_PIC_8f725e73f0e60f5796d1de1b2e5a128a",
    "count_view": 0
  },
  {
    "link_thumb": "https://live.staticflickr.com/65535/51553932604_6467c01a81_n.jpg",
    "id_album": "-89234980",
    "description": "ANIME_PIC_8f754499bc735213bffc15e927bdcbae,[GirlsCuteCool],[isGirlAnime],[isCuteAnime],[isGirlsLoliAnime]",
    "title": "ANIME_PIC_8f754499bc735213bffc15e927bdcbae",
    "link_img": "https://live.staticflickr.com/65535/51553932604_bf9449797d_o.png",
    "id_image": "ANIME_PIC_8f754499bc735213bffc15e927bdcbae",
    "count_view": 0
  },
  {
    "link_thumb": "https://live.staticflickr.com/65535/51553214576_d992b15062_n.jpg",
    "id_album": "-89234980",
    "description": "ANIME_PIC_8f779c2bbeceb3e99ecf74f6cfac4236,[GirlsCuteCool],[isGirlAnime],[isCuteAnime],[isGirlsLoliAnime]",
    "title": "ANIME_PIC_8f779c2bbeceb3e99ecf74f6cfac4236",
    "link_img": "https://live.staticflickr.com/65535/51553214576_7935e776bf_o.png",
    "id_image": "ANIME_PIC_8f779c2bbeceb3e99ecf74f6cfac4236",
    "count_view": 0
  },
  {
    "link_thumb": "https://live.staticflickr.com/65535/51553448588_68040c951a_n.jpg",
    "id_album": "-89234980",
    "description": "ANIME_PIC_8f7c1afd753c9d3262b1f2a2817fd5ac,[GirlsCuteCool],[isGirlAnime],[isCuteAnime],[isGirlsLoliAnime]",
    "title": "ANIME_PIC_8f7c1afd753c9d3262b1f2a2817fd5ac",
    "link_img": "https://live.staticflickr.com/65535/51553448588_ae4493d4a2_o.jpg",
    "id_image": "ANIME_PIC_8f7c1afd753c9d3262b1f2a2817fd5ac",
    "count_view": 0
  },
  {
    "link_thumb": "https://live.staticflickr.com/65535/51553448918_1708738bf0_n.jpg",
    "id_album": "-89234980",
    "description": "ANIME_PIC_8f7ca00e0227c703e51347dd1ba9a9c0,[GirlsCuteCool],[isGirlAnime],[isCuteAnime],[isGirlsLoliAnime],[isSadAnimeGirl],[isSadAnime]",
    "title": "ANIME_PIC_8f7ca00e0227c703e51347dd1ba9a9c0",
    "link_img": "https://live.staticflickr.com/65535/51553448918_6e4e4fbd19_o.jpg",
    "id_image": "ANIME_PIC_8f7ca00e0227c703e51347dd1ba9a9c0",
    "count_view": 0
  },
  {
    "link_thumb": "https://live.staticflickr.com/65535/51553933904_14978b164e_n.jpg",
    "id_album": "-89234980",
    "description": "ANIME_PIC_8f7f97466442c73ea53e3e5cb95c46ea,[GirlsCuteCool],[isGirlAnime],[isCuteAnime],[isGirlEarsNekoAnime],[isGirlsLoliAnime]",
    "title": "ANIME_PIC_8f7f97466442c73ea53e3e5cb95c46ea",
    "link_img": "https://live.staticflickr.com/65535/51553933904_dc2ec77dfb_o.png",
    "id_image": "ANIME_PIC_8f7f97466442c73ea53e3e5cb95c46ea",
    "count_view": 0
  },
  {
    "link_thumb": "https://live.staticflickr.com/65535/51552419237_3f14e4dd5d_n.jpg",
    "id_album": "-89234980",
    "description": "ANIME_PIC_8f832e9a4665e9f24d1e6675f52aa524,[GirlsCuteCool],[isGirlAnime],[isCuteAnime],[isSceneryArts]",
    "title": "ANIME_PIC_8f832e9a4665e9f24d1e6675f52aa524",
    "link_img": "https://live.staticflickr.com/65535/51552419237_904123efb3_o.jpg",
    "id_image": "ANIME_PIC_8f832e9a4665e9f24d1e6675f52aa524",
    "count_view": 0
  },
  {
    "link_thumb": "https://live.staticflickr.com/65535/51554133590_3dbdd57b5a_n.jpg",
    "id_album": "-89234980",
    "description": "ANIME_PIC_8f879438d62e063f0c3c626158900d50,[GirlsCuteCool],[isGirlAnime],[isCuteAnime],[isGirlsLoliAnime]",
    "title": "ANIME_PIC_8f879438d62e063f0c3c626158900d50",
    "link_img": "https://live.staticflickr.com/65535/51554133590_5f3ab08379_o.jpg",
    "id_image": "ANIME_PIC_8f879438d62e063f0c3c626158900d50",
    "count_view": 0
  },
  {
    "link_thumb": "https://live.staticflickr.com/65535/51553450238_f69900f13e_n.jpg",
    "id_album": "-89234980",
    "description": "ANIME_PIC_8f8a8477493f3d4603277a4110ae9917,[GirlsCuteCool],[isGirlAnime],[isCuteAnime],[isGirlsLoliAnime]",
    "title": "ANIME_PIC_8f8a8477493f3d4603277a4110ae9917",
    "link_img": "https://live.staticflickr.com/65535/51553450238_1be696f9d3_o.jpg",
    "id_image": "ANIME_PIC_8f8a8477493f3d4603277a4110ae9917",
    "count_view": 0
  },
  {
    "link_thumb": "https://live.staticflickr.com/65535/51553450553_0ab9b1e51c_n.jpg",
    "id_album": "-89234980",
    "description": "ANIME_PIC_8f8a9ed6bbddd64d892e30b4da8536b5,[GirlsCuteCool],[isGirlAnime],[isCuteAnime],[isGirlsHatsHoodieAnime],[isGirlsLoliAnime]",
    "title": "ANIME_PIC_8f8a9ed6bbddd64d892e30b4da8536b5",
    "link_img": "https://live.staticflickr.com/65535/51553450553_bf2edc5567_o.jpg",
    "id_image": "ANIME_PIC_8f8a9ed6bbddd64d892e30b4da8536b5",
    "count_view": 0
  },
  {
    "link_thumb": "https://live.staticflickr.com/65535/51554134535_6c70fb67f6_n.jpg",
    "id_album": "-89234980",
    "description": "ANIME_PIC_8f8e9dcfddcd9524254223d50df6e9f2,[GirlsCuteCool],[isGirlAnime],[isCuteAnime],[isGirlsHatsHoodieAnime],[isGirlsLoliAnime]",
    "title": "ANIME_PIC_8f8e9dcfddcd9524254223d50df6e9f2",
    "link_img": "https://live.staticflickr.com/65535/51554134535_d36db4f23f_o.jpg",
    "id_image": "ANIME_PIC_8f8e9dcfddcd9524254223d50df6e9f2",
    "count_view": 0
  },
  {
    "link_thumb": "https://live.staticflickr.com/65535/51553935464_6f2165fea5_n.jpg",
    "id_album": "-89234980",
    "description": "ANIME_PIC_8f8eab70d0aa1532eb6daef6e062588b,[GirlsCuteCool],[isGirlAnime],[isCuteAnime]",
    "title": "ANIME_PIC_8f8eab70d0aa1532eb6daef6e062588b",
    "link_img": "https://live.staticflickr.com/65535/51553935464_4f88865852_o.jpg",
    "id_image": "ANIME_PIC_8f8eab70d0aa1532eb6daef6e062588b",
    "count_view": 0
  },
  {
    "link_thumb": "https://live.staticflickr.com/65535/51553935714_668a198198_n.jpg",
    "id_album": "-89234980",
    "description": "ANIME_PIC_8f8f2a65a2519e2de043714ce30dede1,[GirlsCuteCool],[isGirlAnime],[isCuteAnime],[isGirlsLoliAnime]",
    "title": "ANIME_PIC_8f8f2a65a2519e2de043714ce30dede1",
    "link_img": "https://live.staticflickr.com/65535/51553935714_70c27bfe58_o.jpg",
    "id_image": "ANIME_PIC_8f8f2a65a2519e2de043714ce30dede1",
    "count_view": 0
  },
  {
    "link_thumb": "https://live.staticflickr.com/65535/51553217726_dab51cd196_n.jpg",
    "id_album": "-89234980",
    "description": "ANIME_PIC_8f905e2012537cbda00e581baad16327,[GirlsCuteCool],[isGirlAnime],[isCuteAnime],[isGirlsLoliAnime],[isGirlsSharpCanineToothAnime]",
    "title": "ANIME_PIC_8f905e2012537cbda00e581baad16327",
    "link_img": "https://live.staticflickr.com/65535/51553217726_c2f2d529b1_o.jpg",
    "id_image": "ANIME_PIC_8f905e2012537cbda00e581baad16327",
    "count_view": 0
  },
  {
    "link_thumb": "https://live.staticflickr.com/65535/51554135615_a2f04892e8_n.jpg",
    "id_album": "-89234980",
    "description": "ANIME_PIC_8f9201ef4600160eb29c25f3495f5c06,[GirlsCuteCool],[isGirlAnime],[isCuteAnime],[isGirlEarsNekoAnime],[isGirlsLoliAnime]",
    "title": "ANIME_PIC_8f9201ef4600160eb29c25f3495f5c06",
    "link_img": "https://live.staticflickr.com/65535/51554135615_4014f2df22_o.jpg",
    "id_image": "ANIME_PIC_8f9201ef4600160eb29c25f3495f5c06",
    "count_view": 0
  },
  {
    "link_thumb": "https://live.staticflickr.com/65535/51553218331_a8784bf5cd_n.jpg",
    "id_album": "-89234980",
    "description": "ANIME_PIC_8f92954c24d2f9d762d58d86d6b3d453,[GirlsCuteCool],[isGirlAnime],[isCuteAnime],[isGirlEarsNekoAnime]",
    "title": "ANIME_PIC_8f92954c24d2f9d762d58d86d6b3d453",
    "link_img": "https://live.staticflickr.com/65535/51553218331_184a8fe303_o.jpg",
    "id_image": "ANIME_PIC_8f92954c24d2f9d762d58d86d6b3d453",
    "count_view": 0
  },
  {
    "link_thumb": "https://live.staticflickr.com/65535/51552421952_991525bfc4_n.jpg",
    "id_album": "-89234980",
    "description": "ANIME_PIC_8f94e7ca29f048f4b69104829469a37e,[GirlsCuteCool],[isGirlAnime],[isCuteAnime],[isGirlsLoliAnime]",
    "title": "ANIME_PIC_8f94e7ca29f048f4b69104829469a37e",
    "link_img": "https://live.staticflickr.com/65535/51552421952_95d677b8ed_o.png",
    "id_image": "ANIME_PIC_8f94e7ca29f048f4b69104829469a37e",
    "count_view": 0
  },
  {
    "link_thumb": "https://live.staticflickr.com/65535/51553937174_7ce86ab695_n.jpg",
    "id_album": "-89234980",
    "description": "ANIME_PIC_8f954b496b82d2a9da1108b99dd78a87,[GirlsCuteCool],[isGirlAnime],[isCuteAnime],[isGirlsHatsHoodieAnime],[isGirlsLoliAnime],[isSadAnimeGirl],[isSadAnime]",
    "title": "ANIME_PIC_8f954b496b82d2a9da1108b99dd78a87",
    "link_img": "https://live.staticflickr.com/65535/51553937174_6375722a09_o.png",
    "id_image": "ANIME_PIC_8f954b496b82d2a9da1108b99dd78a87",
    "count_view": 0
  },
  {
    "link_thumb": "https://live.staticflickr.com/65535/51552422587_f5ffc5e9a3_n.jpg",
    "id_album": "-89234980",
    "description": "ANIME_PIC_8f954b8bdc35cf1ba9196f2316db63dc,[GirlsCuteCool],[isGirlAnime],[isCuteAnime],[isGirlsLoliAnime]",
    "title": "ANIME_PIC_8f954b8bdc35cf1ba9196f2316db63dc",
    "link_img": "https://live.staticflickr.com/65535/51552422587_0e1152d994_o.jpg",
    "id_image": "ANIME_PIC_8f954b8bdc35cf1ba9196f2316db63dc",
    "count_view": 0
  },
  {
    "link_thumb": "https://live.staticflickr.com/65535/51552422757_8096fd50ed_n.jpg",
    "id_album": "-89234980",
    "description": "ANIME_PIC_8f9b36cafb25fe9b5e3c05159adf2c08,[GirlsCuteCool],[isGirlAnime],[isCuteAnime],[isGirlsHatsHoodieAnime]",
    "title": "ANIME_PIC_8f9b36cafb25fe9b5e3c05159adf2c08",
    "link_img": "https://live.staticflickr.com/65535/51552422757_bf583ddd34_o.jpg",
    "id_image": "ANIME_PIC_8f9b36cafb25fe9b5e3c05159adf2c08",
    "count_view": 0
  },
  {
    "link_thumb": "https://live.staticflickr.com/65535/51554137135_3a6f5309d9_n.jpg",
    "id_album": "-89234980",
    "description": "ANIME_PIC_8f9ca721bcaa1aef0731289f0f4bae89,[GirlsCuteCool],[isGirlAnime],[isCuteAnime]",
    "title": "ANIME_PIC_8f9ca721bcaa1aef0731289f0f4bae89",
    "link_img": "https://live.staticflickr.com/65535/51554137135_009863812b_o.png",
    "id_image": "ANIME_PIC_8f9ca721bcaa1aef0731289f0f4bae89",
    "count_view": 0
  },
  {
    "link_thumb": "https://live.staticflickr.com/65535/51553453613_5dc6dac941_n.jpg",
    "id_album": "-89234980",
    "description": "ANIME_PIC_8fa2929c89120c3f8f512892a1a28a24,[GirlsCuteCool],[isGirlAnime],[isCuteAnime],[isSadAnimeGirl],[isSadAnime]",
    "title": "ANIME_PIC_8fa2929c89120c3f8f512892a1a28a24",
    "link_img": "https://live.staticflickr.com/65535/51553453613_0cd6cf47f0_o.jpg",
    "id_image": "ANIME_PIC_8fa2929c89120c3f8f512892a1a28a24",
    "count_view": 0
  },
  {
    "link_thumb": "https://live.staticflickr.com/65535/51553938479_6d912efb05_n.jpg",
    "id_album": "-89234980",
    "description": "ANIME_PIC_8fa4c3c931c7e04e7d1c8235a4c02fb4,[GirlsCuteCool],[isGirlAnime],[isCuteAnime],[isGirlsHatsHoodieAnime],[isGirlsLoliAnime]",
    "title": "ANIME_PIC_8fa4c3c931c7e04e7d1c8235a4c02fb4",
    "link_img": "https://live.staticflickr.com/65535/51553938479_29deaf7db1_o.png",
    "id_image": "ANIME_PIC_8fa4c3c931c7e04e7d1c8235a4c02fb4",
    "count_view": 0
  },
  {
    "link_thumb": "https://live.staticflickr.com/65535/51552423917_5c18099d91_n.jpg",
    "id_album": "-89234980",
    "description": "ANIME_PIC_8fa78b5d17b7f149bec084224fb6d8fc,[GirlsCuteCool],[isGirlAnime],[isCuteAnime],[isGirlsLoliAnime]",
    "title": "ANIME_PIC_8fa78b5d17b7f149bec084224fb6d8fc",
    "link_img": "https://live.staticflickr.com/65535/51552423917_16fcb19749_o.jpg",
    "id_image": "ANIME_PIC_8fa78b5d17b7f149bec084224fb6d8fc",
    "count_view": 0
  },
  {
    "link_thumb": "https://live.staticflickr.com/65535/51553220706_517192a388_n.jpg",
    "id_album": "-89234980",
    "description": "ANIME_PIC_8fab394112fd8ec283fe51751fbe8119,[GirlsCuteCool],[isGirlAnime],[isCuteAnime],[isGirlsHatsHoodieAnime],[isGirlsLoliAnime]",
    "title": "ANIME_PIC_8fab394112fd8ec283fe51751fbe8119",
    "link_img": "https://live.staticflickr.com/65535/51553220706_428ab1ebc7_o.jpg",
    "id_image": "ANIME_PIC_8fab394112fd8ec283fe51751fbe8119",
    "count_view": 0
  },
  {
    "link_thumb": "https://live.staticflickr.com/65535/51553939314_49e5840540_n.jpg",
    "id_album": "-89234980",
    "description": "ANIME_PIC_8fac7f364a6de131ae224a0f59c538ce,[GirlsCuteCool],[isGirlAnime],[isCuteAnime],[isSadAnimeGirl],[isSadAnime]",
    "title": "ANIME_PIC_8fac7f364a6de131ae224a0f59c538ce",
    "link_img": "https://live.staticflickr.com/65535/51553939314_da895b0575_o.jpg",
    "id_image": "ANIME_PIC_8fac7f364a6de131ae224a0f59c538ce",
    "count_view": 0
  },
  {
    "link_thumb": "https://live.staticflickr.com/65535/51554139035_0205f5f7d2_n.jpg",
    "id_album": "-89234980",
    "description": "ANIME_PIC_8facbf0eb2e5b5c3f55270a4be2f6fa8,[GirlsCuteCool],[isGirlAnime],[isCuteAnime]",
    "title": "ANIME_PIC_8facbf0eb2e5b5c3f55270a4be2f6fa8",
    "link_img": "https://live.staticflickr.com/65535/51554139035_408eae9e20_o.png",
    "id_image": "ANIME_PIC_8facbf0eb2e5b5c3f55270a4be2f6fa8",
    "count_view": 0
  },
  {
    "link_thumb": "https://live.staticflickr.com/65535/51554139290_fd118dc532_n.jpg",
    "id_album": "-89234980",
    "description": "ANIME_PIC_8fb40b8b4832d3eec94dbe116802b371,[GirlsCuteCool],[isGirlAnime],[isCuteAnime],[isGirlsHatsHoodieAnime],[isGirlsHornsAnime],[isGirlsLoliAnime]",
    "title": "ANIME_PIC_8fb40b8b4832d3eec94dbe116802b371",
    "link_img": "https://live.staticflickr.com/65535/51554139290_71f1937cfa_o.jpg",
    "id_image": "ANIME_PIC_8fb40b8b4832d3eec94dbe116802b371",
    "count_view": 0
  },
  {
    "link_thumb": "https://live.staticflickr.com/65535/51553455603_76a1052b98_n.jpg",
    "id_album": "-89234980",
    "description": "ANIME_PIC_8fb432f87573b7ee8e81e86440b91def,[GirlsCuteCool],[isGirlAnime],[isCuteAnime],[isGirlFaceMasksAnime],[isGirlsLoliAnime]",
    "title": "ANIME_PIC_8fb432f87573b7ee8e81e86440b91def",
    "link_img": "https://live.staticflickr.com/65535/51553455603_672afcaf9c_o.jpg",
    "id_image": "ANIME_PIC_8fb432f87573b7ee8e81e86440b91def",
    "count_view": 0
  },
  {
    "link_thumb": "https://live.staticflickr.com/65535/51553940324_9b3547bc05_n.jpg",
    "id_album": "-89234980",
    "description": "ANIME_PIC_8fb49394d3556bd89d26883b997f64f6,[GirlsCuteCool],[isGirlAnime],[isCuteAnime],[isGirlsLoliAnime]",
    "title": "ANIME_PIC_8fb49394d3556bd89d26883b997f64f6",
    "link_img": "https://live.staticflickr.com/65535/51553940324_f03ed33a83_o.png",
    "id_image": "ANIME_PIC_8fb49394d3556bd89d26883b997f64f6",
    "count_view": 0
  },
  {
    "link_thumb": "https://live.staticflickr.com/65535/51552425797_231124d66f_n.jpg",
    "id_album": "-89234980",
    "description": "ANIME_PIC_8fb651f05cc49300d6dd3bcebc829ee4,[GirlsCuteCool],[isGirlAnime],[isCuteAnime],[isGirlsLoliAnime]",
    "title": "ANIME_PIC_8fb651f05cc49300d6dd3bcebc829ee4",
    "link_img": "https://live.staticflickr.com/65535/51552425797_838b04f760_o.jpg",
    "id_image": "ANIME_PIC_8fb651f05cc49300d6dd3bcebc829ee4",
    "count_view": 0
  },
  {
    "link_thumb": "https://live.staticflickr.com/65535/51553222546_3cbda03aeb_n.jpg",
    "id_album": "-89234980",
    "description": "ANIME_PIC_8fb9f50ab9727d5242abd86553b167a3,[GirlsCuteCool],[isGirlAnime],[isCuteAnime],[isSadAnimeGirl],[isSadAnime]",
    "title": "ANIME_PIC_8fb9f50ab9727d5242abd86553b167a3",
    "link_img": "https://live.staticflickr.com/65535/51553222546_d072c63050_o.png",
    "id_image": "ANIME_PIC_8fb9f50ab9727d5242abd86553b167a3",
    "count_view": 0
  },
  {
    "link_thumb": "https://live.staticflickr.com/65535/51554140840_8ba7b082fb_n.jpg",
    "id_album": "-89234980",
    "description": "ANIME_PIC_8fbcb271ee3198ec4721042f79d39175,[GirlsCuteCool],[isGirlAnime],[isCuteAnime]",
    "title": "ANIME_PIC_8fbcb271ee3198ec4721042f79d39175",
    "link_img": "https://live.staticflickr.com/65535/51554140840_2427e0f231_o.png",
    "id_image": "ANIME_PIC_8fbcb271ee3198ec4721042f79d39175",
    "count_view": 0
  },
  {
    "link_thumb": "https://live.staticflickr.com/65535/51553223261_f8fa8b1f5d_n.jpg",
    "id_album": "-89234980",
    "description": "ANIME_PIC_8fbe4f7b0a5e554f918927172f7b786a,[GirlsCuteCool],[isGirlAnime],[isCuteAnime]",
    "title": "ANIME_PIC_8fbe4f7b0a5e554f918927172f7b786a",
    "link_img": "https://live.staticflickr.com/65535/51553223261_e05d907f49_o.jpg",
    "id_image": "ANIME_PIC_8fbe4f7b0a5e554f918927172f7b786a",
    "count_view": 0
  },
  {
    "link_thumb": "https://live.staticflickr.com/65535/51553942039_9924629a3b_n.jpg",
    "id_album": "-89234980",
    "description": "ANIME_PIC_8fbf1c58519b06599649d4f68b36a2a9,[GirlsCuteCool],[isGirlAnime],[isCuteAnime],[isGirlEarsNekoAnime],[isGirlsHatsHoodieAnime]",
    "title": "ANIME_PIC_8fbf1c58519b06599649d4f68b36a2a9",
    "link_img": "https://live.staticflickr.com/65535/51553942039_b10301ef0d_o.jpg",
    "id_image": "ANIME_PIC_8fbf1c58519b06599649d4f68b36a2a9",
    "count_view": 0
  },
  {
    "link_thumb": "https://live.staticflickr.com/65535/51554141575_64a6f45057_n.jpg",
    "id_album": "-89234980",
    "description": "ANIME_PIC_8fc530ee0023e486667bfdf0aa9e33fb,[GirlsCuteCool],[isGirlAnime],[isCuteAnime],[isGirlsLoliAnime]",
    "title": "ANIME_PIC_8fc530ee0023e486667bfdf0aa9e33fb",
    "link_img": "https://live.staticflickr.com/65535/51554141575_7530023cb0_o.jpg",
    "id_image": "ANIME_PIC_8fc530ee0023e486667bfdf0aa9e33fb",
    "count_view": 0
  },
  {
    "link_thumb": "https://live.staticflickr.com/65535/51554141775_641c011734_n.jpg",
    "id_album": "-89234980",
    "description": "ANIME_PIC_8fc9f40bceb2b049eedafc2990a7de29,[GirlsCuteCool],[isGirlAnime],[isCuteAnime]",
    "title": "ANIME_PIC_8fc9f40bceb2b049eedafc2990a7de29",
    "link_img": "https://live.staticflickr.com/65535/51554141775_a4b443c7b3_o.jpg",
    "id_image": "ANIME_PIC_8fc9f40bceb2b049eedafc2990a7de29",
    "count_view": 0
  },
  {
    "link_thumb": "https://live.staticflickr.com/65535/51552427697_9522fe1ae1_n.jpg",
    "id_album": "-89234980",
    "description": "ANIME_PIC_8fca82771c7064ade9f2da90a60c8a9d,[GirlsCuteCool],[isGirlAnime],[isCuteAnime]",
    "title": "ANIME_PIC_8fca82771c7064ade9f2da90a60c8a9d",
    "link_img": "https://live.staticflickr.com/65535/51552427697_ff1c116da8_o.jpg",
    "id_image": "ANIME_PIC_8fca82771c7064ade9f2da90a60c8a9d",
    "count_view": 0
  },
  {
    "link_thumb": "https://live.staticflickr.com/65535/50056558461_f32ecf4336_n.jpg",
    "id_album": "-89234980",
    "description": "ANIME_PIC_8fcf134f04caf48176a703b5f750d13e,[isGirlAnime],[isCuteAnime],[Girls Cute Cool],[GirlsCuteCool]",
    "title": "ANIME_PIC_8fcf134f04caf48176a703b5f750d13e",
    "link_img": "https://live.staticflickr.com/65535/50056558461_5e0bba987e_o.jpg",
    "id_image": "ANIME_PIC_8fcf134f04caf48176a703b5f750d13e",
    "count_view": 0
  },
  {
    "link_thumb": "https://live.staticflickr.com/65535/51552427992_9ae44a65cc_n.jpg",
    "id_album": "-89234980",
    "description": "ANIME_PIC_8fd4edc256cab5e14ad0ddaa70033ad6,[GirlsCuteCool],[isGirlAnime],[isCuteAnime],[isGirlsHatsHoodieAnime],[isGirlsLoliAnime]",
    "title": "ANIME_PIC_8fd4edc256cab5e14ad0ddaa70033ad6",
    "link_img": "https://live.staticflickr.com/65535/51552427992_bc36207d6b_o.jpg",
    "id_image": "ANIME_PIC_8fd4edc256cab5e14ad0ddaa70033ad6",
    "count_view": 0
  },
  {
    "link_thumb": "https://live.staticflickr.com/65535/51553224596_109ffba59b_n.jpg",
    "id_album": "-89234980",
    "description": "ANIME_PIC_8fd4f8a3fb7988510afa95b754bd58eb,[GirlsCuteCool],[isGirlAnime],[isCuteAnime],[isGirlsLoliAnime]",
    "title": "ANIME_PIC_8fd4f8a3fb7988510afa95b754bd58eb",
    "link_img": "https://live.staticflickr.com/65535/51553224596_4c1806e9f9_o.jpg",
    "id_image": "ANIME_PIC_8fd4f8a3fb7988510afa95b754bd58eb",
    "count_view": 0
  },
  {
    "link_thumb": "https://live.staticflickr.com/65535/51553224896_bb9e4eede0_n.jpg",
    "id_album": "-89234980",
    "description": "ANIME_PIC_8fd99163603ebe54f47d2df7f1c2071e,[GirlsCuteCool],[isGirlAnime],[isCuteAnime],[isGirlsLoliAnime],[isSadAnimeGirl],[isSadAnime]",
    "title": "ANIME_PIC_8fd99163603ebe54f47d2df7f1c2071e",
    "link_img": "https://live.staticflickr.com/65535/51553224896_bbc65a3840_o.jpg",
    "id_image": "ANIME_PIC_8fd99163603ebe54f47d2df7f1c2071e",
    "count_view": 0
  },
  {
    "link_thumb": "https://live.staticflickr.com/65535/51553943899_50d7d25089_n.jpg",
    "id_album": "-89234980",
    "description": "ANIME_PIC_8fdaf0237b134dc54f507b9ba3083361,[GirlsCuteCool],[isGirlAnime],[isCuteAnime],[isGirlsHatsHoodieAnime]",
    "title": "ANIME_PIC_8fdaf0237b134dc54f507b9ba3083361",
    "link_img": "https://live.staticflickr.com/65535/51553943899_32192f3a57_o.jpg",
    "id_image": "ANIME_PIC_8fdaf0237b134dc54f507b9ba3083361",
    "count_view": 0
  },
  {
    "link_thumb": "https://live.staticflickr.com/65535/51553225366_834cc82b56_n.jpg",
    "id_album": "-89234980",
    "description": "ANIME_PIC_8fdb7d742e70dbb0d26135fecb16a090,[GirlsCuteCool],[isGirlAnime],[isCuteAnime],[isGirlEarsNekoAnime]",
    "title": "ANIME_PIC_8fdb7d742e70dbb0d26135fecb16a090",
    "link_img": "https://live.staticflickr.com/65535/51553225366_3774acc452_o.jpg",
    "id_image": "ANIME_PIC_8fdb7d742e70dbb0d26135fecb16a090",
    "count_view": 0
  },
  {
    "link_thumb": "https://live.staticflickr.com/65535/51553225586_a9d64b4127_n.jpg",
    "id_album": "-89234980",
    "description": "ANIME_PIC_8fdd38c04d6bdccefe08e3eefab057e9,[GirlsCuteCool],[isGirlAnime],[isCuteAnime],[isGirlEarsNekoAnime],[isGirlsLoliAnime]",
    "title": "ANIME_PIC_8fdd38c04d6bdccefe08e3eefab057e9",
    "link_img": "https://live.staticflickr.com/65535/51553225586_7b31bccbdf_o.png",
    "id_image": "ANIME_PIC_8fdd38c04d6bdccefe08e3eefab057e9",
    "count_view": 0
  },
  {
    "link_thumb": "https://live.staticflickr.com/65535/51552429822_28789d152f_n.jpg",
    "id_album": "-89234980",
    "description": "ANIME_PIC_8fdd6d7c27c91b597b28fc1fed8ee714,[GirlsCuteCool],[isGirlAnime],[isCuteAnime],[isGirlsLoliAnime]",
    "title": "ANIME_PIC_8fdd6d7c27c91b597b28fc1fed8ee714",
    "link_img": "https://live.staticflickr.com/65535/51552429822_1ed7e5437a_o.png",
    "id_image": "ANIME_PIC_8fdd6d7c27c91b597b28fc1fed8ee714",
    "count_view": 0
  },
  {
    "link_thumb": "https://live.staticflickr.com/65535/51553226761_e5f08b0dbb_n.jpg",
    "id_album": "-89234980",
    "description": "ANIME_PIC_8fe1c316a4a4cb370139c39da5b71baa,[GirlsCuteCool],[isGirlAnime],[isCuteAnime],[isGirlsLoliAnime],[isSadAnimeGirl],[isSadAnime]",
    "title": "ANIME_PIC_8fe1c316a4a4cb370139c39da5b71baa",
    "link_img": "https://live.staticflickr.com/65535/51553226761_0953833f49_o.jpg",
    "id_image": "ANIME_PIC_8fe1c316a4a4cb370139c39da5b71baa",
    "count_view": 0
  },
  {
    "link_thumb": "https://live.staticflickr.com/65535/51553461088_05c9b0b274_n.jpg",
    "id_album": "-89234980",
    "description": "ANIME_PIC_8fe24e6cb3e073b48e9e465710d9bea8,[GirlsCuteCool],[isGirlAnime],[isCuteAnime],[isGirlsLoliAnime]",
    "title": "ANIME_PIC_8fe24e6cb3e073b48e9e465710d9bea8",
    "link_img": "https://live.staticflickr.com/65535/51553461088_828438e2f6_o.jpg",
    "id_image": "ANIME_PIC_8fe24e6cb3e073b48e9e465710d9bea8",
    "count_view": 0
  },
  {
    "link_thumb": "https://live.staticflickr.com/65535/51554145220_4f99e231aa_n.jpg",
    "id_album": "-89234980",
    "description": "ANIME_PIC_8fe6a91a8c88e28a716de7ebafe3c1ba,[GirlsCuteCool],[isGirlAnime],[isCuteAnime]",
    "title": "ANIME_PIC_8fe6a91a8c88e28a716de7ebafe3c1ba",
    "link_img": "https://live.staticflickr.com/65535/51554145220_7e4358b202_o.jpg",
    "id_image": "ANIME_PIC_8fe6a91a8c88e28a716de7ebafe3c1ba",
    "count_view": 0
  },
  {
    "link_thumb": "https://live.staticflickr.com/65535/51554145510_ff8f0b02f2_n.jpg",
    "id_album": "-89234980",
    "description": "ANIME_PIC_8fe7b133ff14b0dcc4ae2d48947f7898,[GirlsCuteCool],[isGirlAnime],[isCuteAnime],[isGirlsLoliAnime]",
    "title": "ANIME_PIC_8fe7b133ff14b0dcc4ae2d48947f7898",
    "link_img": "https://live.staticflickr.com/65535/51554145510_6785ecd9b7_o.png",
    "id_image": "ANIME_PIC_8fe7b133ff14b0dcc4ae2d48947f7898",
    "count_view": 0
  },
  {
    "link_thumb": "https://live.staticflickr.com/65535/51553462033_cfa823d33a_n.jpg",
    "id_album": "-89234980",
    "description": "ANIME_PIC_8fe83482fd052a4a94ff258b50e00d83,[GirlsCuteCool],[isGirlAnime],[isCuteAnime],[isGirlsHornsAnime]",
    "title": "ANIME_PIC_8fe83482fd052a4a94ff258b50e00d83",
    "link_img": "https://live.staticflickr.com/65535/51553462033_fd923c846f_o.png",
    "id_image": "ANIME_PIC_8fe83482fd052a4a94ff258b50e00d83",
    "count_view": 0
  },
  {
    "link_thumb": "https://live.staticflickr.com/65535/51553228301_44a6428105_n.jpg",
    "id_album": "-89234980",
    "description": "ANIME_PIC_8fea191480bcd789dab0f46d887e8643,[GirlsCuteCool],[isGirlAnime],[isCuteAnime],[isGirlEarsNekoAnime],[isGirlsLoliAnime]",
    "title": "ANIME_PIC_8fea191480bcd789dab0f46d887e8643",
    "link_img": "https://live.staticflickr.com/65535/51553228301_90efc6b7ab_o.jpg",
    "id_image": "ANIME_PIC_8fea191480bcd789dab0f46d887e8643",
    "count_view": 0
  },
  {
    "link_thumb": "https://live.staticflickr.com/65535/51553228461_ff85d1687c_n.jpg",
    "id_album": "-89234980",
    "description": "ANIME_PIC_8feee3ef9af822ee7c0b378e78ebaf80,[GirlsCuteCool],[isGirlAnime],[isCuteAnime],[isGirlsHatsHoodieAnime],[isSadAnimeGirl],[isSadAnime]",
    "title": "ANIME_PIC_8feee3ef9af822ee7c0b378e78ebaf80",
    "link_img": "https://live.staticflickr.com/65535/51553228461_b7170b8609_o.jpg",
    "id_image": "ANIME_PIC_8feee3ef9af822ee7c0b378e78ebaf80",
    "count_view": 0
  },
  {
    "link_thumb": "https://live.staticflickr.com/65535/51554146505_7a4034193c_n.jpg",
    "id_album": "-89234980",
    "description": "ANIME_PIC_8ff06ddba9e8ec00225711a7af030fd2,[GirlsCuteCool],[isGirlAnime],[isCuteAnime]",
    "title": "ANIME_PIC_8ff06ddba9e8ec00225711a7af030fd2",
    "link_img": "https://live.staticflickr.com/65535/51554146505_79a9bcdd6d_o.jpg",
    "id_image": "ANIME_PIC_8ff06ddba9e8ec00225711a7af030fd2",
    "count_view": 0
  },
  {
    "link_thumb": "https://live.staticflickr.com/65535/51553947509_9351246b8a_n.jpg",
    "id_album": "-89234980",
    "description": "ANIME_PIC_8ff4cab0c3c8c1be63aa2d70fd8366cd,[GirlsCuteCool],[isGirlAnime],[isCuteAnime],[isGirlsLoliAnime]",
    "title": "ANIME_PIC_8ff4cab0c3c8c1be63aa2d70fd8366cd",
    "link_img": "https://live.staticflickr.com/65535/51553947509_7b7dcd7bf8_o.png",
    "id_image": "ANIME_PIC_8ff4cab0c3c8c1be63aa2d70fd8366cd",
    "count_view": 0
  },
  {
    "link_thumb": "https://live.staticflickr.com/65535/51554147130_47fd01e600_n.jpg",
    "id_album": "-89234980",
    "description": "ANIME_PIC_8ff5cc04b36cbc9700682f39b40dbb57,[GirlsCuteCool],[isGirlAnime],[isCuteAnime]",
    "title": "ANIME_PIC_8ff5cc04b36cbc9700682f39b40dbb57",
    "link_img": "https://live.staticflickr.com/65535/51554147130_3fd200398f_o.jpg",
    "id_image": "ANIME_PIC_8ff5cc04b36cbc9700682f39b40dbb57",
    "count_view": 0
  },
  {
    "link_thumb": "https://live.staticflickr.com/65535/51554147310_8f77db0e9c_n.jpg",
    "id_album": "-89234980",
    "description": "ANIME_PIC_8ff86f343eed940e5a0c071a96dab484,[GirlsCuteCool],[isGirlAnime],[isCuteAnime]",
    "title": "ANIME_PIC_8ff86f343eed940e5a0c071a96dab484",
    "link_img": "https://live.staticflickr.com/65535/51554147310_3507350d94_o.jpg",
    "id_image": "ANIME_PIC_8ff86f343eed940e5a0c071a96dab484",
    "count_view": 0
  },
  {
    "link_thumb": "https://live.staticflickr.com/65535/51553463838_c51d307802_n.jpg",
    "id_album": "-89234980",
    "description": "ANIME_PIC_8ff907910de037485dd0e7e25e28a8aa,[GirlsCuteCool],[isGirlAnime],[isCuteAnime],[isGirlEarsNekoAnime],[isGirlsLoliAnime],[isSadAnimeGirl],[isSadAnime]",
    "title": "ANIME_PIC_8ff907910de037485dd0e7e25e28a8aa",
    "link_img": "https://live.staticflickr.com/65535/51553463838_ff8d7fc09b_o.png",
    "id_image": "ANIME_PIC_8ff907910de037485dd0e7e25e28a8aa",
    "count_view": 0
  },
  {
    "link_thumb": "https://live.staticflickr.com/65535/51553230151_a41a5180a2_n.jpg",
    "id_album": "-89234980",
    "description": "ANIME_PIC_9001cfc0602fd8c0182df1abe2567bc6,[GirlsCuteCool],[isGirlAnime],[isCuteAnime],[isGirlsLoliAnime],[isSadAnimeGirl],[isSadAnime]",
    "title": "ANIME_PIC_9001cfc0602fd8c0182df1abe2567bc6",
    "link_img": "https://live.staticflickr.com/65535/51553230151_3a85bcdd4b_o.png",
    "id_image": "ANIME_PIC_9001cfc0602fd8c0182df1abe2567bc6",
    "count_view": 0
  },
  {
    "link_thumb": "https://live.staticflickr.com/65535/51553464633_1a1a7d0683_n.jpg",
    "id_album": "-89234980",
    "description": "ANIME_PIC_90052f0e41fec779343fd2319fe53f64,[GirlsCuteCool],[isGirlAnime],[isCuteAnime],[isGirlsLoliAnime],[isSadAnimeGirl],[isSadAnime]",
    "title": "ANIME_PIC_90052f0e41fec779343fd2319fe53f64",
    "link_img": "https://live.staticflickr.com/65535/51553464633_172f30c7e8_o.jpg",
    "id_image": "ANIME_PIC_90052f0e41fec779343fd2319fe53f64",
    "count_view": 0
  },
  {
    "link_thumb": "https://live.staticflickr.com/65535/51553949339_5bc31f0d7d_n.jpg",
    "id_album": "-89234980",
    "description": "ANIME_PIC_9005c4a577708df5e799d503c6285902,[GirlsCuteCool],[isGirlAnime],[isCuteAnime],[isGirlsHatsHoodieAnime],[isGirlsLoliAnime]",
    "title": "ANIME_PIC_9005c4a577708df5e799d503c6285902",
    "link_img": "https://live.staticflickr.com/65535/51553949339_8019c0613e_o.png",
    "id_image": "ANIME_PIC_9005c4a577708df5e799d503c6285902",
    "count_view": 0
  },
  {
    "link_thumb": "https://live.staticflickr.com/65535/51553230996_ff23678186_n.jpg",
    "id_album": "-89234980",
    "description": "ANIME_PIC_90086a38910532b9ab0f7472b2122e00,[GirlsCuteCool],[isGirlAnime],[isCuteAnime]",
    "title": "ANIME_PIC_90086a38910532b9ab0f7472b2122e00",
    "link_img": "https://live.staticflickr.com/65535/51553230996_024769fea0_o.jpg",
    "id_image": "ANIME_PIC_90086a38910532b9ab0f7472b2122e00",
    "count_view": 0
  },
  {
    "link_thumb": "https://live.staticflickr.com/65535/51553231246_d1622eaa42_n.jpg",
    "id_album": "-89234980",
    "description": "ANIME_PIC_900888d588de360bd1bc7accb9699c2c,[GirlsCuteCool],[isGirlAnime],[isCuteAnime],[isGirlsHatsHoodieAnime],[isGirlsLoliAnime],[isSadAnimeGirl],[isSadAnime]",
    "title": "ANIME_PIC_900888d588de360bd1bc7accb9699c2c",
    "link_img": "https://live.staticflickr.com/65535/51553231246_547f5ed4c4_o.png",
    "id_image": "ANIME_PIC_900888d588de360bd1bc7accb9699c2c",
    "count_view": 0
  },
  {
    "link_thumb": "https://live.staticflickr.com/65535/51553950259_c5371b1440_n.jpg",
    "id_album": "-89234980",
    "description": "ANIME_PIC_900965ff68b773e0a9bcda8c6fcb061d,[GirlsCuteCool],[isBoyAnime],[isGirlAnime],[isCuteAnime],[isGirlsLoliAnime]",
    "title": "ANIME_PIC_900965ff68b773e0a9bcda8c6fcb061d",
    "link_img": "https://live.staticflickr.com/65535/51553950259_b82f3c11eb_o.jpg",
    "id_image": "ANIME_PIC_900965ff68b773e0a9bcda8c6fcb061d",
    "count_view": 0
  },
  {
    "link_thumb": "https://live.staticflickr.com/65535/51552435642_cc574bf2ff_n.jpg",
    "id_album": "-89234980",
    "description": "ANIME_PIC_9009f0bb9c76c162aee4f626de0c8a93,[GirlsCuteCool],[isGirlAnime],[isCuteAnime]",
    "title": "ANIME_PIC_9009f0bb9c76c162aee4f626de0c8a93",
    "link_img": "https://live.staticflickr.com/65535/51552435642_175bf26f2f_o.jpg",
    "id_image": "ANIME_PIC_9009f0bb9c76c162aee4f626de0c8a93",
    "count_view": 0
  },
  {
    "link_thumb": "https://live.staticflickr.com/65535/50154111741_1e942c8687_n.jpg",
    "id_album": "-89234980",
    "description": "ANIME_PIC_900efecdb2d8bbe324b93c46933a6d1f,[isGirlAnime],[isCuteAnime],[Girls Cute Cool],[GirlsCuteCool],[isGirlsLoliAnime]",
    "title": "ANIME_PIC_900efecdb2d8bbe324b93c46933a6d1f",
    "link_img": "https://live.staticflickr.com/65535/50154111741_613a93a22c_o.png",
    "id_image": "ANIME_PIC_900efecdb2d8bbe324b93c46933a6d1f",
    "count_view": 0
  },
  {
    "link_thumb": "https://live.staticflickr.com/65535/51552435877_1ef705478d_n.jpg",
    "id_album": "-89234980",
    "description": "ANIME_PIC_900f36205a27c28acc6b7236ed367571,[GirlsCuteCool],[isGirlAnime],[isCuteAnime],[isGirlsLoliAnime]",
    "title": "ANIME_PIC_900f36205a27c28acc6b7236ed367571",
    "link_img": "https://live.staticflickr.com/65535/51552435877_612fc1ab1e_o.jpg",
    "id_image": "ANIME_PIC_900f36205a27c28acc6b7236ed367571",
    "count_view": 0
  },
  {
    "link_thumb": "https://live.staticflickr.com/65535/51554150330_b713b0de59_n.jpg",
    "id_album": "-89234980",
    "description": "ANIME_PIC_900fffe2d3f43be595eae30e96aa389a,[GirlsCuteCool],[isGirlAnime],[isCuteAnime],[isGirlsHatsHoodieAnime]",
    "title": "ANIME_PIC_900fffe2d3f43be595eae30e96aa389a",
    "link_img": "https://live.staticflickr.com/65535/51554150330_aec063021f_o.jpg",
    "id_image": "ANIME_PIC_900fffe2d3f43be595eae30e96aa389a",
    "count_view": 0
  },
  {
    "link_thumb": "https://live.staticflickr.com/65535/51553232591_246b4da9fd_n.jpg",
    "id_album": "-89234980",
    "description": "ANIME_PIC_9010220b0454704ee262acc9c10af539,[GirlsCuteCool],[isGirlAnime],[isCuteAnime],[isGirlFaceMasksAnime],[isGirlsLoliAnime]",
    "title": "ANIME_PIC_9010220b0454704ee262acc9c10af539",
    "link_img": "https://live.staticflickr.com/65535/51553232591_a8f02e3286_o.png",
    "id_image": "ANIME_PIC_9010220b0454704ee262acc9c10af539",
    "count_view": 0
  },
  {
    "link_thumb": "https://live.staticflickr.com/65535/51553467128_84712c1173_n.jpg",
    "id_album": "-89234980",
    "description": "ANIME_PIC_901316770ef1957d63023f279baca1c7,[GirlsCuteCool],[isGirlAnime],[isCuteAnime]",
    "title": "ANIME_PIC_901316770ef1957d63023f279baca1c7",
    "link_img": "https://live.staticflickr.com/65535/51553467128_068e56724d_o.jpg",
    "id_image": "ANIME_PIC_901316770ef1957d63023f279baca1c7",
    "count_view": 0
  },
  {
    "link_thumb": "https://live.staticflickr.com/65535/51552436952_fb506776f7_n.jpg",
    "id_album": "-89234980",
    "description": "ANIME_PIC_9013b4d4e50a59fdf8cd565713c869bb,[GirlsCuteCool],[isGirlAnime],[isCuteAnime],[isGirlsHornsAnime],[isGirlsLoliAnime],[isSadAnimeGirl],[isSadAnime]",
    "title": "ANIME_PIC_9013b4d4e50a59fdf8cd565713c869bb",
    "link_img": "https://live.staticflickr.com/65535/51552436952_08605ae163_o.jpg",
    "id_image": "ANIME_PIC_9013b4d4e50a59fdf8cd565713c869bb",
    "count_view": 0
  },
  {
    "link_thumb": "https://live.staticflickr.com/65535/51552437157_a53612121c_n.jpg",
    "id_album": "-89234980",
    "description": "ANIME_PIC_901708433387e5dc3b01ecc6f9ca151e,[GirlsCuteCool],[isGirlAnime],[isCuteAnime],[isGirlsHatsHoodieAnime],[isGirlsLoliAnime]",
    "title": "ANIME_PIC_901708433387e5dc3b01ecc6f9ca151e",
    "link_img": "https://live.staticflickr.com/65535/51552437157_8aea432e5d_o.png",
    "id_image": "ANIME_PIC_901708433387e5dc3b01ecc6f9ca151e",
    "count_view": 0
  },
  {
    "link_thumb": "https://live.staticflickr.com/65535/51553233901_beeb1c8b75_n.jpg",
    "id_album": "-89234980",
    "description": "ANIME_PIC_901c78742a4d6997ab67a2c248f5c790,[GirlsCuteCool],[isGirlAnime],[isCuteAnime],[isGirlsLoliAnime],[isSadAnimeGirl],[isSadAnime]",
    "title": "ANIME_PIC_901c78742a4d6997ab67a2c248f5c790",
    "link_img": "https://live.staticflickr.com/65535/51553233901_a0afd4faf7_o.png",
    "id_image": "ANIME_PIC_901c78742a4d6997ab67a2c248f5c790",
    "count_view": 0
  },
  {
    "link_thumb": "https://live.staticflickr.com/65535/51552437802_d8f4fb5c21_n.jpg",
    "id_album": "-89234980",
    "description": "ANIME_PIC_901e4bbfdc3aa304596f15e21438709c,[GirlsCuteCool],[isGirlAnime],[isCuteAnime],[isGirlsHatsHoodieAnime],[isSadAnimeGirl],[isSadAnime]",
    "title": "ANIME_PIC_901e4bbfdc3aa304596f15e21438709c",
    "link_img": "https://live.staticflickr.com/65535/51552437802_4d413e8120_o.png",
    "id_image": "ANIME_PIC_901e4bbfdc3aa304596f15e21438709c",
    "count_view": 0
  },
  {
    "link_thumb": "https://live.staticflickr.com/65535/51552438147_1b705b4f99_n.jpg",
    "id_album": "-89234980",
    "description": "ANIME_PIC_9020ae176e5b69ebb5841ef77ac101a6,[GirlsCuteCool],[isGirlAnime],[isCuteAnime],[isSadAnimeGirl],[isSadAnime]",
    "title": "ANIME_PIC_9020ae176e5b69ebb5841ef77ac101a6",
    "link_img": "https://live.staticflickr.com/65535/51552438147_1d0290216f_o.jpg",
    "id_image": "ANIME_PIC_9020ae176e5b69ebb5841ef77ac101a6",
    "count_view": 0
  },
  {
    "link_thumb": "https://live.staticflickr.com/65535/51552438402_4a005e758e_n.jpg",
    "id_album": "-89234980",
    "description": "ANIME_PIC_902588d69edc539b13873d2bf9311880,[GirlsCuteCool],[isGirlAnime],[isCuteAnime],[isGirlsLoliAnime]",
    "title": "ANIME_PIC_902588d69edc539b13873d2bf9311880",
    "link_img": "https://live.staticflickr.com/65535/51552438402_957d6bef9e_o.png",
    "id_image": "ANIME_PIC_902588d69edc539b13873d2bf9311880",
    "count_view": 0
  },
  {
    "link_thumb": "https://live.staticflickr.com/65535/51554153175_442717ef5f_n.jpg",
    "id_album": "-89234980",
    "description": "ANIME_PIC_9026fff4f793810ea304ec55b57b90fd,[GirlsCuteCool],[isGirlAnime],[isCuteAnime],[isGirlsLoliAnime]",
    "title": "ANIME_PIC_9026fff4f793810ea304ec55b57b90fd",
    "link_img": "https://live.staticflickr.com/65535/51554153175_f524eddd00_o.jpg",
    "id_image": "ANIME_PIC_9026fff4f793810ea304ec55b57b90fd",
    "count_view": 0
  },
  {
    "link_thumb": "https://live.staticflickr.com/65535/51553469553_e766904b53_n.jpg",
    "id_album": "-89234980",
    "description": "ANIME_PIC_902865ec3289de6b8ed003ccfffad4d4,[GirlsCuteCool],[isGirlAnime],[isCuteAnime],[isGirlsLoliAnime]",
    "title": "ANIME_PIC_902865ec3289de6b8ed003ccfffad4d4",
    "link_img": "https://live.staticflickr.com/65535/51553469553_504af75bc5_o.jpg",
    "id_image": "ANIME_PIC_902865ec3289de6b8ed003ccfffad4d4",
    "count_view": 0
  },
  {
    "link_thumb": "https://live.staticflickr.com/65535/51554153735_a80a0f238d_n.jpg",
    "id_album": "-89234980",
    "description": "ANIME_PIC_902c62050477b450b3e7673a56d3b8b7,[GirlsCuteCool],[isGirlAnime],[isCuteAnime],[isGirlsHatsHoodieAnime],[isGirlsLoliAnime],[isSadAnimeGirl],[isSadAnime]",
    "title": "ANIME_PIC_902c62050477b450b3e7673a56d3b8b7",
    "link_img": "https://live.staticflickr.com/65535/51554153735_a8067776d1_o.jpg",
    "id_image": "ANIME_PIC_902c62050477b450b3e7673a56d3b8b7",
    "count_view": 0
  },
  {
    "link_thumb": "https://live.staticflickr.com/65535/51553954834_4fc1a1977c_n.jpg",
    "id_album": "-89234980",
    "description": "ANIME_PIC_902d32e166741578d33a4e2894959c51,[GirlsCuteCool],[isGirlAnime],[isCuteAnime],[isGirlEarsNekoAnime],[isGirlsLoliAnime]",
    "title": "ANIME_PIC_902d32e166741578d33a4e2894959c51",
    "link_img": "https://live.staticflickr.com/65535/51553954834_6f1cee938c_o.jpg",
    "id_image": "ANIME_PIC_902d32e166741578d33a4e2894959c51",
    "count_view": 0
  },
  {
    "link_thumb": "https://live.staticflickr.com/65535/51553236171_97ddd1d48e_n.jpg",
    "id_album": "-89234980",
    "description": "ANIME_PIC_9030f7e077793c4426b690d0514bf93d,[GirlsCuteCool],[isGirlAnime],[isCuteAnime],[isGirlsHornsAnime],[isGirlsLoliAnime]",
    "title": "ANIME_PIC_9030f7e077793c4426b690d0514bf93d",
    "link_img": "https://live.staticflickr.com/65535/51553236171_85f537f6f6_o.png",
    "id_image": "ANIME_PIC_9030f7e077793c4426b690d0514bf93d",
    "count_view": 0
  },
  {
    "link_thumb": "https://live.staticflickr.com/65535/51554154675_510fe8345c_n.jpg",
    "id_album": "-89234980",
    "description": "ANIME_PIC_90328458a763e034362e80df06e76016,[GirlsCuteCool],[isGirlAnime],[isCuteAnime],[isGirlEarsNekoAnime],[isGirlsHornsAnime],[isGirlsLoliAnime]",
    "title": "ANIME_PIC_90328458a763e034362e80df06e76016",
    "link_img": "https://live.staticflickr.com/65535/51554154675_33b5ef55d9_o.png",
    "id_image": "ANIME_PIC_90328458a763e034362e80df06e76016",
    "count_view": 0
  },
  {
    "link_thumb": "https://live.staticflickr.com/65535/51553956014_5e06545324_n.jpg",
    "id_album": "-89234980",
    "description": "ANIME_PIC_903314bd7948b91f945f74ccce7936da,[GirlsCuteCool],[isGirlAnime],[isCuteAnime],[isGirlsHatsHoodieAnime],[isGirlsLoliAnime]",
    "title": "ANIME_PIC_903314bd7948b91f945f74ccce7936da",
    "link_img": "https://live.staticflickr.com/65535/51553956014_94e8d027cb_o.jpg",
    "id_image": "ANIME_PIC_903314bd7948b91f945f74ccce7936da",
    "count_view": 0
  },
  {
    "link_thumb": "https://live.staticflickr.com/65535/51554155380_0185808d46_n.jpg",
    "id_album": "-89234980",
    "description": "ANIME_PIC_9035a623602b2c4da31181985a427fef,[GirlsCuteCool],[isGirlAnime],[isCuteAnime],[isGirlsLoliAnime]",
    "title": "ANIME_PIC_9035a623602b2c4da31181985a427fef",
    "link_img": "https://live.staticflickr.com/65535/51554155380_faf8152e20_o.png",
    "id_image": "ANIME_PIC_9035a623602b2c4da31181985a427fef",
    "count_view": 0
  },
  {
    "link_thumb": "https://live.staticflickr.com/65535/50151774527_a44784c80d_n.jpg",
    "id_album": "-89234980",
    "description": "ANIME_PIC_9037653cafc511f3820a84762183858d,[isGirlAnime],[isCuteAnime],[Girls Cute Cool],[GirlsCuteCool],[isGirlEarsNekoAnime],[isGirlsLoliAnime]",
    "title": "ANIME_PIC_9037653cafc511f3820a84762183858d",
    "link_img": "https://live.staticflickr.com/65535/50151774527_7784dee46b_o.png",
    "id_image": "ANIME_PIC_9037653cafc511f3820a84762183858d",
    "count_view": 0
  },
  {
    "link_thumb": "https://live.staticflickr.com/65535/51552441382_fba1e3bfd3_n.jpg",
    "id_album": "-89234980",
    "description": "ANIME_PIC_90383919e7887977f697b11477f07035,[GirlsCuteCool],[isGirlAnime],[isCuteAnime],[isGirlEarsNekoAnime]",
    "title": "ANIME_PIC_90383919e7887977f697b11477f07035",
    "link_img": "https://live.staticflickr.com/65535/51552441382_50b783fd6e_o.jpg",
    "id_image": "ANIME_PIC_90383919e7887977f697b11477f07035",
    "count_view": 0
  },
  {
    "link_thumb": "https://live.staticflickr.com/65535/51553471778_6bd9f46bc5_n.jpg",
    "id_album": "-89234980",
    "description": "ANIME_PIC_9039e7ae1f601b0405b81a64f0920cdb,[GirlsCuteCool],[isGirlAnime],[isCuteAnime],[isGirlsHatsHoodieAnime],[isGirlsLoliAnime]",
    "title": "ANIME_PIC_9039e7ae1f601b0405b81a64f0920cdb",
    "link_img": "https://live.staticflickr.com/65535/51553471778_cf980883ca_o.jpg",
    "id_image": "ANIME_PIC_9039e7ae1f601b0405b81a64f0920cdb",
    "count_view": 0
  },
  {
    "link_thumb": "https://live.staticflickr.com/65535/51553237946_dc48d6098e_n.jpg",
    "id_album": "-89234980",
    "description": "ANIME_PIC_903f18426923ccb2872ea91747f1b888,[GirlsCuteCool],[isGirlAnime],[isCuteAnime],[isGirlsLoliAnime]",
    "title": "ANIME_PIC_903f18426923ccb2872ea91747f1b888",
    "link_img": "https://live.staticflickr.com/65535/51553237946_97b8254263_o.jpg",
    "id_image": "ANIME_PIC_903f18426923ccb2872ea91747f1b888",
    "count_view": 0
  },
  {
    "link_thumb": "https://live.staticflickr.com/65535/51553238186_358bab6b29_n.jpg",
    "id_album": "-89234980",
    "description": "ANIME_PIC_9043d159f1048993000d9ffa9bd4c981,[GirlsCuteCool],[isGirlAnime],[isCuteAnime],[isGirlsLoliAnime]",
    "title": "ANIME_PIC_9043d159f1048993000d9ffa9bd4c981",
    "link_img": "https://live.staticflickr.com/65535/51553238186_a4f0a4e115_o.png",
    "id_image": "ANIME_PIC_9043d159f1048993000d9ffa9bd4c981",
    "count_view": 0
  },
  {
    "link_thumb": "https://live.staticflickr.com/65535/51553472553_1348a14125_n.jpg",
    "id_album": "-89234980",
    "description": "ANIME_PIC_90471873109caf637f16a584c4e8e3f5,[GirlsCuteCool],[isGirlAnime],[isCuteAnime],[isGirlFaceMasksAnime],[isGirlsLoliAnime]",
    "title": "ANIME_PIC_90471873109caf637f16a584c4e8e3f5",
    "link_img": "https://live.staticflickr.com/65535/51553472553_4ca47d3eae_o.jpg",
    "id_image": "ANIME_PIC_90471873109caf637f16a584c4e8e3f5",
    "count_view": 0
  },
  {
    "link_thumb": "https://live.staticflickr.com/65535/51552442542_56f78ef9b8_n.jpg",
    "id_album": "-89234980",
    "description": "ANIME_PIC_9049e960a8dd97397debf8c1ea14f83c,[GirlsCuteCool],[isGirlAnime],[isCuteAnime],[isGirlsHornsAnime],[isGirlsLoliAnime]",
    "title": "ANIME_PIC_9049e960a8dd97397debf8c1ea14f83c",
    "link_img": "https://live.staticflickr.com/65535/51552442542_cbd09475a9_o.jpg",
    "id_image": "ANIME_PIC_9049e960a8dd97397debf8c1ea14f83c",
    "count_view": 0
  },
  {
    "link_thumb": "https://live.staticflickr.com/65535/51553238881_e7825f3174_n.jpg",
    "id_album": "-89234980",
    "description": "ANIME_PIC_904aca45388adc578d70ac725d426bb7,[GirlsCuteCool],[isGirlAnime],[isCuteAnime],[isGirlsHatsHoodieAnime],[isGirlsLoliAnime]",
    "title": "ANIME_PIC_904aca45388adc578d70ac725d426bb7",
    "link_img": "https://live.staticflickr.com/65535/51553238881_7f32094736_o.jpg",
    "id_image": "ANIME_PIC_904aca45388adc578d70ac725d426bb7",
    "count_view": 0
  },
  {
    "link_thumb": "https://live.staticflickr.com/65535/51553473258_5355dbfbd0_n.jpg",
    "id_album": "-89234980",
    "description": "ANIME_PIC_904da27463da1b93518d3e958031d498,[GirlsCuteCool],[isGirlAnime],[isCuteAnime],[isSadAnimeGirl],[isSadAnime]",
    "title": "ANIME_PIC_904da27463da1b93518d3e958031d498",
    "link_img": "https://live.staticflickr.com/65535/51553473258_9a3729a338_o.png",
    "id_image": "ANIME_PIC_904da27463da1b93518d3e958031d498",
    "count_view": 0
  },
  {
    "link_thumb": "https://live.staticflickr.com/65535/51553473903_f59f5f31d7_n.jpg",
    "id_album": "-89234980",
    "description": "ANIME_PIC_9051a2222ce62c9526b4b9297045171e,[GirlsCuteCool],[isGirlAnime],[isCuteAnime]",
    "title": "ANIME_PIC_9051a2222ce62c9526b4b9297045171e",
    "link_img": "https://live.staticflickr.com/65535/51553473903_4fe7e367c8_o.jpg",
    "id_image": "ANIME_PIC_9051a2222ce62c9526b4b9297045171e",
    "count_view": 0
  },
  {
    "link_thumb": "https://live.staticflickr.com/65535/51553958869_7161b42a39_n.jpg",
    "id_album": "-89234980",
    "description": "ANIME_PIC_9055986b411a308e53b9ee2c094549a3,[GirlsCuteCool],[isGirlAnime],[isCuteAnime],[isGirlFaceMasksAnime],[isGirlsLoliAnime]",
    "title": "ANIME_PIC_9055986b411a308e53b9ee2c094549a3",
    "link_img": "https://live.staticflickr.com/65535/51553958869_06bf9dd954_o.jpg",
    "id_image": "ANIME_PIC_9055986b411a308e53b9ee2c094549a3",
    "count_view": 0
  },
  {
    "link_thumb": "https://live.staticflickr.com/65535/51554158320_cc4fc51481_n.jpg",
    "id_album": "-89234980",
    "description": "ANIME_PIC_9057c37d815e72821acffae0c760897b,[GirlsCuteCool],[isGirlAnime],[isCuteAnime],[isGirlsLoliAnime]",
    "title": "ANIME_PIC_9057c37d815e72821acffae0c760897b",
    "link_img": "https://live.staticflickr.com/65535/51554158320_1e93340c1e_o.jpg",
    "id_image": "ANIME_PIC_9057c37d815e72821acffae0c760897b",
    "count_view": 0
  },
  {
    "link_thumb": "https://live.staticflickr.com/65535/51553959394_09d4df739e_n.jpg",
    "id_album": "-89234980",
    "description": "ANIME_PIC_905abe6ba351f21ff78a3a9b97fbeb66,[GirlsCuteCool],[isGirlAnime],[isCuteAnime]",
    "title": "ANIME_PIC_905abe6ba351f21ff78a3a9b97fbeb66",
    "link_img": "https://live.staticflickr.com/65535/51553959394_881fe13f56_o.jpg",
    "id_image": "ANIME_PIC_905abe6ba351f21ff78a3a9b97fbeb66",
    "count_view": 0
  },
  {
    "link_thumb": "https://live.staticflickr.com/65535/51554158720_c158b0f378_n.jpg",
    "id_album": "-89234980",
    "description": "ANIME_PIC_905b1e758ede6589985836a70253910c,[GirlsCuteCool],[isGirlAnime],[isCuteAnime],[isGirlsLoliAnime]",
    "title": "ANIME_PIC_905b1e758ede6589985836a70253910c",
    "link_img": "https://live.staticflickr.com/65535/51554158720_2aaa8cd2ae_o.jpg",
    "id_image": "ANIME_PIC_905b1e758ede6589985836a70253910c",
    "count_view": 0
  },
  {
    "link_thumb": "https://live.staticflickr.com/65535/51552444867_a0a4b14104_n.jpg",
    "id_album": "-89234980",
    "description": "ANIME_PIC_906a5382eb83e99115a019af6b29be9c,[GirlsCuteCool],[isGirlAnime],[isCuteAnime],[isGirlEarsNekoAnime],[isGirlsLoliAnime]",
    "title": "ANIME_PIC_906a5382eb83e99115a019af6b29be9c",
    "link_img": "https://live.staticflickr.com/65535/51552444867_cee088a65b_o.png",
    "id_image": "ANIME_PIC_906a5382eb83e99115a019af6b29be9c",
    "count_view": 0
  },
  {
    "link_thumb": "https://live.staticflickr.com/65535/51553960499_b5cf31c669_n.jpg",
    "id_album": "-89234980",
    "description": "ANIME_PIC_906ffc3e23c657dde9ed312b7dbe6039,[GirlsCuteCool],[isGirlAnime],[isCuteAnime],[isGirlsLoliAnime]",
    "title": "ANIME_PIC_906ffc3e23c657dde9ed312b7dbe6039",
    "link_img": "https://live.staticflickr.com/65535/51553960499_c4530f5c62_o.png",
    "id_image": "ANIME_PIC_906ffc3e23c657dde9ed312b7dbe6039",
    "count_view": 0
  },
  {
    "link_thumb": "https://live.staticflickr.com/65535/51552445682_1ffb5bc92c_n.jpg",
    "id_album": "-89234980",
    "description": "ANIME_PIC_90752c2ed405d8b2b519c80f982880fd,[GirlsCuteCool],[isGirlAnime],[isCuteAnime],[isGirlsLoliAnime]",
    "title": "ANIME_PIC_90752c2ed405d8b2b519c80f982880fd",
    "link_img": "https://live.staticflickr.com/65535/51552445682_4d0a5f2ea2_o.jpg",
    "id_image": "ANIME_PIC_90752c2ed405d8b2b519c80f982880fd",
    "count_view": 0
  },
  {
    "link_thumb": "https://live.staticflickr.com/65535/51554160005_5b5348df25_n.jpg",
    "id_album": "-89234980",
    "description": "ANIME_PIC_9075756f0e58589f3684e51c80008b30,[GirlsCuteCool],[isGirlAnime],[isCuteAnime],[isGirlsLoliAnime]",
    "title": "ANIME_PIC_9075756f0e58589f3684e51c80008b30",
    "link_img": "https://live.staticflickr.com/65535/51554160005_372e5479ab_o.png",
    "id_image": "ANIME_PIC_9075756f0e58589f3684e51c80008b30",
    "count_view": 0
  },
  {
    "link_thumb": "https://live.staticflickr.com/65535/51554160610_e385e54ea2_n.jpg",
    "id_album": "-89234980",
    "description": "ANIME_PIC_90788dbe59e01922e61de5b6695fc087,[GirlsCuteCool],[isGirlAnime],[isCuteAnime]",
    "title": "ANIME_PIC_90788dbe59e01922e61de5b6695fc087",
    "link_img": "https://live.staticflickr.com/65535/51554160610_f333da6e8e_o.png",
    "id_image": "ANIME_PIC_90788dbe59e01922e61de5b6695fc087",
    "count_view": 0
  },
  {
    "link_thumb": "https://live.staticflickr.com/65535/51554160975_8ff187a7ca_n.jpg",
    "id_album": "-89234980",
    "description": "ANIME_PIC_907bee3e758097336ec53c84398e28f7,[GirlsCuteCool],[isGirlAnime],[isCuteAnime]",
    "title": "ANIME_PIC_907bee3e758097336ec53c84398e28f7",
    "link_img": "https://live.staticflickr.com/65535/51554160975_c667cd46b2_o.jpg",
    "id_image": "ANIME_PIC_907bee3e758097336ec53c84398e28f7",
    "count_view": 0
  },
  {
    "link_thumb": "https://live.staticflickr.com/65535/51553477283_84f5ea1222_n.jpg",
    "id_album": "-89234980",
    "description": "ANIME_PIC_908218a1049b5fbbfcdf598704e917da,[GirlsCuteCool],[isGirlAnime],[isCuteAnime],[isGirlsHatsHoodieAnime],[isGirlsLoliAnime]",
    "title": "ANIME_PIC_908218a1049b5fbbfcdf598704e917da",
    "link_img": "https://live.staticflickr.com/65535/51553477283_ca4ef1edc9_o.jpg",
    "id_image": "ANIME_PIC_908218a1049b5fbbfcdf598704e917da",
    "count_view": 0
  },
  {
    "link_thumb": "https://live.staticflickr.com/65535/51553477673_429d71eb58_n.jpg",
    "id_album": "-89234980",
    "description": "ANIME_PIC_90844846eed8190e3445b8fcdfc635d6,[GirlsCuteCool],[isGirlAnime],[isCuteAnime],[isGirlsLoliAnime]",
    "title": "ANIME_PIC_90844846eed8190e3445b8fcdfc635d6",
    "link_img": "https://live.staticflickr.com/65535/51553477673_565d90d4cc_o.jpg",
    "id_image": "ANIME_PIC_90844846eed8190e3445b8fcdfc635d6",
    "count_view": 0
  },
  {
    "link_thumb": "https://live.staticflickr.com/65535/51553243671_b6a7ef00a4_n.jpg",
    "id_album": "-89234980",
    "description": "ANIME_PIC_9084942bba6732126cf463a05ee99867,[GirlsCuteCool],[isGirlAnime],[isCuteAnime],[isGirlsLoliAnime]",
    "title": "ANIME_PIC_9084942bba6732126cf463a05ee99867",
    "link_img": "https://live.staticflickr.com/65535/51553243671_f5d0f411ee_o.png",
    "id_image": "ANIME_PIC_9084942bba6732126cf463a05ee99867",
    "count_view": 0
  },
  {
    "link_thumb": "https://live.staticflickr.com/65535/51552448022_8b4029b077_n.jpg",
    "id_album": "-89234980",
    "description": "ANIME_PIC_9084cd8aaa6f0b6cd8bd006d2e250c83,[GirlsCuteCool],[isGirlAnime],[isCuteAnime],[isBlackAnime],[isSadAnimeGirl],[isSadAnime]",
    "title": "ANIME_PIC_9084cd8aaa6f0b6cd8bd006d2e250c83",
    "link_img": "https://live.staticflickr.com/65535/51552448022_bdb796ef04_o.jpg",
    "id_image": "ANIME_PIC_9084cd8aaa6f0b6cd8bd006d2e250c83",
    "count_view": 0
  },
  {
    "link_thumb": "https://live.staticflickr.com/65535/51552448252_920233a370_n.jpg",
    "id_album": "-89234980",
    "description": "ANIME_PIC_90897e47885eb4400bcb4e4637461f11,[GirlsCuteCool],[isGirlAnime],[isCuteAnime]",
    "title": "ANIME_PIC_90897e47885eb4400bcb4e4637461f11",
    "link_img": "https://live.staticflickr.com/65535/51552448252_4f5fd7a3a6_o.jpg",
    "id_image": "ANIME_PIC_90897e47885eb4400bcb4e4637461f11",
    "count_view": 0
  },
  {
    "link_thumb": "https://live.staticflickr.com/65535/51553963669_031bbe9e53_n.jpg",
    "id_album": "-89234980",
    "description": "ANIME_PIC_908bd95258712c20e09bbd121a8f31d5,[GirlsCuteCool],[isGirlAnime],[isCuteAnime],[isGirlsLoliAnime]",
    "title": "ANIME_PIC_908bd95258712c20e09bbd121a8f31d5",
    "link_img": "https://live.staticflickr.com/65535/51553963669_db1cdf1dab_o.jpg",
    "id_image": "ANIME_PIC_908bd95258712c20e09bbd121a8f31d5",
    "count_view": 0
  },
  {
    "link_thumb": "https://live.staticflickr.com/65535/51553963949_9f0da10b77_n.jpg",
    "id_album": "-89234980",
    "description": "ANIME_PIC_908e851a2373bb76b6be77ae03931fc0,[GirlsCuteCool],[isGirlAnime],[isCuteAnime],[isGirlsLoliAnime]",
    "title": "ANIME_PIC_908e851a2373bb76b6be77ae03931fc0",
    "link_img": "https://live.staticflickr.com/65535/51553963949_a883cd20c3_o.jpg",
    "id_image": "ANIME_PIC_908e851a2373bb76b6be77ae03931fc0",
    "count_view": 0
  },
  {
    "link_thumb": "https://live.staticflickr.com/65535/51553479203_67c0f67931_n.jpg",
    "id_album": "-89234980",
    "description": "ANIME_PIC_908f26db50c0a07e35e29be72fad4f9e,[GirlsCuteCool],[isGirlAnime],[isCuteAnime],[isGirlsHatsHoodieAnime],[isSadAnimeGirl],[isSadAnime]",
    "title": "ANIME_PIC_908f26db50c0a07e35e29be72fad4f9e",
    "link_img": "https://live.staticflickr.com/65535/51553479203_025b8c1057_o.jpg",
    "id_image": "ANIME_PIC_908f26db50c0a07e35e29be72fad4f9e",
    "count_view": 0
  },
  {
    "link_thumb": "https://live.staticflickr.com/65535/51553245301_11c2b53a63_n.jpg",
    "id_album": "-89234980",
    "description": "ANIME_PIC_9099d335db397464b52dbbb0e998d04e,[GirlsCuteCool],[isGirlAnime],[isCuteAnime],[isGirlsLoliAnime]",
    "title": "ANIME_PIC_9099d335db397464b52dbbb0e998d04e",
    "link_img": "https://live.staticflickr.com/65535/51553245301_aee723b5a7_o.jpg",
    "id_image": "ANIME_PIC_9099d335db397464b52dbbb0e998d04e",
    "count_view": 0
  },
  {
    "link_thumb": "https://live.staticflickr.com/65535/51553964604_030de0aba6_n.jpg",
    "id_album": "-89234980",
    "description": "ANIME_PIC_909c24cacac153c4cf2475ceadb2559a,[GirlsCuteCool],[isGirlAnime],[isCuteAnime],[isGirlsLoliAnime]",
    "title": "ANIME_PIC_909c24cacac153c4cf2475ceadb2559a",
    "link_img": "https://live.staticflickr.com/65535/51553964604_876f9f63c5_o.jpg",
    "id_image": "ANIME_PIC_909c24cacac153c4cf2475ceadb2559a",
    "count_view": 0
  },
  {
    "link_thumb": "https://live.staticflickr.com/65535/51554163940_1fcb5eebde_n.jpg",
    "id_album": "-89234980",
    "description": "ANIME_PIC_90a4b7a12df8a23895dc70bc71430870,[GirlsCuteCool],[isGirlAnime],[isCuteAnime]",
    "title": "ANIME_PIC_90a4b7a12df8a23895dc70bc71430870",
    "link_img": "https://live.staticflickr.com/65535/51554163940_a7fbec5d66_o.png",
    "id_image": "ANIME_PIC_90a4b7a12df8a23895dc70bc71430870",
    "count_view": 0
  },
  {
    "link_thumb": "https://live.staticflickr.com/65535/51553246256_19d06b010d_n.jpg",
    "id_album": "-89234980",
    "description": "ANIME_PIC_90a74867a580065173867ef0d7b3dd04,[GirlsCuteCool],[isGirlAnime],[isCuteAnime],[isGirlsLoliAnime]",
    "title": "ANIME_PIC_90a74867a580065173867ef0d7b3dd04",
    "link_img": "https://live.staticflickr.com/65535/51553246256_43b5a8a0c4_o.jpg",
    "id_image": "ANIME_PIC_90a74867a580065173867ef0d7b3dd04",
    "count_view": 0
  },
  {
    "link_thumb": "https://live.staticflickr.com/65535/51552450477_b34bd5b1f2_n.jpg",
    "id_album": "-89234980",
    "description": "ANIME_PIC_90a89924ca1b9522f866f1d1b12bc510,[GirlsCuteCool],[isGirlAnime],[isCuteAnime],[isGirlsHatsHoodieAnime]",
    "title": "ANIME_PIC_90a89924ca1b9522f866f1d1b12bc510",
    "link_img": "https://live.staticflickr.com/65535/51552450477_490ca8ecee_o.jpg",
    "id_image": "ANIME_PIC_90a89924ca1b9522f866f1d1b12bc510",
    "count_view": 0
  },
  {
    "link_thumb": "https://live.staticflickr.com/65535/51554164925_3488a1fdf8_n.jpg",
    "id_album": "-89234980",
    "description": "ANIME_PIC_90aa5a3ebce9f537a88c7c7f299189b5,[GirlsCuteCool],[isGirlAnime],[isCuteAnime],[isGirlsHatsHoodieAnime]",
    "title": "ANIME_PIC_90aa5a3ebce9f537a88c7c7f299189b5",
    "link_img": "https://live.staticflickr.com/65535/51554164925_cabae876a3_o.png",
    "id_image": "ANIME_PIC_90aa5a3ebce9f537a88c7c7f299189b5",
    "count_view": 0
  },
  {
    "link_thumb": "https://live.staticflickr.com/65535/51553841058_126d1e178a_n.jpg",
    "id_album": "-89234980",
    "description": "ANIME_PIC_90aa6d577e7e9625f95b9fbe9e34ad64,[GirlsCuteCool],[isGirlAnime],[isCuteAnime],[isGirlsLoliAnime]",
    "title": "ANIME_PIC_90aa6d577e7e9625f95b9fbe9e34ad64",
    "link_img": "https://live.staticflickr.com/65535/51553841058_0e0cd2ea3c_o.jpg",
    "id_image": "ANIME_PIC_90aa6d577e7e9625f95b9fbe9e34ad64",
    "count_view": 0
  },
  {
    "link_thumb": "https://live.staticflickr.com/65535/51553247456_9a369663dd_n.jpg",
    "id_album": "-89234980",
    "description": "ANIME_PIC_90ac2c672e50614d48f0827e3e5bd3ae,[GirlsCuteCool],[isGirlAnime],[isCuteAnime],[isGirlsLoliAnime]",
    "title": "ANIME_PIC_90ac2c672e50614d48f0827e3e5bd3ae",
    "link_img": "https://live.staticflickr.com/65535/51553247456_cce09d6b05_o.jpg",
    "id_image": "ANIME_PIC_90ac2c672e50614d48f0827e3e5bd3ae",
    "count_view": 0
  },
  {
    "link_thumb": "https://live.staticflickr.com/65535/51553247776_63145404e7_n.jpg",
    "id_album": "-89234980",
    "description": "ANIME_PIC_90aca20396a34a8811886c28b642c01a,[GirlsCuteCool],[isGirlAnime],[isCuteAnime]",
    "title": "ANIME_PIC_90aca20396a34a8811886c28b642c01a",
    "link_img": "https://live.staticflickr.com/65535/51553247776_f0c630ff67_o.jpg",
    "id_image": "ANIME_PIC_90aca20396a34a8811886c28b642c01a",
    "count_view": 0
  },
  {
    "link_thumb": "https://live.staticflickr.com/65535/51552451937_7b2994f053_n.jpg",
    "id_album": "-89234980",
    "description": "ANIME_PIC_90af97ee35e7b8e2c4f802ee9d05570f,[GirlsCuteCool],[isGirlAnime],[isCuteAnime],[isSadAnimeGirl],[isSadAnime]",
    "title": "ANIME_PIC_90af97ee35e7b8e2c4f802ee9d05570f",
    "link_img": "https://live.staticflickr.com/65535/51552451937_ddceacf134_o.png",
    "id_image": "ANIME_PIC_90af97ee35e7b8e2c4f802ee9d05570f",
    "count_view": 0
  },
  {
    "link_thumb": "https://live.staticflickr.com/65535/50055985883_8532d0c0aa_n.jpg",
    "id_album": "-89234980",
    "description": "ANIME_PIC_90b098d7c9841f5ef9ebbe7ab127f295,[isGirlAnime],[isCuteAnime],[Girls Cute Cool],[GirlsCuteCool],[isGirlsLoliAnime]",
    "title": "ANIME_PIC_90b098d7c9841f5ef9ebbe7ab127f295",
    "link_img": "https://live.staticflickr.com/65535/50055985883_c595ab59b2_o.png",
    "id_image": "ANIME_PIC_90b098d7c9841f5ef9ebbe7ab127f295",
    "count_view": 0
  },
  {
    "link_thumb": "https://live.staticflickr.com/65535/51554166905_d7c9f76458_n.jpg",
    "id_album": "-89234980",
    "description": "ANIME_PIC_90b3ae7806965df2b1c96f19e10a626a,[GirlsCuteCool],[isGirlAnime],[isCuteAnime]",
    "title": "ANIME_PIC_90b3ae7806965df2b1c96f19e10a626a",
    "link_img": "https://live.staticflickr.com/65535/51554166905_7a1593f1e1_o.jpg",
    "id_image": "ANIME_PIC_90b3ae7806965df2b1c96f19e10a626a",
    "count_view": 0
  },
  {
    "link_thumb": "https://live.staticflickr.com/65535/51552452942_2909f0029d_n.jpg",
    "id_album": "-89234980",
    "description": "ANIME_PIC_90b4fe28e9f6e00da6049c697383bb0b,[GirlsCuteCool],[isGirlAnime],[isCuteAnime],[isGirlsLoliAnime],[isSadAnimeGirl],[isSadAnime]",
    "title": "ANIME_PIC_90b4fe28e9f6e00da6049c697383bb0b",
    "link_img": "https://live.staticflickr.com/65535/51552452942_9de4a54d41_o.png",
    "id_image": "ANIME_PIC_90b4fe28e9f6e00da6049c697383bb0b",
    "count_view": 0
  },
  {
    "link_thumb": "https://live.staticflickr.com/65535/51553968379_a6efd679c9_n.jpg",
    "id_album": "-89234980",
    "description": "ANIME_PIC_90b5e21143318a3b2ed8befa0f078ce8,[GirlsCuteCool],[isGirlAnime],[isCuteAnime],[isGirlsLoliAnime],[isSadAnimeGirl],[isSadAnime]",
    "title": "ANIME_PIC_90b5e21143318a3b2ed8befa0f078ce8",
    "link_img": "https://live.staticflickr.com/65535/51553968379_11c25a4e02_o.png",
    "id_image": "ANIME_PIC_90b5e21143318a3b2ed8befa0f078ce8",
    "count_view": 0
  },
  {
    "link_thumb": "https://live.staticflickr.com/65535/51554167995_f1c641eb3c_n.jpg",
    "id_album": "-89234980",
    "description": "ANIME_PIC_90ba15044f5dcc67ad7712810bf256a6,[GirlsCuteCool],[isGirlAnime],[isCuteAnime],[isGirlsHatsHoodieAnime]",
    "title": "ANIME_PIC_90ba15044f5dcc67ad7712810bf256a6",
    "link_img": "https://live.staticflickr.com/65535/51554167995_7d3c58e12d_o.jpg",
    "id_image": "ANIME_PIC_90ba15044f5dcc67ad7712810bf256a6",
    "count_view": 0
  },
  {
    "link_thumb": "https://live.staticflickr.com/65535/51553250296_d4d34ac5b9_n.jpg",
    "id_album": "-89234980",
    "description": "ANIME_PIC_90bdcdc877158e3d1d0e792ec66f4cb0,[GirlsCuteCool],[isGirlAnime],[isCuteAnime],[isGirlFaceMasksAnime],[isGirlsLoliAnime],[isSadAnimeGirl],[isSadAnime]",
    "title": "ANIME_PIC_90bdcdc877158e3d1d0e792ec66f4cb0",
    "link_img": "https://live.staticflickr.com/65535/51553250296_1bd6808ffe_o.jpg",
    "id_image": "ANIME_PIC_90bdcdc877158e3d1d0e792ec66f4cb0",
    "count_view": 0
  },
  {
    "link_thumb": "https://live.staticflickr.com/65535/51553969599_e2b6f123b2_n.jpg",
    "id_album": "-89234980",
    "description": "ANIME_PIC_90bde39c2cca8b654250ef7c8ef88169,[GirlsCuteCool],[isGirlAnime],[isCuteAnime],[isGirlsLoliAnime],[isSadAnimeGirl],[isSadAnime]",
    "title": "ANIME_PIC_90bde39c2cca8b654250ef7c8ef88169",
    "link_img": "https://live.staticflickr.com/65535/51553969599_1da364a1ff_o.jpg",
    "id_image": "ANIME_PIC_90bde39c2cca8b654250ef7c8ef88169",
    "count_view": 0
  },
  {
    "link_thumb": "https://live.staticflickr.com/65535/51554169020_1c0ae7ce91_n.jpg",
    "id_album": "-89234980",
    "description": "ANIME_PIC_90c4dc224a32e885475154006e62d743,[GirlsCuteCool],[isGirlAnime],[isCuteAnime],[isGirlsHatsHoodieAnime],[isGirlsLoliAnime]",
    "title": "ANIME_PIC_90c4dc224a32e885475154006e62d743",
    "link_img": "https://live.staticflickr.com/65535/51554169020_bc4129dc23_o.png",
    "id_image": "ANIME_PIC_90c4dc224a32e885475154006e62d743",
    "count_view": 0
  },
  {
    "link_thumb": "https://live.staticflickr.com/65535/51554169635_2956e8824f_n.jpg",
    "id_album": "-89234980",
    "description": "ANIME_PIC_90cba3ef01348de133a58904e9b928f8,[GirlsCuteCool],[isGirlAnime],[isCuteAnime],[isGirlsLoliAnime],[isSadAnimeGirl],[isSadAnime]",
    "title": "ANIME_PIC_90cba3ef01348de133a58904e9b928f8",
    "link_img": "https://live.staticflickr.com/65535/51554169635_49194e7908_o.png",
    "id_image": "ANIME_PIC_90cba3ef01348de133a58904e9b928f8",
    "count_view": 0
  },
  {
    "link_thumb": "https://live.staticflickr.com/65535/51553970949_35541b4e71_n.jpg",
    "id_album": "-89234980",
    "description": "ANIME_PIC_90cbf87cda35a5410a9a34dad5b0d975,[GirlsCuteCool],[isGirlAnime],[isCuteAnime],[isGirlsLoliAnime]",
    "title": "ANIME_PIC_90cbf87cda35a5410a9a34dad5b0d975",
    "link_img": "https://live.staticflickr.com/65535/51553970949_55e6e96480_o.jpg",
    "id_image": "ANIME_PIC_90cbf87cda35a5410a9a34dad5b0d975",
    "count_view": 0
  },
  {
    "link_thumb": "https://live.staticflickr.com/65535/51553971149_239d47bf0d_n.jpg",
    "id_album": "-89234980",
    "description": "ANIME_PIC_90d1d4ddb726bb665c6eef76229fa311,[GirlsCuteCool],[isGirlAnime],[isCuteAnime],[isGirlEarsNekoAnime],[isSadAnimeGirl],[isSadAnime]",
    "title": "ANIME_PIC_90d1d4ddb726bb665c6eef76229fa311",
    "link_img": "https://live.staticflickr.com/65535/51553971149_eecb32d1d4_o.jpg",
    "id_image": "ANIME_PIC_90d1d4ddb726bb665c6eef76229fa311",
    "count_view": 0
  },
  {
    "link_thumb": "https://live.staticflickr.com/65535/51554170370_ef57613d8a_n.jpg",
    "id_album": "-89234980",
    "description": "ANIME_PIC_90d22ceac8a6f43290ba27e205b3ea12,[GirlsCuteCool],[isGirlAnime],[isCuteAnime]",
    "title": "ANIME_PIC_90d22ceac8a6f43290ba27e205b3ea12",
    "link_img": "https://live.staticflickr.com/65535/51554170370_7ed415bef0_o.jpg",
    "id_image": "ANIME_PIC_90d22ceac8a6f43290ba27e205b3ea12",
    "count_view": 0
  },
  {
    "link_thumb": "https://live.staticflickr.com/65535/51554170580_1779933e13_n.jpg",
    "id_album": "-89234980",
    "description": "ANIME_PIC_90d6561f7cdf4198e18a11bb7ebabed0,[GirlsCuteCool],[isGirlAnime],[isCuteAnime],[isGirlsLoliAnime]",
    "title": "ANIME_PIC_90d6561f7cdf4198e18a11bb7ebabed0",
    "link_img": "https://live.staticflickr.com/65535/51554170580_f1c4020e82_o.png",
    "id_image": "ANIME_PIC_90d6561f7cdf4198e18a11bb7ebabed0",
    "count_view": 0
  },
  {
    "link_thumb": "https://live.staticflickr.com/65535/51553486698_4137270135_n.jpg",
    "id_album": "-89234980",
    "description": "ANIME_PIC_90d952b6a3c53dd8629a1358b7c7625c,[GirlsCuteCool],[isBoyAnime],[isGirlAnime],[isCuteAnime]",
    "title": "ANIME_PIC_90d952b6a3c53dd8629a1358b7c7625c",
    "link_img": "https://live.staticflickr.com/65535/51553486698_f9d8264bfc_o.jpg",
    "id_image": "ANIME_PIC_90d952b6a3c53dd8629a1358b7c7625c",
    "count_view": 0
  },
  {
    "link_thumb": "https://live.staticflickr.com/65535/51553972144_ffdbce47d7_n.jpg",
    "id_album": "-89234980",
    "description": "ANIME_PIC_90d969c44aed9177611b03e30e4d9205,[GirlsCuteCool],[isGirlAnime],[isCuteAnime],[isSadAnimeGirl],[isSadAnime]",
    "title": "ANIME_PIC_90d969c44aed9177611b03e30e4d9205",
    "link_img": "https://live.staticflickr.com/65535/51553972144_03b680f8b2_o.jpg",
    "id_image": "ANIME_PIC_90d969c44aed9177611b03e30e4d9205",
    "count_view": 0
  },
  {
    "link_thumb": "https://live.staticflickr.com/65535/51552457372_cf27e592fe_n.jpg",
    "id_album": "-89234980",
    "description": "ANIME_PIC_90da7120c9be54bd072df912bac32546,[GirlsCuteCool],[isGirlAnime],[isCuteAnime],[isGirlsLoliAnime]",
    "title": "ANIME_PIC_90da7120c9be54bd072df912bac32546",
    "link_img": "https://live.staticflickr.com/65535/51552457372_338c8df2f5_o.jpg",
    "id_image": "ANIME_PIC_90da7120c9be54bd072df912bac32546",
    "count_view": 0
  },
  {
    "link_thumb": "https://live.staticflickr.com/65535/51554171620_7c81b73787_n.jpg",
    "id_album": "-89234980",
    "description": "ANIME_PIC_90db7f73b0101cbe287237d44f83a601,[GirlsCuteCool],[isGirlAnime],[isCuteAnime],[isSceneryArts]",
    "title": "ANIME_PIC_90db7f73b0101cbe287237d44f83a601",
    "link_img": "https://live.staticflickr.com/65535/51554171620_9c0aff9bce_o.jpg",
    "id_image": "ANIME_PIC_90db7f73b0101cbe287237d44f83a601",
    "count_view": 0
  },
  {
    "link_thumb": "https://live.staticflickr.com/65535/51554171920_6dc2721e4b_n.jpg",
    "id_album": "-89234980",
    "description": "ANIME_PIC_90de69c2b900245eba4e72fb5053c057,[GirlsCuteCool],[isGirlAnime],[isCuteAnime],[isGirlsLoliAnime]",
    "title": "ANIME_PIC_90de69c2b900245eba4e72fb5053c057",
    "link_img": "https://live.staticflickr.com/65535/51554171920_f1215f0931_o.jpg",
    "id_image": "ANIME_PIC_90de69c2b900245eba4e72fb5053c057",
    "count_view": 0
  },
  {
    "link_thumb": "https://live.staticflickr.com/65535/51553973239_97448b4879_n.jpg",
    "id_album": "-89234980",
    "description": "ANIME_PIC_90e28f528da94efe3d8bd591eaf3d3ac,[GirlsCuteCool],[isGirlAnime],[isCuteAnime],[isGirlsHatsHoodieAnime],[isGirlsLoliAnime],[isSadAnimeGirl],[isSadAnime]",
    "title": "ANIME_PIC_90e28f528da94efe3d8bd591eaf3d3ac",
    "link_img": "https://live.staticflickr.com/65535/51553973239_b71bece082_o.jpg",
    "id_image": "ANIME_PIC_90e28f528da94efe3d8bd591eaf3d3ac",
    "count_view": 0
  },
  {
    "link_thumb": "https://live.staticflickr.com/65535/51552458462_870d92709b_n.jpg",
    "id_album": "-89234980",
    "description": "ANIME_PIC_90e65bf6c747e1c7f06cd772a827a140,[GirlsCuteCool],[isGirlAnime],[isCuteAnime]",
    "title": "ANIME_PIC_90e65bf6c747e1c7f06cd772a827a140",
    "link_img": "https://live.staticflickr.com/65535/51552458462_061d92c934_o.jpg",
    "id_image": "ANIME_PIC_90e65bf6c747e1c7f06cd772a827a140",
    "count_view": 0
  },
  {
    "link_thumb": "https://live.staticflickr.com/65535/51554172545_10f0d73c6b_n.jpg",
    "id_album": "-89234980",
    "description": "ANIME_PIC_90ec4aa8bc07c3e28b9205096328c55d,[GirlsCuteCool],[isGirlAnime],[isCuteAnime],[isGirlsLoliAnime]",
    "title": "ANIME_PIC_90ec4aa8bc07c3e28b9205096328c55d",
    "link_img": "https://live.staticflickr.com/65535/51554172545_f728ec3b90_o.jpg",
    "id_image": "ANIME_PIC_90ec4aa8bc07c3e28b9205096328c55d",
    "count_view": 0
  },
  {
    "link_thumb": "https://live.staticflickr.com/65535/51553973994_3bd574d6c1_n.jpg",
    "id_album": "-89234980",
    "description": "ANIME_PIC_90f072f851f767dc1edf452175036d96,[GirlsCuteCool],[isGirlAnime],[isCuteAnime],[isGirlsLoliAnime],[isSadAnimeGirl],[isSadAnime]",
    "title": "ANIME_PIC_90f072f851f767dc1edf452175036d96",
    "link_img": "https://live.staticflickr.com/65535/51553973994_cf052f4e4b_o.jpg",
    "id_image": "ANIME_PIC_90f072f851f767dc1edf452175036d96",
    "count_view": 0
  },
  {
    "link_thumb": "https://live.staticflickr.com/65535/51554173050_1e281c2802_n.jpg",
    "id_album": "-89234980",
    "description": "ANIME_PIC_90f6ed796b06bbfaca241b43f9025d2f,[GirlsCuteCool],[isGirlAnime],[isCuteAnime],[isGirlEarsNekoAnime],[isGirlsHatsHoodieAnime]",
    "title": "ANIME_PIC_90f6ed796b06bbfaca241b43f9025d2f",
    "link_img": "https://live.staticflickr.com/65535/51554173050_a1b349da62_o.jpg",
    "id_image": "ANIME_PIC_90f6ed796b06bbfaca241b43f9025d2f",
    "count_view": 0
  },
  {
    "link_thumb": "https://live.staticflickr.com/65535/51553489058_128c3474fd_n.jpg",
    "id_album": "-89234980",
    "description": "ANIME_PIC_90f81e11a301b8a89954f3bb7438e72f,[GirlsCuteCool],[isGirlAnime],[isCuteAnime],[isGirlFaceMasksAnime]",
    "title": "ANIME_PIC_90f81e11a301b8a89954f3bb7438e72f",
    "link_img": "https://live.staticflickr.com/65535/51553489058_ef88971ea1_o.jpg",
    "id_image": "ANIME_PIC_90f81e11a301b8a89954f3bb7438e72f",
    "count_view": 0
  },
  {
    "link_thumb": "https://live.staticflickr.com/65535/51553974754_b6ec86bf58_n.jpg",
    "id_album": "-89234980",
    "description": "ANIME_PIC_90ff626fdb6cde2f3c3c8fe88dc1b166,[GirlsCuteCool],[isGirlAnime],[isCuteAnime],[isGirlsLoliAnime]",
    "title": "ANIME_PIC_90ff626fdb6cde2f3c3c8fe88dc1b166",
    "link_img": "https://live.staticflickr.com/65535/51553974754_500da1b41e_o.png",
    "id_image": "ANIME_PIC_90ff626fdb6cde2f3c3c8fe88dc1b166",
    "count_view": 0
  },
  {
    "link_thumb": "https://live.staticflickr.com/65535/51553489873_15ff74d6a4_n.jpg",
    "id_album": "-89234980",
    "description": "ANIME_PIC_91009518986ee3007bc8948103f3e983,[GirlsCuteCool],[isGirlAnime],[isCuteAnime],[isGirlEarsNekoAnime]",
    "title": "ANIME_PIC_91009518986ee3007bc8948103f3e983",
    "link_img": "https://live.staticflickr.com/65535/51553489873_0823831b69_o.png",
    "id_image": "ANIME_PIC_91009518986ee3007bc8948103f3e983",
    "count_view": 0
  },
  {
    "link_thumb": "https://live.staticflickr.com/65535/51553490383_22e7a2dafb_n.jpg",
    "id_album": "-89234980",
    "description": "ANIME_PIC_910144bb81c5677c05e2064575da5bd9,[GirlsCuteCool],[isGirlAnime],[isCuteAnime],[isGirlsHatsHoodieAnime],[isGirlsLoliAnime],[isSadAnimeGirl],[isSadAnime]",
    "title": "ANIME_PIC_910144bb81c5677c05e2064575da5bd9",
    "link_img": "https://live.staticflickr.com/65535/51553490383_559922426e_o.jpg",
    "id_image": "ANIME_PIC_910144bb81c5677c05e2064575da5bd9",
    "count_view": 0
  },
  {
    "link_thumb": "https://live.staticflickr.com/65535/51554175000_a44934978e_n.jpg",
    "id_album": "-89234980",
    "description": "ANIME_PIC_9104312eee44f20b0d4aea26dfcee1cf,[GirlsCuteCool],[isGirlAnime],[isCuteAnime],[isGirlsLoliAnime]",
    "title": "ANIME_PIC_9104312eee44f20b0d4aea26dfcee1cf",
    "link_img": "https://live.staticflickr.com/65535/51554175000_09debb9c5b_o.jpg",
    "id_image": "ANIME_PIC_9104312eee44f20b0d4aea26dfcee1cf",
    "count_view": 0
  },
  {
    "link_thumb": "https://live.staticflickr.com/65535/51554175210_1c330ed80d_n.jpg",
    "id_album": "-89234980",
    "description": "ANIME_PIC_9106c9cd5a6b13ac367e10d700b1b577,[GirlsCuteCool],[isGirlAnime],[isCuteAnime],[isGirlsLoliAnime]",
    "title": "ANIME_PIC_9106c9cd5a6b13ac367e10d700b1b577",
    "link_img": "https://live.staticflickr.com/65535/51554175210_abbf64d82d_o.jpg",
    "id_image": "ANIME_PIC_9106c9cd5a6b13ac367e10d700b1b577",
    "count_view": 0
  },
  {
    "link_thumb": "https://live.staticflickr.com/65535/51553491098_dbf0149b5d_n.jpg",
    "id_album": "-89234980",
    "description": "ANIME_PIC_9107b66c000a703a75b88d7d099e852d,[GirlsCuteCool],[isGirlAnime],[isCuteAnime],[isSadAnimeGirl],[isSadAnime]",
    "title": "ANIME_PIC_9107b66c000a703a75b88d7d099e852d",
    "link_img": "https://live.staticflickr.com/65535/51553491098_df102e8c0c_o.jpg",
    "id_image": "ANIME_PIC_9107b66c000a703a75b88d7d099e852d",
    "count_view": 0
  },
  {
    "link_thumb": "https://live.staticflickr.com/65535/51552461637_3cdcc58350_n.jpg",
    "id_album": "-89234980",
    "description": "ANIME_PIC_910b3f3fa69880074e1da103e30656ed,[GirlsCuteCool],[isGirlAnime],[isCuteAnime],[isGirlsLoliAnime]",
    "title": "ANIME_PIC_910b3f3fa69880074e1da103e30656ed",
    "link_img": "https://live.staticflickr.com/65535/51552461637_bddd1f061d_o.png",
    "id_image": "ANIME_PIC_910b3f3fa69880074e1da103e30656ed",
    "count_view": 0
  },
  {
    "link_thumb": "https://live.staticflickr.com/65535/51554176440_a499bdcf59_n.jpg",
    "id_album": "-89234980",
    "description": "ANIME_PIC_910bae5eafb2626d9535f296c31c33c5,[GirlsCuteCool],[isGirlAnime],[isCuteAnime],[isGirlsLoliAnime],[isSadAnimeGirl],[isSadAnime]",
    "title": "ANIME_PIC_910bae5eafb2626d9535f296c31c33c5",
    "link_img": "https://live.staticflickr.com/65535/51554176440_a82c6282c4_o.jpg",
    "id_image": "ANIME_PIC_910bae5eafb2626d9535f296c31c33c5",
    "count_view": 0
  },
  {
    "link_thumb": "https://live.staticflickr.com/65535/51554176825_59522b753b_n.jpg",
    "id_album": "-89234980",
    "description": "ANIME_PIC_910c5d74d098df2cccae7439a426f66e,[GirlsCuteCool],[isGirlAnime],[isCuteAnime]",
    "title": "ANIME_PIC_910c5d74d098df2cccae7439a426f66e",
    "link_img": "https://live.staticflickr.com/65535/51554176825_334970f58f_o.png",
    "id_image": "ANIME_PIC_910c5d74d098df2cccae7439a426f66e",
    "count_view": 0
  },
  {
    "link_thumb": "https://live.staticflickr.com/65535/51553977994_4619840eee_n.jpg",
    "id_album": "-89234980",
    "description": "ANIME_PIC_910d1cfff5dd7475e67e3d542774ab93,[GirlsCuteCool],[isGirlAnime],[isCuteAnime],[isGirlsHatsHoodieAnime],[isGirlsLoliAnime]",
    "title": "ANIME_PIC_910d1cfff5dd7475e67e3d542774ab93",
    "link_img": "https://live.staticflickr.com/65535/51553977994_e80cd13b07_o.jpg",
    "id_image": "ANIME_PIC_910d1cfff5dd7475e67e3d542774ab93",
    "count_view": 0
  },
  {
    "link_thumb": "https://live.staticflickr.com/65535/51553978174_94499d9c2c_n.jpg",
    "id_album": "-89234980",
    "description": "ANIME_PIC_910deea6c3344a4c77e39e0f8c253f3b,[GirlsCuteCool],[isGirlAnime],[isCuteAnime],[isGirlsLoliAnime]",
    "title": "ANIME_PIC_910deea6c3344a4c77e39e0f8c253f3b",
    "link_img": "https://live.staticflickr.com/65535/51553978174_3fc880ec71_o.jpg",
    "id_image": "ANIME_PIC_910deea6c3344a4c77e39e0f8c253f3b",
    "count_view": 0
  }
]