[
  {
    "link_thumb": "https://live.staticflickr.com/65535/47851949752_c79869f07a_n.jpg",
    "id_album": "1502510857",
    "description": "Bleach_259544",
    "title": "Bleach_259544",
    "link_img": "https://live.staticflickr.com/65535/47851949752_ec37dd049e_o.jpg",
    "id_image": "Bleach_259544",
    "count_view": 0
  },
  {
    "link_thumb": "https://live.staticflickr.com/65535/47114699354_430c3c4a71_n.jpg",
    "id_album": "1502510857",
    "description": "Bleach_259740",
    "title": "Bleach_259740",
    "link_img": "https://live.staticflickr.com/65535/47114699354_95548f09c4_o.jpg",
    "id_image": "Bleach_259740",
    "count_view": 0
  },
  {
    "link_thumb": "https://live.staticflickr.com/65535/47905623111_e0b44d4510_n.jpg",
    "id_album": "1502510857",
    "description": "Bleach_301133",
    "title": "Bleach_301133",
    "link_img": "https://live.staticflickr.com/65535/47905623111_6d40e57948_o.jpg",
    "id_image": "Bleach_301133",
    "count_view": 0
  }
]