[
  {
    "total_img": 20,
    "number_page": 1,
    "title": "Landscape",
    "tag": "Sky, Building, Waterfall, Butterfly, Night, Moon, Colorful, Bird, Stars, Lake, Grass, Field, School, Anime, Mountain, Tree, River, Fog, Space, Path, Flower, Landscape, Artistic, Blue, Shrub, House, Painting, Sunset, Shrine, Colors, Cloud, Sunlight, Forest",
    "description": "Landscape",
    "link_thumb": "https://live.staticflickr.com/65535/48048461331_d6880afd69_n.jpg",
    "id_album": "1402713104",
    "total_view": 20
  },
  {
    "total_img": 1083,
    "number_page": 6,
    "title": "Anime",
    "tag": "Anime,",
    "description": "Anime",
    "link_thumb": "https://live.staticflickr.com/65535/48066953706_2771a62522_n.jpg",
    "id_album": "-1920923841",
    "total_view": 1083
  },
  {
    "total_img": 17,
    "number_page": 1,
    "title": "Artistic",
    "tag": "Artistic,",
    "description": "Artistic",
    "link_thumb": "https://live.staticflickr.com/65535/48065548906_a82d7e2262_n.jpg",
    "id_album": "523598895",
    "total_view": 17
  },
  {
    "total_img": 49,
    "number_page": 1,
    "title": "Blue",
    "tag": "Blue,",
    "description": "Blue",
    "link_thumb": "https://live.staticflickr.com/65535/48065548531_a6cf7e8358_n.jpg",
    "id_album": "-293177409",
    "total_view": 49
  },
  {
    "total_img": 6,
    "number_page": 1,
    "title": "Waterfall",
    "tag": "Waterfall,",
    "description": "Waterfall",
    "link_thumb": "https://live.staticflickr.com/65535/48060977663_ed149eac1f_n.jpg",
    "id_album": "1735805621",
    "total_view": 6
  }
]