[
  {
    "total_img": 146,
    "number_page": 1,
    "title": "Demon Slayer Kimetsu no Yaiba",
    "tag": "Water, Shinobu Kochou, Akaza Demon Slayer Kimetsu no Yaiba, Scar, Black Hair, Weapon, Long Hair, Sword, Zenitsu Agatsuma, Tanjirou Kamado, Makomo Demon Slayer, Earrings, Purple Eyes, Purple Hair, Enmu Demon Slayer, Nezuko Kamado, Mask, Yellow Eyes, Boy, Red Hair, Red Eyes, Tamayo Demon Slayer, Rui Demon Slayer, Belt, Yushiro Demon Slayer, Kimetsu no Yaiba, Tokitou Muichirou, Kanao Tsuyuri, Orange Eyes, Giyuu Tomioka, Kyojuro Rengoku, Sakonji Urokodaki, Inosuke Hashibira, Blonde, Demon Slayer Kimetsu no Yaiba, Aoi Kanzaki, Katana, Fireworks, Sanemi Shinazugawa, Brown Hair, Muichiro Tokito, Pink Eyes, Blue Eyes, Douma Demon Slayer Kimetsu no Yaiba, Mitsuri Kanroji, Obanai Iguro, Grey Hair, Fire, Yukata, Sabito Demon Slayer",
    "description": "Demon Slayer Kimetsu no Yaiba",
    "link_thumb": "https://live.staticflickr.com/65535/48609648801_3a2c91bf1a_n.jpg",
    "id_album": "309214397",
    "total_view": 146
  },
  {
    "total_img": 58,
    "number_page": 1,
    "title": "Nezuko Kamado",
    "tag": "Nezuko Kamado,",
    "description": "Nezuko Kamado",
    "link_thumb": "https://live.staticflickr.com/65535/48609881597_ab8fc4aa8e_n.jpg",
    "id_album": "834909000",
    "total_view": 58
  },
  {
    "total_img": 53,
    "number_page": 1,
    "title": "Tanjirou Kamado",
    "tag": "Tanjirou Kamado,",
    "description": "Tanjirou Kamado",
    "link_thumb": "https://live.staticflickr.com/65535/48609881597_ab8fc4aa8e_n.jpg",
    "id_album": "2088738357",
    "total_view": 53
  }
]