[
  {
    "total_img": 165,
    "number_page": 1,
    "title": "Houseki no Kuni",
    "tag": "Yellow Diamond Houseki no Kuni, Rutile Houseki no Kuni, Heliodor Houseki no Kuni, Amethyst Houseki no Kuni, Wentricosus Houseki no Kuni, Neptunite Houseki no Kuni, Goshenite Houseki no Kuni, Kongo Houseki no Kuni, Sphene Houseki no Kuni, Ghost Quartz Houseki no Kuni, Euclase Houseki no Kuni, Obsidian Houseki no Kuni, Lapis Lazuli Houseki no Kuni, Padparadscha Houseki no Kuni, Anime, Red Beryl Houseki no Kuni, White Hair, Short Hair, Morganite Houseki no Kuni, Zircon Houseki no Kuni, Purple Eyes, Cairngorm Houseki no Kuni, Bort Houseki no Kuni, Benitoite Houseki no Kuni, Peridot Houseki no Kuni, Diamond Houseki no Kuni, Alexandrite Houseki no Kuni, Cinnabar Houseki no Kuni, Phosphophyllite Houseki no Kuni, Antarcticite Houseki no Kuni, Houseki no Kuni, Pearl Steven Universe, Jade Houseki no Kuni",
    "description": "Houseki no Kuni",
    "link_thumb": "https://live.staticflickr.com/65535/47999508021_83795ff669_n.jpg",
    "id_album": "-1127581487",
    "total_view": 165
  },
  {
    "total_img": 5,
    "number_page": 1,
    "title": "Cairngorm Houseki no Kuni",
    "tag": "Cairngorm Houseki no Kuni,",
    "description": "Cairngorm Houseki no Kuni",
    "link_thumb": "https://live.staticflickr.com/65535/47999598176_85f404cf1e_n.jpg",
    "id_album": "-1204069558",
    "total_view": 5
  },
  {
    "total_img": 5,
    "number_page": 1,
    "title": "Ghost Quartz Houseki no Kuni",
    "tag": "Ghost Quartz Houseki no Kuni,",
    "description": "Ghost Quartz Houseki no Kuni",
    "link_thumb": "https://live.staticflickr.com/65535/47999623806_302c3beb1d_n.jpg",
    "id_album": "-1067866280",
    "total_view": 5
  },
  {
    "total_img": 19,
    "number_page": 1,
    "title": "Lapis Lazuli Houseki no Kuni",
    "tag": "Lapis Lazuli Houseki no Kuni,",
    "description": "Lapis Lazuli Houseki no Kuni",
    "link_thumb": "https://live.staticflickr.com/65535/47999582872_1371a11c53_n.jpg",
    "id_album": "-1739323005",
    "total_view": 19
  }
]