[
  {
    "link_thumb": "https://live.staticflickr.com/65535/47960726566_6c2388412c_n.jpg",
    "id_album": "1587740219",
    "description": "Crossover_838745",
    "title": "Crossover_838745",
    "link_img": "https://live.staticflickr.com/65535/47960726566_73b0ec1b89_o.jpg",
    "id_image": "Crossover_838745",
    "count_view": 0
  },
  {
    "link_thumb": "https://live.staticflickr.com/65535/48047873962_b77f024060_n.jpg",
    "id_album": "1587740219",
    "description": "KemonoFriends_752725",
    "title": "KemonoFriends_752725",
    "link_img": "https://live.staticflickr.com/65535/48047873962_d1434b16d6_o.jpg",
    "id_image": "KemonoFriends_752725",
    "count_view": 0
  },
  {
    "link_thumb": "https://live.staticflickr.com/65535/48047791636_222d9b8356_n.jpg",
    "id_album": "1587740219",
    "description": "KemonoFriends_800588",
    "title": "KemonoFriends_800588",
    "link_img": "https://live.staticflickr.com/65535/48047791636_7a6ece211c_o.jpg",
    "id_image": "KemonoFriends_800588",
    "count_view": 0
  },
  {
    "link_thumb": "https://live.staticflickr.com/65535/48047831998_56f0fa169f_n.jpg",
    "id_album": "1587740219",
    "description": "KemonoFriends_803178",
    "title": "KemonoFriends_803178",
    "link_img": "https://live.staticflickr.com/65535/48047831998_2fa055d46f_o.jpg",
    "id_image": "KemonoFriends_803178",
    "count_view": 0
  },
  {
    "link_thumb": "https://live.staticflickr.com/65535/48047792086_ec46d19a07_n.jpg",
    "id_album": "1587740219",
    "description": "KemonoFriends_803244",
    "title": "KemonoFriends_803244",
    "link_img": "https://live.staticflickr.com/65535/48047792086_5f6c49f6f1_o.jpg",
    "id_image": "KemonoFriends_803244",
    "count_view": 0
  },
  {
    "link_thumb": "https://live.staticflickr.com/65535/48047792626_70cc237fdd_n.jpg",
    "id_album": "1587740219",
    "description": "KemonoFriends_805772",
    "title": "KemonoFriends_805772",
    "link_img": "https://live.staticflickr.com/65535/48047792626_d3051b979a_o.jpg",
    "id_image": "KemonoFriends_805772",
    "count_view": 0
  },
  {
    "link_thumb": "https://live.staticflickr.com/65535/48047793331_99d1982dc9_n.jpg",
    "id_album": "1587740219",
    "description": "KemonoFriends_813007",
    "title": "KemonoFriends_813007",
    "link_img": "https://live.staticflickr.com/65535/48047793331_de133e5818_o.jpg",
    "id_image": "KemonoFriends_813007",
    "count_view": 0
  },
  {
    "link_thumb": "https://live.staticflickr.com/65535/48047793496_f5f237cf09_n.jpg",
    "id_album": "1587740219",
    "description": "KemonoFriends_814437",
    "title": "KemonoFriends_814437",
    "link_img": "https://live.staticflickr.com/65535/48047793496_465c78f3c1_o.jpg",
    "id_image": "KemonoFriends_814437",
    "count_view": 0
  },
  {
    "link_thumb": "https://live.staticflickr.com/65535/48047876602_52540e28a7_n.jpg",
    "id_album": "1587740219",
    "description": "KemonoFriends_815210",
    "title": "KemonoFriends_815210",
    "link_img": "https://live.staticflickr.com/65535/48047876602_2689148788_o.jpg",
    "id_image": "KemonoFriends_815210",
    "count_view": 0
  },
  {
    "link_thumb": "https://live.staticflickr.com/65535/48047835308_08ac95a3fe_n.jpg",
    "id_album": "1587740219",
    "description": "KemonoFriends_815556",
    "title": "KemonoFriends_815556",
    "link_img": "https://live.staticflickr.com/65535/48047835308_3b73ca157f_o.jpg",
    "id_image": "KemonoFriends_815556",
    "count_view": 0
  },
  {
    "link_thumb": "https://live.staticflickr.com/65535/48047877947_56e06373d9_n.jpg",
    "id_album": "1587740219",
    "description": "KemonoFriends_816035",
    "title": "KemonoFriends_816035",
    "link_img": "https://live.staticflickr.com/65535/48047877947_a2868be0ec_o.jpg",
    "id_image": "KemonoFriends_816035",
    "count_view": 0
  },
  {
    "link_thumb": "https://live.staticflickr.com/65535/48047795926_005bf60677_n.jpg",
    "id_album": "1587740219",
    "description": "KemonoFriends_816760",
    "title": "KemonoFriends_816760",
    "link_img": "https://live.staticflickr.com/65535/48047795926_06e385bf66_o.jpg",
    "id_image": "KemonoFriends_816760",
    "count_view": 0
  },
  {
    "link_thumb": "https://live.staticflickr.com/65535/48047796071_7b081602ef_n.jpg",
    "id_album": "1587740219",
    "description": "KemonoFriends_816823",
    "title": "KemonoFriends_816823",
    "link_img": "https://live.staticflickr.com/65535/48047796071_a27360d977_o.jpg",
    "id_image": "KemonoFriends_816823",
    "count_view": 0
  },
  {
    "link_thumb": "https://live.staticflickr.com/65535/48047837223_e2bf6328eb_n.jpg",
    "id_album": "1587740219",
    "description": "KemonoFriends_816992",
    "title": "KemonoFriends_816992",
    "link_img": "https://live.staticflickr.com/65535/48047837223_c076c576aa_o.jpg",
    "id_image": "KemonoFriends_816992",
    "count_view": 0
  },
  {
    "link_thumb": "https://live.staticflickr.com/65535/48047837478_ca9e312a5c_n.jpg",
    "id_album": "1587740219",
    "description": "KemonoFriends_817021",
    "title": "KemonoFriends_817021",
    "link_img": "https://live.staticflickr.com/65535/48047837478_1074c78686_o.jpg",
    "id_image": "KemonoFriends_817021",
    "count_view": 0
  },
  {
    "link_thumb": "https://live.staticflickr.com/65535/48047797216_b519e17ee5_n.jpg",
    "id_album": "1587740219",
    "description": "KemonoFriends_817195",
    "title": "KemonoFriends_817195",
    "link_img": "https://live.staticflickr.com/65535/48047797216_483c1bbfea_o.jpg",
    "id_image": "KemonoFriends_817195",
    "count_view": 0
  },
  {
    "link_thumb": "https://live.staticflickr.com/65535/48047880387_4c887c008e_n.jpg",
    "id_album": "1587740219",
    "description": "KemonoFriends_817467",
    "title": "KemonoFriends_817467",
    "link_img": "https://live.staticflickr.com/65535/48047880387_16a21f678c_o.jpg",
    "id_image": "KemonoFriends_817467",
    "count_view": 0
  },
  {
    "link_thumb": "https://live.staticflickr.com/65535/48047882342_130a0e0d18_n.jpg",
    "id_album": "1587740219",
    "description": "KemonoFriends_820195",
    "title": "KemonoFriends_820195",
    "link_img": "https://live.staticflickr.com/65535/48047882342_3175682be3_o.jpg",
    "id_image": "KemonoFriends_820195",
    "count_view": 0
  },
  {
    "link_thumb": "https://live.staticflickr.com/65535/48047799991_8656f9f3f0_n.jpg",
    "id_album": "1587740219",
    "description": "KemonoFriends_820715",
    "title": "KemonoFriends_820715",
    "link_img": "https://live.staticflickr.com/65535/48047799991_820dbba9b1_o.jpg",
    "id_image": "KemonoFriends_820715",
    "count_view": 0
  },
  {
    "link_thumb": "https://live.staticflickr.com/65535/48047801426_e0111a3af8_n.jpg",
    "id_album": "1587740219",
    "description": "KemonoFriends_822098",
    "title": "KemonoFriends_822098",
    "link_img": "https://live.staticflickr.com/65535/48047801426_35c1e3c543_o.jpg",
    "id_image": "KemonoFriends_822098",
    "count_view": 0
  },
  {
    "link_thumb": "https://live.staticflickr.com/65535/48047884492_21b88db32b_n.jpg",
    "id_album": "1587740219",
    "description": "KemonoFriends_822111",
    "title": "KemonoFriends_822111",
    "link_img": "https://live.staticflickr.com/65535/48047884492_d5f59cca20_o.jpg",
    "id_image": "KemonoFriends_822111",
    "count_view": 0
  },
  {
    "link_thumb": "https://live.staticflickr.com/65535/48047803181_1309de7dbb_n.jpg",
    "id_album": "1587740219",
    "description": "KemonoFriends_824379",
    "title": "KemonoFriends_824379",
    "link_img": "https://live.staticflickr.com/65535/48047803181_ce8c356bef_o.jpg",
    "id_image": "KemonoFriends_824379",
    "count_view": 0
  },
  {
    "link_thumb": "https://live.staticflickr.com/65535/48047803686_4917fea3d0_n.jpg",
    "id_album": "1587740219",
    "description": "KemonoFriends_825031",
    "title": "KemonoFriends_825031",
    "link_img": "https://live.staticflickr.com/65535/48047803686_ccd8e1189e_o.jpg",
    "id_image": "KemonoFriends_825031",
    "count_view": 0
  },
  {
    "link_thumb": "https://live.staticflickr.com/65535/48047804336_ab1fb87577_n.jpg",
    "id_album": "1587740219",
    "description": "KemonoFriends_825965",
    "title": "KemonoFriends_825965",
    "link_img": "https://live.staticflickr.com/65535/48047804336_ba393046fa_o.jpg",
    "id_image": "KemonoFriends_825965",
    "count_view": 0
  },
  {
    "link_thumb": "https://live.staticflickr.com/65535/48047887917_74138dd062_n.jpg",
    "id_album": "1587740219",
    "description": "KemonoFriends_830215",
    "title": "KemonoFriends_830215",
    "link_img": "https://live.staticflickr.com/65535/48047887917_127ec97285_o.jpg",
    "id_image": "KemonoFriends_830215",
    "count_view": 0
  },
  {
    "link_thumb": "https://live.staticflickr.com/65535/48047888187_45575492c3_n.jpg",
    "id_album": "1587740219",
    "description": "KemonoFriends_830260",
    "title": "KemonoFriends_830260",
    "link_img": "https://live.staticflickr.com/65535/48047888187_0a09635cbb_o.jpg",
    "id_image": "KemonoFriends_830260",
    "count_view": 0
  },
  {
    "link_thumb": "https://live.staticflickr.com/65535/48047849818_1970bb4a64_n.jpg",
    "id_album": "1587740219",
    "description": "KemonoFriends_837018",
    "title": "KemonoFriends_837018",
    "link_img": "https://live.staticflickr.com/65535/48047849818_6e5875f2e9_o.jpg",
    "id_image": "KemonoFriends_837018",
    "count_view": 0
  },
  {
    "link_thumb": "https://live.staticflickr.com/65535/48047892007_1f0ed9f249_n.jpg",
    "id_album": "1587740219",
    "description": "KemonoFriends_837255",
    "title": "KemonoFriends_837255",
    "link_img": "https://live.staticflickr.com/65535/48047892007_6bb4976c38_o.jpg",
    "id_image": "KemonoFriends_837255",
    "count_view": 0
  },
  {
    "link_thumb": "https://live.staticflickr.com/65535/48047850553_67feebfcaa_n.jpg",
    "id_album": "1587740219",
    "description": "KemonoFriends_837861",
    "title": "KemonoFriends_837861",
    "link_img": "https://live.staticflickr.com/65535/48047850553_374a686fab_o.jpg",
    "id_image": "KemonoFriends_837861",
    "count_view": 0
  },
  {
    "link_thumb": "https://live.staticflickr.com/65535/48047850958_716e690c99_n.jpg",
    "id_album": "1587740219",
    "description": "KemonoFriends_837879",
    "title": "KemonoFriends_837879",
    "link_img": "https://live.staticflickr.com/65535/48047850958_5fd737f5a4_o.jpg",
    "id_image": "KemonoFriends_837879",
    "count_view": 0
  },
  {
    "link_thumb": "https://live.staticflickr.com/65535/48047893087_58d021c603_n.jpg",
    "id_album": "1587740219",
    "description": "KemonoFriends_838349",
    "title": "KemonoFriends_838349",
    "link_img": "https://live.staticflickr.com/65535/48047893087_119ceabe8e_o.jpg",
    "id_image": "KemonoFriends_838349",
    "count_view": 0
  },
  {
    "link_thumb": "https://live.staticflickr.com/65535/48047853183_e987b1f7c9_n.jpg",
    "id_album": "1587740219",
    "description": "KemonoFriends_843146",
    "title": "KemonoFriends_843146",
    "link_img": "https://live.staticflickr.com/65535/48047853183_b611d0b757_o.jpg",
    "id_image": "KemonoFriends_843146",
    "count_view": 0
  },
  {
    "link_thumb": "https://live.staticflickr.com/65535/48047813876_a7303e6c18_n.jpg",
    "id_album": "1587740219",
    "description": "KemonoFriends_858270",
    "title": "KemonoFriends_858270",
    "link_img": "https://live.staticflickr.com/65535/48047813876_259b246a4e_o.jpg",
    "id_image": "KemonoFriends_858270",
    "count_view": 0
  },
  {
    "link_thumb": "https://live.staticflickr.com/65535/48047855588_c7c969dcb6_n.jpg",
    "id_album": "1587740219",
    "description": "KemonoFriends_871553",
    "title": "KemonoFriends_871553",
    "link_img": "https://live.staticflickr.com/65535/48047855588_009bddf55c_o.jpg",
    "id_image": "KemonoFriends_871553",
    "count_view": 0
  },
  {
    "link_thumb": "https://live.staticflickr.com/65535/48047857563_ecf7c89e35_n.jpg",
    "id_album": "1587740219",
    "description": "KemonoFriends_890167",
    "title": "KemonoFriends_890167",
    "link_img": "https://live.staticflickr.com/65535/48047857563_7dc98d147c_o.jpg",
    "id_image": "KemonoFriends_890167",
    "count_view": 0
  },
  {
    "link_thumb": "https://live.staticflickr.com/65535/48047816736_2d8bde003b_n.jpg",
    "id_album": "1587740219",
    "description": "KemonoFriends_890169",
    "title": "KemonoFriends_890169",
    "link_img": "https://live.staticflickr.com/65535/48047816736_4628fc6b15_o.jpg",
    "id_image": "KemonoFriends_890169",
    "count_view": 0
  },
  {
    "link_thumb": "https://live.staticflickr.com/65535/48047899677_d55e732256_n.jpg",
    "id_album": "1587740219",
    "description": "KemonoFriends_890170",
    "title": "KemonoFriends_890170",
    "link_img": "https://live.staticflickr.com/65535/48047899677_1d7b707b57_o.jpg",
    "id_image": "KemonoFriends_890170",
    "count_view": 0
  },
  {
    "link_thumb": "https://live.staticflickr.com/65535/48047858423_6fd72d2db4_n.jpg",
    "id_album": "1587740219",
    "description": "KemonoFriends_890745",
    "title": "KemonoFriends_890745",
    "link_img": "https://live.staticflickr.com/65535/48047858423_310cb5da08_o.jpg",
    "id_image": "KemonoFriends_890745",
    "count_view": 0
  },
  {
    "link_thumb": "https://live.staticflickr.com/65535/48047859213_b10463d562_n.jpg",
    "id_album": "1587740219",
    "description": "KemonoFriends_899416",
    "title": "KemonoFriends_899416",
    "link_img": "https://live.staticflickr.com/65535/48047859213_f07069dae2_o.jpg",
    "id_image": "KemonoFriends_899416",
    "count_view": 0
  },
  {
    "link_thumb": "https://live.staticflickr.com/65535/48047901327_9b42cd0589_n.jpg",
    "id_album": "1587740219",
    "description": "KemonoFriends_902999",
    "title": "KemonoFriends_902999",
    "link_img": "https://live.staticflickr.com/65535/48047901327_eb333ebf9a_o.jpg",
    "id_image": "KemonoFriends_902999",
    "count_view": 0
  },
  {
    "link_thumb": "https://live.staticflickr.com/65535/48047903157_f043c4f3a4_n.jpg",
    "id_album": "1587740219",
    "description": "KemonoFriends_920419",
    "title": "KemonoFriends_920419",
    "link_img": "https://live.staticflickr.com/65535/48047903157_b2d9ff2c21_o.jpg",
    "id_image": "KemonoFriends_920419",
    "count_view": 0
  },
  {
    "link_thumb": "https://live.staticflickr.com/65535/48047862378_10ec8be072_n.jpg",
    "id_album": "1587740219",
    "description": "KemonoFriends_951178",
    "title": "KemonoFriends_951178",
    "link_img": "https://live.staticflickr.com/65535/48047862378_201fb926da_o.jpg",
    "id_image": "KemonoFriends_951178",
    "count_view": 0
  },
  {
    "link_thumb": "https://live.staticflickr.com/65535/48047862773_e042066aa9_n.jpg",
    "id_album": "1587740219",
    "description": "KemonoFriends_970504",
    "title": "KemonoFriends_970504",
    "link_img": "https://live.staticflickr.com/65535/48047862773_b1d7ddc3d6_o.jpg",
    "id_image": "KemonoFriends_970504",
    "count_view": 0
  },
  {
    "link_thumb": "https://live.staticflickr.com/65535/48047821591_e5609769e7_n.jpg",
    "id_album": "1587740219",
    "description": "KemonoFriends_970523",
    "title": "KemonoFriends_970523",
    "link_img": "https://live.staticflickr.com/65535/48047821591_2bf41d01bc_o.jpg",
    "id_image": "KemonoFriends_970523",
    "count_view": 0
  }
]