[
  {
    "link_thumb": "https://live.staticflickr.com/65535/47955756693_05f7d112c3_n.jpg",
    "id_album": "-1684761715",
    "description": "Crossover_725058",
    "title": "Crossover_725058",
    "link_img": "https://live.staticflickr.com/65535/47955756693_ddbdd67f72_o.jpg",
    "id_image": "Crossover_725058",
    "count_view": 0
  },
  {
    "link_thumb": "https://live.staticflickr.com/65535/48061275573_05d98fe3df_n.jpg",
    "id_album": "-1684761715",
    "description": "Touhou_724422",
    "title": "Touhou_724422",
    "link_img": "https://live.staticflickr.com/65535/48061275573_176453fc0e_o.jpg",
    "id_image": "Touhou_724422",
    "count_view": 0
  },
  {
    "link_thumb": "https://live.staticflickr.com/65535/48061681347_22439e47c5_n.jpg",
    "id_album": "-1684761715",
    "description": "Touhou_761059",
    "title": "Touhou_761059",
    "link_img": "https://live.staticflickr.com/65535/48061681347_de6351c2fd_o.jpg",
    "id_image": "Touhou_761059",
    "count_view": 0
  },
  {
    "link_thumb": "https://live.staticflickr.com/65535/48062412433_e79b2dde9e_n.jpg",
    "id_album": "-1684761715",
    "description": "Touhou_804238",
    "title": "Touhou_804238",
    "link_img": "https://live.staticflickr.com/65535/48062412433_fc5997862b_o.jpg",
    "id_image": "Touhou_804238",
    "count_view": 0
  },
  {
    "link_thumb": "https://live.staticflickr.com/65535/48062646206_c5e80a803c_n.jpg",
    "id_album": "-1684761715",
    "description": "Touhou_914510",
    "title": "Touhou_914510",
    "link_img": "https://live.staticflickr.com/65535/48062646206_82ec83bac8_o.jpg",
    "id_image": "Touhou_914510",
    "count_view": 0
  },
  {
    "link_thumb": "https://live.staticflickr.com/65535/48062763203_e7342d5641_n.jpg",
    "id_album": "-1684761715",
    "description": "Touhou_917377",
    "title": "Touhou_917377",
    "link_img": "https://live.staticflickr.com/65535/48062763203_45bbf2cc05_o.jpg",
    "id_image": "Touhou_917377",
    "count_view": 0
  },
  {
    "link_thumb": "https://live.staticflickr.com/65535/48062822876_a158745231_n.jpg",
    "id_album": "-1684761715",
    "description": "Touhou_951403",
    "title": "Touhou_951403",
    "link_img": "https://live.staticflickr.com/65535/48062822876_c690e1a9a9_o.jpg",
    "id_image": "Touhou_951403",
    "count_view": 0
  }
]