[
  {
    "link_thumb": "https://live.staticflickr.com/65535/48065915198_e307a6fa7e_n.jpg",
    "id_album": "955402679",
    "description": "WhenTheyCry_146299",
    "title": "WhenTheyCry_146299",
    "link_img": "https://live.staticflickr.com/65535/48065915198_0dd2f0e076_o.jpg",
    "id_image": "WhenTheyCry_146299",
    "count_view": 0
  },
  {
    "link_thumb": "https://live.staticflickr.com/65535/48065880106_20323dc5d2_n.jpg",
    "id_album": "955402679",
    "description": "WhenTheyCry_630408",
    "title": "WhenTheyCry_630408",
    "link_img": "https://live.staticflickr.com/65535/48065880106_b4d9a4b3a4_o.jpg",
    "id_image": "WhenTheyCry_630408",
    "count_view": 0
  }
]