[
  {
    "total_img": 33,
    "number_page": 1,
    "title": "Seraph of the End",
    "tag": "Water, Sky, Green Eyes, Moon, Apocalypse, Yoichi Saotome, Scythe, Black Hair, Guren Ichinose, Uniform, Crying, Glow, Weapon, Long Hair, Thigh Highs, Beach, Anime, Sword, Yuichiro Hyakuya, Fangs, Bikini, Headdress, Braid, Fence, Collar, Mahiru Hiragi, Glove, Purple Eyes, Purple Hair, Makoto Narumi, Demon, Reflection, Black Dress, Smile, Boy, Red Eyes, Shigure Yukimi, Skirt, Kureto Hiragi, Asuramaru Seraph Of The End, Belt, Blush, Man, Orange Eyes, Angry, Shinoa Hiragi, Sitting, Glass, White Dress, Blonde, Twintails, Barefoot, Mitsuba Sangu, Akane Hyakuya, bow Clothing, Krul Tepes, Short Hair, Katana, Window, Flower, Dress, Brown Eyes, Brown Hair, Pink Eyes, Headband, Pink Hair, School Uniform, Cape, Shiho Kimizuki, Post Apocalyptic, Mikaela Hyakuya, Blue Eyes, Thigh Boots, Blue Hair, Seraph of the End, Pointed Ears, Boots, Cloud, Hat, Vampire, Tears",
    "description": "Seraph of the End",
    "link_thumb": "https://live.staticflickr.com/65535/48055327973_a51d4af6eb_n.jpg",
    "id_album": "395777491",
    "total_view": 33
  }
]