[
  {
    "total_img": 45,
    "number_page": 1,
    "title": "Kajiri Kamui Kagura",
    "tag": "Kajiri Kamui Kagura, Mikado Ryuusui, Woman",
    "description": "Kajiri Kamui Kagura",
    "link_thumb": "https://live.staticflickr.com/65535/48047097737_820896ec70_n.jpg",
    "id_album": "6365328",
    "total_view": 45
  }
]