[
  {
    "total_img": 21,
    "number_page": 1,
    "title": "atled Everlasting Song",
    "tag": "atled Everlasting Song, Kazuma Koine, Ishinomaki Aoba, Matsushima Kouji, Kazuma Aeru, Geba Nanae, Fukuda Machi, Kaera atled Everlasting Song",
    "description": "atled Everlasting Song",
    "link_thumb": "https://live.staticflickr.com/65535/47104534184_165965c131_n.jpg",
    "id_album": "-456690920",
    "total_view": 21
  }
]