[
  {
    "total_img": 109,
    "number_page": 1,
    "title": "Is the Order a Rabbit",
    "tag": "Cocoa Hoto, Green Eyes, Snow, Wink, Long Hair, Thigh Highs, Chiya Ujimatsu, Anime, Snowflake, Megumi Natsu, Braid, Cup, Purple Eyes, Purple Hair, Kokoa Hoto, Scarf, Rize Tedeza, Tippy Is The Order A Rabbit, Smile, Skirt, Blush, Belt, Pantyhose, Maya Jouga, Cat, Santa Hat, Bench, Orange Hair, Sitting, Rabbit, Socks, Blonde, Twintails, bow Clothing, Yuri, Leaf, Short Hair, Is the Order a Rabbit, Face, Chino Kafu, Food, Flower, Gochuumon wa Usagi Desu ka, Mocha Hoto, Cheerleader, Dress, Brown Eyes, Brown Hair, Red Dress, Pink Eyes, Sharo Kirima, Blue Eyes, Sweater, Blue Hair, Sleeping, Hoodie, Anko Is the Order a Rabbit, Hat, Halloween",
    "description": "Is the Order a Rabbit",
    "link_thumb": "https://live.staticflickr.com/65535/48046466733_d7720d739e_n.jpg",
    "id_album": "-553983168",
    "total_view": 109
  },
  {
    "total_img": 63,
    "number_page": 1,
    "title": "Chino Kafu",
    "tag": "Chino Kafu,",
    "description": "Chino Kafu",
    "link_thumb": "https://live.staticflickr.com/65535/48046522648_0ac0af3b85_n.jpg",
    "id_album": "-401589713",
    "total_view": 63
  },
  {
    "total_img": 17,
    "number_page": 1,
    "title": "Sharo Kirima",
    "tag": "Sharo Kirima,",
    "description": "Sharo Kirima",
    "link_thumb": "https://live.staticflickr.com/65535/48046522118_d146e1fc1e_n.jpg",
    "id_album": "1763381800",
    "total_view": 17
  }
]