[
  {
    "link_thumb": "https://live.staticflickr.com/65535/47843219912_8f19a69ebf_n.jpg",
    "id_album": "-1669960859",
    "description": "BanGDreamGirlsBandParty_922334",
    "title": "BanGDreamGirlsBandParty_922334",
    "link_img": "https://live.staticflickr.com/65535/47843219912_9dfecbd1ca_o.jpg",
    "id_image": "BanGDreamGirlsBandParty_922334",
    "count_view": 0
  },
  {
    "link_thumb": "https://live.staticflickr.com/65535/46979264775_a287823786_n.jpg",
    "id_album": "-1669960859",
    "description": "BanGDreamGirlsBandParty_934566",
    "title": "BanGDreamGirlsBandParty_934566",
    "link_img": "https://live.staticflickr.com/65535/46979264775_fde011f482_o.jpg",
    "id_image": "BanGDreamGirlsBandParty_934566",
    "count_view": 0
  },
  {
    "link_thumb": "https://live.staticflickr.com/65535/46979265355_cd58066428_n.jpg",
    "id_album": "-1669960859",
    "description": "BanGDreamGirlsBandParty_934567",
    "title": "BanGDreamGirlsBandParty_934567",
    "link_img": "https://live.staticflickr.com/65535/46979265355_b1b79d2e9b_o.jpg",
    "id_image": "BanGDreamGirlsBandParty_934567",
    "count_view": 0
  },
  {
    "link_thumb": "https://live.staticflickr.com/65535/46979250515_909a0874d8_n.jpg",
    "id_album": "-1669960859",
    "description": "BanGDream_921015",
    "title": "BanGDream_921015",
    "link_img": "https://live.staticflickr.com/65535/46979250515_b16f0bf0b0_o.jpg",
    "id_image": "BanGDream_921015",
    "count_view": 0
  },
  {
    "link_thumb": "https://live.staticflickr.com/65535/46979252135_4f983dd8eb_n.jpg",
    "id_album": "-1669960859",
    "description": "BanGDream_924229",
    "title": "BanGDream_924229",
    "link_img": "https://live.staticflickr.com/65535/46979252135_7ab5979c4f_o.jpg",
    "id_image": "BanGDream_924229",
    "count_view": 0
  },
  {
    "link_thumb": "https://live.staticflickr.com/65535/46979259945_51d687bab7_n.jpg",
    "id_album": "-1669960859",
    "description": "BanGDream_972554",
    "title": "BanGDream_972554",
    "link_img": "https://live.staticflickr.com/65535/46979259945_b65505a0fc_o.jpg",
    "id_image": "BanGDream_972554",
    "count_view": 0
  }
]