[
  {
    "link_thumb": "https://live.staticflickr.com/65535/48071673306_1f8236a523_n.jpg",
    "id_album": "1890310081",
    "description": "MyriadColorsPhantomWorld_675836",
    "title": "MyriadColorsPhantomWorld_675836",
    "link_img": "https://live.staticflickr.com/65535/48071673306_1d47d7c421_o.jpg",
    "id_image": "MyriadColorsPhantomWorld_675836",
    "count_view": 0
  },
  {
    "link_thumb": "https://live.staticflickr.com/65535/48071776162_04278a7d3f_n.jpg",
    "id_album": "1890310081",
    "description": "MyriadColorsPhantomWorld_684483",
    "title": "MyriadColorsPhantomWorld_684483",
    "link_img": "https://live.staticflickr.com/65535/48071776162_ebb3a419ce_o.jpg",
    "id_image": "MyriadColorsPhantomWorld_684483",
    "count_view": 0
  },
  {
    "link_thumb": "https://live.staticflickr.com/65535/48071675876_7c28d4ffa7_n.jpg",
    "id_album": "1890310081",
    "description": "MyriadColorsPhantomWorld_758286",
    "title": "MyriadColorsPhantomWorld_758286",
    "link_img": "https://live.staticflickr.com/65535/48071675876_9764bd4429_o.jpg",
    "id_image": "MyriadColorsPhantomWorld_758286",
    "count_view": 0
  },
  {
    "link_thumb": "https://live.staticflickr.com/65535/48071677021_0d759dd9f1_n.jpg",
    "id_album": "1890310081",
    "description": "MyriadColorsPhantomWorld_862131",
    "title": "MyriadColorsPhantomWorld_862131",
    "link_img": "https://live.staticflickr.com/65535/48071677021_596ca0d369_o.jpg",
    "id_image": "MyriadColorsPhantomWorld_862131",
    "count_view": 0
  }
]