[
  {
    "link_thumb": "https://live.staticflickr.com/65535/51546546113_6252d4a122_n.jpg",
    "id_album": "-316663319",
    "description": "ANIME_PIC_b30053f4b36670b11a32c50ee90dfb56,[Girl],[isGirlAnime],[isCuteAnime],[isGirlsLoliAnime]",
    "title": "ANIME_PIC_b30053f4b36670b11a32c50ee90dfb56",
    "link_img": "https://live.staticflickr.com/65535/51546546113_76166df534_o.jpg",
    "id_image": "ANIME_PIC_b30053f4b36670b11a32c50ee90dfb56",
    "count_view": 0
  },
  {
    "link_thumb": "https://live.staticflickr.com/65535/51546546648_580e4cf83e_n.jpg",
    "id_album": "-316663319",
    "description": "ANIME_PIC_b30423373b9678d4a8b61108e8a231a0,[Girl],[isGirlAnime],[isCuteAnime],[isSadAnimeGirl],[isSadAnime]",
    "title": "ANIME_PIC_b30423373b9678d4a8b61108e8a231a0",
    "link_img": "https://live.staticflickr.com/65535/51546546648_561d111588_o.jpg",
    "id_image": "ANIME_PIC_b30423373b9678d4a8b61108e8a231a0",
    "count_view": 0
  },
  {
    "link_thumb": "https://live.staticflickr.com/65535/51545505192_d6c5aa318d_n.jpg",
    "id_album": "-316663319",
    "description": "ANIME_PIC_b3055990c8c521020cab1211b5f3731c,[Girl],[isGirlAnime],[isCuteAnime],[isGirlsHatsHoodieAnime],[isGirlsLoliAnime],[isSadAnimeGirl],[isSadAnime]",
    "title": "ANIME_PIC_b3055990c8c521020cab1211b5f3731c",
    "link_img": "https://live.staticflickr.com/65535/51545505192_59819d15ef_o.jpg",
    "id_image": "ANIME_PIC_b3055990c8c521020cab1211b5f3731c",
    "count_view": 0
  },
  {
    "link_thumb": "https://live.staticflickr.com/65535/51547028814_9872d4f0d8_n.jpg",
    "id_album": "-316663319",
    "description": "ANIME_PIC_b30e36c0b94d0eab99b9aeec4c8da8ad,[Girl],[isGirlAnime],[isCuteAnime],[isGirlsLoliAnime],[isSadAnimeGirl],[isSadAnime]",
    "title": "ANIME_PIC_b30e36c0b94d0eab99b9aeec4c8da8ad",
    "link_img": "https://live.staticflickr.com/65535/51547028814_05cb325a62_o.jpg",
    "id_image": "ANIME_PIC_b30e36c0b94d0eab99b9aeec4c8da8ad",
    "count_view": 0
  },
  {
    "link_thumb": "https://live.staticflickr.com/65535/51546548053_a5b80557f8_n.jpg",
    "id_album": "-316663319",
    "description": "ANIME_PIC_b30ec2592492331dd2e9f6a4a76441ad,[Girl],[isBoyAnime],[isCoupleAnime],[isGirlAnime],[isCuteAnime]",
    "title": "ANIME_PIC_b30ec2592492331dd2e9f6a4a76441ad",
    "link_img": "https://live.staticflickr.com/65535/51546548053_f32ab019e5_o.jpg",
    "id_image": "ANIME_PIC_b30ec2592492331dd2e9f6a4a76441ad",
    "count_view": 0
  },
  {
    "link_thumb": "https://live.staticflickr.com/65535/51547029619_79ddde66a3_n.jpg",
    "id_album": "-316663319",
    "description": "ANIME_PIC_b30ff9ef2b26d56e89dfbe689f0708a3,[Girl],[isGirlAnime],[isCuteAnime],[isGirlsLoliAnime]",
    "title": "ANIME_PIC_b30ff9ef2b26d56e89dfbe689f0708a3",
    "link_img": "https://live.staticflickr.com/65535/51547029619_7293c39e2e_o.jpg",
    "id_image": "ANIME_PIC_b30ff9ef2b26d56e89dfbe689f0708a3",
    "count_view": 0
  },
  {
    "link_thumb": "https://live.staticflickr.com/65535/51546548763_09ecb47de0_n.jpg",
    "id_album": "-316663319",
    "description": "ANIME_PIC_b3100e971c977a3ca65209a185757e80,[Girl],[isGirlAnime],[isCuteAnime],[isGirlEarsNekoAnime],[isGirlsLoliAnime]",
    "title": "ANIME_PIC_b3100e971c977a3ca65209a185757e80",
    "link_img": "https://live.staticflickr.com/65535/51546548763_9df47c6e1e_o.png",
    "id_image": "ANIME_PIC_b3100e971c977a3ca65209a185757e80",
    "count_view": 0
  },
  {
    "link_thumb": "https://live.staticflickr.com/65535/51545507497_56fba73521_n.jpg",
    "id_album": "-316663319",
    "description": "ANIME_PIC_b310baafcd9a620eb23e418cdcddda7c,[Girl],[isGirlAnime],[isCuteAnime],[isGirlEarsNekoAnime],[isGirlsLoliAnime]",
    "title": "ANIME_PIC_b310baafcd9a620eb23e418cdcddda7c",
    "link_img": "https://live.staticflickr.com/65535/51545507497_81c2a3087b_o.png",
    "id_image": "ANIME_PIC_b310baafcd9a620eb23e418cdcddda7c",
    "count_view": 0
  },
  {
    "link_thumb": "https://live.staticflickr.com/65535/51545508162_b46b17280f_n.jpg",
    "id_album": "-316663319",
    "description": "ANIME_PIC_b313b616390592c1bc2c29de1fd1409f,[Girl],[isGirlAnime],[isCuteAnime],[isGirlsLoliAnime],[isSadAnimeGirl],[isSadAnime]",
    "title": "ANIME_PIC_b313b616390592c1bc2c29de1fd1409f",
    "link_img": "https://live.staticflickr.com/65535/51545508162_3ef99e05f4_o.jpg",
    "id_image": "ANIME_PIC_b313b616390592c1bc2c29de1fd1409f",
    "count_view": 0
  },
  {
    "link_thumb": "https://live.staticflickr.com/65535/51547228555_7bb5277978_n.jpg",
    "id_album": "-316663319",
    "description": "ANIME_PIC_b314a3800c5e5bcd153fcf6802ff796a,[Girl],[isGirlAnime],[isCuteAnime],[isGirlEarsNekoAnime]",
    "title": "ANIME_PIC_b314a3800c5e5bcd153fcf6802ff796a",
    "link_img": "https://live.staticflickr.com/65535/51547228555_e79102e6f1_o.jpg",
    "id_image": "ANIME_PIC_b314a3800c5e5bcd153fcf6802ff796a",
    "count_view": 0
  },
  {
    "link_thumb": "https://live.staticflickr.com/65535/51547032149_a11362f8c4_n.jpg",
    "id_album": "-316663319",
    "description": "ANIME_PIC_b315067c2315279e798392a150df1a1a,[Girl],[isGirlAnime],[isCuteAnime]",
    "title": "ANIME_PIC_b315067c2315279e798392a150df1a1a",
    "link_img": "https://live.staticflickr.com/65535/51547032149_4e03ea0017_o.png",
    "id_image": "ANIME_PIC_b315067c2315279e798392a150df1a1a",
    "count_view": 0
  },
  {
    "link_thumb": "https://live.staticflickr.com/65535/51547229875_064542faef_n.jpg",
    "id_album": "-316663319",
    "description": "ANIME_PIC_b316bd4d4550487166d6d2f21671d5c2,[Girl],[isGirlAnime],[isCuteAnime]",
    "title": "ANIME_PIC_b316bd4d4550487166d6d2f21671d5c2",
    "link_img": "https://live.staticflickr.com/65535/51547229875_c6ee29a5a0_o.png",
    "id_image": "ANIME_PIC_b316bd4d4550487166d6d2f21671d5c2",
    "count_view": 0
  },
  {
    "link_thumb": "https://live.staticflickr.com/65535/51546308731_056a0c7d4c_n.jpg",
    "id_album": "-316663319",
    "description": "ANIME_PIC_b31a373d75c97f3e329894940534551a,[Girl],[isGirlAnime],[isCuteAnime]",
    "title": "ANIME_PIC_b31a373d75c97f3e329894940534551a",
    "link_img": "https://live.staticflickr.com/65535/51546308731_9f16a18a5d_o.png",
    "id_image": "ANIME_PIC_b31a373d75c97f3e329894940534551a",
    "count_view": 0
  },
  {
    "link_thumb": "https://live.staticflickr.com/65535/51546309161_3b29d85b20_n.jpg",
    "id_album": "-316663319",
    "description": "ANIME_PIC_b31af08fa2042631c24a312d9f491256,[Girl],[isGirlAnime],[isCuteAnime]",
    "title": "ANIME_PIC_b31af08fa2042631c24a312d9f491256",
    "link_img": "https://live.staticflickr.com/65535/51546309161_d93c1963ed_o.png",
    "id_image": "ANIME_PIC_b31af08fa2042631c24a312d9f491256",
    "count_view": 0
  },
  {
    "link_thumb": "https://live.staticflickr.com/65535/51547232190_ece74ef522_n.jpg",
    "id_album": "-316663319",
    "description": "ANIME_PIC_b31b56a744b6ba7cc6c735551fcb5c95,[Girl],[isGirlAnime],[isCuteAnime],[isGirlsLoliAnime]",
    "title": "ANIME_PIC_b31b56a744b6ba7cc6c735551fcb5c95",
    "link_img": "https://live.staticflickr.com/65535/51547232190_53225fa2f0_o.jpg",
    "id_image": "ANIME_PIC_b31b56a744b6ba7cc6c735551fcb5c95",
    "count_view": 0
  },
  {
    "link_thumb": "https://live.staticflickr.com/65535/51547035614_092ecdff18_n.jpg",
    "id_album": "-316663319",
    "description": "ANIME_PIC_b31cb7a79684a67670b18272d88cc485,[Girl],[isGirlAnime],[isCuteAnime],[isGirlsLoliAnime]",
    "title": "ANIME_PIC_b31cb7a79684a67670b18272d88cc485",
    "link_img": "https://live.staticflickr.com/65535/51547035614_3038940ace_o.jpg",
    "id_image": "ANIME_PIC_b31cb7a79684a67670b18272d88cc485",
    "count_view": 0
  },
  {
    "link_thumb": "https://live.staticflickr.com/65535/51545512732_7e66e06bcb_n.jpg",
    "id_album": "-316663319",
    "description": "ANIME_PIC_b31ddf9abda2695cea170d04a9b705cc,[Girl],[isGirlAnime],[isCuteAnime],[isGirlsLoliAnime]",
    "title": "ANIME_PIC_b31ddf9abda2695cea170d04a9b705cc",
    "link_img": "https://live.staticflickr.com/65535/51545512732_247b342edf_o.png",
    "id_image": "ANIME_PIC_b31ddf9abda2695cea170d04a9b705cc",
    "count_view": 0
  },
  {
    "link_thumb": "https://live.staticflickr.com/65535/51546311566_c9012bef7b_n.jpg",
    "id_album": "-316663319",
    "description": "ANIME_PIC_b3263e9d6ad7099e1f3cd7f7372d68c8,[Girl],[isBoyAnime],[isGirlAnime],[isCuteAnime]",
    "title": "ANIME_PIC_b3263e9d6ad7099e1f3cd7f7372d68c8",
    "link_img": "https://live.staticflickr.com/65535/51546311566_c0de01e879_o.jpg",
    "id_image": "ANIME_PIC_b3263e9d6ad7099e1f3cd7f7372d68c8",
    "count_view": 0
  },
  {
    "link_thumb": "https://live.staticflickr.com/65535/51547233735_f939240e24_n.jpg",
    "id_album": "-316663319",
    "description": "ANIME_PIC_b32909835a22f286cff449e50d7b9634,[Girl],[isGirlAnime],[isCuteAnime],[isGirlsHatsHoodieAnime],[isGirlsLoliAnime]",
    "title": "ANIME_PIC_b32909835a22f286cff449e50d7b9634",
    "link_img": "https://live.staticflickr.com/65535/51547233735_f65309a379_o.png",
    "id_image": "ANIME_PIC_b32909835a22f286cff449e50d7b9634",
    "count_view": 0
  },
  {
    "link_thumb": "https://live.staticflickr.com/65535/51547234220_2df3962473_n.jpg",
    "id_album": "-316663319",
    "description": "ANIME_PIC_b32929d23587bae61554b54c6281ec5b,[Girl],[isGirlAnime],[isCuteAnime]",
    "title": "ANIME_PIC_b32929d23587bae61554b54c6281ec5b",
    "link_img": "https://live.staticflickr.com/65535/51547234220_788393c341_o.jpg",
    "id_image": "ANIME_PIC_b32929d23587bae61554b54c6281ec5b",
    "count_view": 0
  },
  {
    "link_thumb": "https://live.staticflickr.com/65535/51547038044_926bbb041c_n.jpg",
    "id_album": "-316663319",
    "description": "ANIME_PIC_b32ad41c4648b390bf75d4834705493f,[Girl],[isGirlAnime],[isCuteAnime]",
    "title": "ANIME_PIC_b32ad41c4648b390bf75d4834705493f",
    "link_img": "https://live.staticflickr.com/65535/51547038044_f6781838f8_o.jpg",
    "id_image": "ANIME_PIC_b32ad41c4648b390bf75d4834705493f",
    "count_view": 0
  },
  {
    "link_thumb": "https://live.staticflickr.com/65535/51545515187_2d9497a900_n.jpg",
    "id_album": "-316663319",
    "description": "ANIME_PIC_b33084226c03ea425d2a50236199d828,[Girl],[isGirlAnime],[isCuteAnime],[isGirlsLoliAnime],[isSadAnimeGirl],[isSadAnime]",
    "title": "ANIME_PIC_b33084226c03ea425d2a50236199d828",
    "link_img": "https://live.staticflickr.com/65535/51545515187_3916809211_o.jpg",
    "id_image": "ANIME_PIC_b33084226c03ea425d2a50236199d828",
    "count_view": 0
  },
  {
    "link_thumb": "https://live.staticflickr.com/65535/51547038899_1fb6164e44_n.jpg",
    "id_album": "-316663319",
    "description": "ANIME_PIC_b33098db92d76c7ff577622f1e00ef00,[Girl],[isGirlAnime],[isCuteAnime],[isGirlsHatsHoodieAnime]",
    "title": "ANIME_PIC_b33098db92d76c7ff577622f1e00ef00",
    "link_img": "https://live.staticflickr.com/65535/51547038899_6d08799b3c_o.png",
    "id_image": "ANIME_PIC_b33098db92d76c7ff577622f1e00ef00",
    "count_view": 0
  },
  {
    "link_thumb": "https://live.staticflickr.com/65535/51546557958_9541a70b74_n.jpg",
    "id_album": "-316663319",
    "description": "ANIME_PIC_b3311afc231681e34922aff3c293d222,[Girl],[isGirlAnime],[isCuteAnime],[isGirlsHatsHoodieAnime],[isGirlsLoliAnime],[isSadAnimeGirl],[isSadAnime]",
    "title": "ANIME_PIC_b3311afc231681e34922aff3c293d222",
    "link_img": "https://live.staticflickr.com/65535/51546557958_df98543b68_o.png",
    "id_image": "ANIME_PIC_b3311afc231681e34922aff3c293d222",
    "count_view": 0
  },
  {
    "link_thumb": "https://live.staticflickr.com/65535/51547040669_7f840c2a1a_n.jpg",
    "id_album": "-316663319",
    "description": "ANIME_PIC_b333c24d2745c80c23fbfc971a732a5d,[Girl],[isGirlAnime],[isCuteAnime]",
    "title": "ANIME_PIC_b333c24d2745c80c23fbfc971a732a5d",
    "link_img": "https://live.staticflickr.com/65535/51547040669_53d8371d4c_o.jpg",
    "id_image": "ANIME_PIC_b333c24d2745c80c23fbfc971a732a5d",
    "count_view": 0
  },
  {
    "link_thumb": "https://live.staticflickr.com/65535/51546315981_19cc3deb26_n.jpg",
    "id_album": "-316663319",
    "description": "ANIME_PIC_b333ccbfb9eb146caca133ac8fa00687,[Girl],[isGirlAnime],[isCuteAnime],[isGirlsLoliAnime],[isSadAnimeGirl],[isSadAnime]",
    "title": "ANIME_PIC_b333ccbfb9eb146caca133ac8fa00687",
    "link_img": "https://live.staticflickr.com/65535/51546315981_3b366e7896_o.png",
    "id_image": "ANIME_PIC_b333ccbfb9eb146caca133ac8fa00687",
    "count_view": 0
  },
  {
    "link_thumb": "https://live.staticflickr.com/65535/51546316991_4144773003_n.jpg",
    "id_album": "-316663319",
    "description": "ANIME_PIC_b334b4dc942685b3a4c29937f0b97bd3,[Girl],[isGirlAnime],[isCuteAnime],[isSadAnimeGirl],[isSadAnime]",
    "title": "ANIME_PIC_b334b4dc942685b3a4c29937f0b97bd3",
    "link_img": "https://live.staticflickr.com/65535/51546316991_690fa7a577_o.jpg",
    "id_image": "ANIME_PIC_b334b4dc942685b3a4c29937f0b97bd3",
    "count_view": 0
  },
  {
    "link_thumb": "https://live.staticflickr.com/65535/51547042579_2e63fd1dfe_n.jpg",
    "id_album": "-316663319",
    "description": "ANIME_PIC_b33917bc065dbeb16cdb07f3e09d61c0,[Girl],[isGirlAnime],[isCuteAnime]",
    "title": "ANIME_PIC_b33917bc065dbeb16cdb07f3e09d61c0",
    "link_img": "https://live.staticflickr.com/65535/51547042579_af792afd90_o.jpg",
    "id_image": "ANIME_PIC_b33917bc065dbeb16cdb07f3e09d61c0",
    "count_view": 0
  },
  {
    "link_thumb": "https://live.staticflickr.com/65535/51546561353_0818829177_n.jpg",
    "id_album": "-316663319",
    "description": "ANIME_PIC_b33b65493abf8c95034baa6539842aec,[Girl],[isGirlAnime],[isCuteAnime]",
    "title": "ANIME_PIC_b33b65493abf8c95034baa6539842aec",
    "link_img": "https://live.staticflickr.com/65535/51546561353_ab4b3ce795_o.jpg",
    "id_image": "ANIME_PIC_b33b65493abf8c95034baa6539842aec",
    "count_view": 0
  },
  {
    "link_thumb": "https://live.staticflickr.com/65535/51547239795_83fa656178_n.jpg",
    "id_album": "-316663319",
    "description": "ANIME_PIC_b33c43ce8609d9e969e3e03082564172,[Girl],[isGirlAnime],[isCuteAnime],[isGirlsLoliAnime]",
    "title": "ANIME_PIC_b33c43ce8609d9e969e3e03082564172",
    "link_img": "https://live.staticflickr.com/65535/51547239795_3aefa9fd5a_o.jpg",
    "id_image": "ANIME_PIC_b33c43ce8609d9e969e3e03082564172",
    "count_view": 0
  },
  {
    "link_thumb": "https://live.staticflickr.com/65535/51547043839_976c058f6e_n.jpg",
    "id_album": "-316663319",
    "description": "ANIME_PIC_b33e9bb92f9ba7bf3ad7e65b7d1a48ee,[Girl],[isGirlAnime],[isCuteAnime],[isGirlsHatsHoodieAnime],[isGirlsLoliAnime]",
    "title": "ANIME_PIC_b33e9bb92f9ba7bf3ad7e65b7d1a48ee",
    "link_img": "https://live.staticflickr.com/65535/51547043839_6f5e8e4653_o.png",
    "id_image": "ANIME_PIC_b33e9bb92f9ba7bf3ad7e65b7d1a48ee",
    "count_view": 0
  },
  {
    "link_thumb": "https://live.staticflickr.com/65535/51547241030_769a2d8dc1_n.jpg",
    "id_album": "-316663319",
    "description": "ANIME_PIC_b340d1800586d5fc168f2949de08b620,[Girl],[isGirlAnime],[isCuteAnime],[isGirlsLoliAnime]",
    "title": "ANIME_PIC_b340d1800586d5fc168f2949de08b620",
    "link_img": "https://live.staticflickr.com/65535/51547241030_1d39af5558_o.jpg",
    "id_image": "ANIME_PIC_b340d1800586d5fc168f2949de08b620",
    "count_view": 0
  },
  {
    "link_thumb": "https://live.staticflickr.com/65535/51546563408_329823869d_n.jpg",
    "id_album": "-316663319",
    "description": "ANIME_PIC_b340f620a2cb40c9c1fe90ed70535600,[Girl],[isGirlAnime],[isCuteAnime],[isGirlsLoliAnime]",
    "title": "ANIME_PIC_b340f620a2cb40c9c1fe90ed70535600",
    "link_img": "https://live.staticflickr.com/65535/51546563408_1dd21b3853_o.jpg",
    "id_image": "ANIME_PIC_b340f620a2cb40c9c1fe90ed70535600",
    "count_view": 0
  },
  {
    "link_thumb": "https://live.staticflickr.com/65535/51547045574_f2d5d43f0a_n.jpg",
    "id_album": "-316663319",
    "description": "ANIME_PIC_b344ffae69e60dcc4c265bd1da791062,[Girl],[isGirlAnime],[isCuteAnime]",
    "title": "ANIME_PIC_b344ffae69e60dcc4c265bd1da791062",
    "link_img": "https://live.staticflickr.com/65535/51547045574_56ea6b5640_o.png",
    "id_image": "ANIME_PIC_b344ffae69e60dcc4c265bd1da791062",
    "count_view": 0
  },
  {
    "link_thumb": "https://live.staticflickr.com/65535/51547242810_c03624430d_n.jpg",
    "id_album": "-316663319",
    "description": "ANIME_PIC_b346353b215e14779ce4d58abe105de6,[Girl],[isGirlAnime],[isCuteAnime],[isGirlsLoliAnime],[isSadAnimeGirl],[isSadAnime]",
    "title": "ANIME_PIC_b346353b215e14779ce4d58abe105de6",
    "link_img": "https://live.staticflickr.com/65535/51547242810_1468e32a7f_o.jpg",
    "id_image": "ANIME_PIC_b346353b215e14779ce4d58abe105de6",
    "count_view": 0
  },
  {
    "link_thumb": "https://live.staticflickr.com/65535/51545522987_5c1a04b6c7_n.jpg",
    "id_album": "-316663319",
    "description": "ANIME_PIC_b34852ca13effbe7719aaaf7af8e93cc,[Girl],[isGirlAnime],[isCuteAnime]",
    "title": "ANIME_PIC_b34852ca13effbe7719aaaf7af8e93cc",
    "link_img": "https://live.staticflickr.com/65535/51545522987_4f1642299f_o.jpg",
    "id_image": "ANIME_PIC_b34852ca13effbe7719aaaf7af8e93cc",
    "count_view": 0
  },
  {
    "link_thumb": "https://live.staticflickr.com/65535/51546565488_34e54c6390_n.jpg",
    "id_album": "-316663319",
    "description": "ANIME_PIC_b3495de57f48962fa6674af6ab27a32b,[Girl],[isGirlAnime],[isCuteAnime],[isGirlsHatsHoodieAnime],[isGirlsLoliAnime],[isSadAnimeGirl],[isSadAnime]",
    "title": "ANIME_PIC_b3495de57f48962fa6674af6ab27a32b",
    "link_img": "https://live.staticflickr.com/65535/51546565488_8a40062aae_o.jpg",
    "id_image": "ANIME_PIC_b3495de57f48962fa6674af6ab27a32b",
    "count_view": 0
  },
  {
    "link_thumb": "https://live.staticflickr.com/65535/51545523722_f5599655ef_n.jpg",
    "id_album": "-316663319",
    "description": "ANIME_PIC_b34d21199bd3887c4a390828dcf4305b,[Girl],[isGirlAnime],[isSadAnimeGirl],[isSadAnime]",
    "title": "ANIME_PIC_b34d21199bd3887c4a390828dcf4305b",
    "link_img": "https://live.staticflickr.com/65535/51545523722_5605ce87f1_o.jpg",
    "id_image": "ANIME_PIC_b34d21199bd3887c4a390828dcf4305b",
    "count_view": 0
  },
  {
    "link_thumb": "https://live.staticflickr.com/65535/51547048054_dbb392e70b_n.jpg",
    "id_album": "-316663319",
    "description": "ANIME_PIC_b3501b85a1925a5a61917f7e3c19befa,[Girl],[isGirlAnime],[isCuteAnime],[isSadAnimeGirl],[isSadAnime]",
    "title": "ANIME_PIC_b3501b85a1925a5a61917f7e3c19befa",
    "link_img": "https://live.staticflickr.com/65535/51547048054_dea5bbc90a_o.jpg",
    "id_image": "ANIME_PIC_b3501b85a1925a5a61917f7e3c19befa",
    "count_view": 0
  },
  {
    "link_thumb": "https://live.staticflickr.com/65535/51547244965_6f8520b106_n.jpg",
    "id_album": "-316663319",
    "description": "ANIME_PIC_b3513f6ffb9888d5d2a1c35c268cd548,[Girl],[isGirlAnime],[isCuteAnime],[isGirlsLoliAnime]",
    "title": "ANIME_PIC_b3513f6ffb9888d5d2a1c35c268cd548",
    "link_img": "https://live.staticflickr.com/65535/51547244965_478b29fc61_o.jpg",
    "id_image": "ANIME_PIC_b3513f6ffb9888d5d2a1c35c268cd548",
    "count_view": 0
  },
  {
    "link_thumb": "https://live.staticflickr.com/65535/51547245660_ba6803d237_n.jpg",
    "id_album": "-316663319",
    "description": "ANIME_PIC_b351b29d75c4f99273bc56291cec57b1,[Girl],[isGirlAnime],[isCuteAnime],[isGirlsHatsHoodieAnime],[isGirlsLoliAnime]",
    "title": "ANIME_PIC_b351b29d75c4f99273bc56291cec57b1",
    "link_img": "https://live.staticflickr.com/65535/51547245660_bb8c509528_o.png",
    "id_image": "ANIME_PIC_b351b29d75c4f99273bc56291cec57b1",
    "count_view": 0
  },
  {
    "link_thumb": "https://live.staticflickr.com/65535/51545526452_006449441a_n.jpg",
    "id_album": "-316663319",
    "description": "ANIME_PIC_b352be39600c1571428a17c313d80d99,[Girl],[isGirlAnime],[isCuteAnime],[isGirlsLoliAnime],[isSadAnimeGirl],[isSadAnime]",
    "title": "ANIME_PIC_b352be39600c1571428a17c313d80d99",
    "link_img": "https://live.staticflickr.com/65535/51545526452_4695dd7b61_o.jpg",
    "id_image": "ANIME_PIC_b352be39600c1571428a17c313d80d99",
    "count_view": 0
  },
  {
    "link_thumb": "https://live.staticflickr.com/65535/51547050759_885b3a2c67_n.jpg",
    "id_album": "-316663319",
    "description": "ANIME_PIC_b3530abf2e60e2e5b516bd695a768a33,[Girl],[isGirlAnime],[isCuteAnime],[isGirlsLoliAnime]",
    "title": "ANIME_PIC_b3530abf2e60e2e5b516bd695a768a33",
    "link_img": "https://live.staticflickr.com/65535/51547050759_24f3e6e778_o.jpg",
    "id_image": "ANIME_PIC_b3530abf2e60e2e5b516bd695a768a33",
    "count_view": 0
  },
  {
    "link_thumb": "https://live.staticflickr.com/65535/51547248040_7b22842bfe_n.jpg",
    "id_album": "-316663319",
    "description": "ANIME_PIC_b356accd1182c2a6fd83277eb76b5ceb,[Girl],[isGirlAnime],[isCuteAnime],[isGirlsHatsHoodieAnime],[isGirlsLoliAnime]",
    "title": "ANIME_PIC_b356accd1182c2a6fd83277eb76b5ceb",
    "link_img": "https://live.staticflickr.com/65535/51547248040_86d0a4e3d6_o.jpg",
    "id_image": "ANIME_PIC_b356accd1182c2a6fd83277eb76b5ceb",
    "count_view": 0
  },
  {
    "link_thumb": "https://live.staticflickr.com/65535/51547248560_c9cbd8202c_n.jpg",
    "id_album": "-316663319",
    "description": "ANIME_PIC_b357033a421defe0b51b4af8bee351ce,[Girl],[isGirlAnime],[isCuteAnime],[isGirlsLoliAnime]",
    "title": "ANIME_PIC_b357033a421defe0b51b4af8bee351ce",
    "link_img": "https://live.staticflickr.com/65535/51547248560_b5584e707f_o.jpg",
    "id_image": "ANIME_PIC_b357033a421defe0b51b4af8bee351ce",
    "count_view": 0
  },
  {
    "link_thumb": "https://live.staticflickr.com/65535/51546326996_3d3dd9d69e_n.jpg",
    "id_album": "-316663319",
    "description": "ANIME_PIC_b3579053787f4d2d5c13eeb01abfd936,[Girl],[isGirlAnime],[isCuteAnime],[isGirlsLoliAnime],[isSadAnimeGirl],[isSadAnime]",
    "title": "ANIME_PIC_b3579053787f4d2d5c13eeb01abfd936",
    "link_img": "https://live.staticflickr.com/65535/51546326996_000a89baa9_o.png",
    "id_image": "ANIME_PIC_b3579053787f4d2d5c13eeb01abfd936",
    "count_view": 0
  },
  {
    "link_thumb": "https://live.staticflickr.com/65535/51547053069_fd9bdac3cd_n.jpg",
    "id_album": "-316663319",
    "description": "ANIME_PIC_b35a211daae2f00bde8cc6e9de5364a8,[Girl],[isGirlAnime],[isCuteAnime]",
    "title": "ANIME_PIC_b35a211daae2f00bde8cc6e9de5364a8",
    "link_img": "https://live.staticflickr.com/65535/51547053069_07bd1f0c27_o.jpg",
    "id_image": "ANIME_PIC_b35a211daae2f00bde8cc6e9de5364a8",
    "count_view": 0
  },
  {
    "link_thumb": "https://live.staticflickr.com/65535/51545529907_8c53d7ff83_n.jpg",
    "id_album": "-316663319",
    "description": "ANIME_PIC_b35c695a7fbe9cd03fc4399c3d24cf6d,[Girl],[isGirlAnime],[isCuteAnime],[isSadAnimeGirl],[isSadAnime]",
    "title": "ANIME_PIC_b35c695a7fbe9cd03fc4399c3d24cf6d",
    "link_img": "https://live.staticflickr.com/65535/51545529907_0c54e84e6c_o.png",
    "id_image": "ANIME_PIC_b35c695a7fbe9cd03fc4399c3d24cf6d",
    "count_view": 0
  },
  {
    "link_thumb": "https://live.staticflickr.com/65535/51547250880_d6edb45cb3_n.jpg",
    "id_album": "-316663319",
    "description": "ANIME_PIC_b35c8ba282c17adb39a9e614685b4005,[Girl],[isGirlAnime],[isCuteAnime],[isSadAnimeGirl],[isSadAnime]",
    "title": "ANIME_PIC_b35c8ba282c17adb39a9e614685b4005",
    "link_img": "https://live.staticflickr.com/65535/51547250880_7cb94c5f1e_o.jpg",
    "id_image": "ANIME_PIC_b35c8ba282c17adb39a9e614685b4005",
    "count_view": 0
  },
  {
    "link_thumb": "https://live.staticflickr.com/65535/51547054794_3993c4f3b4_n.jpg",
    "id_album": "-316663319",
    "description": "ANIME_PIC_b35ccb843c13f91e18868867137710c6,[Girl],[isGirlAnime],[isCuteAnime]",
    "title": "ANIME_PIC_b35ccb843c13f91e18868867137710c6",
    "link_img": "https://live.staticflickr.com/65535/51547054794_0edf88497a_o.png",
    "id_image": "ANIME_PIC_b35ccb843c13f91e18868867137710c6",
    "count_view": 0
  },
  {
    "link_thumb": "https://live.staticflickr.com/65535/51546574203_cd015aefaa_n.jpg",
    "id_album": "-316663319",
    "description": "ANIME_PIC_b363ebc0ec1ef028325310f46c0fc3b4,[Girl],[isGirlAnime],[isCuteAnime],[isGirlsLoliAnime],[isSadAnimeGirl],[isSadAnime]",
    "title": "ANIME_PIC_b363ebc0ec1ef028325310f46c0fc3b4",
    "link_img": "https://live.staticflickr.com/65535/51546574203_db98b9bd87_o.jpg",
    "id_image": "ANIME_PIC_b363ebc0ec1ef028325310f46c0fc3b4",
    "count_view": 0
  },
  {
    "link_thumb": "https://live.staticflickr.com/65535/51547055804_876485ae36_n.jpg",
    "id_album": "-316663319",
    "description": "ANIME_PIC_b3646b6ed391d2b116650dc14bde82bc,[Girl],[isGirlAnime],[isCuteAnime],[isGirlsLoliAnime]",
    "title": "ANIME_PIC_b3646b6ed391d2b116650dc14bde82bc",
    "link_img": "https://live.staticflickr.com/65535/51547055804_b236f808a1_o.jpg",
    "id_image": "ANIME_PIC_b3646b6ed391d2b116650dc14bde82bc",
    "count_view": 0
  },
  {
    "link_thumb": "https://live.staticflickr.com/65535/51546575123_f24e580388_n.jpg",
    "id_album": "-316663319",
    "description": "ANIME_PIC_b36a1b53b6d3bab8311ef85759ae053b,[Girl],[isGirlAnime],[isCuteAnime],[isGirlsLoliAnime],[isSadAnimeGirl],[isSadAnime]",
    "title": "ANIME_PIC_b36a1b53b6d3bab8311ef85759ae053b",
    "link_img": "https://live.staticflickr.com/65535/51546575123_37d34c810a_o.jpg",
    "id_image": "ANIME_PIC_b36a1b53b6d3bab8311ef85759ae053b",
    "count_view": 0
  },
  {
    "link_thumb": "https://live.staticflickr.com/65535/51546331231_f8a7414397_n.jpg",
    "id_album": "-316663319",
    "description": "ANIME_PIC_b36c6a9d0c0ecf7f45e3e2e2458ea066,[Girl],[isGirlAnime],[isCuteAnime],[isGirlsHornsAnime],[isSadAnimeGirl],[isSadAnime]",
    "title": "ANIME_PIC_b36c6a9d0c0ecf7f45e3e2e2458ea066",
    "link_img": "https://live.staticflickr.com/65535/51546331231_5f69939ba6_o.jpg",
    "id_image": "ANIME_PIC_b36c6a9d0c0ecf7f45e3e2e2458ea066",
    "count_view": 0
  },
  {
    "link_thumb": "https://live.staticflickr.com/65535/51547253760_7cd6cce43e_n.jpg",
    "id_album": "-316663319",
    "description": "ANIME_PIC_b371c540b450e8b4dad476806525c0a1,[Girl],[isGirlAnime],[isCuteAnime],[isGirlsLoliAnime]",
    "title": "ANIME_PIC_b371c540b450e8b4dad476806525c0a1",
    "link_img": "https://live.staticflickr.com/65535/51547253760_5d8845b3b9_o.png",
    "id_image": "ANIME_PIC_b371c540b450e8b4dad476806525c0a1",
    "count_view": 0
  },
  {
    "link_thumb": "https://live.staticflickr.com/65535/51547254320_0722c8bc70_n.jpg",
    "id_album": "-316663319",
    "description": "ANIME_PIC_b3739814f6afaccee8157ed66765a7f6,[Girl],[isGirlAnime],[isCuteAnime],[isGirlsLoliAnime]",
    "title": "ANIME_PIC_b3739814f6afaccee8157ed66765a7f6",
    "link_img": "https://live.staticflickr.com/65535/51547254320_18e14afdec_o.png",
    "id_image": "ANIME_PIC_b3739814f6afaccee8157ed66765a7f6",
    "count_view": 0
  },
  {
    "link_thumb": "https://live.staticflickr.com/65535/51546332606_489a6646c2_n.jpg",
    "id_album": "-316663319",
    "description": "ANIME_PIC_b374b602c85da909fed180e2696abd68,[Girl],[isGirlAnime],[isCuteAnime],[isGirlsHatsHoodieAnime],[isGirlsLoliAnime]",
    "title": "ANIME_PIC_b374b602c85da909fed180e2696abd68",
    "link_img": "https://live.staticflickr.com/65535/51546332606_cdae0b9e9b_o.png",
    "id_image": "ANIME_PIC_b374b602c85da909fed180e2696abd68",
    "count_view": 0
  },
  {
    "link_thumb": "https://live.staticflickr.com/65535/51547255470_5e6f76a097_n.jpg",
    "id_album": "-316663319",
    "description": "ANIME_PIC_b3756c1e9e6569bbaaa62e3de3e4c539,[Girl],[isGirlAnime],[isCuteAnime],[isGirlsHatsHoodieAnime]",
    "title": "ANIME_PIC_b3756c1e9e6569bbaaa62e3de3e4c539",
    "link_img": "https://live.staticflickr.com/65535/51547255470_5f5e7b4e3d_o.jpg",
    "id_image": "ANIME_PIC_b3756c1e9e6569bbaaa62e3de3e4c539",
    "count_view": 0
  },
  {
    "link_thumb": "https://live.staticflickr.com/65535/51547255840_45b30d3ae7_n.jpg",
    "id_album": "-316663319",
    "description": "ANIME_PIC_b3759542ca2a6ac3c47bdd336b632f6d,[Girl],[isGirlAnime],[isSadAnimeGirl],[isSadAnime]",
    "title": "ANIME_PIC_b3759542ca2a6ac3c47bdd336b632f6d",
    "link_img": "https://live.staticflickr.com/65535/51547255840_40a0817ebe_o.jpg",
    "id_image": "ANIME_PIC_b3759542ca2a6ac3c47bdd336b632f6d",
    "count_view": 0
  },
  {
    "link_thumb": "https://live.staticflickr.com/65535/51547256225_b430373f08_n.jpg",
    "id_album": "-316663319",
    "description": "ANIME_PIC_b375f6442eb42217dd51ee6d71810b12,[Girl],[isGirlAnime],[isCuteAnime],[isGirlsLoliAnime]",
    "title": "ANIME_PIC_b375f6442eb42217dd51ee6d71810b12",
    "link_img": "https://live.staticflickr.com/65535/51547256225_ded933a1bf_o.jpg",
    "id_image": "ANIME_PIC_b375f6442eb42217dd51ee6d71810b12",
    "count_view": 0
  },
  {
    "link_thumb": "https://live.staticflickr.com/65535/51546578933_f672e56574_n.jpg",
    "id_album": "-316663319",
    "description": "ANIME_PIC_b3761c00f338ec571b9b4356e3400349,[Girl],[isGirlAnime],[isCuteAnime],[isSadAnimeGirl],[isSadAnime]",
    "title": "ANIME_PIC_b3761c00f338ec571b9b4356e3400349",
    "link_img": "https://live.staticflickr.com/65535/51546578933_0d2eb004c6_o.jpg",
    "id_image": "ANIME_PIC_b3761c00f338ec571b9b4356e3400349",
    "count_view": 0
  },
  {
    "link_thumb": "https://live.staticflickr.com/65535/51546579273_6ec300babf_n.jpg",
    "id_album": "-316663319",
    "description": "ANIME_PIC_b376ab0254c8f2bb322527d7b4ee3d19,[Girl],[isGirlAnime],[isCuteAnime],[isGirlsHatsHoodieAnime],[isGirlsLoliAnime],[isGirlsSharpCanineToothAnime]",
    "title": "ANIME_PIC_b376ab0254c8f2bb322527d7b4ee3d19",
    "link_img": "https://live.staticflickr.com/65535/51546579273_1aae1f61dc_o.jpg",
    "id_image": "ANIME_PIC_b376ab0254c8f2bb322527d7b4ee3d19",
    "count_view": 0
  },
  {
    "link_thumb": "https://live.staticflickr.com/65535/51547257470_10da1af510_n.jpg",
    "id_album": "-316663319",
    "description": "ANIME_PIC_b3795c6b4ff311e5bb9fd1ad24c53e50,[Girl],[isGirlAnime],[isCuteAnime],[isGirlsHatsHoodieAnime]",
    "title": "ANIME_PIC_b3795c6b4ff311e5bb9fd1ad24c53e50",
    "link_img": "https://live.staticflickr.com/65535/51547257470_d9ed2c8b17_o.jpg",
    "id_image": "ANIME_PIC_b3795c6b4ff311e5bb9fd1ad24c53e50",
    "count_view": 0
  },
  {
    "link_thumb": "https://live.staticflickr.com/65535/51546579978_44bd20b318_n.jpg",
    "id_album": "-316663319",
    "description": "ANIME_PIC_b37be34ea187171f5717b7689cc17132,[Girl],[isGirlAnime],[isCuteAnime],[isGirlsLoliAnime]",
    "title": "ANIME_PIC_b37be34ea187171f5717b7689cc17132",
    "link_img": "https://live.staticflickr.com/65535/51546579978_c2b0e385fd_o.jpg",
    "id_image": "ANIME_PIC_b37be34ea187171f5717b7689cc17132",
    "count_view": 0
  },
  {
    "link_thumb": "https://live.staticflickr.com/65535/51546580298_8076ee5795_n.jpg",
    "id_album": "-316663319",
    "description": "ANIME_PIC_b38366b4ef4c8431008f753477e229a2,[Girl],[isGirlAnime],[isCuteAnime]",
    "title": "ANIME_PIC_b38366b4ef4c8431008f753477e229a2",
    "link_img": "https://live.staticflickr.com/65535/51546580298_0ebd4e2a70_o.jpg",
    "id_image": "ANIME_PIC_b38366b4ef4c8431008f753477e229a2",
    "count_view": 0
  },
  {
    "link_thumb": "https://live.staticflickr.com/65535/51545537897_a052e48836_n.jpg",
    "id_album": "-316663319",
    "description": "ANIME_PIC_b3885de142c2c4de4296c052cb799139,[Girl],[isGirlAnime],[isCuteAnime]",
    "title": "ANIME_PIC_b3885de142c2c4de4296c052cb799139",
    "link_img": "https://live.staticflickr.com/65535/51545537897_0ec7d165d6_o.jpg",
    "id_image": "ANIME_PIC_b3885de142c2c4de4296c052cb799139",
    "count_view": 0
  },
  {
    "link_thumb": "https://live.staticflickr.com/65535/51546581068_c3bb963a1f_n.jpg",
    "id_album": "-316663319",
    "description": "ANIME_PIC_b389062ea63a87e3def45a64daf1b78b,[Girl],[isGirlAnime],[isCuteAnime]",
    "title": "ANIME_PIC_b389062ea63a87e3def45a64daf1b78b",
    "link_img": "https://live.staticflickr.com/65535/51546581068_0a0123600a_o.png",
    "id_image": "ANIME_PIC_b389062ea63a87e3def45a64daf1b78b",
    "count_view": 0
  },
  {
    "link_thumb": "https://live.staticflickr.com/65535/51547062769_b8f4832e8c_n.jpg",
    "id_album": "-316663319",
    "description": "ANIME_PIC_b38e3b5512cc3188e56ced84770e2aac,[Girl],[isGirlAnime],[isCuteAnime],[isSadAnimeGirl],[isSadAnime]",
    "title": "ANIME_PIC_b38e3b5512cc3188e56ced84770e2aac",
    "link_img": "https://live.staticflickr.com/65535/51547062769_aa3040d57c_o.jpg",
    "id_image": "ANIME_PIC_b38e3b5512cc3188e56ced84770e2aac",
    "count_view": 0
  },
  {
    "link_thumb": "https://live.staticflickr.com/65535/51546337556_6956880549_n.jpg",
    "id_album": "-316663319",
    "description": "ANIME_PIC_b38e4db359b02d6f44c11634bf931718,[Girl],[isGirlAnime],[isCuteAnime],[isGirlsLoliAnime],[isSadAnimeGirl],[isSadAnime]",
    "title": "ANIME_PIC_b38e4db359b02d6f44c11634bf931718",
    "link_img": "https://live.staticflickr.com/65535/51546337556_e580670c07_o.jpg",
    "id_image": "ANIME_PIC_b38e4db359b02d6f44c11634bf931718",
    "count_view": 0
  },
  {
    "link_thumb": "https://live.staticflickr.com/65535/51547063824_10984a2e45_n.jpg",
    "id_album": "-316663319",
    "description": "ANIME_PIC_b39190f8d1e6cef47410aca2b907efe3,[Girl],[isGirlAnime],[isCuteAnime],[isGirlsHatsHoodieAnime],[isGirlsLoliAnime]",
    "title": "ANIME_PIC_b39190f8d1e6cef47410aca2b907efe3",
    "link_img": "https://live.staticflickr.com/65535/51547063824_0de011da89_o.jpg",
    "id_image": "ANIME_PIC_b39190f8d1e6cef47410aca2b907efe3",
    "count_view": 0
  },
  {
    "link_thumb": "https://live.staticflickr.com/65535/51547064224_fcc795507d_n.jpg",
    "id_album": "-316663319",
    "description": "ANIME_PIC_b393050e47d4775cb10d9d8bb3fce899,[Girl],[isGirlAnime],[isCuteAnime],[isSadAnimeGirl],[isSadAnime]",
    "title": "ANIME_PIC_b393050e47d4775cb10d9d8bb3fce899",
    "link_img": "https://live.staticflickr.com/65535/51547064224_4aa5edd22a_o.jpg",
    "id_image": "ANIME_PIC_b393050e47d4775cb10d9d8bb3fce899",
    "count_view": 0
  },
  {
    "link_thumb": "https://live.staticflickr.com/65535/51546339101_55e08d1bde_n.jpg",
    "id_album": "-316663319",
    "description": "ANIME_PIC_b39360bc188a285e6ab057afedda7b07,[Girl],[isGirlAnime],[isCuteAnime],[isGirlsLoliAnime]",
    "title": "ANIME_PIC_b39360bc188a285e6ab057afedda7b07",
    "link_img": "https://live.staticflickr.com/65535/51546339101_da264c1bf1_o.png",
    "id_image": "ANIME_PIC_b39360bc188a285e6ab057afedda7b07",
    "count_view": 0
  },
  {
    "link_thumb": "https://live.staticflickr.com/65535/51545542012_1dc556087f_n.jpg",
    "id_album": "-316663319",
    "description": "ANIME_PIC_b3939c868ae15f408cccf23584b84d65,[Girl],[isGirlAnime],[isCuteAnime],[isGirlsHatsHoodieAnime],[isGirlsLoliAnime]",
    "title": "ANIME_PIC_b3939c868ae15f408cccf23584b84d65",
    "link_img": "https://live.staticflickr.com/65535/51545542012_01f4303bea_o.png",
    "id_image": "ANIME_PIC_b3939c868ae15f408cccf23584b84d65",
    "count_view": 0
  },
  {
    "link_thumb": "https://live.staticflickr.com/65535/51547066339_581e523c2a_n.jpg",
    "id_album": "-316663319",
    "description": "ANIME_PIC_b394bda239c5e0f8aa08ea89190fd651,[Girl],[isGirlAnime],[isCuteAnime]",
    "title": "ANIME_PIC_b394bda239c5e0f8aa08ea89190fd651",
    "link_img": "https://live.staticflickr.com/65535/51547066339_4b2881fb43_o.png",
    "id_image": "ANIME_PIC_b394bda239c5e0f8aa08ea89190fd651",
    "count_view": 0
  },
  {
    "link_thumb": "https://live.staticflickr.com/65535/51546586153_178799c27b_n.jpg",
    "id_album": "-316663319",
    "description": "ANIME_PIC_b39581c6356f34fd3eecd5f6aabda4f2,[Girl],[isGirlAnime],[isCuteAnime],[isGirlsLoliAnime]",
    "title": "ANIME_PIC_b39581c6356f34fd3eecd5f6aabda4f2",
    "link_img": "https://live.staticflickr.com/65535/51546586153_d88fb369c9_o.jpg",
    "id_image": "ANIME_PIC_b39581c6356f34fd3eecd5f6aabda4f2",
    "count_view": 0
  },
  {
    "link_thumb": "https://live.staticflickr.com/65535/51546341926_bd3f8f914c_n.jpg",
    "id_album": "-316663319",
    "description": "ANIME_PIC_b3992cfa7cfc96ddc845d0cf5780e9e2,[Girl],[isGirlAnime],[isCuteAnime]",
    "title": "ANIME_PIC_b3992cfa7cfc96ddc845d0cf5780e9e2",
    "link_img": "https://live.staticflickr.com/65535/51546341926_8cdd798bd5_o.jpg",
    "id_image": "ANIME_PIC_b3992cfa7cfc96ddc845d0cf5780e9e2",
    "count_view": 0
  },
  {
    "link_thumb": "https://live.staticflickr.com/65535/51546586963_aa5db6c329_n.jpg",
    "id_album": "-316663319",
    "description": "ANIME_PIC_b39bdc41c93310b5e2e4d1b2071fd068,[Girl],[isGirlAnime],[isCuteAnime],[isGirlsLoliAnime]",
    "title": "ANIME_PIC_b39bdc41c93310b5e2e4d1b2071fd068",
    "link_img": "https://live.staticflickr.com/65535/51546586963_fa82aab79d_o.png",
    "id_image": "ANIME_PIC_b39bdc41c93310b5e2e4d1b2071fd068",
    "count_view": 0
  },
  {
    "link_thumb": "https://live.staticflickr.com/65535/51545544982_4a0d900790_n.jpg",
    "id_album": "-316663319",
    "description": "ANIME_PIC_b39d65759036eecd4d313435ed1b5398,[Girl],[isGirlAnime],[isCuteAnime]",
    "title": "ANIME_PIC_b39d65759036eecd4d313435ed1b5398",
    "link_img": "https://live.staticflickr.com/65535/51545544982_54126243a2_o.jpg",
    "id_image": "ANIME_PIC_b39d65759036eecd4d313435ed1b5398",
    "count_view": 0
  },
  {
    "link_thumb": "https://live.staticflickr.com/65535/51547266245_6baaf4a114_n.jpg",
    "id_album": "-316663319",
    "description": "ANIME_PIC_b3a44cd89d57b3db953c2778aab444a1,[Girl],[isGirlAnime],[isCuteAnime],[isGirlEarsNekoAnime],[isGirlsLoliAnime],[isGirlsSharpCanineToothAnime]",
    "title": "ANIME_PIC_b3a44cd89d57b3db953c2778aab444a1",
    "link_img": "https://live.staticflickr.com/65535/51547266245_8b52c7266f_o.jpg",
    "id_image": "ANIME_PIC_b3a44cd89d57b3db953c2778aab444a1",
    "count_view": 0
  },
  {
    "link_thumb": "https://live.staticflickr.com/65535/51545545832_b058aba311_n.jpg",
    "id_album": "-316663319",
    "description": "ANIME_PIC_b3aed3cff3742d14268f930654775dcc,[Girl],[isGirlAnime],[isCuteAnime],[isGirlsHatsHoodieAnime],[isGirlsLoliAnime]",
    "title": "ANIME_PIC_b3aed3cff3742d14268f930654775dcc",
    "link_img": "https://live.staticflickr.com/65535/51545545832_69230b6c95_o.png",
    "id_image": "ANIME_PIC_b3aed3cff3742d14268f930654775dcc",
    "count_view": 0
  },
  {
    "link_thumb": "https://live.staticflickr.com/65535/51547070019_88d2ab0b39_n.jpg",
    "id_album": "-316663319",
    "description": "ANIME_PIC_b3b84e652418b2d19f4c4c98449b41b1,[Girl],[isGirlAnime],[isCuteAnime],[isGirlsLoliAnime]",
    "title": "ANIME_PIC_b3b84e652418b2d19f4c4c98449b41b1",
    "link_img": "https://live.staticflickr.com/65535/51547070019_46d2c2099e_o.png",
    "id_image": "ANIME_PIC_b3b84e652418b2d19f4c4c98449b41b1",
    "count_view": 0
  },
  {
    "link_thumb": "https://live.staticflickr.com/65535/51547267800_e6dddc8f05_n.jpg",
    "id_album": "-316663319",
    "description": "ANIME_PIC_b3bcf87b42912b96c0387200827fe3f0,[Girl],[isGirlAnime],[isCuteAnime],[isGirlsLoliAnime]",
    "title": "ANIME_PIC_b3bcf87b42912b96c0387200827fe3f0",
    "link_img": "https://live.staticflickr.com/65535/51547267800_8dc07ee97e_o.png",
    "id_image": "ANIME_PIC_b3bcf87b42912b96c0387200827fe3f0",
    "count_view": 0
  },
  {
    "link_thumb": "https://live.staticflickr.com/65535/51547268955_c019b1d59b_n.jpg",
    "id_album": "-316663319",
    "description": "ANIME_PIC_b3bcfbebb5b7aed56d205d756a578391,[Girl],[isGirlAnime],[isCuteAnime],[isGirlsLoliAnime]",
    "title": "ANIME_PIC_b3bcfbebb5b7aed56d205d756a578391",
    "link_img": "https://live.staticflickr.com/65535/51547268955_4444790a7f_o.png",
    "id_image": "ANIME_PIC_b3bcfbebb5b7aed56d205d756a578391",
    "count_view": 0
  },
  {
    "link_thumb": "https://live.staticflickr.com/65535/51545548367_4887922091_n.jpg",
    "id_album": "-316663319",
    "description": "ANIME_PIC_b3c4798fb9f1154abdfccb5df98a4149,[Girl],[isGirlAnime],[isCuteAnime]",
    "title": "ANIME_PIC_b3c4798fb9f1154abdfccb5df98a4149",
    "link_img": "https://live.staticflickr.com/65535/51545548367_f1c88e9276_o.jpg",
    "id_image": "ANIME_PIC_b3c4798fb9f1154abdfccb5df98a4149",
    "count_view": 0
  },
  {
    "link_thumb": "https://live.staticflickr.com/65535/51547270040_7ac67caff1_n.jpg",
    "id_album": "-316663319",
    "description": "ANIME_PIC_b3c5b17847a9244223720480aabb6a69,[Girl],[isGirlAnime],[isCuteAnime],[isGirlsHornsAnime],[isGirlsLoliAnime],[isGirlsSharpCanineToothAnime]",
    "title": "ANIME_PIC_b3c5b17847a9244223720480aabb6a69",
    "link_img": "https://live.staticflickr.com/65535/51547270040_50d3fdd3c9_o.png",
    "id_image": "ANIME_PIC_b3c5b17847a9244223720480aabb6a69",
    "count_view": 0
  },
  {
    "link_thumb": "https://live.staticflickr.com/65535/51546592078_4c3b6c05cf_n.jpg",
    "id_album": "-316663319",
    "description": "ANIME_PIC_b3c60ef1be317fc76e7e5a7c31dc4461,[Girl],[isGirlAnime],[isCuteAnime],[isGirlsLoliAnime]",
    "title": "ANIME_PIC_b3c60ef1be317fc76e7e5a7c31dc4461",
    "link_img": "https://live.staticflickr.com/65535/51546592078_9b70ae3791_o.jpg",
    "id_image": "ANIME_PIC_b3c60ef1be317fc76e7e5a7c31dc4461",
    "count_view": 0
  },
  {
    "link_thumb": "https://live.staticflickr.com/65535/51547271115_49694a0949_n.jpg",
    "id_album": "-316663319",
    "description": "ANIME_PIC_b3c637f99195b722ff0390661b8e4c65,[Girl],[isGirlAnime],[isCuteAnime]",
    "title": "ANIME_PIC_b3c637f99195b722ff0390661b8e4c65",
    "link_img": "https://live.staticflickr.com/65535/51547271115_d20e6aa941_o.jpg",
    "id_image": "ANIME_PIC_b3c637f99195b722ff0390661b8e4c65",
    "count_view": 0
  },
  {
    "link_thumb": "https://live.staticflickr.com/65535/51546348471_4e6fe218ee_n.jpg",
    "id_album": "-316663319",
    "description": "ANIME_PIC_b3cb737fd2cdbceb46bb859108bd34e0,[Girl],[isGirlAnime],[isCuteAnime],[isGirlsLoliAnime]",
    "title": "ANIME_PIC_b3cb737fd2cdbceb46bb859108bd34e0",
    "link_img": "https://live.staticflickr.com/65535/51546348471_5ac04f3ea2_o.jpg",
    "id_image": "ANIME_PIC_b3cb737fd2cdbceb46bb859108bd34e0",
    "count_view": 0
  },
  {
    "link_thumb": "https://live.staticflickr.com/65535/51547074679_097c473f98_n.jpg",
    "id_album": "-316663319",
    "description": "ANIME_PIC_b3d098dc6857f468c8401a3b8631536d,[Girl],[isGirlAnime],[isCuteAnime],[isGirlEarsNekoAnime]",
    "title": "ANIME_PIC_b3d098dc6857f468c8401a3b8631536d",
    "link_img": "https://live.staticflickr.com/65535/51547074679_60ae153ffa_o.jpg",
    "id_image": "ANIME_PIC_b3d098dc6857f468c8401a3b8631536d",
    "count_view": 0
  },
  {
    "link_thumb": "https://live.staticflickr.com/65535/51547272420_df54426f33_n.jpg",
    "id_album": "-316663319",
    "description": "ANIME_PIC_b3d3fc8f2ad4110f5d5127022d45cdac,[Girl],[isGirlAnime],[isCuteAnime],[isGirlsLoliAnime]",
    "title": "ANIME_PIC_b3d3fc8f2ad4110f5d5127022d45cdac",
    "link_img": "https://live.staticflickr.com/65535/51547272420_3d462c2450_o.jpg",
    "id_image": "ANIME_PIC_b3d3fc8f2ad4110f5d5127022d45cdac",
    "count_view": 0
  },
  {
    "link_thumb": "https://live.staticflickr.com/65535/51547272925_5ed9d8baa8_n.jpg",
    "id_album": "-316663319",
    "description": "ANIME_PIC_b3d8dbe5a2486080df8de1573496a9d1,[Girl],[isGirlAnime],[isCuteAnime],[isGirlFaceMasksAnime],[isGirlsLoliAnime],[isSadAnimeGirl],[isSadAnime]",
    "title": "ANIME_PIC_b3d8dbe5a2486080df8de1573496a9d1",
    "link_img": "https://live.staticflickr.com/65535/51547272925_4613150862_o.png",
    "id_image": "ANIME_PIC_b3d8dbe5a2486080df8de1573496a9d1",
    "count_view": 0
  },
  {
    "link_thumb": "https://live.staticflickr.com/65535/51547076389_77d06bd8c0_n.jpg",
    "id_album": "-316663319",
    "description": "ANIME_PIC_b3da746dd559b9fa3e7e46329c85b895,[Girl],[isGirlAnime],[isCuteAnime],[isGirlsLoliAnime]",
    "title": "ANIME_PIC_b3da746dd559b9fa3e7e46329c85b895",
    "link_img": "https://live.staticflickr.com/65535/51547076389_22ef94d6cb_o.jpg",
    "id_image": "ANIME_PIC_b3da746dd559b9fa3e7e46329c85b895",
    "count_view": 0
  },
  {
    "link_thumb": "https://live.staticflickr.com/65535/51545553097_93951e29ff_n.jpg",
    "id_album": "-316663319",
    "description": "ANIME_PIC_b3dabf8c2b860695c797f9ffe27b57e8,[Girl],[isGirlAnime],[isCuteAnime]",
    "title": "ANIME_PIC_b3dabf8c2b860695c797f9ffe27b57e8",
    "link_img": "https://live.staticflickr.com/65535/51545553097_ba87c080df_o.png",
    "id_image": "ANIME_PIC_b3dabf8c2b860695c797f9ffe27b57e8",
    "count_view": 0
  },
  {
    "link_thumb": "https://live.staticflickr.com/65535/51545553557_070315de6c_n.jpg",
    "id_album": "-316663319",
    "description": "ANIME_PIC_b3db2fc14aed105aa7cf5752271dd370,[Girl],[isGirlAnime],[isCuteAnime],[isGirlsLoliAnime]",
    "title": "ANIME_PIC_b3db2fc14aed105aa7cf5752271dd370",
    "link_img": "https://live.staticflickr.com/65535/51545553557_5fed109d6b_o.jpg",
    "id_image": "ANIME_PIC_b3db2fc14aed105aa7cf5752271dd370",
    "count_view": 0
  },
  {
    "link_thumb": "https://live.staticflickr.com/65535/51545553907_a67b86a731_n.jpg",
    "id_album": "-316663319",
    "description": "ANIME_PIC_b3dfaf881f9f4b6bde9635902fb34f5c,[Girl],[isGirlAnime],[isCuteAnime],[isGirlsLoliAnime]",
    "title": "ANIME_PIC_b3dfaf881f9f4b6bde9635902fb34f5c",
    "link_img": "https://live.staticflickr.com/65535/51545553907_7a87bfc639_o.png",
    "id_image": "ANIME_PIC_b3dfaf881f9f4b6bde9635902fb34f5c",
    "count_view": 0
  },
  {
    "link_thumb": "https://live.staticflickr.com/65535/51545555387_86d1dd9c73_n.jpg",
    "id_album": "-316663319",
    "description": "ANIME_PIC_b3e19e6f8228619c88dee7023323e8ea,[Girl],[isGirlAnime],[isCuteAnime]",
    "title": "ANIME_PIC_b3e19e6f8228619c88dee7023323e8ea",
    "link_img": "https://live.staticflickr.com/65535/51545555387_deb7e63928_o.jpg",
    "id_image": "ANIME_PIC_b3e19e6f8228619c88dee7023323e8ea",
    "count_view": 0
  },
  {
    "link_thumb": "https://live.staticflickr.com/65535/51546597928_72e0515ef6_n.jpg",
    "id_album": "-316663319",
    "description": "ANIME_PIC_b3e3efb71cf7058cc446c3b65cc6f42e,[Girl],[isGirlAnime],[isCuteAnime]",
    "title": "ANIME_PIC_b3e3efb71cf7058cc446c3b65cc6f42e",
    "link_img": "https://live.staticflickr.com/65535/51546597928_cfb5cca374_o.jpg",
    "id_image": "ANIME_PIC_b3e3efb71cf7058cc446c3b65cc6f42e",
    "count_view": 0
  },
  {
    "link_thumb": "https://live.staticflickr.com/65535/51547277130_432e918bd9_n.jpg",
    "id_album": "-316663319",
    "description": "ANIME_PIC_b3ece29c92dc50fde38c9da0b7cb50de,[Girl],[isGirlAnime],[isCuteAnime],[isGirlsHatsHoodieAnime],[isGirlsLoliAnime]",
    "title": "ANIME_PIC_b3ece29c92dc50fde38c9da0b7cb50de",
    "link_img": "https://live.staticflickr.com/65535/51547277130_dd06a92c01_o.jpg",
    "id_image": "ANIME_PIC_b3ece29c92dc50fde38c9da0b7cb50de",
    "count_view": 0
  },
  {
    "link_thumb": "https://live.staticflickr.com/65535/51547079924_04d13e0e89_n.jpg",
    "id_album": "-316663319",
    "description": "ANIME_PIC_b3ee004237710a9c4ff54c10f65e1914,[Girl],[isGirlAnime],[isCuteAnime]",
    "title": "ANIME_PIC_b3ee004237710a9c4ff54c10f65e1914",
    "link_img": "https://live.staticflickr.com/65535/51547079924_7553183c93_o.jpg",
    "id_image": "ANIME_PIC_b3ee004237710a9c4ff54c10f65e1914",
    "count_view": 0
  },
  {
    "link_thumb": "https://live.staticflickr.com/65535/51547277835_1821052231_n.jpg",
    "id_album": "-316663319",
    "description": "ANIME_PIC_b3eee964664717a75271319fba03cc96,[Girl],[isGirlAnime],[isCuteAnime],[isGirlsHatsHoodieAnime],[isGirlsLoliAnime]",
    "title": "ANIME_PIC_b3eee964664717a75271319fba03cc96",
    "link_img": "https://live.staticflickr.com/65535/51547277835_78470152c8_o.jpg",
    "id_image": "ANIME_PIC_b3eee964664717a75271319fba03cc96",
    "count_view": 0
  },
  {
    "link_thumb": "https://live.staticflickr.com/65535/51545557117_c36fa0c8f6_n.jpg",
    "id_album": "-316663319",
    "description": "ANIME_PIC_b3ef1e06ac4a0da384998def6fa610dc,[Girl],[isBoyAnime],[isCoupleAnime],[isGirlAnime],[isCuteAnime]",
    "title": "ANIME_PIC_b3ef1e06ac4a0da384998def6fa610dc",
    "link_img": "https://live.staticflickr.com/65535/51545557117_17ca4396be_o.jpg",
    "id_image": "ANIME_PIC_b3ef1e06ac4a0da384998def6fa610dc",
    "count_view": 0
  },
  {
    "link_thumb": "https://live.staticflickr.com/65535/51546599803_9417a704aa_n.jpg",
    "id_album": "-316663319",
    "description": "ANIME_PIC_b3ef2bef00fe229fb83cb89bbb4315cd,[Girl],[isGirlAnime],[isCuteAnime]",
    "title": "ANIME_PIC_b3ef2bef00fe229fb83cb89bbb4315cd",
    "link_img": "https://live.staticflickr.com/65535/51546599803_a0cdea228c_o.jpg",
    "id_image": "ANIME_PIC_b3ef2bef00fe229fb83cb89bbb4315cd",
    "count_view": 0
  },
  {
    "link_thumb": "https://live.staticflickr.com/65535/51546600603_b57043c767_n.jpg",
    "id_album": "-316663319",
    "description": "ANIME_PIC_b3ef999165a952c8131fe091b6d07629,[Girl],[isGirlAnime],[isCuteAnime],[isGirlsLoliAnime]",
    "title": "ANIME_PIC_b3ef999165a952c8131fe091b6d07629",
    "link_img": "https://live.staticflickr.com/65535/51546600603_70bb7d7297_o.jpg",
    "id_image": "ANIME_PIC_b3ef999165a952c8131fe091b6d07629",
    "count_view": 0
  },
  {
    "link_thumb": "https://live.staticflickr.com/65535/51547279475_c34b51bca2_n.jpg",
    "id_album": "-316663319",
    "description": "ANIME_PIC_b3f142a01a76df6cf397f3d3f6c7fc6c,[Girl],[isGirlAnime],[isCuteAnime],[isGirlsHatsHoodieAnime],[isGirlsLoliAnime]",
    "title": "ANIME_PIC_b3f142a01a76df6cf397f3d3f6c7fc6c",
    "link_img": "https://live.staticflickr.com/65535/51547279475_8f80023fc3_o.jpg",
    "id_image": "ANIME_PIC_b3f142a01a76df6cf397f3d3f6c7fc6c",
    "count_view": 0
  },
  {
    "link_thumb": "https://live.staticflickr.com/65535/51547082129_70eedcffa0_n.jpg",
    "id_album": "-316663319",
    "description": "ANIME_PIC_b3f2fc9a5b0336ff2e6a181a157f2759,[Girl],[isGirlAnime],[isCuteAnime]",
    "title": "ANIME_PIC_b3f2fc9a5b0336ff2e6a181a157f2759",
    "link_img": "https://live.staticflickr.com/65535/51547082129_72204c6b9a_o.jpg",
    "id_image": "ANIME_PIC_b3f2fc9a5b0336ff2e6a181a157f2759",
    "count_view": 0
  },
  {
    "link_thumb": "https://live.staticflickr.com/65535/51545558952_fa5a8c0e6c_n.jpg",
    "id_album": "-316663319",
    "description": "ANIME_PIC_b3f8202487e94d1134d5e66e57e66671,[Girl],[isGirlAnime],[isCuteAnime],[isGirlsHornsAnime],[isSadAnimeGirl],[isSadAnime]",
    "title": "ANIME_PIC_b3f8202487e94d1134d5e66e57e66671",
    "link_img": "https://live.staticflickr.com/65535/51545558952_7658378e7c_o.jpg",
    "id_image": "ANIME_PIC_b3f8202487e94d1134d5e66e57e66671",
    "count_view": 0
  },
  {
    "link_thumb": "https://live.staticflickr.com/65535/51547082954_098a5552ef_n.jpg",
    "id_album": "-316663319",
    "description": "ANIME_PIC_b3f9c14de58fc9940f3d80e674661a8d,[Girl],[isGirlAnime],[isCuteAnime],[isGirlsHatsHoodieAnime]",
    "title": "ANIME_PIC_b3f9c14de58fc9940f3d80e674661a8d",
    "link_img": "https://live.staticflickr.com/65535/51547082954_a65df2eddf_o.jpg",
    "id_image": "ANIME_PIC_b3f9c14de58fc9940f3d80e674661a8d",
    "count_view": 0
  },
  {
    "link_thumb": "https://live.staticflickr.com/65535/51545559702_ab02252ffe_n.jpg",
    "id_album": "-316663319",
    "description": "ANIME_PIC_b3fa67401da78613b3c2cff0631f2e05,[Girl],[isGirlAnime],[isCuteAnime],[isGirlsHatsHoodieAnime],[isGirlsLoliAnime]",
    "title": "ANIME_PIC_b3fa67401da78613b3c2cff0631f2e05",
    "link_img": "https://live.staticflickr.com/65535/51545559702_d6714a1898_o.jpg",
    "id_image": "ANIME_PIC_b3fa67401da78613b3c2cff0631f2e05",
    "count_view": 0
  },
  {
    "link_thumb": "https://live.staticflickr.com/65535/51547083494_4e724a196f_n.jpg",
    "id_album": "-316663319",
    "description": "ANIME_PIC_b3fbcf0726941ea0a1d4b3bb0ce1e5fb,[Girl],[isGirlAnime],[isCuteAnime],[isGirlEarsNekoAnime],[isGirlsLoliAnime],[isSadAnimeGirl],[isGirlsSharpCanineToothAnime],[isSadAnime]",
    "title": "ANIME_PIC_b3fbcf0726941ea0a1d4b3bb0ce1e5fb",
    "link_img": "https://live.staticflickr.com/65535/51547083494_f1cced2310_o.png",
    "id_image": "ANIME_PIC_b3fbcf0726941ea0a1d4b3bb0ce1e5fb",
    "count_view": 0
  },
  {
    "link_thumb": "https://live.staticflickr.com/65535/51547083834_03690a9037_n.jpg",
    "id_album": "-316663319",
    "description": "ANIME_PIC_b3feb1bddc1bdc8bfca61128b0af2082,[Girl],[isGirlAnime],[isCuteAnime]",
    "title": "ANIME_PIC_b3feb1bddc1bdc8bfca61128b0af2082",
    "link_img": "https://live.staticflickr.com/65535/51547083834_9c26c34d98_o.jpg",
    "id_image": "ANIME_PIC_b3feb1bddc1bdc8bfca61128b0af2082",
    "count_view": 0
  },
  {
    "link_thumb": "https://live.staticflickr.com/65535/51547084144_538d68b81e_n.jpg",
    "id_album": "-316663319",
    "description": "ANIME_PIC_b3ffd4ad2eaf90d532288267295443d0,[Girl],[isGirlAnime],[isCuteAnime],[isSadAnimeGirl],[isSadAnime]",
    "title": "ANIME_PIC_b3ffd4ad2eaf90d532288267295443d0",
    "link_img": "https://live.staticflickr.com/65535/51547084144_723caa5219_o.png",
    "id_image": "ANIME_PIC_b3ffd4ad2eaf90d532288267295443d0",
    "count_view": 0
  },
  {
    "link_thumb": "https://live.staticflickr.com/65535/51545560942_3b890ae156_n.jpg",
    "id_album": "-316663319",
    "description": "ANIME_PIC_b405c7be2b7ef411edf0c09beef05c82,[Girl],[isGirlAnime],[isCuteAnime],[isGirlsHatsHoodieAnime]",
    "title": "ANIME_PIC_b405c7be2b7ef411edf0c09beef05c82",
    "link_img": "https://live.staticflickr.com/65535/51545560942_3d84a29f1c_o.jpg",
    "id_image": "ANIME_PIC_b405c7be2b7ef411edf0c09beef05c82",
    "count_view": 0
  },
  {
    "link_thumb": "https://live.staticflickr.com/65535/51546359511_f8bc4a46a4_n.jpg",
    "id_album": "-316663319",
    "description": "ANIME_PIC_b407ebac22ba9d2ab0021ac593d0274b,[Girl],[isGirlAnime],[isCuteAnime]",
    "title": "ANIME_PIC_b407ebac22ba9d2ab0021ac593d0274b",
    "link_img": "https://live.staticflickr.com/65535/51546359511_4b36478f20_o.jpg",
    "id_image": "ANIME_PIC_b407ebac22ba9d2ab0021ac593d0274b",
    "count_view": 0
  },
  {
    "link_thumb": "https://live.staticflickr.com/65535/51546604208_867145af31_n.jpg",
    "id_album": "-316663319",
    "description": "ANIME_PIC_b4118c78618d2a46e83b88843db78731,[Girl],[isGirlAnime],[isCuteAnime],[isGirlsLoliAnime]",
    "title": "ANIME_PIC_b4118c78618d2a46e83b88843db78731",
    "link_img": "https://live.staticflickr.com/65535/51546604208_d2a04f1062_o.jpg",
    "id_image": "ANIME_PIC_b4118c78618d2a46e83b88843db78731",
    "count_view": 0
  },
  {
    "link_thumb": "https://live.staticflickr.com/65535/51546604438_1bacaf4493_n.jpg",
    "id_album": "-316663319",
    "description": "ANIME_PIC_b41af32d8f6be1acbe61007c3b5aaf75,[Girl],[isGirlAnime],[isCuteAnime],[isGirlsHatsHoodieAnime],[isSadAnimeGirl],[isSadAnime]",
    "title": "ANIME_PIC_b41af32d8f6be1acbe61007c3b5aaf75",
    "link_img": "https://live.staticflickr.com/65535/51546604438_a36cc703e9_o.jpg",
    "id_image": "ANIME_PIC_b41af32d8f6be1acbe61007c3b5aaf75",
    "count_view": 0
  },
  {
    "link_thumb": "https://live.staticflickr.com/65535/51545562117_6b994ff795_n.jpg",
    "id_album": "-316663319",
    "description": "ANIME_PIC_b41e1a3cbf655ee62c88ad3c04d4e274,[Girl],[isGirlAnime],[isCuteAnime],[isGirlsHatsHoodieAnime],[isGirlsHornsAnime],[isGirlsSharpCanineToothAnime]",
    "title": "ANIME_PIC_b41e1a3cbf655ee62c88ad3c04d4e274",
    "link_img": "https://live.staticflickr.com/65535/51545562117_df3470ffb8_o.png",
    "id_image": "ANIME_PIC_b41e1a3cbf655ee62c88ad3c04d4e274",
    "count_view": 0
  },
  {
    "link_thumb": "https://live.staticflickr.com/65535/51546360941_e3c289b5e8_n.jpg",
    "id_album": "-316663319",
    "description": "ANIME_PIC_b41e4962135d6a4f07eca87d75281a80,[Girl],[isGirlAnime],[isGirlsLoliAnime],[isSadAnimeGirl],[isSadAnime]",
    "title": "ANIME_PIC_b41e4962135d6a4f07eca87d75281a80",
    "link_img": "https://live.staticflickr.com/65535/51546360941_d600960367_o.jpg",
    "id_image": "ANIME_PIC_b41e4962135d6a4f07eca87d75281a80",
    "count_view": 0
  },
  {
    "link_thumb": "https://live.staticflickr.com/65535/51546605458_a60f9908f0_n.jpg",
    "id_album": "-316663319",
    "description": "ANIME_PIC_b41f0b2ad7fd26e465607de6144a79d8,[Girl],[isGirlAnime],[isCuteAnime],[isGirlsHatsHoodieAnime],[isGirlsLoliAnime]",
    "title": "ANIME_PIC_b41f0b2ad7fd26e465607de6144a79d8",
    "link_img": "https://live.staticflickr.com/65535/51546605458_ba1c596d57_o.png",
    "id_image": "ANIME_PIC_b41f0b2ad7fd26e465607de6144a79d8",
    "count_view": 0
  },
  {
    "link_thumb": "https://live.staticflickr.com/65535/51545563587_917b58f429_n.jpg",
    "id_album": "-316663319",
    "description": "ANIME_PIC_b4208760d6e759d603b4331fcfe0c311,[Girl],[isGirlAnime],[isCuteAnime]",
    "title": "ANIME_PIC_b4208760d6e759d603b4331fcfe0c311",
    "link_img": "https://live.staticflickr.com/65535/51545563587_08bba84bd7_o.jpg",
    "id_image": "ANIME_PIC_b4208760d6e759d603b4331fcfe0c311",
    "count_view": 0
  },
  {
    "link_thumb": "https://live.staticflickr.com/65535/51545563882_0f001a11b7_n.jpg",
    "id_album": "-316663319",
    "description": "ANIME_PIC_b421d27228275f4968b2b5eefd2d78ac,[Girl],[isGirlAnime],[isCuteAnime],[isGirlsLoliAnime]",
    "title": "ANIME_PIC_b421d27228275f4968b2b5eefd2d78ac",
    "link_img": "https://live.staticflickr.com/65535/51545563882_6b1e9e58c7_o.png",
    "id_image": "ANIME_PIC_b421d27228275f4968b2b5eefd2d78ac",
    "count_view": 0
  },
  {
    "link_thumb": "https://live.staticflickr.com/65535/51547088374_99dce1db45_n.jpg",
    "id_album": "-316663319",
    "description": "ANIME_PIC_b427a1fac52a4aa9855fc953771def30,[Girl],[isGirlAnime],[isCuteAnime]",
    "title": "ANIME_PIC_b427a1fac52a4aa9855fc953771def30",
    "link_img": "https://live.staticflickr.com/65535/51547088374_db297e11b7_o.jpg",
    "id_image": "ANIME_PIC_b427a1fac52a4aa9855fc953771def30",
    "count_view": 0
  },
  {
    "link_thumb": "https://live.staticflickr.com/65535/51546363506_fe4a605e26_n.jpg",
    "id_album": "-316663319",
    "description": "ANIME_PIC_b429d6d5d8ad17cab1b0a492af92ce8c,[Girl],[isBoyAnime],[isGirlAnime],[isCuteAnime]",
    "title": "ANIME_PIC_b429d6d5d8ad17cab1b0a492af92ce8c",
    "link_img": "https://live.staticflickr.com/65535/51546363506_2b77f96bf1_o.jpg",
    "id_image": "ANIME_PIC_b429d6d5d8ad17cab1b0a492af92ce8c",
    "count_view": 0
  },
  {
    "link_thumb": "https://live.staticflickr.com/65535/51546607898_f446ac3453_n.jpg",
    "id_album": "-316663319",
    "description": "ANIME_PIC_b42aa2dcfb8100f564edc23d7afb4a40,[Girl],[isGirlAnime],[isCuteAnime],[isGirlsHatsHoodieAnime],[isGirlsLoliAnime]",
    "title": "ANIME_PIC_b42aa2dcfb8100f564edc23d7afb4a40",
    "link_img": "https://live.staticflickr.com/65535/51546607898_dc6c4256f8_o.jpg",
    "id_image": "ANIME_PIC_b42aa2dcfb8100f564edc23d7afb4a40",
    "count_view": 0
  },
  {
    "link_thumb": "https://live.staticflickr.com/65535/51547089434_130f4514fd_n.jpg",
    "id_album": "-316663319",
    "description": "ANIME_PIC_b42bce351f8af4a55c7eb9ddc9f2a901,[Girl],[isGirlAnime],[isCuteAnime],[isGirlsLoliAnime],[isSadAnimeGirl],[isSadAnime]",
    "title": "ANIME_PIC_b42bce351f8af4a55c7eb9ddc9f2a901",
    "link_img": "https://live.staticflickr.com/65535/51547089434_8faa9993e6_o.jpg",
    "id_image": "ANIME_PIC_b42bce351f8af4a55c7eb9ddc9f2a901",
    "count_view": 0
  },
  {
    "link_thumb": "https://live.staticflickr.com/65535/51547287200_ff9fa00f8d_n.jpg",
    "id_album": "-316663319",
    "description": "ANIME_PIC_b42c33ae7daf06e8bb4e442453c3d8e9,[Girl],[isGirlAnime],[isCuteAnime],[isGirlsLoliAnime]",
    "title": "ANIME_PIC_b42c33ae7daf06e8bb4e442453c3d8e9",
    "link_img": "https://live.staticflickr.com/65535/51547287200_a6e13cdcd8_o.jpg",
    "id_image": "ANIME_PIC_b42c33ae7daf06e8bb4e442453c3d8e9",
    "count_view": 0
  },
  {
    "link_thumb": "https://live.staticflickr.com/65535/51547287545_b5bb8d3967_n.jpg",
    "id_album": "-316663319",
    "description": "ANIME_PIC_b430d5c85092f23ee457d684ca20a955,[Girl],[isGirlAnime],[isCuteAnime],[isGirlEarsNekoAnime],[isGirlsLoliAnime]",
    "title": "ANIME_PIC_b430d5c85092f23ee457d684ca20a955",
    "link_img": "https://live.staticflickr.com/65535/51547287545_fb35909a34_o.jpg",
    "id_image": "ANIME_PIC_b430d5c85092f23ee457d684ca20a955",
    "count_view": 0
  },
  {
    "link_thumb": "https://live.staticflickr.com/65535/51545566697_9be339f6ed_n.jpg",
    "id_album": "-316663319",
    "description": "ANIME_PIC_b432222b9307ab59f065c801736788c6,[Girl],[isGirlAnime],[isCuteAnime],[isGirlsHatsHoodieAnime],[isGirlsLoliAnime]",
    "title": "ANIME_PIC_b432222b9307ab59f065c801736788c6",
    "link_img": "https://live.staticflickr.com/65535/51545566697_8f6eaccaa5_o.jpg",
    "id_image": "ANIME_PIC_b432222b9307ab59f065c801736788c6",
    "count_view": 0
  },
  {
    "link_thumb": "https://live.staticflickr.com/65535/51545567002_4a50a8d3dc_n.jpg",
    "id_album": "-316663319",
    "description": "ANIME_PIC_b433500f0e78ea6ce2022d7ddd772a6f,[Girl],[isGirlAnime],[isCuteAnime],[isGirlsLoliAnime],[isSadAnimeGirl],[isSadAnime]",
    "title": "ANIME_PIC_b433500f0e78ea6ce2022d7ddd772a6f",
    "link_img": "https://live.staticflickr.com/65535/51545567002_1674cfa36f_o.png",
    "id_image": "ANIME_PIC_b433500f0e78ea6ce2022d7ddd772a6f",
    "count_view": 0
  },
  {
    "link_thumb": "https://live.staticflickr.com/65535/51546365641_34d367acd4_n.jpg",
    "id_album": "-316663319",
    "description": "ANIME_PIC_b435a9210247493e2eaf39b340bea129,[Girl],[isGirlAnime],[isCuteAnime],[isGirlsLoliAnime],[isSadAnimeGirl],[isSadAnime]",
    "title": "ANIME_PIC_b435a9210247493e2eaf39b340bea129",
    "link_img": "https://live.staticflickr.com/65535/51546365641_473a2b3079_o.jpg",
    "id_image": "ANIME_PIC_b435a9210247493e2eaf39b340bea129",
    "count_view": 0
  },
  {
    "link_thumb": "https://live.staticflickr.com/65535/51546610338_6eb7af4ce2_n.jpg",
    "id_album": "-316663319",
    "description": "ANIME_PIC_b436e04f4a27e4a91bfb951b03faab87,[Girl],[isGirlAnime],[isCuteAnime]",
    "title": "ANIME_PIC_b436e04f4a27e4a91bfb951b03faab87",
    "link_img": "https://live.staticflickr.com/65535/51546610338_b89fb4229a_o.jpg",
    "id_image": "ANIME_PIC_b436e04f4a27e4a91bfb951b03faab87",
    "count_view": 0
  },
  {
    "link_thumb": "https://live.staticflickr.com/65535/51547092064_07c1105622_n.jpg",
    "id_album": "-316663319",
    "description": "ANIME_PIC_b4376a3d7e39c98c6488938a3922a16a,[Girl],[isGirlAnime],[isCuteAnime]",
    "title": "ANIME_PIC_b4376a3d7e39c98c6488938a3922a16a",
    "link_img": "https://live.staticflickr.com/65535/51547092064_5cc2e38c9f_o.jpg",
    "id_image": "ANIME_PIC_b4376a3d7e39c98c6488938a3922a16a",
    "count_view": 0
  },
  {
    "link_thumb": "https://live.staticflickr.com/65535/51545568482_8447f1ff82_n.jpg",
    "id_album": "-316663319",
    "description": "ANIME_PIC_b437f6f533ce94c03be3d54d8a90dcb5,[Girl],[isGirlAnime],[isCuteAnime]",
    "title": "ANIME_PIC_b437f6f533ce94c03be3d54d8a90dcb5",
    "link_img": "https://live.staticflickr.com/65535/51545568482_0331cbab1c_o.jpg",
    "id_image": "ANIME_PIC_b437f6f533ce94c03be3d54d8a90dcb5",
    "count_view": 0
  },
  {
    "link_thumb": "https://live.staticflickr.com/65535/51546366911_854769ed6f_n.jpg",
    "id_album": "-316663319",
    "description": "ANIME_PIC_b4387b298a2be6b3fff90a438d981c55,[Girl],[isGirlAnime],[isCuteAnime],[isGirlsLoliAnime],[isSadAnimeGirl],[isSadAnime]",
    "title": "ANIME_PIC_b4387b298a2be6b3fff90a438d981c55",
    "link_img": "https://live.staticflickr.com/65535/51546366911_838c4f6b3f_o.png",
    "id_image": "ANIME_PIC_b4387b298a2be6b3fff90a438d981c55",
    "count_view": 0
  },
  {
    "link_thumb": "https://live.staticflickr.com/65535/51545569267_566bc1310c_n.jpg",
    "id_album": "-316663319",
    "description": "ANIME_PIC_b4393a809bf62557c695d7d3d4eab6a7,[Girl],[isGirlAnime],[isCuteAnime]",
    "title": "ANIME_PIC_b4393a809bf62557c695d7d3d4eab6a7",
    "link_img": "https://live.staticflickr.com/65535/51545569267_e568aba7e8_o.jpg",
    "id_image": "ANIME_PIC_b4393a809bf62557c695d7d3d4eab6a7",
    "count_view": 0
  },
  {
    "link_thumb": "https://live.staticflickr.com/65535/51547093619_20b81e653c_n.jpg",
    "id_album": "-316663319",
    "description": "ANIME_PIC_b439dd33a0d5eea147d134c38dc92bd8,[Girl],[isGirlAnime],[isCuteAnime]",
    "title": "ANIME_PIC_b439dd33a0d5eea147d134c38dc92bd8",
    "link_img": "https://live.staticflickr.com/65535/51547093619_11a497665f_o.jpg",
    "id_image": "ANIME_PIC_b439dd33a0d5eea147d134c38dc92bd8",
    "count_view": 0
  },
  {
    "link_thumb": "https://live.staticflickr.com/65535/51547291065_d06bef5174_n.jpg",
    "id_album": "-316663319",
    "description": "ANIME_PIC_b43c361e7c1e8f3827eb5e4673430d3b,[Girl],[isGirlAnime],[isCuteAnime],[isGirlsLoliAnime],[isSadAnimeGirl],[isSadAnime]",
    "title": "ANIME_PIC_b43c361e7c1e8f3827eb5e4673430d3b",
    "link_img": "https://live.staticflickr.com/65535/51547291065_778eb93632_o.jpg",
    "id_image": "ANIME_PIC_b43c361e7c1e8f3827eb5e4673430d3b",
    "count_view": 0
  },
  {
    "link_thumb": "https://live.staticflickr.com/65535/51545570387_d0e3b75394_n.jpg",
    "id_album": "-316663319",
    "description": "ANIME_PIC_b43c899ecb2888bef109babca33bc379,[Girl],[isGirlAnime],[isCuteAnime],[isGirlEarsNekoAnime]",
    "title": "ANIME_PIC_b43c899ecb2888bef109babca33bc379",
    "link_img": "https://live.staticflickr.com/65535/51545570387_9c1c7b262b_o.png",
    "id_image": "ANIME_PIC_b43c899ecb2888bef109babca33bc379",
    "count_view": 0
  },
  {
    "link_thumb": "https://live.staticflickr.com/65535/51545570747_51774842fb_n.jpg",
    "id_album": "-316663319",
    "description": "ANIME_PIC_b43da1011a59a45db34e157767ce60d4,[Girl],[isGirlAnime],[isCuteAnime],[isGirlEarsNekoAnime],[isGirlsHornsAnime],[isGirlsLoliAnime]",
    "title": "ANIME_PIC_b43da1011a59a45db34e157767ce60d4",
    "link_img": "https://live.staticflickr.com/65535/51545570747_ea62e60ab8_o.png",
    "id_image": "ANIME_PIC_b43da1011a59a45db34e157767ce60d4",
    "count_view": 0
  },
  {
    "link_thumb": "https://live.staticflickr.com/65535/51545571237_b6c1b24b86_n.jpg",
    "id_album": "-316663319",
    "description": "ANIME_PIC_b43fea646b42ad3a70000c00aa114b02,[Girl],[isGirlAnime],[isCuteAnime],[isGirlsLoliAnime]",
    "title": "ANIME_PIC_b43fea646b42ad3a70000c00aa114b02",
    "link_img": "https://live.staticflickr.com/65535/51545571237_f6080e74e5_o.jpg",
    "id_image": "ANIME_PIC_b43fea646b42ad3a70000c00aa114b02",
    "count_view": 0
  },
  {
    "link_thumb": "https://live.staticflickr.com/65535/51545571672_8d34492f74_n.jpg",
    "id_album": "-316663319",
    "description": "ANIME_PIC_b4479724695365bc26461a1bf56c24f6,[Girl],[isGirlAnime],[isCuteAnime],[isGirlsLoliAnime]",
    "title": "ANIME_PIC_b4479724695365bc26461a1bf56c24f6",
    "link_img": "https://live.staticflickr.com/65535/51545571672_e43cdca4c9_o.jpg",
    "id_image": "ANIME_PIC_b4479724695365bc26461a1bf56c24f6",
    "count_view": 0
  },
  {
    "link_thumb": "https://live.staticflickr.com/65535/51546370001_83d3916248_n.jpg",
    "id_album": "-316663319",
    "description": "ANIME_PIC_b44a422f62e48879e7c165c2752b7e01,[Girl],[isGirlAnime],[isCuteAnime],[isGirlEarsNekoAnime],[isSadAnimeGirl],[isSadAnime]",
    "title": "ANIME_PIC_b44a422f62e48879e7c165c2752b7e01",
    "link_img": "https://live.staticflickr.com/65535/51546370001_b04b1640ea_o.jpg",
    "id_image": "ANIME_PIC_b44a422f62e48879e7c165c2752b7e01",
    "count_view": 0
  },
  {
    "link_thumb": "https://live.staticflickr.com/65535/51547293400_38e3c180ac_n.jpg",
    "id_album": "-316663319",
    "description": "ANIME_PIC_b44ce3067ff7ff1ee500acb9522fd33e,[Girl],[isBoyAnime],[isGirlAnime],[isCuteAnime]",
    "title": "ANIME_PIC_b44ce3067ff7ff1ee500acb9522fd33e",
    "link_img": "https://live.staticflickr.com/65535/51547293400_efd89a00a9_o.jpg",
    "id_image": "ANIME_PIC_b44ce3067ff7ff1ee500acb9522fd33e",
    "count_view": 0
  },
  {
    "link_thumb": "https://live.staticflickr.com/65535/51546370686_7f3d5c4ff9_n.jpg",
    "id_album": "-316663319",
    "description": "ANIME_PIC_b44e8770284331b433fcfef6e1a0d69c,[Girl],[isGirlAnime],[isCuteAnime]",
    "title": "ANIME_PIC_b44e8770284331b433fcfef6e1a0d69c",
    "link_img": "https://live.staticflickr.com/65535/51546370686_65d335ac88_o.jpg",
    "id_image": "ANIME_PIC_b44e8770284331b433fcfef6e1a0d69c",
    "count_view": 0
  },
  {
    "link_thumb": "https://live.staticflickr.com/65535/51546371051_8c7b479bcc_n.jpg",
    "id_album": "-316663319",
    "description": "ANIME_PIC_b4500e1991f80b36e671b1939e939292,[Girl],[isGirlAnime],[isCuteAnime]",
    "title": "ANIME_PIC_b4500e1991f80b36e671b1939e939292",
    "link_img": "https://live.staticflickr.com/65535/51546371051_1b02fed360_o.jpg",
    "id_image": "ANIME_PIC_b4500e1991f80b36e671b1939e939292",
    "count_view": 0
  },
  {
    "link_thumb": "https://live.staticflickr.com/65535/51546615863_5534c23d27_n.jpg",
    "id_album": "-316663319",
    "description": "ANIME_PIC_b4571d763ab516b139142647d8b86319,[Girl],[isGirlAnime],[isCuteAnime],[isSadAnimeGirl],[isSadAnime]",
    "title": "ANIME_PIC_b4571d763ab516b139142647d8b86319",
    "link_img": "https://live.staticflickr.com/65535/51546615863_12665ef1d6_o.jpg",
    "id_image": "ANIME_PIC_b4571d763ab516b139142647d8b86319",
    "count_view": 0
  },
  {
    "link_thumb": "https://live.staticflickr.com/65535/51547294855_773d52ddcb_n.jpg",
    "id_album": "-316663319",
    "description": "ANIME_PIC_b458fd608b0da292e76f40535c28a5c7,[Girl],[isGirlAnime],[isGirlsLoliAnime]",
    "title": "ANIME_PIC_b458fd608b0da292e76f40535c28a5c7",
    "link_img": "https://live.staticflickr.com/65535/51547294855_29bb318ed2_o.jpg",
    "id_image": "ANIME_PIC_b458fd608b0da292e76f40535c28a5c7",
    "count_view": 0
  },
  {
    "link_thumb": "https://live.staticflickr.com/65535/51546616708_0380c809f7_n.jpg",
    "id_album": "-316663319",
    "description": "ANIME_PIC_b4594be33791b17a6a11c5fdc2e17b28,[Girl],[isGirlAnime],[isCuteAnime],[isSadAnimeGirl],[isSadAnime]",
    "title": "ANIME_PIC_b4594be33791b17a6a11c5fdc2e17b28",
    "link_img": "https://live.staticflickr.com/65535/51546616708_525314703e_o.png",
    "id_image": "ANIME_PIC_b4594be33791b17a6a11c5fdc2e17b28",
    "count_view": 0
  },
  {
    "link_thumb": "https://live.staticflickr.com/65535/51547296170_72aa7fe8be_n.jpg",
    "id_album": "-316663319",
    "description": "ANIME_PIC_b45aae9e8adfd7af1231ea295cf0b71a,[Girl],[isGirlAnime],[isCuteAnime],[isGirlsLoliAnime]",
    "title": "ANIME_PIC_b45aae9e8adfd7af1231ea295cf0b71a",
    "link_img": "https://live.staticflickr.com/65535/51547296170_bd814eebfc_o.jpg",
    "id_image": "ANIME_PIC_b45aae9e8adfd7af1231ea295cf0b71a",
    "count_view": 0
  },
  {
    "link_thumb": "https://live.staticflickr.com/65535/51546373601_b02645e09d_n.jpg",
    "id_album": "-316663319",
    "description": "ANIME_PIC_b45bf6da01fb985f51525bb1c3fe4e6f,[Girl],[isGirlAnime],[isCuteAnime],[isGirlsHatsHoodieAnime],[isSadAnimeGirl],[isSadAnime]",
    "title": "ANIME_PIC_b45bf6da01fb985f51525bb1c3fe4e6f",
    "link_img": "https://live.staticflickr.com/65535/51546373601_6591759fa8_o.jpg",
    "id_image": "ANIME_PIC_b45bf6da01fb985f51525bb1c3fe4e6f",
    "count_view": 0
  },
  {
    "link_thumb": "https://live.staticflickr.com/65535/51546373981_c0148580e2_n.jpg",
    "id_album": "-316663319",
    "description": "ANIME_PIC_b45d8b48f76ab270198d9ab8667acc59,[Girl],[isGirlAnime],[isCuteAnime],[isGirlsHatsHoodieAnime],[isGirlsLoliAnime]",
    "title": "ANIME_PIC_b45d8b48f76ab270198d9ab8667acc59",
    "link_img": "https://live.staticflickr.com/65535/51546373981_5eea096a75_o.png",
    "id_image": "ANIME_PIC_b45d8b48f76ab270198d9ab8667acc59",
    "count_view": 0
  },
  {
    "link_thumb": "https://live.staticflickr.com/65535/51546375626_9e15d5654a_n.jpg",
    "id_album": "-316663319",
    "description": "ANIME_PIC_b461a29504ef3de553bacd6c42dc784c,[Girl],[isGirlAnime],[isCuteAnime],[isGirlsLoliAnime]",
    "title": "ANIME_PIC_b461a29504ef3de553bacd6c42dc784c",
    "link_img": "https://live.staticflickr.com/65535/51546375626_f8fa8d3e33_o.png",
    "id_image": "ANIME_PIC_b461a29504ef3de553bacd6c42dc784c",
    "count_view": 0
  },
  {
    "link_thumb": "https://live.staticflickr.com/65535/51547102299_6430106879_n.jpg",
    "id_album": "-316663319",
    "description": "ANIME_PIC_b462bd568e1b6e28bc7d63017fc8f541,[Girl],[isGirlAnime],[isCuteAnime],[isSadAnimeGirl],[isSadAnime]",
    "title": "ANIME_PIC_b462bd568e1b6e28bc7d63017fc8f541",
    "link_img": "https://live.staticflickr.com/65535/51547102299_71bd1f5b03_o.png",
    "id_image": "ANIME_PIC_b462bd568e1b6e28bc7d63017fc8f541",
    "count_view": 0
  },
  {
    "link_thumb": "https://live.staticflickr.com/65535/51547102814_174dbe1b80_n.jpg",
    "id_album": "-316663319",
    "description": "ANIME_PIC_b46438ff386269123c9c373bbdd2cb83,[Girl],[isGirlAnime],[isCuteAnime],[isGirlsHatsHoodieAnime],[isGirlsLoliAnime]",
    "title": "ANIME_PIC_b46438ff386269123c9c373bbdd2cb83",
    "link_img": "https://live.staticflickr.com/65535/51547102814_7275868bf5_o.jpg",
    "id_image": "ANIME_PIC_b46438ff386269123c9c373bbdd2cb83",
    "count_view": 0
  },
  {
    "link_thumb": "https://live.staticflickr.com/65535/51546377111_b842b3141b_n.jpg",
    "id_album": "-316663319",
    "description": "ANIME_PIC_b46447ed5b611a8658aa4798692d451f,[Girl],[isGirlAnime],[isCuteAnime],[isGirlsLoliAnime]",
    "title": "ANIME_PIC_b46447ed5b611a8658aa4798692d451f",
    "link_img": "https://live.staticflickr.com/65535/51546377111_561a29d0a8_o.jpg",
    "id_image": "ANIME_PIC_b46447ed5b611a8658aa4798692d451f",
    "count_view": 0
  },
  {
    "link_thumb": "https://live.staticflickr.com/65535/51547103519_68d39f725a_n.jpg",
    "id_album": "-316663319",
    "description": "ANIME_PIC_b4645f61f8a8cfd1d435c00ca628f8bd,[Girl],[isGirlAnime],[isCuteAnime],[isSadAnimeGirl],[isSadAnime]",
    "title": "ANIME_PIC_b4645f61f8a8cfd1d435c00ca628f8bd",
    "link_img": "https://live.staticflickr.com/65535/51547103519_1761d3f743_o.jpg",
    "id_image": "ANIME_PIC_b4645f61f8a8cfd1d435c00ca628f8bd",
    "count_view": 0
  },
  {
    "link_thumb": "https://live.staticflickr.com/65535/51545580082_b8e0a540cf_n.jpg",
    "id_album": "-316663319",
    "description": "ANIME_PIC_b465183e6cfc8c7e8c3799f09895208f,[Girl],[isGirlAnime],[isCuteAnime],[isGirlsLoliAnime],[isSadAnimeGirl],[isSadAnime]",
    "title": "ANIME_PIC_b465183e6cfc8c7e8c3799f09895208f",
    "link_img": "https://live.staticflickr.com/65535/51545580082_a0f316f38f_o.png",
    "id_image": "ANIME_PIC_b465183e6cfc8c7e8c3799f09895208f",
    "count_view": 0
  },
  {
    "link_thumb": "https://live.staticflickr.com/65535/51547104309_89419df1f4_n.jpg",
    "id_album": "-316663319",
    "description": "ANIME_PIC_b4658e27333ccb8612217ebff0a19a25,[Girl],[isGirlAnime],[isCuteAnime],[isGirlsHatsHoodieAnime],[isGirlsLoliAnime]",
    "title": "ANIME_PIC_b4658e27333ccb8612217ebff0a19a25",
    "link_img": "https://live.staticflickr.com/65535/51547104309_9d1f08c8f4_o.jpg",
    "id_image": "ANIME_PIC_b4658e27333ccb8612217ebff0a19a25",
    "count_view": 0
  },
  {
    "link_thumb": "https://live.staticflickr.com/65535/51547301810_7b9d2afff3_n.jpg",
    "id_album": "-316663319",
    "description": "ANIME_PIC_b46e9dbc3b768cd72bed52388d51a613,[Girl],[isGirlAnime],[isCuteAnime],[isGirlsLoliAnime],[isGirlsSharpCanineToothAnime]",
    "title": "ANIME_PIC_b46e9dbc3b768cd72bed52388d51a613",
    "link_img": "https://live.staticflickr.com/65535/51547301810_18b95a0ed5_o.jpg",
    "id_image": "ANIME_PIC_b46e9dbc3b768cd72bed52388d51a613",
    "count_view": 0
  },
  {
    "link_thumb": "https://live.staticflickr.com/65535/51547302190_39d1e8bedd_n.jpg",
    "id_album": "-316663319",
    "description": "ANIME_PIC_b47852d765601e4673b8f7edf9fa4626,[Girl],[isGirlAnime],[isCuteAnime]",
    "title": "ANIME_PIC_b47852d765601e4673b8f7edf9fa4626",
    "link_img": "https://live.staticflickr.com/65535/51547302190_58349877c3_o.png",
    "id_image": "ANIME_PIC_b47852d765601e4673b8f7edf9fa4626",
    "count_view": 0
  },
  {
    "link_thumb": "https://live.staticflickr.com/65535/51546624088_0f47d6049b_n.jpg",
    "id_album": "-316663319",
    "description": "ANIME_PIC_b47a1d9825042aa6df043b3d79ed3480,[Girl],[isGirlAnime],[isCuteAnime],[isGirlsLoliAnime]",
    "title": "ANIME_PIC_b47a1d9825042aa6df043b3d79ed3480",
    "link_img": "https://live.staticflickr.com/65535/51546624088_1751d19548_o.jpg",
    "id_image": "ANIME_PIC_b47a1d9825042aa6df043b3d79ed3480",
    "count_view": 0
  },
  {
    "link_thumb": "https://live.staticflickr.com/65535/51547302965_b73bd4a27d_n.jpg",
    "id_album": "-316663319",
    "description": "ANIME_PIC_b47a620b0e9cc06926153fd83a47d723,[Girl],[isGirlAnime],[isCuteAnime],[isGirlsHatsHoodieAnime]",
    "title": "ANIME_PIC_b47a620b0e9cc06926153fd83a47d723",
    "link_img": "https://live.staticflickr.com/65535/51547302965_edb213ffa3_o.jpg",
    "id_image": "ANIME_PIC_b47a620b0e9cc06926153fd83a47d723",
    "count_view": 0
  },
  {
    "link_thumb": "https://live.staticflickr.com/65535/51546380231_9d966eb270_n.jpg",
    "id_album": "-316663319",
    "description": "ANIME_PIC_b47fc7e3b3e3c2aed0257c0d30c34f4a,[Girl],[isGirlAnime],[isCuteAnime],[isGirlsLoliAnime],[isSadAnimeGirl],[isSadAnime]",
    "title": "ANIME_PIC_b47fc7e3b3e3c2aed0257c0d30c34f4a",
    "link_img": "https://live.staticflickr.com/65535/51546380231_34de410337_o.png",
    "id_image": "ANIME_PIC_b47fc7e3b3e3c2aed0257c0d30c34f4a",
    "count_view": 0
  },
  {
    "link_thumb": "https://live.staticflickr.com/65535/51545582942_58a2494ac2_n.jpg",
    "id_album": "-316663319",
    "description": "ANIME_PIC_b481d926da6093a2f0b69a0571611880,[Girl],[isGirlAnime],[isCuteAnime],[isGirlsLoliAnime],[isSadAnimeGirl],[isSadAnime]",
    "title": "ANIME_PIC_b481d926da6093a2f0b69a0571611880",
    "link_img": "https://live.staticflickr.com/65535/51545582942_6af7bf6d55_o.jpg",
    "id_image": "ANIME_PIC_b481d926da6093a2f0b69a0571611880",
    "count_view": 0
  },
  {
    "link_thumb": "https://live.staticflickr.com/65535/51546625668_d6fd3445be_n.jpg",
    "id_album": "-316663319",
    "description": "ANIME_PIC_b481e0eec24ae4558ad271acdd42b545,[Girl],[isGirlAnime],[isCuteAnime]",
    "title": "ANIME_PIC_b481e0eec24ae4558ad271acdd42b545",
    "link_img": "https://live.staticflickr.com/65535/51546625668_d83aeff7dd_o.jpg",
    "id_image": "ANIME_PIC_b481e0eec24ae4558ad271acdd42b545",
    "count_view": 0
  },
  {
    "link_thumb": "https://live.staticflickr.com/65535/51547107684_ea3a00bf9c_n.jpg",
    "id_album": "-316663319",
    "description": "ANIME_PIC_b48286456f6c754698a4978ca65badfc,[Girl],[isGirlAnime],[isCuteAnime]",
    "title": "ANIME_PIC_b48286456f6c754698a4978ca65badfc",
    "link_img": "https://live.staticflickr.com/65535/51547107684_c328b40928_o.jpg",
    "id_image": "ANIME_PIC_b48286456f6c754698a4978ca65badfc",
    "count_view": 0
  },
  {
    "link_thumb": "https://live.staticflickr.com/65535/51546626448_67996755fa_n.jpg",
    "id_album": "-316663319",
    "description": "ANIME_PIC_b483cf9717d1de58c953361eb1fd255e,[Girl],[isGirlAnime],[isCuteAnime],[isGirlsLoliAnime]",
    "title": "ANIME_PIC_b483cf9717d1de58c953361eb1fd255e",
    "link_img": "https://live.staticflickr.com/65535/51546626448_a7b6f95ed8_o.jpg",
    "id_image": "ANIME_PIC_b483cf9717d1de58c953361eb1fd255e",
    "count_view": 0
  },
  {
    "link_thumb": "https://live.staticflickr.com/65535/51546626973_9bee5e094a_n.jpg",
    "id_album": "-316663319",
    "description": "ANIME_PIC_b4864c4a9a982c8161588d1d5ae89a4d,[Girl],[isGirlAnime],[isCuteAnime],[isSadAnimeGirl],[isSadAnime]",
    "title": "ANIME_PIC_b4864c4a9a982c8161588d1d5ae89a4d",
    "link_img": "https://live.staticflickr.com/65535/51546626973_0ff10bb216_o.jpg",
    "id_image": "ANIME_PIC_b4864c4a9a982c8161588d1d5ae89a4d",
    "count_view": 0
  },
  {
    "link_thumb": "https://live.staticflickr.com/65535/51546382421_fedf38b659_n.jpg",
    "id_album": "-316663319",
    "description": "ANIME_PIC_b486d08b5b50f127f3ce26ab2f79d602,[Girl],[isGirlAnime],[isCuteAnime],[isGirlsHatsHoodieAnime],[isGirlsLoliAnime]",
    "title": "ANIME_PIC_b486d08b5b50f127f3ce26ab2f79d602",
    "link_img": "https://live.staticflickr.com/65535/51546382421_2737c4a79a_o.jpg",
    "id_image": "ANIME_PIC_b486d08b5b50f127f3ce26ab2f79d602",
    "count_view": 0
  },
  {
    "link_thumb": "https://live.staticflickr.com/65535/51547305920_e5bbd5aa31_n.jpg",
    "id_album": "-316663319",
    "description": "ANIME_PIC_b48800982740ead9c4bf158e28d8a10d,[Girl],[isGirlAnime],[isCuteAnime]",
    "title": "ANIME_PIC_b48800982740ead9c4bf158e28d8a10d",
    "link_img": "https://live.staticflickr.com/65535/51547305920_398405efed_o.png",
    "id_image": "ANIME_PIC_b48800982740ead9c4bf158e28d8a10d",
    "count_view": 0
  },
  {
    "link_thumb": "https://live.staticflickr.com/65535/51545585512_e26b266c24_n.jpg",
    "id_album": "-316663319",
    "description": "ANIME_PIC_b488c79514e0b0857d598fd7c88c0aa4,[Girl],[isGirlAnime],[isSadAnimeGirl],[isSadAnime]",
    "title": "ANIME_PIC_b488c79514e0b0857d598fd7c88c0aa4",
    "link_img": "https://live.staticflickr.com/65535/51545585512_68e7f16664_o.jpg",
    "id_image": "ANIME_PIC_b488c79514e0b0857d598fd7c88c0aa4",
    "count_view": 0
  },
  {
    "link_thumb": "https://live.staticflickr.com/65535/51545585767_c102aec16e_n.jpg",
    "id_album": "-316663319",
    "description": "ANIME_PIC_b48a935358b71d74657b0e54681fc2a0,[Girl],[isGirlAnime],[isCuteAnime],[isGirlsLoliAnime],[isSadAnimeGirl],[isSadAnime]",
    "title": "ANIME_PIC_b48a935358b71d74657b0e54681fc2a0",
    "link_img": "https://live.staticflickr.com/65535/51545585767_c37ef4767e_o.jpg",
    "id_image": "ANIME_PIC_b48a935358b71d74657b0e54681fc2a0",
    "count_view": 0
  },
  {
    "link_thumb": "https://live.staticflickr.com/65535/51546628663_3da2763c80_n.jpg",
    "id_album": "-316663319",
    "description": "ANIME_PIC_b491fefef60a58d0e5b7ae7701d7e7b0,[Girl],[isGirlAnime],[isCuteAnime]",
    "title": "ANIME_PIC_b491fefef60a58d0e5b7ae7701d7e7b0",
    "link_img": "https://live.staticflickr.com/65535/51546628663_195d81a266_o.png",
    "id_image": "ANIME_PIC_b491fefef60a58d0e5b7ae7701d7e7b0",
    "count_view": 0
  },
  {
    "link_thumb": "https://live.staticflickr.com/65535/51546384181_d5d3efa5c0_n.jpg",
    "id_album": "-316663319",
    "description": "ANIME_PIC_b49516a78121a54ff52b9312921327ca,[Girl],[isGirlAnime],[isCuteAnime],[isGirlsHatsHoodieAnime]",
    "title": "ANIME_PIC_b49516a78121a54ff52b9312921327ca",
    "link_img": "https://live.staticflickr.com/65535/51546384181_6ce925917a_o.png",
    "id_image": "ANIME_PIC_b49516a78121a54ff52b9312921327ca",
    "count_view": 0
  },
  {
    "link_thumb": "https://live.staticflickr.com/65535/51546629863_2d67c7d055_n.jpg",
    "id_album": "-316663319",
    "description": "ANIME_PIC_b49fd408dbccf10a239f060c0ca40f69,[Girl],[isGirlAnime],[isCuteAnime],[isGirlEarsNekoAnime],[isGirlsLoliAnime]",
    "title": "ANIME_PIC_b49fd408dbccf10a239f060c0ca40f69",
    "link_img": "https://live.staticflickr.com/65535/51546629863_c1ddd56eac_o.jpg",
    "id_image": "ANIME_PIC_b49fd408dbccf10a239f060c0ca40f69",
    "count_view": 0
  },
  {
    "link_thumb": "https://live.staticflickr.com/65535/51547308875_ec59e8ae2f_n.jpg",
    "id_album": "-316663319",
    "description": "ANIME_PIC_b4a44f25ab0750a3b91bfa36e42de74f,[Girl],[isGirlAnime],[isCuteAnime]",
    "title": "ANIME_PIC_b4a44f25ab0750a3b91bfa36e42de74f",
    "link_img": "https://live.staticflickr.com/65535/51547308875_4d427db883_o.jpg",
    "id_image": "ANIME_PIC_b4a44f25ab0750a3b91bfa36e42de74f",
    "count_view": 0
  },
  {
    "link_thumb": "https://live.staticflickr.com/65535/51547112024_73f4386777_n.jpg",
    "id_album": "-316663319",
    "description": "ANIME_PIC_b4a7b9f68bd73b77622fe81c1d1fecd6,[Girl],[isGirlAnime],[isCuteAnime],[isGirlsHatsHoodieAnime],[isGirlsLoliAnime]",
    "title": "ANIME_PIC_b4a7b9f68bd73b77622fe81c1d1fecd6",
    "link_img": "https://live.staticflickr.com/65535/51547112024_ce42075a20_o.jpg",
    "id_image": "ANIME_PIC_b4a7b9f68bd73b77622fe81c1d1fecd6",
    "count_view": 0
  },
  {
    "link_thumb": "https://live.staticflickr.com/65535/51547309780_26d5b9d439_n.jpg",
    "id_album": "-316663319",
    "description": "ANIME_PIC_b4ab3135eb81abda5b929ddf94d5d159,[Girl],[isGirlAnime],[isCuteAnime],[isGirlsLoliAnime]",
    "title": "ANIME_PIC_b4ab3135eb81abda5b929ddf94d5d159",
    "link_img": "https://live.staticflickr.com/65535/51547309780_a342a0f0bd_o.jpg",
    "id_image": "ANIME_PIC_b4ab3135eb81abda5b929ddf94d5d159",
    "count_view": 0
  },
  {
    "link_thumb": "https://live.staticflickr.com/65535/51547310105_631280d731_n.jpg",
    "id_album": "-316663319",
    "description": "ANIME_PIC_b4ab3b9f5f260fe749d2f457971b7d91,[Girl],[isGirlAnime],[isCuteAnime],[isGirlsLoliAnime]",
    "title": "ANIME_PIC_b4ab3b9f5f260fe749d2f457971b7d91",
    "link_img": "https://live.staticflickr.com/65535/51547310105_e7e9d2a0ea_o.jpg",
    "id_image": "ANIME_PIC_b4ab3b9f5f260fe749d2f457971b7d91",
    "count_view": 0
  },
  {
    "link_thumb": "https://live.staticflickr.com/65535/51546387151_8223f488b8_n.jpg",
    "id_album": "-316663319",
    "description": "ANIME_PIC_b4acdebefbbd155869900a7aa93c3b3a,[Girl],[isGirlAnime],[isCuteAnime],[isGirlEarsNekoAnime]",
    "title": "ANIME_PIC_b4acdebefbbd155869900a7aa93c3b3a",
    "link_img": "https://live.staticflickr.com/65535/51546387151_0af7bc87c1_o.jpg",
    "id_image": "ANIME_PIC_b4acdebefbbd155869900a7aa93c3b3a",
    "count_view": 0
  },
  {
    "link_thumb": "https://live.staticflickr.com/65535/51547113564_8d61f641ce_n.jpg",
    "id_album": "-316663319",
    "description": "ANIME_PIC_b4ad72c6b6b687fcd03976c44fb049e9,[Girl],[isGirlAnime],[isCuteAnime]",
    "title": "ANIME_PIC_b4ad72c6b6b687fcd03976c44fb049e9",
    "link_img": "https://live.staticflickr.com/65535/51547113564_da295f3a6a_o.png",
    "id_image": "ANIME_PIC_b4ad72c6b6b687fcd03976c44fb049e9",
    "count_view": 0
  },
  {
    "link_thumb": "https://live.staticflickr.com/65535/51546388111_03f5e11a0a_n.jpg",
    "id_album": "-316663319",
    "description": "ANIME_PIC_b4b1713cb5f8680f9a39b9c05aa2e9aa,[Girl],[isGirlAnime],[isCuteAnime],[isSadAnimeGirl],[isSadAnime]",
    "title": "ANIME_PIC_b4b1713cb5f8680f9a39b9c05aa2e9aa",
    "link_img": "https://live.staticflickr.com/65535/51546388111_9411fe8b74_o.png",
    "id_image": "ANIME_PIC_b4b1713cb5f8680f9a39b9c05aa2e9aa",
    "count_view": 0
  },
  {
    "link_thumb": "https://live.staticflickr.com/65535/51545591287_feb0cdde0a_n.jpg",
    "id_album": "-316663319",
    "description": "ANIME_PIC_b4b2ade08b0cca78ab6c797a0d54e3af,[Girl],[isGirlAnime],[isCuteAnime],[isBlackAnime],[isGirlsLoliAnime]",
    "title": "ANIME_PIC_b4b2ade08b0cca78ab6c797a0d54e3af",
    "link_img": "https://live.staticflickr.com/65535/51545591287_f09d657853_o.jpg",
    "id_image": "ANIME_PIC_b4b2ade08b0cca78ab6c797a0d54e3af",
    "count_view": 0
  },
  {
    "link_thumb": "https://live.staticflickr.com/65535/51546633838_b4f9c30ac7_n.jpg",
    "id_album": "-316663319",
    "description": "ANIME_PIC_b4b4709f3436cb4aa2747eda69a63baa,[Girl],[isGirlAnime],[isCuteAnime],[isGirlsLoliAnime]",
    "title": "ANIME_PIC_b4b4709f3436cb4aa2747eda69a63baa",
    "link_img": "https://live.staticflickr.com/65535/51546633838_3c6c049efb_o.png",
    "id_image": "ANIME_PIC_b4b4709f3436cb4aa2747eda69a63baa",
    "count_view": 0
  },
  {
    "link_thumb": "https://live.staticflickr.com/65535/51547115269_cdd2cd6f8a_n.jpg",
    "id_album": "-316663319",
    "description": "ANIME_PIC_b4b4cbaf9ea2c69f82f5a26046bdc7ed,[Girl],[isGirlAnime],[isCuteAnime],[isGirlsHatsHoodieAnime],[isSadAnimeGirl],[isSadAnime]",
    "title": "ANIME_PIC_b4b4cbaf9ea2c69f82f5a26046bdc7ed",
    "link_img": "https://live.staticflickr.com/65535/51547115269_f9395f5390_o.jpg",
    "id_image": "ANIME_PIC_b4b4cbaf9ea2c69f82f5a26046bdc7ed",
    "count_view": 0
  },
  {
    "link_thumb": "https://live.staticflickr.com/65535/51546389716_85841fa634_n.jpg",
    "id_album": "-316663319",
    "description": "ANIME_PIC_b4ba30fb45fbaafc1c06be5cd4da870a,[Girl],[isGirlAnime],[isCuteAnime],[isGirlsHatsHoodieAnime],[isGirlsLoliAnime]",
    "title": "ANIME_PIC_b4ba30fb45fbaafc1c06be5cd4da870a",
    "link_img": "https://live.staticflickr.com/65535/51546389716_95f3fcd2a8_o.jpg",
    "id_image": "ANIME_PIC_b4ba30fb45fbaafc1c06be5cd4da870a",
    "count_view": 0
  },
  {
    "link_thumb": "https://live.staticflickr.com/65535/51547313305_fa343c6444_n.jpg",
    "id_album": "-316663319",
    "description": "ANIME_PIC_b4bbae42eb73cd307b6fbb43ca77734b,[Girl],[isGirlAnime],[isCuteAnime],[isGirlEarsNekoAnime]",
    "title": "ANIME_PIC_b4bbae42eb73cd307b6fbb43ca77734b",
    "link_img": "https://live.staticflickr.com/65535/51547313305_4031ec7fef_o.png",
    "id_image": "ANIME_PIC_b4bbae42eb73cd307b6fbb43ca77734b",
    "count_view": 0
  },
  {
    "link_thumb": "https://live.staticflickr.com/65535/51546635288_1e62eaae8d_n.jpg",
    "id_album": "-316663319",
    "description": "ANIME_PIC_b4bcb8e5bcb61b814c825face72b144c,[Girl],[isGirlAnime],[isCuteAnime],[isGirlsLoliAnime]",
    "title": "ANIME_PIC_b4bcb8e5bcb61b814c825face72b144c",
    "link_img": "https://live.staticflickr.com/65535/51546635288_b3d6740046_o.jpg",
    "id_image": "ANIME_PIC_b4bcb8e5bcb61b814c825face72b144c",
    "count_view": 0
  },
  {
    "link_thumb": "https://live.staticflickr.com/65535/51545593627_2572851267_n.jpg",
    "id_album": "-316663319",
    "description": "ANIME_PIC_b4c0d005f192763a3c5f9d520e8fc44c,[Girl],[isGirlAnime],[isCuteAnime]",
    "title": "ANIME_PIC_b4c0d005f192763a3c5f9d520e8fc44c",
    "link_img": "https://live.staticflickr.com/65535/51545593627_6a3d87a906_o.jpg",
    "id_image": "ANIME_PIC_b4c0d005f192763a3c5f9d520e8fc44c",
    "count_view": 0
  },
  {
    "link_thumb": "https://live.staticflickr.com/65535/51547117204_615fcca6d1_n.jpg",
    "id_album": "-316663319",
    "description": "ANIME_PIC_b4cba8313df65216b8a8be82ab2e01b7,[Girl],[isGirlAnime],[isCuteAnime],[isGirlsLoliAnime],[isSadAnimeGirl],[isSadAnime]",
    "title": "ANIME_PIC_b4cba8313df65216b8a8be82ab2e01b7",
    "link_img": "https://live.staticflickr.com/65535/51547117204_71fe35bea2_o.jpg",
    "id_image": "ANIME_PIC_b4cba8313df65216b8a8be82ab2e01b7",
    "count_view": 0
  },
  {
    "link_thumb": "https://live.staticflickr.com/65535/51546636283_6899320c16_n.jpg",
    "id_album": "-316663319",
    "description": "ANIME_PIC_b4ce41abc7651da080d7582a168d95a4,[Girl],[isGirlAnime],[isCuteAnime],[isGirlsHatsHoodieAnime],[isGirlsLoliAnime]",
    "title": "ANIME_PIC_b4ce41abc7651da080d7582a168d95a4",
    "link_img": "https://live.staticflickr.com/65535/51546636283_363cc09b8b_o.jpg",
    "id_image": "ANIME_PIC_b4ce41abc7651da080d7582a168d95a4",
    "count_view": 0
  },
  {
    "link_thumb": "https://live.staticflickr.com/65535/51545594582_a5bba011c2_n.jpg",
    "id_album": "-316663319",
    "description": "ANIME_PIC_b4d14acddacce6b740d9a4f1583813c8,[Girl],[isGirlAnime],[isCuteAnime],[isGirlsLoliAnime]",
    "title": "ANIME_PIC_b4d14acddacce6b740d9a4f1583813c8",
    "link_img": "https://live.staticflickr.com/65535/51545594582_4cdda38c9d_o.jpg",
    "id_image": "ANIME_PIC_b4d14acddacce6b740d9a4f1583813c8",
    "count_view": 0
  },
  {
    "link_thumb": "https://live.staticflickr.com/65535/51547315380_2f1020fcd6_n.jpg",
    "id_album": "-316663319",
    "description": "ANIME_PIC_b4d1679577dc6644343aae3dafbc0bc2,[Girl],[isGirlAnime],[isCuteAnime]",
    "title": "ANIME_PIC_b4d1679577dc6644343aae3dafbc0bc2",
    "link_img": "https://live.staticflickr.com/65535/51547315380_01ce381f35_o.jpg",
    "id_image": "ANIME_PIC_b4d1679577dc6644343aae3dafbc0bc2",
    "count_view": 0
  },
  {
    "link_thumb": "https://live.staticflickr.com/65535/51546637423_6b2d3c80b6_n.jpg",
    "id_album": "-316663319",
    "description": "ANIME_PIC_b4d366a408aad4a0b8f9f6adba7cc407,[Girl],[isGirlAnime],[isSadAnimeGirl],[isSadAnime]",
    "title": "ANIME_PIC_b4d366a408aad4a0b8f9f6adba7cc407",
    "link_img": "https://live.staticflickr.com/65535/51546637423_523bc5becf_o.png",
    "id_image": "ANIME_PIC_b4d366a408aad4a0b8f9f6adba7cc407",
    "count_view": 0
  },
  {
    "link_thumb": "https://live.staticflickr.com/65535/51547316200_d02fd3284b_n.jpg",
    "id_album": "-316663319",
    "description": "ANIME_PIC_b4d555292df41b2fba0b90737fcc6684,[Girl],[isGirlAnime],[isCuteAnime]",
    "title": "ANIME_PIC_b4d555292df41b2fba0b90737fcc6684",
    "link_img": "https://live.staticflickr.com/65535/51547316200_eab396c50e_o.jpg",
    "id_image": "ANIME_PIC_b4d555292df41b2fba0b90737fcc6684",
    "count_view": 0
  },
  {
    "link_thumb": "https://live.staticflickr.com/65535/51547316550_b203d969d6_n.jpg",
    "id_album": "-316663319",
    "description": "ANIME_PIC_b4d60d70310b504226dfc6e93ebc5a98,[Girl],[isGirlAnime],[isCuteAnime],[isSadAnimeGirl],[isSadAnime]",
    "title": "ANIME_PIC_b4d60d70310b504226dfc6e93ebc5a98",
    "link_img": "https://live.staticflickr.com/65535/51547316550_7d0bffa09a_o.jpg",
    "id_image": "ANIME_PIC_b4d60d70310b504226dfc6e93ebc5a98",
    "count_view": 0
  },
  {
    "link_thumb": "https://live.staticflickr.com/65535/51546638593_248df1f3b9_n.jpg",
    "id_album": "-316663319",
    "description": "ANIME_PIC_b4dc14b44b658a0cdbe595e2c194c4dd,[Girl],[isGirlAnime],[isCuteAnime]",
    "title": "ANIME_PIC_b4dc14b44b658a0cdbe595e2c194c4dd",
    "link_img": "https://live.staticflickr.com/65535/51546638593_85e99223f6_o.jpg",
    "id_image": "ANIME_PIC_b4dc14b44b658a0cdbe595e2c194c4dd",
    "count_view": 0
  },
  {
    "link_thumb": "https://live.staticflickr.com/65535/51546393986_98af3002b7_n.jpg",
    "id_album": "-316663319",
    "description": "ANIME_PIC_b4dd6411d21701590c5f52a7d3933270,[Girl],[isGirlAnime],[isCuteAnime],[isGirlsHatsHoodieAnime],[isGirlsLoliAnime],[isSadAnimeGirl],[isGirlsSharpCanineToothAnime],[isSadAnime]",
    "title": "ANIME_PIC_b4dd6411d21701590c5f52a7d3933270",
    "link_img": "https://live.staticflickr.com/65535/51546393986_6360ec9f35_o.jpg",
    "id_image": "ANIME_PIC_b4dd6411d21701590c5f52a7d3933270",
    "count_view": 0
  },
  {
    "link_thumb": "https://live.staticflickr.com/65535/51545597432_a030ab13a2_n.jpg",
    "id_album": "-316663319",
    "description": "ANIME_PIC_b4e03c3bba6af9dae5b53e19ec552f7d,[Girl],[isGirlAnime],[isCuteAnime],[isGirlsLoliAnime]",
    "title": "ANIME_PIC_b4e03c3bba6af9dae5b53e19ec552f7d",
    "link_img": "https://live.staticflickr.com/65535/51545597432_5aa8394f68_o.jpg",
    "id_image": "ANIME_PIC_b4e03c3bba6af9dae5b53e19ec552f7d",
    "count_view": 0
  },
  {
    "link_thumb": "https://live.staticflickr.com/65535/51546394586_b2e2cba5e0_n.jpg",
    "id_album": "-316663319",
    "description": "ANIME_PIC_b4e70a050fb5a17d58e31390d4cbae50,[Girl],[isGirlAnime],[isCuteAnime],[isGirlsLoliAnime],[isGirlsSharpCanineToothAnime]",
    "title": "ANIME_PIC_b4e70a050fb5a17d58e31390d4cbae50",
    "link_img": "https://live.staticflickr.com/65535/51546394586_85945fa580_o.jpg",
    "id_image": "ANIME_PIC_b4e70a050fb5a17d58e31390d4cbae50",
    "count_view": 0
  },
  {
    "link_thumb": "https://live.staticflickr.com/65535/51546394861_44229ae50a_n.jpg",
    "id_album": "-316663319",
    "description": "ANIME_PIC_b4e904b5e4858640f9403fa9280cb31a,[Girl],[isGirlAnime],[isCuteAnime]",
    "title": "ANIME_PIC_b4e904b5e4858640f9403fa9280cb31a",
    "link_img": "https://live.staticflickr.com/65535/51546394861_42af26f017_o.jpg",
    "id_image": "ANIME_PIC_b4e904b5e4858640f9403fa9280cb31a",
    "count_view": 0
  }
]