[
  {
    "link_thumb": "https://live.staticflickr.com/65535/51560313990_82a049fa8a_n.jpg",
    "id_album": "-1584065887",
    "description": "ANIME_PIC_161a70939b7113d75fcded89454a340d,[GirlsLoli],[isGirlAnime],[isCuteAnime],[isGirlsHatsHoodieAnime],[isGirlsLoliAnime],[isSadAnimeGirl],[isSadAnime]",
    "title": "ANIME_PIC_161a70939b7113d75fcded89454a340d",
    "link_img": "https://live.staticflickr.com/65535/51560313990_c2347576f1_o.jpg",
    "id_image": "ANIME_PIC_161a70939b7113d75fcded89454a340d",
    "count_view": 0
  },
  {
    "link_thumb": "https://live.staticflickr.com/65535/51560083664_a64e301135_n.jpg",
    "id_album": "-1584065887",
    "description": "ANIME_PIC_16250b85c2a87f2048b3f77168f6a4f9,[GirlsLoli],[isGirlAnime],[isCuteAnime],[isGirlsLoliAnime],[isSadAnimeGirl],[isSadAnime]",
    "title": "ANIME_PIC_16250b85c2a87f2048b3f77168f6a4f9",
    "link_img": "https://live.staticflickr.com/65535/51560083664_80feb6e9da_o.jpg",
    "id_image": "ANIME_PIC_16250b85c2a87f2048b3f77168f6a4f9",
    "count_view": 0
  },
  {
    "link_thumb": "https://live.staticflickr.com/65535/51558600497_8808b45521_n.jpg",
    "id_album": "-1584065887",
    "description": "ANIME_PIC_16272d3922bd7378348f00718c782307,[GirlsLoli],[isGirlAnime],[isCuteAnime],[isGirlsLoliAnime]",
    "title": "ANIME_PIC_16272d3922bd7378348f00718c782307",
    "link_img": "https://live.staticflickr.com/65535/51558600497_05784f7a82_o.png",
    "id_image": "ANIME_PIC_16272d3922bd7378348f00718c782307",
    "count_view": 0
  },
  {
    "link_thumb": "https://live.staticflickr.com/65535/50152295972_24248359e4_n.jpg",
    "id_album": "-1584065887",
    "description": "ANIME_PIC_162e7b862cea30e3d03645478122d84f,[isGirlAnime],[isCuteAnime],[isGirlsLoliAnime],[Girls Loli],[GirlsLoli],[isGirlsHatsHoodieAnime]",
    "title": "ANIME_PIC_162e7b862cea30e3d03645478122d84f",
    "link_img": "https://live.staticflickr.com/65535/50152295972_d50df91306_o.png",
    "id_image": "ANIME_PIC_162e7b862cea30e3d03645478122d84f",
    "count_view": 0
  },
  {
    "link_thumb": "https://live.staticflickr.com/65535/51559390821_ec5e166b4c_n.jpg",
    "id_album": "-1584065887",
    "description": "ANIME_PIC_1639672391fe3b087f8624970dbc3530,[GirlsLoli],[isGirlAnime],[isCuteAnime],[isGirlsLoliAnime]",
    "title": "ANIME_PIC_1639672391fe3b087f8624970dbc3530",
    "link_img": "https://live.staticflickr.com/65535/51559390821_6dd58207ff_o.png",
    "id_image": "ANIME_PIC_1639672391fe3b087f8624970dbc3530",
    "count_view": 0
  },
  {
    "link_thumb": "https://live.staticflickr.com/65535/51559391286_a281be70b6_n.jpg",
    "id_album": "-1584065887",
    "description": "ANIME_PIC_163baa5bdc2f3713df4edf0e08f391ca,[GirlsLoli],[isGirlAnime],[isCuteAnime],[isGirlsLoliAnime],[isSadAnimeGirl],[isSadAnime]",
    "title": "ANIME_PIC_163baa5bdc2f3713df4edf0e08f391ca",
    "link_img": "https://live.staticflickr.com/65535/51559391286_1795b82ce1_o.jpg",
    "id_image": "ANIME_PIC_163baa5bdc2f3713df4edf0e08f391ca",
    "count_view": 0
  },
  {
    "link_thumb": "https://live.staticflickr.com/65535/49948261362_0c60b92e2e_n.jpg",
    "id_album": "-1584065887",
    "description": "ANIME_PIC_163d2ab393d4e32d88f7456586335616,[isGirlAnime],[isCuteAnime],[isGirlsLoliAnime],[Girls Loli],[GirlsLoli],[isGirlEarsNekoAnime],[isGirlsHatsHoodieAnime]",
    "title": "ANIME_PIC_163d2ab393d4e32d88f7456586335616",
    "link_img": "https://live.staticflickr.com/65535/49948261362_87886014f6_o.png",
    "id_image": "ANIME_PIC_163d2ab393d4e32d88f7456586335616",
    "count_view": 0
  },
  {
    "link_thumb": "https://live.staticflickr.com/65535/51559626213_6e6d44eaca_n.jpg",
    "id_album": "-1584065887",
    "description": "ANIME_PIC_163dd7c87dbb7a7accc59830bd11f9c0,[GirlsLoli],[isGirlAnime],[isCuteAnime],[isGirlEarsNekoAnime],[isGirlsLoliAnime]",
    "title": "ANIME_PIC_163dd7c87dbb7a7accc59830bd11f9c0",
    "link_img": "https://live.staticflickr.com/65535/51559626213_9c1287518a_o.jpg",
    "id_image": "ANIME_PIC_163dd7c87dbb7a7accc59830bd11f9c0",
    "count_view": 0
  },
  {
    "link_thumb": "https://live.staticflickr.com/65535/51559626473_9798bc9efb_n.jpg",
    "id_album": "-1584065887",
    "description": "ANIME_PIC_163f5a2b08b3d4a3061afbca35ce1836,[GirlsLoli],[isGirlAnime],[isCuteAnime],[isGirlsLoliAnime]",
    "title": "ANIME_PIC_163f5a2b08b3d4a3061afbca35ce1836",
    "link_img": "https://live.staticflickr.com/65535/51559626473_7bdb92efe7_o.jpg",
    "id_image": "ANIME_PIC_163f5a2b08b3d4a3061afbca35ce1836",
    "count_view": 0
  },
  {
    "link_thumb": "https://live.staticflickr.com/65535/49893574916_c6bd89c735_n.jpg",
    "id_album": "-1584065887",
    "description": "ANIME_PIC_16441b999dd76de061ae7d6a759acf0e,[isGirlAnime],[isCuteAnime],[isGirlsLoliAnime],[Girls Loli],[GirlsLoli],[isGirlsHatsHoodieAnime]",
    "title": "ANIME_PIC_16441b999dd76de061ae7d6a759acf0e",
    "link_img": "https://live.staticflickr.com/65535/49893574916_be24ff553f_o.jpg",
    "id_image": "ANIME_PIC_16441b999dd76de061ae7d6a759acf0e",
    "count_view": 0
  },
  {
    "link_thumb": "https://live.staticflickr.com/65535/51560085359_085331aeb6_n.jpg",
    "id_album": "-1584065887",
    "description": "ANIME_PIC_164447ca912f6c540e8d34fecfe491a9,[GirlsLoli],[isGirlAnime],[isCuteAnime],[isGirlsHatsHoodieAnime],[isGirlsLoliAnime],[isGirlsSharpCanineToothAnime]",
    "title": "ANIME_PIC_164447ca912f6c540e8d34fecfe491a9",
    "link_img": "https://live.staticflickr.com/65535/51560085359_385d16a883_o.jpg",
    "id_image": "ANIME_PIC_164447ca912f6c540e8d34fecfe491a9",
    "count_view": 0
  },
  {
    "link_thumb": "https://live.staticflickr.com/65535/51559392101_b168f755ed_n.jpg",
    "id_album": "-1584065887",
    "description": "ANIME_PIC_164bd525b4e7011247c8e96dc09f24b2,[GirlsLoli],[isGirlAnime],[isCuteAnime],[isGirlsHornsAnime],[isGirlsLoliAnime],[isGirlsSharpCanineToothAnime]",
    "title": "ANIME_PIC_164bd525b4e7011247c8e96dc09f24b2",
    "link_img": "https://live.staticflickr.com/65535/51559392101_043230882a_o.jpg",
    "id_image": "ANIME_PIC_164bd525b4e7011247c8e96dc09f24b2",
    "count_view": 0
  },
  {
    "link_thumb": "https://live.staticflickr.com/65535/51559627208_c666e769a9_n.jpg",
    "id_album": "-1584065887",
    "description": "ANIME_PIC_164dff67abbe0d25080d52c593e3a7fe,[GirlsLoli],[isGirlAnime],[isCuteAnime],[isGirlsHatsHoodieAnime],[isGirlsLoliAnime]",
    "title": "ANIME_PIC_164dff67abbe0d25080d52c593e3a7fe",
    "link_img": "https://live.staticflickr.com/65535/51559627208_666d14df56_o.jpg",
    "id_image": "ANIME_PIC_164dff67abbe0d25080d52c593e3a7fe",
    "count_view": 0
  },
  {
    "link_thumb": "https://live.staticflickr.com/65535/51558602412_96f07e0657_n.jpg",
    "id_album": "-1584065887",
    "description": "ANIME_PIC_164eff018703ee52820ba721faf4d111,[GirlsLoli],[isGirlAnime],[isCuteAnime],[isGirlsLoliAnime]",
    "title": "ANIME_PIC_164eff018703ee52820ba721faf4d111",
    "link_img": "https://live.staticflickr.com/65535/51558602412_a053310b1a_o.jpg",
    "id_image": "ANIME_PIC_164eff018703ee52820ba721faf4d111",
    "count_view": 0
  },
  {
    "link_thumb": "https://live.staticflickr.com/65535/51560086289_f942caafb6_n.jpg",
    "id_album": "-1584065887",
    "description": "ANIME_PIC_164f546b0baf4e685822d15448fd7ffb,[GirlsLoli],[isGirlAnime],[isCuteAnime],[isGirlsLoliAnime]",
    "title": "ANIME_PIC_164f546b0baf4e685822d15448fd7ffb",
    "link_img": "https://live.staticflickr.com/65535/51560086289_166f9ef906_o.png",
    "id_image": "ANIME_PIC_164f546b0baf4e685822d15448fd7ffb",
    "count_view": 0
  },
  {
    "link_thumb": "https://live.staticflickr.com/65535/51560086559_966c161c12_n.jpg",
    "id_album": "-1584065887",
    "description": "ANIME_PIC_16545f696e5166d1e56c0a5352dce582,[GirlsLoli],[isGirlAnime],[isCuteAnime],[isGirlsLoliAnime]",
    "title": "ANIME_PIC_16545f696e5166d1e56c0a5352dce582",
    "link_img": "https://live.staticflickr.com/65535/51560086559_2b16e33b96_o.jpg",
    "id_image": "ANIME_PIC_16545f696e5166d1e56c0a5352dce582",
    "count_view": 0
  },
  {
    "link_thumb": "https://live.staticflickr.com/65535/51560086734_cb8248d706_n.jpg",
    "id_album": "-1584065887",
    "description": "ANIME_PIC_165c7b8b722599b4d1d57f72bc67f8ee,[GirlsLoli],[isGirlAnime],[isCuteAnime],[isGirlsLoliAnime]",
    "title": "ANIME_PIC_165c7b8b722599b4d1d57f72bc67f8ee",
    "link_img": "https://live.staticflickr.com/65535/51560086734_599baabc82_o.png",
    "id_image": "ANIME_PIC_165c7b8b722599b4d1d57f72bc67f8ee",
    "count_view": 0
  },
  {
    "link_thumb": "https://live.staticflickr.com/65535/51560317340_598029ce3d_n.jpg",
    "id_album": "-1584065887",
    "description": "ANIME_PIC_16613957abd0a7a510920c337ab8ff93,[GirlsLoli],[isGirlAnime],[isCuteAnime],[isGirlFaceMasksAnime],[isGirlsLoliAnime]",
    "title": "ANIME_PIC_16613957abd0a7a510920c337ab8ff93",
    "link_img": "https://live.staticflickr.com/65535/51560317340_1ac69f0a85_o.jpg",
    "id_image": "ANIME_PIC_16613957abd0a7a510920c337ab8ff93",
    "count_view": 0
  },
  {
    "link_thumb": "https://live.staticflickr.com/65535/51560317585_ee67072b2e_n.jpg",
    "id_album": "-1584065887",
    "description": "ANIME_PIC_1666cd5fcac6bfc441e2d56f56672b12,[GirlsLoli],[isGirlAnime],[isCuteAnime],[isGirlsLoliAnime]",
    "title": "ANIME_PIC_1666cd5fcac6bfc441e2d56f56672b12",
    "link_img": "https://live.staticflickr.com/65535/51560317585_e0124c0f5b_o.jpg",
    "id_image": "ANIME_PIC_1666cd5fcac6bfc441e2d56f56672b12",
    "count_view": 0
  },
  {
    "link_thumb": "https://live.staticflickr.com/65535/51560087549_025572d7ca_n.jpg",
    "id_album": "-1584065887",
    "description": "ANIME_PIC_16692e5b4d7d7ab79fae01b75a5107e1,[GirlsLoli],[isGirlAnime],[isCuteAnime],[isGirlsLoliAnime]",
    "title": "ANIME_PIC_16692e5b4d7d7ab79fae01b75a5107e1",
    "link_img": "https://live.staticflickr.com/65535/51560087549_0f7a5da5df_o.jpg",
    "id_image": "ANIME_PIC_16692e5b4d7d7ab79fae01b75a5107e1",
    "count_view": 0
  },
  {
    "link_thumb": "https://live.staticflickr.com/65535/51559394191_13fbd79ef7_n.jpg",
    "id_album": "-1584065887",
    "description": "ANIME_PIC_166b2e6d5e933fe332af5731bf25279f,[GirlsLoli],[isGirlAnime],[isCuteAnime],[isGirlsLoliAnime]",
    "title": "ANIME_PIC_166b2e6d5e933fe332af5731bf25279f",
    "link_img": "https://live.staticflickr.com/65535/51559394191_c0262b03a7_o.jpg",
    "id_image": "ANIME_PIC_166b2e6d5e933fe332af5731bf25279f",
    "count_view": 0
  },
  {
    "link_thumb": "https://live.staticflickr.com/65535/51560087854_6423ba37f1_n.jpg",
    "id_album": "-1584065887",
    "description": "ANIME_PIC_166cc0e0719de6596df029a5cf68556c,[GirlsLoli],[isGirlAnime],[isCuteAnime],[isGirlsHatsHoodieAnime],[isGirlsLoliAnime]",
    "title": "ANIME_PIC_166cc0e0719de6596df029a5cf68556c",
    "link_img": "https://live.staticflickr.com/65535/51560087854_dd64a0837f_o.jpg",
    "id_image": "ANIME_PIC_166cc0e0719de6596df029a5cf68556c",
    "count_view": 0
  },
  {
    "link_thumb": "https://live.staticflickr.com/65535/51559394506_0534547fcd_n.jpg",
    "id_album": "-1584065887",
    "description": "ANIME_PIC_1670e24442c03b08fb99c87e765e6477,[GirlsLoli],[isGirlAnime],[isCuteAnime],[isGirlsLoliAnime]",
    "title": "ANIME_PIC_1670e24442c03b08fb99c87e765e6477",
    "link_img": "https://live.staticflickr.com/65535/51559394506_4db77fdb6a_o.png",
    "id_image": "ANIME_PIC_1670e24442c03b08fb99c87e765e6477",
    "count_view": 0
  },
  {
    "link_thumb": "https://live.staticflickr.com/65535/51559629853_6358a99e3d_n.jpg",
    "id_album": "-1584065887",
    "description": "ANIME_PIC_16753b5e0013f9ca89bcf725179ea6b9,[GirlsLoli],[isGirlAnime],[isCuteAnime],[isGirlFaceMasksAnime],[isGirlsHatsHoodieAnime],[isGirlsLoliAnime]",
    "title": "ANIME_PIC_16753b5e0013f9ca89bcf725179ea6b9",
    "link_img": "https://live.staticflickr.com/65535/51559629853_ebd4bbfc1c_o.jpg",
    "id_image": "ANIME_PIC_16753b5e0013f9ca89bcf725179ea6b9",
    "count_view": 0
  },
  {
    "link_thumb": "https://live.staticflickr.com/65535/49998941172_c33743ed60_n.jpg",
    "id_album": "-1584065887",
    "description": "ANIME_PIC_16792ec948af09ab3ddd3ae757bf7c81,[isGirlAnime],[isCuteAnime],[isGirlsLoliAnime],[Girls Loli],[GirlsLoli],[isKimonoAnime]",
    "title": "ANIME_PIC_16792ec948af09ab3ddd3ae757bf7c81",
    "link_img": "https://live.staticflickr.com/65535/49998941172_c6248265ed_o.png",
    "id_image": "ANIME_PIC_16792ec948af09ab3ddd3ae757bf7c81",
    "count_view": 0
  },
  {
    "link_thumb": "https://live.staticflickr.com/65535/51560319210_3a0fcafc4a_n.jpg",
    "id_album": "-1584065887",
    "description": "ANIME_PIC_16797871e0fc0bd186f74662a39142e1,[GirlsLoli],[isGirlAnime],[isCuteAnime],[isGirlsLoliAnime]",
    "title": "ANIME_PIC_16797871e0fc0bd186f74662a39142e1",
    "link_img": "https://live.staticflickr.com/65535/51560319210_7170ce41eb_o.jpg",
    "id_image": "ANIME_PIC_16797871e0fc0bd186f74662a39142e1",
    "count_view": 0
  },
  {
    "link_thumb": "https://live.staticflickr.com/65535/51559630208_27994d15a0_n.jpg",
    "id_album": "-1584065887",
    "description": "ANIME_PIC_167d0f2b3e99fcd5787fcbe1062c3347,[GirlsLoli],[isGirlAnime],[isCuteAnime],[isGirlsLoliAnime]",
    "title": "ANIME_PIC_167d0f2b3e99fcd5787fcbe1062c3347",
    "link_img": "https://live.staticflickr.com/65535/51559630208_6039e02c2f_o.jpg",
    "id_image": "ANIME_PIC_167d0f2b3e99fcd5787fcbe1062c3347",
    "count_view": 0
  },
  {
    "link_thumb": "https://live.staticflickr.com/65535/51559395621_fd3b6ec342_n.jpg",
    "id_album": "-1584065887",
    "description": "ANIME_PIC_167f11ce28fa61bc778c1ce92bf1b67a,[GirlsLoli],[isGirlAnime],[isCuteAnime],[isGirlsLoliAnime]",
    "title": "ANIME_PIC_167f11ce28fa61bc778c1ce92bf1b67a",
    "link_img": "https://live.staticflickr.com/65535/51559395621_15319a01fd_o.png",
    "id_image": "ANIME_PIC_167f11ce28fa61bc778c1ce92bf1b67a",
    "count_view": 0
  },
  {
    "link_thumb": "https://live.staticflickr.com/65535/51559395946_4b1abeacfa_n.jpg",
    "id_album": "-1584065887",
    "description": "ANIME_PIC_1685e729c1402a487a164f2f7defeb7b,[GirlsLoli],[isGirlAnime],[isCuteAnime],[isGirlsHatsHoodieAnime],[isGirlsLoliAnime]",
    "title": "ANIME_PIC_1685e729c1402a487a164f2f7defeb7b",
    "link_img": "https://live.staticflickr.com/65535/51559395946_f80b0b05dd_o.jpg",
    "id_image": "ANIME_PIC_1685e729c1402a487a164f2f7defeb7b",
    "count_view": 0
  },
  {
    "link_thumb": "https://live.staticflickr.com/65535/51559630818_4353a14a01_n.jpg",
    "id_album": "-1584065887",
    "description": "ANIME_PIC_1686683414ace31f70879f01751f8c18,[GirlsLoli],[isGirlAnime],[isCuteAnime],[isGirlsLoliAnime]",
    "title": "ANIME_PIC_1686683414ace31f70879f01751f8c18",
    "link_img": "https://live.staticflickr.com/65535/51559630818_e116d9ebc6_o.jpg",
    "id_image": "ANIME_PIC_1686683414ace31f70879f01751f8c18",
    "count_view": 0
  },
  {
    "link_thumb": "https://live.staticflickr.com/65535/51559396316_1b00d3c5a5_n.jpg",
    "id_album": "-1584065887",
    "description": "ANIME_PIC_1686b49c6016b41e475bc649f7257603,[GirlsLoli],[isGirlAnime],[isCuteAnime],[isGirlsHatsHoodieAnime],[isGirlsLoliAnime],[isSadAnimeGirl],[isGirlsSharpCanineToothAnime],[isSadAnime]",
    "title": "ANIME_PIC_1686b49c6016b41e475bc649f7257603",
    "link_img": "https://live.staticflickr.com/65535/51559396316_4f4b2fd6f0_o.jpg",
    "id_image": "ANIME_PIC_1686b49c6016b41e475bc649f7257603",
    "count_view": 0
  },
  {
    "link_thumb": "https://live.staticflickr.com/65535/51560320300_6454bc2490_n.jpg",
    "id_album": "-1584065887",
    "description": "ANIME_PIC_168bfcc3a7a58b313adc0afe29f18001,[GirlsLoli],[isGirlAnime],[isCuteAnime],[isGirlsLoliAnime]",
    "title": "ANIME_PIC_168bfcc3a7a58b313adc0afe29f18001",
    "link_img": "https://live.staticflickr.com/65535/51560320300_1a24b691db_o.jpg",
    "id_image": "ANIME_PIC_168bfcc3a7a58b313adc0afe29f18001",
    "count_view": 0
  },
  {
    "link_thumb": "https://live.staticflickr.com/65535/51558606537_a3abc3d925_n.jpg",
    "id_album": "-1584065887",
    "description": "ANIME_PIC_1693264b807b40c0ed657ebabeca4512,[GirlsLoli],[isGirlAnime],[isCuteAnime],[isGirlsHatsHoodieAnime],[isGirlsLoliAnime]",
    "title": "ANIME_PIC_1693264b807b40c0ed657ebabeca4512",
    "link_img": "https://live.staticflickr.com/65535/51558606537_7f62a609dc_o.jpg",
    "id_image": "ANIME_PIC_1693264b807b40c0ed657ebabeca4512",
    "count_view": 0
  },
  {
    "link_thumb": "https://live.staticflickr.com/65535/51560320730_a4f9b0b7f9_n.jpg",
    "id_album": "-1584065887",
    "description": "ANIME_PIC_16988f917ae13e9744259c5caa54f35f,[GirlsLoli],[isGirlAnime],[isCuteAnime],[isGirlsLoliAnime]",
    "title": "ANIME_PIC_16988f917ae13e9744259c5caa54f35f",
    "link_img": "https://live.staticflickr.com/65535/51560320730_e0acbba6db_o.jpg",
    "id_image": "ANIME_PIC_16988f917ae13e9744259c5caa54f35f",
    "count_view": 0
  },
  {
    "link_thumb": "https://live.staticflickr.com/65535/49905874917_f9ec48cc9a_n.jpg",
    "id_album": "-1584065887",
    "description": "ANIME_PIC_169fbee5e95117087da06fb1596af77d,[isGirlAnime],[isCuteAnime],[isGirlsLoliAnime],[Girls Loli],[GirlsLoli],[isGirlEarsNekoAnime],[isGirlsHatsHoodieAnime]",
    "title": "ANIME_PIC_169fbee5e95117087da06fb1596af77d",
    "link_img": "https://live.staticflickr.com/65535/49905874917_e9c04d25de_o.png",
    "id_image": "ANIME_PIC_169fbee5e95117087da06fb1596af77d",
    "count_view": 0
  },
  {
    "link_thumb": "https://live.staticflickr.com/65535/51559631813_a12a270d11_n.jpg",
    "id_album": "-1584065887",
    "description": "ANIME_PIC_16a5e9a0623628ad0d0d8608126a8c49,[GirlsLoli],[isGirlAnime],[isCuteAnime],[isGirlsLoliAnime]",
    "title": "ANIME_PIC_16a5e9a0623628ad0d0d8608126a8c49",
    "link_img": "https://live.staticflickr.com/65535/51559631813_52506bb710_o.jpg",
    "id_image": "ANIME_PIC_16a5e9a0623628ad0d0d8608126a8c49",
    "count_view": 0
  },
  {
    "link_thumb": "https://live.staticflickr.com/65535/51560090879_ac3e3252e8_n.jpg",
    "id_album": "-1584065887",
    "description": "ANIME_PIC_16a914f5f01e9c390f404ebd89948274,[GirlsLoli],[isGirlAnime],[isCuteAnime],[isGirlsLoliAnime]",
    "title": "ANIME_PIC_16a914f5f01e9c390f404ebd89948274",
    "link_img": "https://live.staticflickr.com/65535/51560090879_69cffa2a99_o.jpg",
    "id_image": "ANIME_PIC_16a914f5f01e9c390f404ebd89948274",
    "count_view": 0
  },
  {
    "link_thumb": "https://live.staticflickr.com/65535/51560321200_c309ba4457_n.jpg",
    "id_album": "-1584065887",
    "description": "ANIME_PIC_16ab9ca4686a9cc0a8a4671694e1cc34,[GirlsLoli],[isGirlAnime],[isCuteAnime],[isGirlsLoliAnime],[isSadAnimeGirl],[isSadAnime]",
    "title": "ANIME_PIC_16ab9ca4686a9cc0a8a4671694e1cc34",
    "link_img": "https://live.staticflickr.com/65535/51560321200_1e320097dc_o.jpg",
    "id_image": "ANIME_PIC_16ab9ca4686a9cc0a8a4671694e1cc34",
    "count_view": 0
  },
  {
    "link_thumb": "https://live.staticflickr.com/65535/51558607452_b942938506_n.jpg",
    "id_album": "-1584065887",
    "description": "ANIME_PIC_16b00d7654b703cba6f143bdf6ffc399,[GirlsLoli],[isGirlAnime],[isCuteAnime],[isGirlsLoliAnime]",
    "title": "ANIME_PIC_16b00d7654b703cba6f143bdf6ffc399",
    "link_img": "https://live.staticflickr.com/65535/51558607452_6069437a13_o.png",
    "id_image": "ANIME_PIC_16b00d7654b703cba6f143bdf6ffc399",
    "count_view": 0
  },
  {
    "link_thumb": "https://live.staticflickr.com/65535/51559632808_1f210eee9f_n.jpg",
    "id_album": "-1584065887",
    "description": "ANIME_PIC_16ba013e8cc152ff732bde31d43234ea,[GirlsLoli],[isGirlAnime],[isCuteAnime],[isGirlsHatsHoodieAnime],[isGirlsLoliAnime]",
    "title": "ANIME_PIC_16ba013e8cc152ff732bde31d43234ea",
    "link_img": "https://live.staticflickr.com/65535/51559632808_5d8e8737da_o.png",
    "id_image": "ANIME_PIC_16ba013e8cc152ff732bde31d43234ea",
    "count_view": 0
  },
  {
    "link_thumb": "https://live.staticflickr.com/65535/51560091854_8a18a867cd_n.jpg",
    "id_album": "-1584065887",
    "description": "ANIME_PIC_16c639788366b3f7bd2bb78219d5925a,[GirlsLoli],[isGirlAnime],[isCuteAnime],[isGirlsHatsHoodieAnime],[isGirlsLoliAnime]",
    "title": "ANIME_PIC_16c639788366b3f7bd2bb78219d5925a",
    "link_img": "https://live.staticflickr.com/65535/51560091854_ec53c45bb7_o.jpg",
    "id_image": "ANIME_PIC_16c639788366b3f7bd2bb78219d5925a",
    "count_view": 0
  },
  {
    "link_thumb": "https://live.staticflickr.com/65535/50151974512_41ec67aef8_n.jpg",
    "id_album": "-1584065887",
    "description": "ANIME_PIC_16c7a2170542e86370e718e92325d056,[isGirlAnime],[isCuteAnime],[isGirlsLoliAnime],[Girls Loli],[GirlsLoli]",
    "title": "ANIME_PIC_16c7a2170542e86370e718e92325d056",
    "link_img": "https://live.staticflickr.com/65535/50151974512_00ac7944c1_o.jpg",
    "id_image": "ANIME_PIC_16c7a2170542e86370e718e92325d056",
    "count_view": 0
  },
  {
    "link_thumb": "https://live.staticflickr.com/65535/51560092094_ce37e36522_n.jpg",
    "id_album": "-1584065887",
    "description": "ANIME_PIC_16dc69fd87a815027b0beb4e4d8c7cb1,[GirlsLoli],[isGirlAnime],[isCuteAnime],[isGirlEarsNekoAnime],[isGirlsHatsHoodieAnime],[isGirlsLoliAnime],[isGirlsSharpCanineToothAnime]",
    "title": "ANIME_PIC_16dc69fd87a815027b0beb4e4d8c7cb1",
    "link_img": "https://live.staticflickr.com/65535/51560092094_b96a7e08f9_o.jpg",
    "id_image": "ANIME_PIC_16dc69fd87a815027b0beb4e4d8c7cb1",
    "count_view": 0
  },
  {
    "link_thumb": "https://live.staticflickr.com/65535/51559398901_59faa5c3dd_n.jpg",
    "id_album": "-1584065887",
    "description": "ANIME_PIC_16dcefdcebe28740fedee46b55067f40,[GirlsLoli],[isGirlAnime],[isCuteAnime],[isGirlsHatsHoodieAnime],[isGirlsLoliAnime]",
    "title": "ANIME_PIC_16dcefdcebe28740fedee46b55067f40",
    "link_img": "https://live.staticflickr.com/65535/51559398901_2dcef29d48_o.jpg",
    "id_image": "ANIME_PIC_16dcefdcebe28740fedee46b55067f40",
    "count_view": 0
  },
  {
    "link_thumb": "https://live.staticflickr.com/65535/51558608787_df856f6572_n.jpg",
    "id_album": "-1584065887",
    "description": "ANIME_PIC_16dd73dec2b7f5f941683f4284bebf11,[GirlsLoli],[isGirlAnime],[isCuteAnime],[isGirlsLoliAnime]",
    "title": "ANIME_PIC_16dd73dec2b7f5f941683f4284bebf11",
    "link_img": "https://live.staticflickr.com/65535/51558608787_eccd910c11_o.png",
    "id_image": "ANIME_PIC_16dd73dec2b7f5f941683f4284bebf11",
    "count_view": 0
  },
  {
    "link_thumb": "https://live.staticflickr.com/65535/51560092934_cba1a6562f_n.jpg",
    "id_album": "-1584065887",
    "description": "ANIME_PIC_16e216ecf3ab376ed7e68d4518d0e63a,[GirlsLoli],[isGirlAnime],[isCuteAnime],[isGirlsLoliAnime]",
    "title": "ANIME_PIC_16e216ecf3ab376ed7e68d4518d0e63a",
    "link_img": "https://live.staticflickr.com/65535/51560092934_f194f85a42_o.jpg",
    "id_image": "ANIME_PIC_16e216ecf3ab376ed7e68d4518d0e63a",
    "count_view": 0
  },
  {
    "link_thumb": "https://live.staticflickr.com/65535/51558609297_62f81db251_n.jpg",
    "id_album": "-1584065887",
    "description": "ANIME_PIC_16e5cf3a0f96e099dd6e06c5effd9708,[GirlsLoli],[isGirlAnime],[isCuteAnime],[isGirlsLoliAnime],[isGirlsSharpCanineToothAnime]",
    "title": "ANIME_PIC_16e5cf3a0f96e099dd6e06c5effd9708",
    "link_img": "https://live.staticflickr.com/65535/51558609297_e29fb35c16_o.jpg",
    "id_image": "ANIME_PIC_16e5cf3a0f96e099dd6e06c5effd9708",
    "count_view": 0
  },
  {
    "link_thumb": "https://live.staticflickr.com/65535/51560093329_fc4f39e580_n.jpg",
    "id_album": "-1584065887",
    "description": "ANIME_PIC_16e7604133fd12cc14493398c7dbaa3f,[GirlsLoli],[isGirlAnime],[isCuteAnime],[isGirlsHatsHoodieAnime],[isGirlsLoliAnime],[isSadAnimeGirl],[isSadAnime]",
    "title": "ANIME_PIC_16e7604133fd12cc14493398c7dbaa3f",
    "link_img": "https://live.staticflickr.com/65535/51560093329_135cb3ccda_o.png",
    "id_image": "ANIME_PIC_16e7604133fd12cc14493398c7dbaa3f",
    "count_view": 0
  },
  {
    "link_thumb": "https://live.staticflickr.com/65535/50240751316_9e73092951_n.jpg",
    "id_album": "-1584065887",
    "description": "ANIME_PIC_16e9d3a8a92bf8334c0ace2ab1c7ae75,[isGirlAnime],[isCuteAnime],[isGirlsLoliAnime],[Girls Loli],[GirlsLoli]",
    "title": "ANIME_PIC_16e9d3a8a92bf8334c0ace2ab1c7ae75",
    "link_img": "https://live.staticflickr.com/65535/50240751316_fb2e40ab91_o.jpg",
    "id_image": "ANIME_PIC_16e9d3a8a92bf8334c0ace2ab1c7ae75",
    "count_view": 0
  },
  {
    "link_thumb": "https://live.staticflickr.com/65535/51559634858_3151ee1794_n.jpg",
    "id_album": "-1584065887",
    "description": "ANIME_PIC_16efbd9f7f75fdc7a3192f90a28c02bb,[GirlsLoli],[isGirlAnime],[isCuteAnime],[isGirlsLoliAnime]",
    "title": "ANIME_PIC_16efbd9f7f75fdc7a3192f90a28c02bb",
    "link_img": "https://live.staticflickr.com/65535/51559634858_9f5be3c913_o.jpg",
    "id_image": "ANIME_PIC_16efbd9f7f75fdc7a3192f90a28c02bb",
    "count_view": 0
  },
  {
    "link_thumb": "https://live.staticflickr.com/65535/51560093799_c161fe2627_n.jpg",
    "id_album": "-1584065887",
    "description": "ANIME_PIC_16f3d730cb0e9222ab2a7b1acc08da98,[GirlsLoli],[isGirlAnime],[isCuteAnime],[isGirlsLoliAnime]",
    "title": "ANIME_PIC_16f3d730cb0e9222ab2a7b1acc08da98",
    "link_img": "https://live.staticflickr.com/65535/51560093799_0d991ac389_o.jpg",
    "id_image": "ANIME_PIC_16f3d730cb0e9222ab2a7b1acc08da98",
    "count_view": 0
  },
  {
    "link_thumb": "https://live.staticflickr.com/65535/50056101618_f6e1520d2e_n.jpg",
    "id_album": "-1584065887",
    "description": "ANIME_PIC_16f444eae4f020b5da91563f3e1e5c16,[isGirlAnime],[isCuteAnime],[isGirlsLoliAnime],[Girls Loli],[GirlsLoli],[isKimonoAnime]",
    "title": "ANIME_PIC_16f444eae4f020b5da91563f3e1e5c16",
    "link_img": "https://live.staticflickr.com/65535/50056101618_cd168e2bb2_o.jpg",
    "id_image": "ANIME_PIC_16f444eae4f020b5da91563f3e1e5c16",
    "count_view": 0
  },
  {
    "link_thumb": "https://live.staticflickr.com/65535/51558610172_5891fc25a1_n.jpg",
    "id_album": "-1584065887",
    "description": "ANIME_PIC_16f582e205e37f2bd7670d2e88f6a911,[GirlsLoli],[isGirlAnime],[isCuteAnime],[isGirlsLoliAnime]",
    "title": "ANIME_PIC_16f582e205e37f2bd7670d2e88f6a911",
    "link_img": "https://live.staticflickr.com/65535/51558610172_8b42f5872e_o.jpg",
    "id_image": "ANIME_PIC_16f582e205e37f2bd7670d2e88f6a911",
    "count_view": 0
  },
  {
    "link_thumb": "https://live.staticflickr.com/65535/51558610332_8f10e94a31_n.jpg",
    "id_album": "-1584065887",
    "description": "ANIME_PIC_16f623a7d965703b87735560983b2353,[GirlsLoli],[isGirlAnime],[isCuteAnime],[isGirlsLoliAnime]",
    "title": "ANIME_PIC_16f623a7d965703b87735560983b2353",
    "link_img": "https://live.staticflickr.com/65535/51558610332_4e3276c388_o.jpg",
    "id_image": "ANIME_PIC_16f623a7d965703b87735560983b2353",
    "count_view": 0
  },
  {
    "link_thumb": "https://live.staticflickr.com/65535/51560094329_607171a622_n.jpg",
    "id_album": "-1584065887",
    "description": "ANIME_PIC_16f8b1c45c32c616944217662cabf806,[GirlsLoli],[isGirlAnime],[isCuteAnime],[isGirlsHatsHoodieAnime],[isGirlsLoliAnime]",
    "title": "ANIME_PIC_16f8b1c45c32c616944217662cabf806",
    "link_img": "https://live.staticflickr.com/65535/51560094329_2ff621f66c_o.jpg",
    "id_image": "ANIME_PIC_16f8b1c45c32c616944217662cabf806",
    "count_view": 0
  },
  {
    "link_thumb": "https://live.staticflickr.com/65535/51560094499_b7265da5fd_n.jpg",
    "id_album": "-1584065887",
    "description": "ANIME_PIC_16fae667813ff13266976fd157b8c5cf,[GirlsLoli],[isGirlAnime],[isCuteAnime],[isGirlsHatsHoodieAnime],[isGirlsLoliAnime]",
    "title": "ANIME_PIC_16fae667813ff13266976fd157b8c5cf",
    "link_img": "https://live.staticflickr.com/65535/51560094499_05fd1c0681_o.jpg",
    "id_image": "ANIME_PIC_16fae667813ff13266976fd157b8c5cf",
    "count_view": 0
  },
  {
    "link_thumb": "https://live.staticflickr.com/65535/51558610802_2d6ba65a01_n.jpg",
    "id_album": "-1584065887",
    "description": "ANIME_PIC_16fc9831aabf51c72843a366dfa0eeca,[GirlsLoli],[isGirlAnime],[isCuteAnime],[isGirlsLoliAnime]",
    "title": "ANIME_PIC_16fc9831aabf51c72843a366dfa0eeca",
    "link_img": "https://live.staticflickr.com/65535/51558610802_113fc61cef_o.png",
    "id_image": "ANIME_PIC_16fc9831aabf51c72843a366dfa0eeca",
    "count_view": 0
  },
  {
    "link_thumb": "https://live.staticflickr.com/65535/51559401381_df7c4a6b5e_n.jpg",
    "id_album": "-1584065887",
    "description": "ANIME_PIC_16ffe71695532d12bb42ab08925c3375,[GirlsLoli],[isGirlAnime],[isCuteAnime],[isGirlsLoliAnime]",
    "title": "ANIME_PIC_16ffe71695532d12bb42ab08925c3375",
    "link_img": "https://live.staticflickr.com/65535/51559401381_603d995df5_o.jpg",
    "id_image": "ANIME_PIC_16ffe71695532d12bb42ab08925c3375",
    "count_view": 0
  },
  {
    "link_thumb": "https://live.staticflickr.com/65535/51559636408_87c519f127_n.jpg",
    "id_album": "-1584065887",
    "description": "ANIME_PIC_170723f8eae9e794f569a0956978a068,[GirlsLoli],[isGirlAnime],[isCuteAnime],[isGirlsLoliAnime]",
    "title": "ANIME_PIC_170723f8eae9e794f569a0956978a068",
    "link_img": "https://live.staticflickr.com/65535/51559636408_1c75d4a12d_o.jpg",
    "id_image": "ANIME_PIC_170723f8eae9e794f569a0956978a068",
    "count_view": 0
  },
  {
    "link_thumb": "https://live.staticflickr.com/65535/51559401841_767cc39348_n.jpg",
    "id_album": "-1584065887",
    "description": "ANIME_PIC_170c272e1622135460564e0fa6bf9549,[GirlsLoli],[isGirlAnime],[isCuteAnime],[isGirlsLoliAnime]",
    "title": "ANIME_PIC_170c272e1622135460564e0fa6bf9549",
    "link_img": "https://live.staticflickr.com/65535/51559401841_1c607ac98c_o.png",
    "id_image": "ANIME_PIC_170c272e1622135460564e0fa6bf9549",
    "count_view": 0
  },
  {
    "link_thumb": "https://live.staticflickr.com/65535/51559402086_8090bbb3a0_n.jpg",
    "id_album": "-1584065887",
    "description": "ANIME_PIC_1712042c919b91587ff02c64e8b9e47d,[GirlsLoli],[isGirlAnime],[isCuteAnime],[isGirlsLoliAnime],[isSadAnimeGirl],[isSadAnime]",
    "title": "ANIME_PIC_1712042c919b91587ff02c64e8b9e47d",
    "link_img": "https://live.staticflickr.com/65535/51559402086_630a0801ee_o.jpg",
    "id_image": "ANIME_PIC_1712042c919b91587ff02c64e8b9e47d",
    "count_view": 0
  },
  {
    "link_thumb": "https://live.staticflickr.com/65535/51559637033_5ac0223419_n.jpg",
    "id_album": "-1584065887",
    "description": "ANIME_PIC_171f6d62843d21b7aaede6897d7368e3,[GirlsLoli],[isGirlAnime],[isCuteAnime],[isGirlsHatsHoodieAnime],[isGirlsLoliAnime],[isSadAnimeGirl],[isSadAnime]",
    "title": "ANIME_PIC_171f6d62843d21b7aaede6897d7368e3",
    "link_img": "https://live.staticflickr.com/65535/51559637033_0c42c637ec_o.png",
    "id_image": "ANIME_PIC_171f6d62843d21b7aaede6897d7368e3",
    "count_view": 0
  },
  {
    "link_thumb": "https://live.staticflickr.com/65535/51558612722_4e5766f854_n.jpg",
    "id_album": "-1584065887",
    "description": "ANIME_PIC_17216b411f580a2e8fff4154e87c52ac,[GirlsLoli],[isGirlAnime],[isCuteAnime],[isGirlsLoliAnime],[isSadAnimeGirl],[isSadAnime]",
    "title": "ANIME_PIC_17216b411f580a2e8fff4154e87c52ac",
    "link_img": "https://live.staticflickr.com/65535/51558612722_0532a2e851_o.jpg",
    "id_image": "ANIME_PIC_17216b411f580a2e8fff4154e87c52ac",
    "count_view": 0
  },
  {
    "link_thumb": "https://live.staticflickr.com/65535/51559637843_5666697773_n.jpg",
    "id_album": "-1584065887",
    "description": "ANIME_PIC_17267da8592fd002e1702807e5ca7e56,[GirlsLoli],[isGirlAnime],[isCuteAnime],[isGirlsLoliAnime]",
    "title": "ANIME_PIC_17267da8592fd002e1702807e5ca7e56",
    "link_img": "https://live.staticflickr.com/65535/51559637843_4578fd790f_o.jpg",
    "id_image": "ANIME_PIC_17267da8592fd002e1702807e5ca7e56",
    "count_view": 0
  },
  {
    "link_thumb": "https://live.staticflickr.com/65535/51559638078_7e4831b925_n.jpg",
    "id_album": "-1584065887",
    "description": "ANIME_PIC_172773549232b33ade5abb9555207f47,[GirlsLoli],[isGirlAnime],[isCuteAnime],[isGirlsLoliAnime]",
    "title": "ANIME_PIC_172773549232b33ade5abb9555207f47",
    "link_img": "https://live.staticflickr.com/65535/51559638078_c324060b71_o.png",
    "id_image": "ANIME_PIC_172773549232b33ade5abb9555207f47",
    "count_view": 0
  },
  {
    "link_thumb": "https://live.staticflickr.com/65535/51559638318_5ba3b5b6b8_n.jpg",
    "id_album": "-1584065887",
    "description": "ANIME_PIC_1729fd4c3d1c729b2a20829aadbe2028,[GirlsLoli],[isGirlAnime],[isCuteAnime],[isGirlsLoliAnime]",
    "title": "ANIME_PIC_1729fd4c3d1c729b2a20829aadbe2028",
    "link_img": "https://live.staticflickr.com/65535/51559638318_0f08055cca_o.jpg",
    "id_image": "ANIME_PIC_1729fd4c3d1c729b2a20829aadbe2028",
    "count_view": 0
  },
  {
    "link_thumb": "https://live.staticflickr.com/65535/51559403531_0ce3da157a_n.jpg",
    "id_album": "-1584065887",
    "description": "ANIME_PIC_172b8b721e3e47bddac58deb523d1958,[GirlsLoli],[isGirlAnime],[isCuteAnime],[isGirlsLoliAnime]",
    "title": "ANIME_PIC_172b8b721e3e47bddac58deb523d1958",
    "link_img": "https://live.staticflickr.com/65535/51559403531_ea25ba53c9_o.jpg",
    "id_image": "ANIME_PIC_172b8b721e3e47bddac58deb523d1958",
    "count_view": 0
  },
  {
    "link_thumb": "https://live.staticflickr.com/65535/49893886327_454f6293cf_n.jpg",
    "id_album": "-1584065887",
    "description": "ANIME_PIC_172e936ff503f88834c9037a727abbbe,[isGirlAnime],[isCuteAnime],[isGirlsLoliAnime],[Girls Loli],[GirlsLoli]",
    "title": "ANIME_PIC_172e936ff503f88834c9037a727abbbe",
    "link_img": "https://live.staticflickr.com/65535/49893886327_3477a28457_o.png",
    "id_image": "ANIME_PIC_172e936ff503f88834c9037a727abbbe",
    "count_view": 0
  },
  {
    "link_thumb": "https://live.staticflickr.com/65535/51559403751_7f77f2aa79_n.jpg",
    "id_album": "-1584065887",
    "description": "ANIME_PIC_172e9a74d96c1ac3d1d955ee869c6ab8,[GirlsLoli],[isGirlAnime],[isCuteAnime],[isGirlsLoliAnime]",
    "title": "ANIME_PIC_172e9a74d96c1ac3d1d955ee869c6ab8",
    "link_img": "https://live.staticflickr.com/65535/51559403751_27ef6d2600_o.jpg",
    "id_image": "ANIME_PIC_172e9a74d96c1ac3d1d955ee869c6ab8",
    "count_view": 0
  },
  {
    "link_thumb": "https://live.staticflickr.com/65535/51559639023_90c5a7b9bd_n.jpg",
    "id_album": "-1584065887",
    "description": "ANIME_PIC_173e02607a3f3a8a5ed9905495371a15,[GirlsLoli],[isGirlAnime],[isCuteAnime],[isGirlsLoliAnime]",
    "title": "ANIME_PIC_173e02607a3f3a8a5ed9905495371a15",
    "link_img": "https://live.staticflickr.com/65535/51559639023_90246898e3_o.jpg",
    "id_image": "ANIME_PIC_173e02607a3f3a8a5ed9905495371a15",
    "count_view": 0
  },
  {
    "link_thumb": "https://live.staticflickr.com/65535/51559639303_5c3323320d_n.jpg",
    "id_album": "-1584065887",
    "description": "ANIME_PIC_173efb337d26995ff99c08bac2e261cb,[GirlsLoli],[isGirlAnime],[isCuteAnime],[isGirlsLoliAnime]",
    "title": "ANIME_PIC_173efb337d26995ff99c08bac2e261cb",
    "link_img": "https://live.staticflickr.com/65535/51559639303_068b1c8424_o.jpg",
    "id_image": "ANIME_PIC_173efb337d26995ff99c08bac2e261cb",
    "count_view": 0
  },
  {
    "link_thumb": "https://live.staticflickr.com/65535/51559404411_c1541d25e6_n.jpg",
    "id_album": "-1584065887",
    "description": "ANIME_PIC_173fbfc8ad4e5f44af42431797c54afd,[GirlsLoli],[isGirlAnime],[isCuteAnime],[isGirlsLoliAnime]",
    "title": "ANIME_PIC_173fbfc8ad4e5f44af42431797c54afd",
    "link_img": "https://live.staticflickr.com/65535/51559404411_3cdde23acc_o.jpg",
    "id_image": "ANIME_PIC_173fbfc8ad4e5f44af42431797c54afd",
    "count_view": 0
  },
  {
    "link_thumb": "https://live.staticflickr.com/65535/51560098384_46cc626b4b_n.jpg",
    "id_album": "-1584065887",
    "description": "ANIME_PIC_17408d05cf3ebc2be66b699b68dd41fe,[GirlsLoli],[isGirlAnime],[isCuteAnime],[isGirlEarsNekoAnime],[isGirlsLoliAnime]",
    "title": "ANIME_PIC_17408d05cf3ebc2be66b699b68dd41fe",
    "link_img": "https://live.staticflickr.com/65535/51560098384_e27fcb26f1_o.png",
    "id_image": "ANIME_PIC_17408d05cf3ebc2be66b699b68dd41fe",
    "count_view": 0
  },
  {
    "link_thumb": "https://live.staticflickr.com/65535/51558615037_1129700c21_n.jpg",
    "id_album": "-1584065887",
    "description": "ANIME_PIC_17432670170fac28d2fa0eefba0245b0,[GirlsLoli],[isGirlAnime],[isCuteAnime],[isGirlsLoliAnime]",
    "title": "ANIME_PIC_17432670170fac28d2fa0eefba0245b0",
    "link_img": "https://live.staticflickr.com/65535/51558615037_8e335e9d07_o.png",
    "id_image": "ANIME_PIC_17432670170fac28d2fa0eefba0245b0",
    "count_view": 0
  },
  {
    "link_thumb": "https://live.staticflickr.com/65535/50152058721_8374e7fdc8_n.jpg",
    "id_album": "-1584065887",
    "description": "ANIME_PIC_1743d618bc9f86dbf1216af6dd6005d1,[isGirlAnime],[isCuteAnime],[isGirlsLoliAnime],[Girls Loli],[GirlsLoli],[isGirlEarsNekoAnime]",
    "title": "ANIME_PIC_1743d618bc9f86dbf1216af6dd6005d1",
    "link_img": "https://live.staticflickr.com/65535/50152058721_cb7aab8518_o.jpg",
    "id_image": "ANIME_PIC_1743d618bc9f86dbf1216af6dd6005d1",
    "count_view": 0
  },
  {
    "link_thumb": "https://live.staticflickr.com/65535/51560098879_0df2236369_n.jpg",
    "id_album": "-1584065887",
    "description": "ANIME_PIC_174b2c665f68d2d942bb07fc3c37a911,[GirlsLoli],[isGirlAnime],[isCuteAnime],[isGirlsHatsHoodieAnime],[isGirlsLoliAnime]",
    "title": "ANIME_PIC_174b2c665f68d2d942bb07fc3c37a911",
    "link_img": "https://live.staticflickr.com/65535/51560098879_2070140769_o.jpg",
    "id_image": "ANIME_PIC_174b2c665f68d2d942bb07fc3c37a911",
    "count_view": 0
  },
  {
    "link_thumb": "https://live.staticflickr.com/65535/51559405331_4de3460037_n.jpg",
    "id_album": "-1584065887",
    "description": "ANIME_PIC_17517a3363779f4c04e0b19c85eee8ef,[GirlsLoli],[isGirlAnime],[isCuteAnime],[isGirlsHatsHoodieAnime],[isGirlsLoliAnime]",
    "title": "ANIME_PIC_17517a3363779f4c04e0b19c85eee8ef",
    "link_img": "https://live.staticflickr.com/65535/51559405331_fcdd85ef29_o.jpg",
    "id_image": "ANIME_PIC_17517a3363779f4c04e0b19c85eee8ef",
    "count_view": 0
  },
  {
    "link_thumb": "https://live.staticflickr.com/65535/51560329465_e103f39e10_n.jpg",
    "id_album": "-1584065887",
    "description": "ANIME_PIC_1751cb76eff824f62e4eb69e73ccc7c7,[GirlsLoli],[isGirlAnime],[isCuteAnime],[isGirlsLoliAnime]",
    "title": "ANIME_PIC_1751cb76eff824f62e4eb69e73ccc7c7",
    "link_img": "https://live.staticflickr.com/65535/51560329465_147870f74d_o.jpg",
    "id_image": "ANIME_PIC_1751cb76eff824f62e4eb69e73ccc7c7",
    "count_view": 0
  },
  {
    "link_thumb": "https://live.staticflickr.com/65535/51558616117_02b69d231c_n.jpg",
    "id_album": "-1584065887",
    "description": "ANIME_PIC_1754af7f085051e5b646b6bebc8a9637,[GirlsLoli],[isGirlAnime],[isCuteAnime],[isGirlEarsNekoAnime],[isGirlsLoliAnime]",
    "title": "ANIME_PIC_1754af7f085051e5b646b6bebc8a9637",
    "link_img": "https://live.staticflickr.com/65535/51558616117_4fa04803b8_o.jpg",
    "id_image": "ANIME_PIC_1754af7f085051e5b646b6bebc8a9637",
    "count_view": 0
  },
  {
    "link_thumb": "https://live.staticflickr.com/65535/51559406026_966c71d6f7_n.jpg",
    "id_album": "-1584065887",
    "description": "ANIME_PIC_175820aa9ed18b6fd3c76f8cab5c6bd6,[GirlsLoli],[isGirlAnime],[isCuteAnime],[isGirlsHornsAnime],[isGirlsLoliAnime]",
    "title": "ANIME_PIC_175820aa9ed18b6fd3c76f8cab5c6bd6",
    "link_img": "https://live.staticflickr.com/65535/51559406026_09327807b6_o.jpg",
    "id_image": "ANIME_PIC_175820aa9ed18b6fd3c76f8cab5c6bd6",
    "count_view": 0
  },
  {
    "link_thumb": "https://live.staticflickr.com/65535/49893886662_4cf557eed8_n.jpg",
    "id_album": "-1584065887",
    "description": "ANIME_PIC_175ae3142c03b7c16b80978e8d4e8fd2,[isGirlAnime],[isCuteAnime],[isGirlsLoliAnime],[Girls Loli],[GirlsLoli]",
    "title": "ANIME_PIC_175ae3142c03b7c16b80978e8d4e8fd2",
    "link_img": "https://live.staticflickr.com/65535/49893886662_2f4e8481f0_o.jpg",
    "id_image": "ANIME_PIC_175ae3142c03b7c16b80978e8d4e8fd2",
    "count_view": 0
  },
  {
    "link_thumb": "https://live.staticflickr.com/65535/51559406131_ec490e1c1f_n.jpg",
    "id_album": "-1584065887",
    "description": "ANIME_PIC_175d5184d9d949cbfd29eaf0ac9ccad6,[GirlsLoli],[isGirlAnime],[isCuteAnime],[isGirlsLoliAnime]",
    "title": "ANIME_PIC_175d5184d9d949cbfd29eaf0ac9ccad6",
    "link_img": "https://live.staticflickr.com/65535/51559406131_d90da300e4_o.jpg",
    "id_image": "ANIME_PIC_175d5184d9d949cbfd29eaf0ac9ccad6",
    "count_view": 0
  },
  {
    "link_thumb": "https://live.staticflickr.com/65535/50029558133_8b9f016b93_n.jpg",
    "id_album": "-1584065887",
    "description": "ANIME_PIC_175f63ef4af12a0aa3c93dc4e218a3d1,[isGirlAnime],[isCuteAnime],[isGirlsLoliAnime],[Girls Loli],[GirlsLoli],[isGirlEarsNekoAnime],[isGirlsSharpCanineToothAnime]",
    "title": "ANIME_PIC_175f63ef4af12a0aa3c93dc4e218a3d1",
    "link_img": "https://live.staticflickr.com/65535/50029558133_b1846acc69_o.jpg",
    "id_image": "ANIME_PIC_175f63ef4af12a0aa3c93dc4e218a3d1",
    "count_view": 0
  },
  {
    "link_thumb": "https://live.staticflickr.com/65535/50151187693_a4583b9f55_n.jpg",
    "id_album": "-1584065887",
    "description": "ANIME_PIC_17627695b86c69f91bd1b59734f8d063,[isGirlAnime],[isCuteAnime],[isGirlsLoliAnime],[Girls Loli],[GirlsLoli],[isGirlEarsNekoAnime]",
    "title": "ANIME_PIC_17627695b86c69f91bd1b59734f8d063",
    "link_img": "https://live.staticflickr.com/65535/50151187693_b2bb9b83ea_o.png",
    "id_image": "ANIME_PIC_17627695b86c69f91bd1b59734f8d063",
    "count_view": 0
  },
  {
    "link_thumb": "https://live.staticflickr.com/65535/51558616667_168b2c158e_n.jpg",
    "id_album": "-1584065887",
    "description": "ANIME_PIC_1763e3671eb5c5efdbb168353630872e,[GirlsLoli],[isGirlAnime],[isCuteAnime],[isGirlsHatsHoodieAnime],[isGirlsLoliAnime]",
    "title": "ANIME_PIC_1763e3671eb5c5efdbb168353630872e",
    "link_img": "https://live.staticflickr.com/65535/51558616667_a356f739f9_o.jpg",
    "id_image": "ANIME_PIC_1763e3671eb5c5efdbb168353630872e",
    "count_view": 0
  },
  {
    "link_thumb": "https://live.staticflickr.com/65535/49987559111_091b65b657_n.jpg",
    "id_album": "-1584065887",
    "description": "ANIME_PIC_17662b36ce4669a43fc8067d457945e6,[isGirlAnime],[isCuteAnime],[isGirlsLoliAnime],[Girls Loli],[GirlsLoli],[isKimonoAnime]",
    "title": "ANIME_PIC_17662b36ce4669a43fc8067d457945e6",
    "link_img": "https://live.staticflickr.com/65535/49987559111_2e0a42a053_o.jpg",
    "id_image": "ANIME_PIC_17662b36ce4669a43fc8067d457945e6",
    "count_view": 0
  },
  {
    "link_thumb": "https://live.staticflickr.com/65535/51559642013_b3466bfbdc_n.jpg",
    "id_album": "-1584065887",
    "description": "ANIME_PIC_1768b4ac4becc8a7647d22ea1839e1b3,[GirlsLoli],[isGirlAnime],[isCuteAnime],[isGirlsLoliAnime]",
    "title": "ANIME_PIC_1768b4ac4becc8a7647d22ea1839e1b3",
    "link_img": "https://live.staticflickr.com/65535/51559642013_6825744a3a_o.jpg",
    "id_image": "ANIME_PIC_1768b4ac4becc8a7647d22ea1839e1b3",
    "count_view": 0
  },
  {
    "link_thumb": "https://live.staticflickr.com/65535/51560330705_29f043e60f_n.jpg",
    "id_album": "-1584065887",
    "description": "ANIME_PIC_1769687509fda7770b1b51db5e713324,[GirlsLoli],[isGirlAnime],[isCuteAnime],[isGirlsHornsAnime],[isGirlsLoliAnime],[isGirlsSharpCanineToothAnime]",
    "title": "ANIME_PIC_1769687509fda7770b1b51db5e713324",
    "link_img": "https://live.staticflickr.com/65535/51560330705_c3ef036dfe_o.jpg",
    "id_image": "ANIME_PIC_1769687509fda7770b1b51db5e713324",
    "count_view": 0
  },
  {
    "link_thumb": "https://live.staticflickr.com/65535/51559642483_f6eeba8fa5_n.jpg",
    "id_album": "-1584065887",
    "description": "ANIME_PIC_176c5025a7d6486a802a78cbf903f5c8,[GirlsLoli],[isGirlAnime],[isCuteAnime],[isGirlFaceMasksAnime],[isGirlsLoliAnime]",
    "title": "ANIME_PIC_176c5025a7d6486a802a78cbf903f5c8",
    "link_img": "https://live.staticflickr.com/65535/51559642483_6d15784174_o.jpg",
    "id_image": "ANIME_PIC_176c5025a7d6486a802a78cbf903f5c8",
    "count_view": 0
  },
  {
    "link_thumb": "https://live.staticflickr.com/65535/50152058941_6b4e1716d5_n.jpg",
    "id_album": "-1584065887",
    "description": "ANIME_PIC_1771834f523a63e2f1bea018b04b2ed0,[isGirlAnime],[isCuteAnime],[isGirlsLoliAnime],[Girls Loli],[GirlsLoli]",
    "title": "ANIME_PIC_1771834f523a63e2f1bea018b04b2ed0",
    "link_img": "https://live.staticflickr.com/65535/50152058941_d4d8a13cb2_o.jpg",
    "id_image": "ANIME_PIC_1771834f523a63e2f1bea018b04b2ed0",
    "count_view": 0
  },
  {
    "link_thumb": "https://live.staticflickr.com/65535/51558617737_f898095c8b_n.jpg",
    "id_album": "-1584065887",
    "description": "ANIME_PIC_177263e3396ef716422aaf035a08e09d,[GirlsLoli],[isGirlAnime],[isCuteAnime],[isGirlsLoliAnime]",
    "title": "ANIME_PIC_177263e3396ef716422aaf035a08e09d",
    "link_img": "https://live.staticflickr.com/65535/51558617737_b0a5a656cc_o.jpg",
    "id_image": "ANIME_PIC_177263e3396ef716422aaf035a08e09d",
    "count_view": 0
  },
  {
    "link_thumb": "https://live.staticflickr.com/65535/51560101264_a3073cfc43_n.jpg",
    "id_album": "-1584065887",
    "description": "ANIME_PIC_17777af6d79a04c894bebb0d42e7d410,[GirlsLoli],[isGirlAnime],[isCuteAnime],[isGirlsLoliAnime]",
    "title": "ANIME_PIC_17777af6d79a04c894bebb0d42e7d410",
    "link_img": "https://live.staticflickr.com/65535/51560101264_8c3a4117cd_o.jpg",
    "id_image": "ANIME_PIC_17777af6d79a04c894bebb0d42e7d410",
    "count_view": 0
  },
  {
    "link_thumb": "https://live.staticflickr.com/65535/51559407561_ef332dfc57_n.jpg",
    "id_album": "-1584065887",
    "description": "ANIME_PIC_177c204e34b535c40f37ac313b83b4f4,[GirlsLoli],[isGirlAnime],[isCuteAnime],[isGirlsLoliAnime]",
    "title": "ANIME_PIC_177c204e34b535c40f37ac313b83b4f4",
    "link_img": "https://live.staticflickr.com/65535/51559407561_ef77e6df13_o.png",
    "id_image": "ANIME_PIC_177c204e34b535c40f37ac313b83b4f4",
    "count_view": 0
  },
  {
    "link_thumb": "https://live.staticflickr.com/65535/50056101803_dfbccac8b3_n.jpg",
    "id_album": "-1584065887",
    "description": "ANIME_PIC_178899d1709c010d7c7b7243432240aa,[isGirlAnime],[isCuteAnime],[isGirlsLoliAnime],[Girls Loli],[GirlsLoli],[isGirlEarsNekoAnime]",
    "title": "ANIME_PIC_178899d1709c010d7c7b7243432240aa",
    "link_img": "https://live.staticflickr.com/65535/50056101803_2ee8659ebb_o.jpg",
    "id_image": "ANIME_PIC_178899d1709c010d7c7b7243432240aa",
    "count_view": 0
  },
  {
    "link_thumb": "https://live.staticflickr.com/65535/51560331850_0536b7684a_n.jpg",
    "id_album": "-1584065887",
    "description": "ANIME_PIC_178d515760546f163f54672096156cb0,[GirlsLoli],[isGirlAnime],[isCuteAnime],[isGirlsLoliAnime]",
    "title": "ANIME_PIC_178d515760546f163f54672096156cb0",
    "link_img": "https://live.staticflickr.com/65535/51560331850_b52ebb5da1_o.jpg",
    "id_image": "ANIME_PIC_178d515760546f163f54672096156cb0",
    "count_view": 0
  },
  {
    "link_thumb": "https://live.staticflickr.com/65535/51559408001_83642273bb_n.jpg",
    "id_album": "-1584065887",
    "description": "ANIME_PIC_178e61c106415e8fecec96794503fae7,[GirlsLoli],[isGirlAnime],[isCuteAnime],[isGirlsLoliAnime]",
    "title": "ANIME_PIC_178e61c106415e8fecec96794503fae7",
    "link_img": "https://live.staticflickr.com/65535/51559408001_cc6211cc07_o.png",
    "id_image": "ANIME_PIC_178e61c106415e8fecec96794503fae7",
    "count_view": 0
  },
  {
    "link_thumb": "https://live.staticflickr.com/65535/51558618672_338def350a_n.jpg",
    "id_album": "-1584065887",
    "description": "ANIME_PIC_178e648a9467629d46016bd7c82eadbf,[GirlsLoli],[isGirlAnime],[isCuteAnime],[isGirlEarsNekoAnime],[isGirlsLoliAnime]",
    "title": "ANIME_PIC_178e648a9467629d46016bd7c82eadbf",
    "link_img": "https://live.staticflickr.com/65535/51558618672_a517f40eeb_o.jpg",
    "id_image": "ANIME_PIC_178e648a9467629d46016bd7c82eadbf",
    "count_view": 0
  },
  {
    "link_thumb": "https://live.staticflickr.com/65535/51560102259_d6416649b4_n.jpg",
    "id_album": "-1584065887",
    "description": "ANIME_PIC_178f0809db9b0245f2760eebe6e0986e,[GirlsLoli],[isGirlAnime],[isCuteAnime],[isGirlsLoliAnime],[isSadAnimeGirl],[isSadAnime]",
    "title": "ANIME_PIC_178f0809db9b0245f2760eebe6e0986e",
    "link_img": "https://live.staticflickr.com/65535/51560102259_497dabe3c0_o.jpg",
    "id_image": "ANIME_PIC_178f0809db9b0245f2760eebe6e0986e",
    "count_view": 0
  },
  {
    "link_thumb": "https://live.staticflickr.com/65535/51560102454_6881cab255_n.jpg",
    "id_album": "-1584065887",
    "description": "ANIME_PIC_179a528b0e4448d3b52a03cc2f9d94e3,[GirlsLoli],[isGirlAnime],[isCuteAnime],[isGirlsLoliAnime],[isSadAnimeGirl],[isSadAnime]",
    "title": "ANIME_PIC_179a528b0e4448d3b52a03cc2f9d94e3",
    "link_img": "https://live.staticflickr.com/65535/51560102454_54196c8a94_o.jpg",
    "id_image": "ANIME_PIC_179a528b0e4448d3b52a03cc2f9d94e3",
    "count_view": 0
  },
  {
    "link_thumb": "https://live.staticflickr.com/65535/51560332820_b9dfca4c5e_n.jpg",
    "id_album": "-1584065887",
    "description": "ANIME_PIC_179cde32891466ab2f948f701e86fd4f,[GirlsLoli],[isGirlAnime],[isCuteAnime],[isGirlsLoliAnime]",
    "title": "ANIME_PIC_179cde32891466ab2f948f701e86fd4f",
    "link_img": "https://live.staticflickr.com/65535/51560332820_b0656a8d83_o.jpg",
    "id_image": "ANIME_PIC_179cde32891466ab2f948f701e86fd4f",
    "count_view": 0
  },
  {
    "link_thumb": "https://live.staticflickr.com/65535/51559644328_82fb22550a_n.jpg",
    "id_album": "-1584065887",
    "description": "ANIME_PIC_179e720ba911d3fa5faa554de55f71ad,[GirlsLoli],[isGirlAnime],[isCuteAnime],[isGirlsHatsHoodieAnime],[isGirlsLoliAnime]",
    "title": "ANIME_PIC_179e720ba911d3fa5faa554de55f71ad",
    "link_img": "https://live.staticflickr.com/65535/51559644328_330606efc1_o.jpg",
    "id_image": "ANIME_PIC_179e720ba911d3fa5faa554de55f71ad",
    "count_view": 0
  },
  {
    "link_thumb": "https://live.staticflickr.com/65535/51560103084_dc150d52f6_n.jpg",
    "id_album": "-1584065887",
    "description": "ANIME_PIC_17a0afb8336991695701e1e3080dcc8a,[GirlsLoli],[isGirlAnime],[isCuteAnime],[isGirlsLoliAnime],[isSadAnimeGirl],[isSadAnime]",
    "title": "ANIME_PIC_17a0afb8336991695701e1e3080dcc8a",
    "link_img": "https://live.staticflickr.com/65535/51560103084_6e0ba6e1d4_o.jpg",
    "id_image": "ANIME_PIC_17a0afb8336991695701e1e3080dcc8a",
    "count_view": 0
  },
  {
    "link_thumb": "https://live.staticflickr.com/65535/51558619782_ea3080823f_n.jpg",
    "id_album": "-1584065887",
    "description": "ANIME_PIC_17c9488938588a408e940928420d347a,[GirlsLoli],[isGirlAnime],[isCuteAnime],[isGirlsHatsHoodieAnime],[isGirlsLoliAnime]",
    "title": "ANIME_PIC_17c9488938588a408e940928420d347a",
    "link_img": "https://live.staticflickr.com/65535/51558619782_bc7bf4b6f3_o.png",
    "id_image": "ANIME_PIC_17c9488938588a408e940928420d347a",
    "count_view": 0
  },
  {
    "link_thumb": "https://live.staticflickr.com/65535/51558620067_3bcfa90932_n.jpg",
    "id_album": "-1584065887",
    "description": "ANIME_PIC_17d05cb4a3247f06db243261f232d18f,[GirlsLoli],[isGirlAnime],[isCuteAnime],[isGirlsLoliAnime],[isSadAnimeGirl],[isSadAnime]",
    "title": "ANIME_PIC_17d05cb4a3247f06db243261f232d18f",
    "link_img": "https://live.staticflickr.com/65535/51558620067_3383a61193_o.jpg",
    "id_image": "ANIME_PIC_17d05cb4a3247f06db243261f232d18f",
    "count_view": 0
  },
  {
    "link_thumb": "https://live.staticflickr.com/65535/51559645073_85cb726e9b_n.jpg",
    "id_album": "-1584065887",
    "description": "ANIME_PIC_17d161b83fe5c461abb37d0e701f6c40,[GirlsLoli],[isGirlAnime],[isCuteAnime],[isGirlsLoliAnime]",
    "title": "ANIME_PIC_17d161b83fe5c461abb37d0e701f6c40",
    "link_img": "https://live.staticflickr.com/65535/51559645073_493f48c7b4_o.png",
    "id_image": "ANIME_PIC_17d161b83fe5c461abb37d0e701f6c40",
    "count_view": 0
  },
  {
    "link_thumb": "https://live.staticflickr.com/65535/51560103849_075d802e83_n.jpg",
    "id_album": "-1584065887",
    "description": "ANIME_PIC_17d827d38216f6ef6a8f3e5f447e13f7,[GirlsLoli],[isGirlAnime],[isCuteAnime],[isGirlEarsNekoAnime],[isGirlsLoliAnime]",
    "title": "ANIME_PIC_17d827d38216f6ef6a8f3e5f447e13f7",
    "link_img": "https://live.staticflickr.com/65535/51560103849_4e49e5763c_o.png",
    "id_image": "ANIME_PIC_17d827d38216f6ef6a8f3e5f447e13f7",
    "count_view": 0
  },
  {
    "link_thumb": "https://live.staticflickr.com/65535/51559645948_0ee2b91650_n.jpg",
    "id_album": "-1584065887",
    "description": "ANIME_PIC_17daeea2089b53dcf4556615d7938eca,[GirlsLoli],[isGirlAnime],[isCuteAnime],[isGirlsLoliAnime]",
    "title": "ANIME_PIC_17daeea2089b53dcf4556615d7938eca",
    "link_img": "https://live.staticflickr.com/65535/51559645948_ac86c430f8_o.jpg",
    "id_image": "ANIME_PIC_17daeea2089b53dcf4556615d7938eca",
    "count_view": 0
  },
  {
    "link_thumb": "https://live.staticflickr.com/65535/51559646183_6a8f1e1383_n.jpg",
    "id_album": "-1584065887",
    "description": "ANIME_PIC_17db9f7de64469a0d52f48623c57a24c,[GirlsLoli],[isGirlAnime],[isCuteAnime],[isGirlsLoliAnime]",
    "title": "ANIME_PIC_17db9f7de64469a0d52f48623c57a24c",
    "link_img": "https://live.staticflickr.com/65535/51559646183_cb0a968003_o.jpg",
    "id_image": "ANIME_PIC_17db9f7de64469a0d52f48623c57a24c",
    "count_view": 0
  },
  {
    "link_thumb": "https://live.staticflickr.com/65535/51559646383_340f439353_n.jpg",
    "id_album": "-1584065887",
    "description": "ANIME_PIC_17df85165b8356b254bef601c2d15c7d,[GirlsLoli],[isGirlAnime],[isCuteAnime],[isGirlsLoliAnime]",
    "title": "ANIME_PIC_17df85165b8356b254bef601c2d15c7d",
    "link_img": "https://live.staticflickr.com/65535/51559646383_dda882f221_o.jpg",
    "id_image": "ANIME_PIC_17df85165b8356b254bef601c2d15c7d",
    "count_view": 0
  },
  {
    "link_thumb": "https://live.staticflickr.com/65535/51559646543_7d6d770cbb_n.jpg",
    "id_album": "-1584065887",
    "description": "ANIME_PIC_17e55ffab2410bf43d899ea8e98037ad,[GirlsLoli],[isGirlAnime],[isCuteAnime],[isGirlsLoliAnime]",
    "title": "ANIME_PIC_17e55ffab2410bf43d899ea8e98037ad",
    "link_img": "https://live.staticflickr.com/65535/51559646543_cd40c3667f_o.jpg",
    "id_image": "ANIME_PIC_17e55ffab2410bf43d899ea8e98037ad",
    "count_view": 0
  },
  {
    "link_thumb": "https://live.staticflickr.com/65535/51560335555_015fa88007_n.jpg",
    "id_album": "-1584065887",
    "description": "ANIME_PIC_17e5ffe4f40397ca21f697d8793fcc72,[GirlsLoli],[isGirlAnime],[isCuteAnime],[isGirlsLoliAnime]",
    "title": "ANIME_PIC_17e5ffe4f40397ca21f697d8793fcc72",
    "link_img": "https://live.staticflickr.com/65535/51560335555_1b809510d2_o.jpg",
    "id_image": "ANIME_PIC_17e5ffe4f40397ca21f697d8793fcc72",
    "count_view": 0
  },
  {
    "link_thumb": "https://live.staticflickr.com/65535/51558622247_7692b1c39c_n.jpg",
    "id_album": "-1584065887",
    "description": "ANIME_PIC_17e9e1103d3f0b76da0e3d69cf87619c,[GirlsLoli],[isGirlAnime],[isCuteAnime],[isGirlsLoliAnime]",
    "title": "ANIME_PIC_17e9e1103d3f0b76da0e3d69cf87619c",
    "link_img": "https://live.staticflickr.com/65535/51558622247_f2e2de1318_o.jpg",
    "id_image": "ANIME_PIC_17e9e1103d3f0b76da0e3d69cf87619c",
    "count_view": 0
  },
  {
    "link_thumb": "https://live.staticflickr.com/65535/51560105694_e75f35bf60_n.jpg",
    "id_album": "-1584065887",
    "description": "ANIME_PIC_17f6065e6f3cf168f9ae788ce19de25c,[GirlsLoli],[isGirlAnime],[isCuteAnime],[isGirlsLoliAnime],[isSadAnimeGirl],[isSadAnime]",
    "title": "ANIME_PIC_17f6065e6f3cf168f9ae788ce19de25c",
    "link_img": "https://live.staticflickr.com/65535/51560105694_b03b0c9515_o.png",
    "id_image": "ANIME_PIC_17f6065e6f3cf168f9ae788ce19de25c",
    "count_view": 0
  },
  {
    "link_thumb": "https://live.staticflickr.com/65535/51559647393_4c8523186b_n.jpg",
    "id_album": "-1584065887",
    "description": "ANIME_PIC_17f785b8c3ee64ee1d8c2b8e4bc010c4,[GirlsLoli],[isGirlAnime],[isCuteAnime],[isGirlsLoliAnime]",
    "title": "ANIME_PIC_17f785b8c3ee64ee1d8c2b8e4bc010c4",
    "link_img": "https://live.staticflickr.com/65535/51559647393_b974947d60_o.jpg",
    "id_image": "ANIME_PIC_17f785b8c3ee64ee1d8c2b8e4bc010c4",
    "count_view": 0
  },
  {
    "link_thumb": "https://live.staticflickr.com/65535/51560336455_baf8409100_n.jpg",
    "id_album": "-1584065887",
    "description": "ANIME_PIC_17ff6740c9feada9815daf434c549d5d,[GirlsLoli],[isGirlAnime],[isCuteAnime],[isGirlsLoliAnime]",
    "title": "ANIME_PIC_17ff6740c9feada9815daf434c549d5d",
    "link_img": "https://live.staticflickr.com/65535/51560336455_9a4fc28f56_o.png",
    "id_image": "ANIME_PIC_17ff6740c9feada9815daf434c549d5d",
    "count_view": 0
  },
  {
    "link_thumb": "https://live.staticflickr.com/65535/51560336865_63785c6f07_n.jpg",
    "id_album": "-1584065887",
    "description": "ANIME_PIC_18028dd239936da93522f5d3f96655b7,[GirlsLoli],[isGirlAnime],[isCuteAnime],[isGirlEarsNekoAnime],[isGirlsLoliAnime],[isSadAnimeGirl],[isSadAnime]",
    "title": "ANIME_PIC_18028dd239936da93522f5d3f96655b7",
    "link_img": "https://live.staticflickr.com/65535/51560336865_528778332c_o.jpg",
    "id_image": "ANIME_PIC_18028dd239936da93522f5d3f96655b7",
    "count_view": 0
  },
  {
    "link_thumb": "https://live.staticflickr.com/65535/51558623472_1b2f064060_n.jpg",
    "id_album": "-1584065887",
    "description": "ANIME_PIC_18076e96603899ad2c9599d58f358e66,[GirlsLoli],[isGirlAnime],[isCuteAnime],[isGirlsHatsHoodieAnime],[isGirlsLoliAnime]",
    "title": "ANIME_PIC_18076e96603899ad2c9599d58f358e66",
    "link_img": "https://live.staticflickr.com/65535/51558623472_75c3b4099a_o.png",
    "id_image": "ANIME_PIC_18076e96603899ad2c9599d58f358e66",
    "count_view": 0
  },
  {
    "link_thumb": "https://live.staticflickr.com/65535/51560337385_944e8d223c_n.jpg",
    "id_album": "-1584065887",
    "description": "ANIME_PIC_1808b4949a20324d0196183f43a680ec,[GirlsLoli],[isGirlAnime],[isCuteAnime],[isGirlsLoliAnime]",
    "title": "ANIME_PIC_1808b4949a20324d0196183f43a680ec",
    "link_img": "https://live.staticflickr.com/65535/51560337385_73ca59a84e_o.png",
    "id_image": "ANIME_PIC_1808b4949a20324d0196183f43a680ec",
    "count_view": 0
  },
  {
    "link_thumb": "https://live.staticflickr.com/65535/51560107384_c8e0560788_n.jpg",
    "id_album": "-1584065887",
    "description": "ANIME_PIC_18113d48ba1074b731ef26b6decc6c96,[GirlsLoli],[isGirlAnime],[isCuteAnime],[isGirlsHatsHoodieAnime],[isGirlsLoliAnime]",
    "title": "ANIME_PIC_18113d48ba1074b731ef26b6decc6c96",
    "link_img": "https://live.staticflickr.com/65535/51560107384_2c7758fc47_o.jpg",
    "id_image": "ANIME_PIC_18113d48ba1074b731ef26b6decc6c96",
    "count_view": 0
  },
  {
    "link_thumb": "https://live.staticflickr.com/65535/50030357392_e13b665b1f_n.jpg",
    "id_album": "-1584065887",
    "description": "ANIME_PIC_18120a3f9800de605b5b2a720e4bccb7,[isGirlAnime],[isCuteAnime],[isGirlsLoliAnime],[Girls Loli],[GirlsLoli],[isGirlsHatsHoodieAnime]",
    "title": "ANIME_PIC_18120a3f9800de605b5b2a720e4bccb7",
    "link_img": "https://live.staticflickr.com/65535/50030357392_2538c385c9_o.png",
    "id_image": "ANIME_PIC_18120a3f9800de605b5b2a720e4bccb7",
    "count_view": 0
  },
  {
    "link_thumb": "https://live.staticflickr.com/65535/50151974977_99803a9291_n.jpg",
    "id_album": "-1584065887",
    "description": "ANIME_PIC_181958035d7e7318ef691f2ebe52d4aa,[isGirlAnime],[isCuteAnime],[isGirlsLoliAnime],[Girls Loli],[GirlsLoli]",
    "title": "ANIME_PIC_181958035d7e7318ef691f2ebe52d4aa",
    "link_img": "https://live.staticflickr.com/65535/50151974977_e6ca2255b0_o.jpg",
    "id_image": "ANIME_PIC_181958035d7e7318ef691f2ebe52d4aa",
    "count_view": 0
  },
  {
    "link_thumb": "https://live.staticflickr.com/65535/49996035162_44a2b0a17b_n.jpg",
    "id_album": "-1584065887",
    "description": "ANIME_PIC_181dd2b3119e5191be747a433293b51d,[isGirlAnime],[isCuteAnime],[isGirlsLoliAnime],[Girls Loli],[GirlsLoli],[isGirlsHatsHoodieAnime]",
    "title": "ANIME_PIC_181dd2b3119e5191be747a433293b51d",
    "link_img": "https://live.staticflickr.com/65535/49996035162_33514afdd7_o.png",
    "id_image": "ANIME_PIC_181dd2b3119e5191be747a433293b51d",
    "count_view": 0
  },
  {
    "link_thumb": "https://live.staticflickr.com/65535/51558624282_4e60aeb6e3_n.jpg",
    "id_album": "-1584065887",
    "description": "ANIME_PIC_182954b65fae0a64ed2947f1ac477339,[GirlsLoli],[isGirlAnime],[isCuteAnime],[isGirlsLoliAnime]",
    "title": "ANIME_PIC_182954b65fae0a64ed2947f1ac477339",
    "link_img": "https://live.staticflickr.com/65535/51558624282_47c0f5b140_o.jpg",
    "id_image": "ANIME_PIC_182954b65fae0a64ed2947f1ac477339",
    "count_view": 0
  },
  {
    "link_thumb": "https://live.staticflickr.com/65535/51559413791_b46c4527c4_n.jpg",
    "id_album": "-1584065887",
    "description": "ANIME_PIC_182dfc71bc0f3fb56a7d0c253a3db653,[GirlsLoli],[isGirlAnime],[isCuteAnime],[isGirlsHatsHoodieAnime],[isGirlsLoliAnime]",
    "title": "ANIME_PIC_182dfc71bc0f3fb56a7d0c253a3db653",
    "link_img": "https://live.staticflickr.com/65535/51559413791_484cbfbccc_o.jpg",
    "id_image": "ANIME_PIC_182dfc71bc0f3fb56a7d0c253a3db653",
    "count_view": 0
  },
  {
    "link_thumb": "https://live.staticflickr.com/65535/49995262178_b5f8307b0b_n.jpg",
    "id_album": "-1584065887",
    "description": "ANIME_PIC_183161d06ce97bea815e78818a402d4a,[isGirlAnime],[isCuteAnime],[isGirlsLoliAnime],[Girls Loli],[GirlsLoli],[isGirlEarsNekoAnime]",
    "title": "ANIME_PIC_183161d06ce97bea815e78818a402d4a",
    "link_img": "https://live.staticflickr.com/65535/49995262178_cc3dc5d00c_o.jpg",
    "id_image": "ANIME_PIC_183161d06ce97bea815e78818a402d4a",
    "count_view": 0
  },
  {
    "link_thumb": "https://live.staticflickr.com/65535/51559414076_810cf55042_n.jpg",
    "id_album": "-1584065887",
    "description": "ANIME_PIC_183764e8b59af2ddfef16954e69940d9,[GirlsLoli],[isGirlAnime],[isCuteAnime],[isGirlFaceMasksAnime],[isGirlsHatsHoodieAnime],[isGirlsLoliAnime],[isSadAnimeGirl],[isSadAnime]",
    "title": "ANIME_PIC_183764e8b59af2ddfef16954e69940d9",
    "link_img": "https://live.staticflickr.com/65535/51559414076_a4171691b8_o.jpg",
    "id_image": "ANIME_PIC_183764e8b59af2ddfef16954e69940d9",
    "count_view": 0
  },
  {
    "link_thumb": "https://live.staticflickr.com/65535/51559649598_c891eb5da9_n.jpg",
    "id_album": "-1584065887",
    "description": "ANIME_PIC_183abd0df9ac310bed3b98cb891e0d5f,[GirlsLoli],[isGirlAnime],[isCuteAnime],[isGirlsHatsHoodieAnime],[isGirlsLoliAnime]",
    "title": "ANIME_PIC_183abd0df9ac310bed3b98cb891e0d5f",
    "link_img": "https://live.staticflickr.com/65535/51559649598_f2b2bcb15d_o.jpg",
    "id_image": "ANIME_PIC_183abd0df9ac310bed3b98cb891e0d5f",
    "count_view": 0
  },
  {
    "link_thumb": "https://live.staticflickr.com/65535/51559414616_f7a2efb2b3_n.jpg",
    "id_album": "-1584065887",
    "description": "ANIME_PIC_18414a9e456e5f0ce9e3ba60c3691bcd,[GirlsLoli],[isGirlAnime],[isCuteAnime],[isGirlsLoliAnime],[isSadAnimeGirl],[isSadAnime]",
    "title": "ANIME_PIC_18414a9e456e5f0ce9e3ba60c3691bcd",
    "link_img": "https://live.staticflickr.com/65535/51559414616_8e26427055_o.jpg",
    "id_image": "ANIME_PIC_18414a9e456e5f0ce9e3ba60c3691bcd",
    "count_view": 0
  },
  {
    "link_thumb": "https://live.staticflickr.com/65535/51559650058_1e39998ff0_n.jpg",
    "id_album": "-1584065887",
    "description": "ANIME_PIC_1845eb616ac9303c96bc2356b5ddc413,[GirlsLoli],[isGirlAnime],[isCuteAnime],[isGirlsHatsHoodieAnime],[isGirlsLoliAnime]",
    "title": "ANIME_PIC_1845eb616ac9303c96bc2356b5ddc413",
    "link_img": "https://live.staticflickr.com/65535/51559650058_0b87f8b5d4_o.jpg",
    "id_image": "ANIME_PIC_1845eb616ac9303c96bc2356b5ddc413",
    "count_view": 0
  },
  {
    "link_thumb": "https://live.staticflickr.com/65535/51560339225_49e0228099_n.jpg",
    "id_album": "-1584065887",
    "description": "ANIME_PIC_18482ae469d867fdb8cbce46c00579a7,[GirlsLoli],[isGirlAnime],[isCuteAnime],[isGirlsHatsHoodieAnime],[isGirlsLoliAnime],[isSadAnimeGirl],[isSadAnime]",
    "title": "ANIME_PIC_18482ae469d867fdb8cbce46c00579a7",
    "link_img": "https://live.staticflickr.com/65535/51560339225_7d73a7e5ae_o.jpg",
    "id_image": "ANIME_PIC_18482ae469d867fdb8cbce46c00579a7",
    "count_view": 0
  },
  {
    "link_thumb": "https://live.staticflickr.com/65535/51558625937_5feb4bc556_n.jpg",
    "id_album": "-1584065887",
    "description": "ANIME_PIC_1848f5a270012837c972b41c6fca8262,[GirlsLoli],[isGirlAnime],[isCuteAnime],[isGirlsLoliAnime]",
    "title": "ANIME_PIC_1848f5a270012837c972b41c6fca8262",
    "link_img": "https://live.staticflickr.com/65535/51558625937_8440001cfb_o.png",
    "id_image": "ANIME_PIC_1848f5a270012837c972b41c6fca8262",
    "count_view": 0
  },
  {
    "link_thumb": "https://live.staticflickr.com/65535/51560339880_a133546bb8_n.jpg",
    "id_album": "-1584065887",
    "description": "ANIME_PIC_184fb7a973fe36a884414ef906a6a3dd,[GirlsLoli],[isGirlAnime],[isCuteAnime],[isGirlsLoliAnime]",
    "title": "ANIME_PIC_184fb7a973fe36a884414ef906a6a3dd",
    "link_img": "https://live.staticflickr.com/65535/51560339880_6c853d7a3b_o.jpg",
    "id_image": "ANIME_PIC_184fb7a973fe36a884414ef906a6a3dd",
    "count_view": 0
  },
  {
    "link_thumb": "https://live.staticflickr.com/65535/51559651028_c57f64b1ef_n.jpg",
    "id_album": "-1584065887",
    "description": "ANIME_PIC_18586199a3c452c9db38b585fb06f3ef,[GirlsLoli],[isGirlAnime],[isCuteAnime],[isGirlsLoliAnime]",
    "title": "ANIME_PIC_18586199a3c452c9db38b585fb06f3ef",
    "link_img": "https://live.staticflickr.com/65535/51559651028_8758d814ca_o.jpg",
    "id_image": "ANIME_PIC_18586199a3c452c9db38b585fb06f3ef",
    "count_view": 0
  },
  {
    "link_thumb": "https://live.staticflickr.com/65535/51559415856_b9375580c0_n.jpg",
    "id_album": "-1584065887",
    "description": "ANIME_PIC_1860f802a3790ee1bdec8fb7cfa0bf00,[GirlsLoli],[isGirlAnime],[isCuteAnime],[isGirlsLoliAnime]",
    "title": "ANIME_PIC_1860f802a3790ee1bdec8fb7cfa0bf00",
    "link_img": "https://live.staticflickr.com/65535/51559415856_3edc64cbf4_o.jpg",
    "id_image": "ANIME_PIC_1860f802a3790ee1bdec8fb7cfa0bf00",
    "count_view": 0
  },
  {
    "link_thumb": "https://live.staticflickr.com/65535/51558626717_3a91c32c51_n.jpg",
    "id_album": "-1584065887",
    "description": "ANIME_PIC_18682c4d119fec1534eb0f9f1a4a55ac,[GirlsLoli],[isGirlAnime],[isCuteAnime],[isGirlsHatsHoodieAnime],[isGirlsLoliAnime]",
    "title": "ANIME_PIC_18682c4d119fec1534eb0f9f1a4a55ac",
    "link_img": "https://live.staticflickr.com/65535/51558626717_11035af212_o.png",
    "id_image": "ANIME_PIC_18682c4d119fec1534eb0f9f1a4a55ac",
    "count_view": 0
  },
  {
    "link_thumb": "https://live.staticflickr.com/65535/51560110559_2d8d459ae9_n.jpg",
    "id_album": "-1584065887",
    "description": "ANIME_PIC_1868769eafbbb65e59bf7eeb242f85ce,[GirlsLoli],[isGirlAnime],[isCuteAnime],[isGirlsLoliAnime],[isSadAnimeGirl],[isSadAnime]",
    "title": "ANIME_PIC_1868769eafbbb65e59bf7eeb242f85ce",
    "link_img": "https://live.staticflickr.com/65535/51560110559_92e696704b_o.jpg",
    "id_image": "ANIME_PIC_1868769eafbbb65e59bf7eeb242f85ce",
    "count_view": 0
  },
  {
    "link_thumb": "https://live.staticflickr.com/65535/51560340925_151c70ef60_n.jpg",
    "id_album": "-1584065887",
    "description": "ANIME_PIC_186af8a47e9f251b82bd0048ea7eb0ce,[GirlsLoli],[isGirlAnime],[isCuteAnime],[isGirlsLoliAnime]",
    "title": "ANIME_PIC_186af8a47e9f251b82bd0048ea7eb0ce",
    "link_img": "https://live.staticflickr.com/65535/51560340925_e8c672b405_o.jpg",
    "id_image": "ANIME_PIC_186af8a47e9f251b82bd0048ea7eb0ce",
    "count_view": 0
  },
  {
    "link_thumb": "https://live.staticflickr.com/65535/51560341105_bd1b331194_n.jpg",
    "id_album": "-1584065887",
    "description": "ANIME_PIC_187181d32a7fa779870a4493d7eb76d5,[GirlsLoli],[isGirlAnime],[isCuteAnime],[isGirlsHatsHoodieAnime],[isGirlsLoliAnime],[isSadAnimeGirl],[isSadAnime]",
    "title": "ANIME_PIC_187181d32a7fa779870a4493d7eb76d5",
    "link_img": "https://live.staticflickr.com/65535/51560341105_f6979bc622_o.png",
    "id_image": "ANIME_PIC_187181d32a7fa779870a4493d7eb76d5",
    "count_view": 0
  },
  {
    "link_thumb": "https://live.staticflickr.com/65535/51559652438_d871c5a3e4_n.jpg",
    "id_album": "-1584065887",
    "description": "ANIME_PIC_1871b50953b2d4eeabf50f08a1fbd652,[GirlsLoli],[isGirlAnime],[isCuteAnime],[isGirlsLoliAnime]",
    "title": "ANIME_PIC_1871b50953b2d4eeabf50f08a1fbd652",
    "link_img": "https://live.staticflickr.com/65535/51559652438_0e644d74be_o.jpg",
    "id_image": "ANIME_PIC_1871b50953b2d4eeabf50f08a1fbd652",
    "count_view": 0
  },
  {
    "link_thumb": "https://live.staticflickr.com/65535/51558627987_7fb742c083_n.jpg",
    "id_album": "-1584065887",
    "description": "ANIME_PIC_1874a78da5bc439cf5bfd1431d96cefd,[GirlsLoli],[isGirlAnime],[isCuteAnime],[isGirlEarsNekoAnime],[isGirlsLoliAnime],[isSadAnimeGirl],[isSadAnime]",
    "title": "ANIME_PIC_1874a78da5bc439cf5bfd1431d96cefd",
    "link_img": "https://live.staticflickr.com/65535/51558627987_ee6414994e_o.jpg",
    "id_image": "ANIME_PIC_1874a78da5bc439cf5bfd1431d96cefd",
    "count_view": 0
  },
  {
    "link_thumb": "https://live.staticflickr.com/65535/51558628137_022ae36bd2_n.jpg",
    "id_album": "-1584065887",
    "description": "ANIME_PIC_187816714bac4e2be3040b5b2d4c2339,[GirlsLoli],[isGirlAnime],[isCuteAnime],[isGirlFaceMasksAnime],[isGirlsLoliAnime]",
    "title": "ANIME_PIC_187816714bac4e2be3040b5b2d4c2339",
    "link_img": "https://live.staticflickr.com/65535/51558628137_282de7fdcc_o.jpg",
    "id_image": "ANIME_PIC_187816714bac4e2be3040b5b2d4c2339",
    "count_view": 0
  },
  {
    "link_thumb": "https://live.staticflickr.com/65535/51560111754_78fc808515_n.jpg",
    "id_album": "-1584065887",
    "description": "ANIME_PIC_187ac53efbc835549dcceb03b6e52cac,[GirlsLoli],[isGirlAnime],[isGirlsHatsHoodieAnime],[isGirlsLoliAnime],[isSadAnimeGirl],[isSadAnime]",
    "title": "ANIME_PIC_187ac53efbc835549dcceb03b6e52cac",
    "link_img": "https://live.staticflickr.com/65535/51560111754_0ac87a26bf_o.jpg",
    "id_image": "ANIME_PIC_187ac53efbc835549dcceb03b6e52cac",
    "count_view": 0
  },
  {
    "link_thumb": "https://live.staticflickr.com/65535/51559417836_17cd7cf1f9_n.jpg",
    "id_album": "-1584065887",
    "description": "ANIME_PIC_187ecf070b23d7e1cf868e4fe0e1be15,[GirlsLoli],[isGirlAnime],[isCuteAnime],[isGirlEarsNekoAnime],[isGirlsLoliAnime]",
    "title": "ANIME_PIC_187ecf070b23d7e1cf868e4fe0e1be15",
    "link_img": "https://live.staticflickr.com/65535/51559417836_3b1a3bb875_o.jpg",
    "id_image": "ANIME_PIC_187ecf070b23d7e1cf868e4fe0e1be15",
    "count_view": 0
  },
  {
    "link_thumb": "https://live.staticflickr.com/65535/51559653318_61a9cdd93c_n.jpg",
    "id_album": "-1584065887",
    "description": "ANIME_PIC_18833a5e950e182a7d549a1ba336858b,[GirlsLoli],[isGirlAnime],[isCuteAnime],[isGirlsLoliAnime]",
    "title": "ANIME_PIC_18833a5e950e182a7d549a1ba336858b",
    "link_img": "https://live.staticflickr.com/65535/51559653318_2e1d844308_o.jpg",
    "id_image": "ANIME_PIC_18833a5e950e182a7d549a1ba336858b",
    "count_view": 0
  },
  {
    "link_thumb": "https://live.staticflickr.com/65535/51559653478_21592fc017_n.jpg",
    "id_album": "-1584065887",
    "description": "ANIME_PIC_1885c50daf9281142d3202a74d4c1ae6,[GirlsLoli],[isGirlAnime],[isCuteAnime],[isGirlsLoliAnime]",
    "title": "ANIME_PIC_1885c50daf9281142d3202a74d4c1ae6",
    "link_img": "https://live.staticflickr.com/65535/51559653478_3939d4e7e5_o.png",
    "id_image": "ANIME_PIC_1885c50daf9281142d3202a74d4c1ae6",
    "count_view": 0
  },
  {
    "link_thumb": "https://live.staticflickr.com/65535/51559418386_b9f73333be_n.jpg",
    "id_album": "-1584065887",
    "description": "ANIME_PIC_188964aeae9ae785e9f71e8fdd241182,[GirlsLoli],[isGirlAnime],[isCuteAnime],[isGirlsLoliAnime]",
    "title": "ANIME_PIC_188964aeae9ae785e9f71e8fdd241182",
    "link_img": "https://live.staticflickr.com/65535/51559418386_c4ffaa86da_o.jpg",
    "id_image": "ANIME_PIC_188964aeae9ae785e9f71e8fdd241182",
    "count_view": 0
  },
  {
    "link_thumb": "https://live.staticflickr.com/65535/49893061373_17c462bc32_n.jpg",
    "id_album": "-1584065887",
    "description": "ANIME_PIC_188df11171e0b299c73570558919bd38,[isGirlAnime],[isCuteAnime],[isGirlsLoliAnime],[Girls Loli],[GirlsLoli],[isGirlsHatsHoodieAnime]",
    "title": "ANIME_PIC_188df11171e0b299c73570558919bd38",
    "link_img": "https://live.staticflickr.com/65535/49893061373_b03749b141_o.jpg",
    "id_image": "ANIME_PIC_188df11171e0b299c73570558919bd38",
    "count_view": 0
  },
  {
    "link_thumb": "https://live.staticflickr.com/65535/51560112709_5e975358af_n.jpg",
    "id_album": "-1584065887",
    "description": "ANIME_PIC_188e8e93618efb727be331139a5a6024,[GirlsLoli],[isGirlAnime],[isCuteAnime],[isGirlsLoliAnime],[isSadAnimeGirl],[isSadAnime]",
    "title": "ANIME_PIC_188e8e93618efb727be331139a5a6024",
    "link_img": "https://live.staticflickr.com/65535/51560112709_c8209029ba_o.jpg",
    "id_image": "ANIME_PIC_188e8e93618efb727be331139a5a6024",
    "count_view": 0
  },
  {
    "link_thumb": "https://live.staticflickr.com/65535/50151975107_6d279bbfb8_n.jpg",
    "id_album": "-1584065887",
    "description": "ANIME_PIC_189624328afa86e227e6e0ee47aefeb1,[isGirlAnime],[isCuteAnime],[isGirlsLoliAnime],[Girls Loli],[GirlsLoli]",
    "title": "ANIME_PIC_189624328afa86e227e6e0ee47aefeb1",
    "link_img": "https://live.staticflickr.com/65535/50151975107_c60dd84bb3_o.jpg",
    "id_image": "ANIME_PIC_189624328afa86e227e6e0ee47aefeb1",
    "count_view": 0
  },
  {
    "link_thumb": "https://live.staticflickr.com/65535/51558629427_3150a8bf7e_n.jpg",
    "id_album": "-1584065887",
    "description": "ANIME_PIC_1898586678aea82b4e4eb85e0e303cf3,[GirlsLoli],[isGirlAnime],[isCuteAnime],[isGirlEarsNekoAnime],[isGirlsLoliAnime]",
    "title": "ANIME_PIC_1898586678aea82b4e4eb85e0e303cf3",
    "link_img": "https://live.staticflickr.com/65535/51558629427_d15e82ab49_o.jpg",
    "id_image": "ANIME_PIC_1898586678aea82b4e4eb85e0e303cf3",
    "count_view": 0
  },
  {
    "link_thumb": "https://live.staticflickr.com/65535/51558629722_f40446e356_n.jpg",
    "id_album": "-1584065887",
    "description": "ANIME_PIC_1899f4a1fbc311fb87cf7d69809497ef,[GirlsLoli],[isGirlAnime],[isCuteAnime],[isGirlsHatsHoodieAnime],[isGirlsLoliAnime]",
    "title": "ANIME_PIC_1899f4a1fbc311fb87cf7d69809497ef",
    "link_img": "https://live.staticflickr.com/65535/51558629722_154c5a907a_o.jpg",
    "id_image": "ANIME_PIC_1899f4a1fbc311fb87cf7d69809497ef",
    "count_view": 0
  },
  {
    "link_thumb": "https://live.staticflickr.com/65535/51560113264_6c81e3ac44_n.jpg",
    "id_album": "-1584065887",
    "description": "ANIME_PIC_189e9fbd9d735e2bcb4f70c446c18119,[GirlsLoli],[isGirlAnime],[isCuteAnime],[isGirlsLoliAnime],[isSadAnimeGirl],[isSadAnime]",
    "title": "ANIME_PIC_189e9fbd9d735e2bcb4f70c446c18119",
    "link_img": "https://live.staticflickr.com/65535/51560113264_7e4a7aacd3_o.png",
    "id_image": "ANIME_PIC_189e9fbd9d735e2bcb4f70c446c18119",
    "count_view": 0
  },
  {
    "link_thumb": "https://live.staticflickr.com/65535/51560113494_e57cf88bc4_n.jpg",
    "id_album": "-1584065887",
    "description": "ANIME_PIC_189ef4efc0e3f0b760a42fab2dd4a520,[GirlsLoli],[isGirlAnime],[isCuteAnime],[isGirlEarsNekoAnime],[isGirlsLoliAnime]",
    "title": "ANIME_PIC_189ef4efc0e3f0b760a42fab2dd4a520",
    "link_img": "https://live.staticflickr.com/65535/51560113494_8b67869729_o.jpg",
    "id_image": "ANIME_PIC_189ef4efc0e3f0b760a42fab2dd4a520",
    "count_view": 0
  },
  {
    "link_thumb": "https://live.staticflickr.com/65535/51559654908_d2a49e6ee2_n.jpg",
    "id_album": "-1584065887",
    "description": "ANIME_PIC_18a280b8072c1063e8ae2830a1a0b179,[GirlsLoli],[isGirlAnime],[isCuteAnime],[isGirlsLoliAnime]",
    "title": "ANIME_PIC_18a280b8072c1063e8ae2830a1a0b179",
    "link_img": "https://live.staticflickr.com/65535/51559654908_ac495eb8dd_o.png",
    "id_image": "ANIME_PIC_18a280b8072c1063e8ae2830a1a0b179",
    "count_view": 0
  },
  {
    "link_thumb": "https://live.staticflickr.com/65535/51559655203_cf30f65033_n.jpg",
    "id_album": "-1584065887",
    "description": "ANIME_PIC_18a322d27e1c377d12b960a15e72ae86,[GirlsLoli],[isGirlAnime],[isCuteAnime],[isGirlsLoliAnime]",
    "title": "ANIME_PIC_18a322d27e1c377d12b960a15e72ae86",
    "link_img": "https://live.staticflickr.com/65535/51559655203_4cc0c3b9a9_o.jpg",
    "id_image": "ANIME_PIC_18a322d27e1c377d12b960a15e72ae86",
    "count_view": 0
  },
  {
    "link_thumb": "https://live.staticflickr.com/65535/51560344285_bb33f9b34f_n.jpg",
    "id_album": "-1584065887",
    "description": "ANIME_PIC_18a3fd10df5b1f69b46430698d76e812,[GirlsLoli],[isGirlAnime],[isCuteAnime],[isGirlEarsNekoAnime],[isGirlsHornsAnime],[isGirlsLoliAnime]",
    "title": "ANIME_PIC_18a3fd10df5b1f69b46430698d76e812",
    "link_img": "https://live.staticflickr.com/65535/51560344285_46bde26b58_o.jpg",
    "id_image": "ANIME_PIC_18a3fd10df5b1f69b46430698d76e812",
    "count_view": 0
  },
  {
    "link_thumb": "https://live.staticflickr.com/65535/51560344385_8c413da2bf_n.jpg",
    "id_album": "-1584065887",
    "description": "ANIME_PIC_18aabf25b825b762542817d57d9906a0,[GirlsLoli],[isGirlAnime],[isCuteAnime],[isGirlsLoliAnime]",
    "title": "ANIME_PIC_18aabf25b825b762542817d57d9906a0",
    "link_img": "https://live.staticflickr.com/65535/51560344385_9e6b96a545_o.jpg",
    "id_image": "ANIME_PIC_18aabf25b825b762542817d57d9906a0",
    "count_view": 0
  },
  {
    "link_thumb": "https://live.staticflickr.com/65535/51558631317_bb9c614c02_n.jpg",
    "id_album": "-1584065887",
    "description": "ANIME_PIC_18ac2ad300763ec03f4f26f39b5cac6f,[GirlsLoli],[isGirlAnime],[isCuteAnime],[isGirlsHatsHoodieAnime],[isGirlsLoliAnime]",
    "title": "ANIME_PIC_18ac2ad300763ec03f4f26f39b5cac6f",
    "link_img": "https://live.staticflickr.com/65535/51558631317_04e4779db8_o.jpg",
    "id_image": "ANIME_PIC_18ac2ad300763ec03f4f26f39b5cac6f",
    "count_view": 0
  },
  {
    "link_thumb": "https://live.staticflickr.com/65535/51559655923_10c78b2314_n.jpg",
    "id_album": "-1584065887",
    "description": "ANIME_PIC_18b17044d540ac93a3b5cd2c34f5c9b4,[GirlsLoli],[isGirlAnime],[isCuteAnime],[isGirlsLoliAnime],[isSadAnimeGirl],[isSadAnime]",
    "title": "ANIME_PIC_18b17044d540ac93a3b5cd2c34f5c9b4",
    "link_img": "https://live.staticflickr.com/65535/51559655923_213662c8d2_o.jpg",
    "id_image": "ANIME_PIC_18b17044d540ac93a3b5cd2c34f5c9b4",
    "count_view": 0
  },
  {
    "link_thumb": "https://live.staticflickr.com/65535/50154118761_ea233d4efb_n.jpg",
    "id_album": "-1584065887",
    "description": "ANIME_PIC_18b519fa050dca69a5d701cdd959069f,[isGirlAnime],[isCuteAnime],[isGirlsLoliAnime],[Girls Loli],[GirlsLoli]",
    "title": "ANIME_PIC_18b519fa050dca69a5d701cdd959069f",
    "link_img": "https://live.staticflickr.com/65535/50154118761_2ec6c0e6f4_o.png",
    "id_image": "ANIME_PIC_18b519fa050dca69a5d701cdd959069f",
    "count_view": 0
  },
  {
    "link_thumb": "https://live.staticflickr.com/65535/51560344970_26062f5420_n.jpg",
    "id_album": "-1584065887",
    "description": "ANIME_PIC_18baee56ffdd4f0940f67b0810de0655,[GirlsLoli],[isGirlAnime],[isCuteAnime],[isGirlsLoliAnime],[isSadAnimeGirl],[isSadAnime]",
    "title": "ANIME_PIC_18baee56ffdd4f0940f67b0810de0655",
    "link_img": "https://live.staticflickr.com/65535/51560344970_598dfe29da_o.jpg",
    "id_image": "ANIME_PIC_18baee56ffdd4f0940f67b0810de0655",
    "count_view": 0
  },
  {
    "link_thumb": "https://live.staticflickr.com/65535/51559420976_3c6bde6fc2_n.jpg",
    "id_album": "-1584065887",
    "description": "ANIME_PIC_18bbb5cd4f5721fbae4860085bbb3471,[GirlsLoli],[isGirlAnime],[isCuteAnime],[isGirlsLoliAnime],[isSadAnimeGirl],[isSadAnime]",
    "title": "ANIME_PIC_18bbb5cd4f5721fbae4860085bbb3471",
    "link_img": "https://live.staticflickr.com/65535/51559420976_cd8dbabf6b_o.png",
    "id_image": "ANIME_PIC_18bbb5cd4f5721fbae4860085bbb3471",
    "count_view": 0
  },
  {
    "link_thumb": "https://live.staticflickr.com/65535/51559656763_f3f82ccd46_n.jpg",
    "id_album": "-1584065887",
    "description": "ANIME_PIC_18bf488e80ae5e0e0580d20467938cca,[GirlsLoli],[isGirlAnime],[isCuteAnime],[isGirlsLoliAnime]",
    "title": "ANIME_PIC_18bf488e80ae5e0e0580d20467938cca",
    "link_img": "https://live.staticflickr.com/65535/51559656763_eec7d8a5f1_o.jpg",
    "id_image": "ANIME_PIC_18bf488e80ae5e0e0580d20467938cca",
    "count_view": 0
  },
  {
    "link_thumb": "https://live.staticflickr.com/65535/51559421556_7658f7bfd9_n.jpg",
    "id_album": "-1584065887",
    "description": "ANIME_PIC_18c0828d44dc34c3db9a362ba8ec6b11,[GirlsLoli],[isGirlAnime],[isCuteAnime],[isGirlEarsNekoAnime],[isGirlsLoliAnime]",
    "title": "ANIME_PIC_18c0828d44dc34c3db9a362ba8ec6b11",
    "link_img": "https://live.staticflickr.com/65535/51559421556_0304801329_o.png",
    "id_image": "ANIME_PIC_18c0828d44dc34c3db9a362ba8ec6b11",
    "count_view": 0
  },
  {
    "link_thumb": "https://live.staticflickr.com/65535/51559421916_874ef31955_n.jpg",
    "id_album": "-1584065887",
    "description": "ANIME_PIC_18c669c20e5935ed137e07d912ce77d3,[GirlsLoli],[isGirlAnime],[isCuteAnime],[isGirlsLoliAnime]",
    "title": "ANIME_PIC_18c669c20e5935ed137e07d912ce77d3",
    "link_img": "https://live.staticflickr.com/65535/51559421916_e39b5bb567_o.png",
    "id_image": "ANIME_PIC_18c669c20e5935ed137e07d912ce77d3",
    "count_view": 0
  },
  {
    "link_thumb": "https://live.staticflickr.com/65535/49905875312_4679b56296_n.jpg",
    "id_album": "-1584065887",
    "description": "ANIME_PIC_18c6e7b2679f99d2fbc9a3bb48c385ed,[isGirlAnime],[isCuteAnime],[isGirlsLoliAnime],[Girls Loli],[GirlsLoli]",
    "title": "ANIME_PIC_18c6e7b2679f99d2fbc9a3bb48c385ed",
    "link_img": "https://live.staticflickr.com/65535/49905875312_503937115d_o.png",
    "id_image": "ANIME_PIC_18c6e7b2679f99d2fbc9a3bb48c385ed",
    "count_view": 0
  },
  {
    "link_thumb": "https://live.staticflickr.com/65535/51558632937_5ec65c7a83_n.jpg",
    "id_album": "-1584065887",
    "description": "ANIME_PIC_18cd5dedc9413a3a7407a79d011fa051,[GirlsLoli],[isGirlAnime],[isCuteAnime],[isGirlsHatsHoodieAnime],[isGirlsLoliAnime]",
    "title": "ANIME_PIC_18cd5dedc9413a3a7407a79d011fa051",
    "link_img": "https://live.staticflickr.com/65535/51558632937_6fc7fe6964_o.jpg",
    "id_image": "ANIME_PIC_18cd5dedc9413a3a7407a79d011fa051",
    "count_view": 0
  },
  {
    "link_thumb": "https://live.staticflickr.com/65535/51559657668_aa7bbf6320_n.jpg",
    "id_album": "-1584065887",
    "description": "ANIME_PIC_18d20d1949b5c38677bb0aa5322f3db6,[GirlsLoli],[isGirlAnime],[isCuteAnime],[isGirlsLoliAnime]",
    "title": "ANIME_PIC_18d20d1949b5c38677bb0aa5322f3db6",
    "link_img": "https://live.staticflickr.com/65535/51559657668_49c783278d_o.jpg",
    "id_image": "ANIME_PIC_18d20d1949b5c38677bb0aa5322f3db6",
    "count_view": 0
  },
  {
    "link_thumb": "https://live.staticflickr.com/65535/51560346510_8bd5536e0c_n.jpg",
    "id_album": "-1584065887",
    "description": "ANIME_PIC_18d8a7a7f8073603dbb54c93104d8d71,[GirlsLoli],[isGirlAnime],[isCuteAnime],[isGirlsLoliAnime],[isSadAnimeGirl],[isSadAnime]",
    "title": "ANIME_PIC_18d8a7a7f8073603dbb54c93104d8d71",
    "link_img": "https://live.staticflickr.com/65535/51560346510_d0780069ba_o.jpg",
    "id_image": "ANIME_PIC_18d8a7a7f8073603dbb54c93104d8d71",
    "count_view": 0
  },
  {
    "link_thumb": "https://live.staticflickr.com/65535/51560346760_cdb80381f4_n.jpg",
    "id_album": "-1584065887",
    "description": "ANIME_PIC_18da21f74dfb745829f5bcd955874d79,[GirlsLoli],[isGirlAnime],[isCuteAnime],[isGirlsLoliAnime]",
    "title": "ANIME_PIC_18da21f74dfb745829f5bcd955874d79",
    "link_img": "https://live.staticflickr.com/65535/51560346760_bd24c38150_o.jpg",
    "id_image": "ANIME_PIC_18da21f74dfb745829f5bcd955874d79",
    "count_view": 0
  },
  {
    "link_thumb": "https://live.staticflickr.com/65535/51560116719_0b347a2c0a_n.jpg",
    "id_album": "-1584065887",
    "description": "ANIME_PIC_18dfaab5d3107a22aa6d8dca1389b152,[GirlsLoli],[isGirlAnime],[isCuteAnime],[isGirlsHatsHoodieAnime],[isGirlsLoliAnime]",
    "title": "ANIME_PIC_18dfaab5d3107a22aa6d8dca1389b152",
    "link_img": "https://live.staticflickr.com/65535/51560116719_426cf2cc63_o.jpg",
    "id_image": "ANIME_PIC_18dfaab5d3107a22aa6d8dca1389b152",
    "count_view": 0
  },
  {
    "link_thumb": "https://live.staticflickr.com/65535/51559423221_cca0e3aa86_n.jpg",
    "id_album": "-1584065887",
    "description": "ANIME_PIC_18e03ced5cf1a33155694b24dfcdb175,[GirlsLoli],[isGirlAnime],[isCuteAnime],[isGirlsLoliAnime],[isSadAnimeGirl],[isSadAnime]",
    "title": "ANIME_PIC_18e03ced5cf1a33155694b24dfcdb175",
    "link_img": "https://live.staticflickr.com/65535/51559423221_4ce0feae97_o.jpg",
    "id_image": "ANIME_PIC_18e03ced5cf1a33155694b24dfcdb175",
    "count_view": 0
  },
  {
    "link_thumb": "https://live.staticflickr.com/65535/51559658643_a4aebd4ece_n.jpg",
    "id_album": "-1584065887",
    "description": "ANIME_PIC_18e1547bc894c1131b8872de20a5038c,[GirlsLoli],[isGirlAnime],[isCuteAnime],[isGirlsLoliAnime]",
    "title": "ANIME_PIC_18e1547bc894c1131b8872de20a5038c",
    "link_img": "https://live.staticflickr.com/65535/51559658643_d9ac64fdc4_o.jpg",
    "id_image": "ANIME_PIC_18e1547bc894c1131b8872de20a5038c",
    "count_view": 0
  },
  {
    "link_thumb": "https://live.staticflickr.com/65535/50029558678_d9f1d77513_n.jpg",
    "id_album": "-1584065887",
    "description": "ANIME_PIC_18e65b0cba4dc67cd3d3bc4110bde142,[isGirlAnime],[isCuteAnime],[isGirlsLoliAnime],[Girls Loli],[GirlsLoli],[isGirlsHatsHoodieAnime]",
    "title": "ANIME_PIC_18e65b0cba4dc67cd3d3bc4110bde142",
    "link_img": "https://live.staticflickr.com/65535/50029558678_278036cd8c_o.png",
    "id_image": "ANIME_PIC_18e65b0cba4dc67cd3d3bc4110bde142",
    "count_view": 0
  },
  {
    "link_thumb": "https://live.staticflickr.com/65535/51559658873_9715bd678f_n.jpg",
    "id_album": "-1584065887",
    "description": "ANIME_PIC_18ea91acb09abfdf41408a5c60ae97ba,[GirlsLoli],[isGirlAnime],[isCuteAnime],[isGirlsHatsHoodieAnime],[isGirlsLoliAnime]",
    "title": "ANIME_PIC_18ea91acb09abfdf41408a5c60ae97ba",
    "link_img": "https://live.staticflickr.com/65535/51559658873_1f6eded3d6_o.png",
    "id_image": "ANIME_PIC_18ea91acb09abfdf41408a5c60ae97ba",
    "count_view": 0
  },
  {
    "link_thumb": "https://live.staticflickr.com/65535/51559423811_4ef1bca18c_n.jpg",
    "id_album": "-1584065887",
    "description": "ANIME_PIC_18f423d8d7ba724ae90056c6e536e998,[GirlsLoli],[isGirlAnime],[isCuteAnime],[isGirlsLoliAnime]",
    "title": "ANIME_PIC_18f423d8d7ba724ae90056c6e536e998",
    "link_img": "https://live.staticflickr.com/65535/51559423811_f309676c0a_o.jpg",
    "id_image": "ANIME_PIC_18f423d8d7ba724ae90056c6e536e998",
    "count_view": 0
  },
  {
    "link_thumb": "https://live.staticflickr.com/65535/51560117744_28a2e71e9f_n.jpg",
    "id_album": "-1584065887",
    "description": "ANIME_PIC_1900aa0979648843113ecb47b859e2e4,[GirlsLoli],[isGirlAnime],[isCuteAnime],[isGirlsLoliAnime],[isSadAnimeGirl],[isSadAnime]",
    "title": "ANIME_PIC_1900aa0979648843113ecb47b859e2e4",
    "link_img": "https://live.staticflickr.com/65535/51560117744_11e91b3049_o.jpg",
    "id_image": "ANIME_PIC_1900aa0979648843113ecb47b859e2e4",
    "count_view": 0
  },
  {
    "link_thumb": "https://live.staticflickr.com/65535/51558635137_2186666eae_n.jpg",
    "id_album": "-1584065887",
    "description": "ANIME_PIC_1903ea3b2dac5f9a0cd53083639bb5b4,[GirlsLoli],[isGirlAnime],[isCuteAnime],[isGirlsLoliAnime],[isSadAnimeGirl],[isSadAnime]",
    "title": "ANIME_PIC_1903ea3b2dac5f9a0cd53083639bb5b4",
    "link_img": "https://live.staticflickr.com/65535/51558635137_85d8785a2e_o.jpg",
    "id_image": "ANIME_PIC_1903ea3b2dac5f9a0cd53083639bb5b4",
    "count_view": 0
  },
  {
    "link_thumb": "https://live.staticflickr.com/65535/51559424361_2ee595c2fa_n.jpg",
    "id_album": "-1584065887",
    "description": "ANIME_PIC_1908cfcbca4cce57013f59ce5eac82ed,[GirlsLoli],[isGirlAnime],[isCuteAnime],[isGirlsLoliAnime]",
    "title": "ANIME_PIC_1908cfcbca4cce57013f59ce5eac82ed",
    "link_img": "https://live.staticflickr.com/65535/51559424361_37c7bcd730_o.jpg",
    "id_image": "ANIME_PIC_1908cfcbca4cce57013f59ce5eac82ed",
    "count_view": 0
  },
  {
    "link_thumb": "https://live.staticflickr.com/65535/51560118349_73d7ef208b_n.jpg",
    "id_album": "-1584065887",
    "description": "ANIME_PIC_190a29022a071a36eda701ef6f0fe10e,[GirlsLoli],[isGirlAnime],[isCuteAnime],[isGirlsHatsHoodieAnime],[isGirlsLoliAnime]",
    "title": "ANIME_PIC_190a29022a071a36eda701ef6f0fe10e",
    "link_img": "https://live.staticflickr.com/65535/51560118349_e9f42fcdde_o.png",
    "id_image": "ANIME_PIC_190a29022a071a36eda701ef6f0fe10e",
    "count_view": 0
  },
  {
    "link_thumb": "https://live.staticflickr.com/65535/51558635827_df3494d1d1_n.jpg",
    "id_album": "-1584065887",
    "description": "ANIME_PIC_1924b6c38c9dbf7ffa372dfd7b068148,[GirlsLoli],[isGirlAnime],[isCuteAnime],[isGirlsLoliAnime]",
    "title": "ANIME_PIC_1924b6c38c9dbf7ffa372dfd7b068148",
    "link_img": "https://live.staticflickr.com/65535/51558635827_cfcb45b13d_o.jpg",
    "id_image": "ANIME_PIC_1924b6c38c9dbf7ffa372dfd7b068148",
    "count_view": 0
  },
  {
    "link_thumb": "https://live.staticflickr.com/65535/51560349245_08963c01b7_n.jpg",
    "id_album": "-1584065887",
    "description": "ANIME_PIC_19259e34f95da43dc04679365ef613e2,[GirlsLoli],[isGirlAnime],[isCuteAnime],[isGirlsLoliAnime]",
    "title": "ANIME_PIC_19259e34f95da43dc04679365ef613e2",
    "link_img": "https://live.staticflickr.com/65535/51560349245_fe0586e950_o.jpg",
    "id_image": "ANIME_PIC_19259e34f95da43dc04679365ef613e2",
    "count_view": 0
  },
  {
    "link_thumb": "https://live.staticflickr.com/65535/51558636207_1f9b266e03_n.jpg",
    "id_album": "-1584065887",
    "description": "ANIME_PIC_192a915a959c5acc211ed5c1ce5f640d,[GirlsLoli],[isGirlAnime],[isCuteAnime],[isGirlsHatsHoodieAnime],[isGirlsLoliAnime]",
    "title": "ANIME_PIC_192a915a959c5acc211ed5c1ce5f640d",
    "link_img": "https://live.staticflickr.com/65535/51558636207_71b34c62aa_o.jpg",
    "id_image": "ANIME_PIC_192a915a959c5acc211ed5c1ce5f640d",
    "count_view": 0
  },
  {
    "link_thumb": "https://live.staticflickr.com/65535/51560349575_c27a52755b_n.jpg",
    "id_album": "-1584065887",
    "description": "ANIME_PIC_192cfdced38bccaf01f1c5b179a9266a,[GirlsLoli],[isGirlAnime],[isCuteAnime],[isGirlsLoliAnime]",
    "title": "ANIME_PIC_192cfdced38bccaf01f1c5b179a9266a",
    "link_img": "https://live.staticflickr.com/65535/51560349575_4ee38ccdfb_o.png",
    "id_image": "ANIME_PIC_192cfdced38bccaf01f1c5b179a9266a",
    "count_view": 0
  },
  {
    "link_thumb": "https://live.staticflickr.com/65535/49947469858_68e04d675b_n.jpg",
    "id_album": "-1584065887",
    "description": "ANIME_PIC_193414bb442fac65b857d46f2a1a87ed,[isGirlAnime],[isCuteAnime],[isGirlsLoliAnime],[Girls Loli],[GirlsLoli],[isGirlsSharpCanineToothAnime]",
    "title": "ANIME_PIC_193414bb442fac65b857d46f2a1a87ed",
    "link_img": "https://live.staticflickr.com/65535/49947469858_494cf2eea6_o.png",
    "id_image": "ANIME_PIC_193414bb442fac65b857d46f2a1a87ed",
    "count_view": 0
  },
  {
    "link_thumb": "https://live.staticflickr.com/65535/51560119554_bf7532bf44_n.jpg",
    "id_album": "-1584065887",
    "description": "ANIME_PIC_19346fc2cb8fab9310e42228eec25835,[GirlsLoli],[isGirlAnime],[isCuteAnime],[isGirlsLoliAnime]",
    "title": "ANIME_PIC_19346fc2cb8fab9310e42228eec25835",
    "link_img": "https://live.staticflickr.com/65535/51560119554_de8d1c4036_o.jpg",
    "id_image": "ANIME_PIC_19346fc2cb8fab9310e42228eec25835",
    "count_view": 0
  },
  {
    "link_thumb": "https://live.staticflickr.com/65535/51559425951_822a46f9d7_n.jpg",
    "id_album": "-1584065887",
    "description": "ANIME_PIC_19352b05b861ca80ff424ad2117f1c52,[GirlsLoli],[isGirlAnime],[isCuteAnime],[isGirlsLoliAnime]",
    "title": "ANIME_PIC_19352b05b861ca80ff424ad2117f1c52",
    "link_img": "https://live.staticflickr.com/65535/51559425951_a921360daa_o.png",
    "id_image": "ANIME_PIC_19352b05b861ca80ff424ad2117f1c52",
    "count_view": 0
  },
  {
    "link_thumb": "https://live.staticflickr.com/65535/51558637252_4b074bae16_n.jpg",
    "id_album": "-1584065887",
    "description": "ANIME_PIC_193badbe097ed286f7850b36402a6a42,[GirlsLoli],[isGirlAnime],[isCuteAnime],[isGirlsLoliAnime],[isSadAnimeGirl],[isSadAnime]",
    "title": "ANIME_PIC_193badbe097ed286f7850b36402a6a42",
    "link_img": "https://live.staticflickr.com/65535/51558637252_6867273796_o.jpg",
    "id_image": "ANIME_PIC_193badbe097ed286f7850b36402a6a42",
    "count_view": 0
  },
  {
    "link_thumb": "https://live.staticflickr.com/65535/51560120109_02ecbb5b68_n.jpg",
    "id_album": "-1584065887",
    "description": "ANIME_PIC_193cf4b543415ef7a9911f478ae84e20,[GirlsLoli],[isGirlAnime],[isCuteAnime],[isGirlFaceMasksAnime],[isGirlsLoliAnime]",
    "title": "ANIME_PIC_193cf4b543415ef7a9911f478ae84e20",
    "link_img": "https://live.staticflickr.com/65535/51560120109_2c67bb5be0_o.jpg",
    "id_image": "ANIME_PIC_193cf4b543415ef7a9911f478ae84e20",
    "count_view": 0
  },
  {
    "link_thumb": "https://live.staticflickr.com/65535/51560350545_76f6f68733_n.jpg",
    "id_album": "-1584065887",
    "description": "ANIME_PIC_194041450b23b49d5a58396c0594217b,[GirlsLoli],[isGirlAnime],[isCuteAnime],[isGirlsLoliAnime]",
    "title": "ANIME_PIC_194041450b23b49d5a58396c0594217b",
    "link_img": "https://live.staticflickr.com/65535/51560350545_228085738a_o.jpg",
    "id_image": "ANIME_PIC_194041450b23b49d5a58396c0594217b",
    "count_view": 0
  },
  {
    "link_thumb": "https://live.staticflickr.com/65535/51560120454_1befff4d9e_n.jpg",
    "id_album": "-1584065887",
    "description": "ANIME_PIC_19447f88f0afaa0ca8008913dc97ee46,[GirlsLoli],[isGirlAnime],[isCuteAnime],[isGirlsHatsHoodieAnime],[isGirlsLoliAnime]",
    "title": "ANIME_PIC_19447f88f0afaa0ca8008913dc97ee46",
    "link_img": "https://live.staticflickr.com/65535/51560120454_e16fd130fc_o.jpg",
    "id_image": "ANIME_PIC_19447f88f0afaa0ca8008913dc97ee46",
    "count_view": 0
  },
  {
    "link_thumb": "https://live.staticflickr.com/65535/51559662188_2e8cf915f3_n.jpg",
    "id_album": "-1584065887",
    "description": "ANIME_PIC_19499e8600f3041ed0bf23e0fe014609,[GirlsLoli],[isGirlAnime],[isCuteAnime],[isGirlsLoliAnime]",
    "title": "ANIME_PIC_19499e8600f3041ed0bf23e0fe014609",
    "link_img": "https://live.staticflickr.com/65535/51559662188_d8abc8c3e8_o.jpg",
    "id_image": "ANIME_PIC_19499e8600f3041ed0bf23e0fe014609",
    "count_view": 0
  },
  {
    "link_thumb": "https://live.staticflickr.com/65535/51559426981_f7a8b1cd1f_n.jpg",
    "id_album": "-1584065887",
    "description": "ANIME_PIC_194bda8b174cb25d5abc13d33f8d4ab7,[GirlsLoli],[isGirlAnime],[isCuteAnime],[isGirlsLoliAnime],[isSadAnimeGirl],[isSadAnime]",
    "title": "ANIME_PIC_194bda8b174cb25d5abc13d33f8d4ab7",
    "link_img": "https://live.staticflickr.com/65535/51559426981_a3cb6431a5_o.png",
    "id_image": "ANIME_PIC_194bda8b174cb25d5abc13d33f8d4ab7",
    "count_view": 0
  },
  {
    "link_thumb": "https://live.staticflickr.com/65535/51558638577_09c7c1fd10_n.jpg",
    "id_album": "-1584065887",
    "description": "ANIME_PIC_194ca7d171b03ae44dfd15d1c9bd07b3,[GirlsLoli],[isGirlAnime],[isCuteAnime],[isGirlsLoliAnime],[isSadAnimeGirl],[isSadAnime]",
    "title": "ANIME_PIC_194ca7d171b03ae44dfd15d1c9bd07b3",
    "link_img": "https://live.staticflickr.com/65535/51558638577_3f45333ebc_o.jpg",
    "id_image": "ANIME_PIC_194ca7d171b03ae44dfd15d1c9bd07b3",
    "count_view": 0
  },
  {
    "link_thumb": "https://live.staticflickr.com/65535/51560121554_c25019f90b_n.jpg",
    "id_album": "-1584065887",
    "description": "ANIME_PIC_1953ae9b79c6ff8128b91e422407079e,[GirlsLoli],[isGirlAnime],[isCuteAnime],[isGirlsLoliAnime]",
    "title": "ANIME_PIC_1953ae9b79c6ff8128b91e422407079e",
    "link_img": "https://live.staticflickr.com/65535/51560121554_bc7c2ce7f0_o.jpg",
    "id_image": "ANIME_PIC_1953ae9b79c6ff8128b91e422407079e",
    "count_view": 0
  },
  {
    "link_thumb": "https://live.staticflickr.com/65535/51560352170_90c646e374_n.jpg",
    "id_album": "-1584065887",
    "description": "ANIME_PIC_1954040ce9c34a4089f386d3d8a1d1b3,[GirlsLoli],[isGirlAnime],[isCuteAnime],[isGirlsLoliAnime]",
    "title": "ANIME_PIC_1954040ce9c34a4089f386d3d8a1d1b3",
    "link_img": "https://live.staticflickr.com/65535/51560352170_3564947fc4_o.jpg",
    "id_image": "ANIME_PIC_1954040ce9c34a4089f386d3d8a1d1b3",
    "count_view": 0
  },
  {
    "link_thumb": "https://live.staticflickr.com/65535/51559428156_b9a487eee3_n.jpg",
    "id_album": "-1584065887",
    "description": "ANIME_PIC_19555cf44f1408d690f2037e8bf57704,[GirlsLoli],[isGirlAnime],[isCuteAnime],[isGirlsLoliAnime],[isSadAnimeGirl],[isSadAnime]",
    "title": "ANIME_PIC_19555cf44f1408d690f2037e8bf57704",
    "link_img": "https://live.staticflickr.com/65535/51559428156_c1c7be75f6_o.png",
    "id_image": "ANIME_PIC_19555cf44f1408d690f2037e8bf57704",
    "count_view": 0
  },
  {
    "link_thumb": "https://live.staticflickr.com/65535/51559428406_6479644559_n.jpg",
    "id_album": "-1584065887",
    "description": "ANIME_PIC_195704a32c318650238812875022817d,[GirlsLoli],[isGirlAnime],[isCuteAnime],[isGirlsLoliAnime],[isSadAnimeGirl],[isSadAnime]",
    "title": "ANIME_PIC_195704a32c318650238812875022817d",
    "link_img": "https://live.staticflickr.com/65535/51559428406_da651aeb91_o.png",
    "id_image": "ANIME_PIC_195704a32c318650238812875022817d",
    "count_view": 0
  },
  {
    "link_thumb": "https://live.staticflickr.com/65535/51560122459_304f26faf8_n.jpg",
    "id_album": "-1584065887",
    "description": "ANIME_PIC_19587fb373687c720c051f4e2dee2468,[GirlsLoli],[isGirlAnime],[isCuteAnime],[isGirlsLoliAnime]",
    "title": "ANIME_PIC_19587fb373687c720c051f4e2dee2468",
    "link_img": "https://live.staticflickr.com/65535/51560122459_0753e869cf_o.jpg",
    "id_image": "ANIME_PIC_19587fb373687c720c051f4e2dee2468",
    "count_view": 0
  },
  {
    "link_thumb": "https://live.staticflickr.com/65535/51559428761_acab9a3157_n.jpg",
    "id_album": "-1584065887",
    "description": "ANIME_PIC_1958f71b8bb47fde4ebea2ab0905c196,[GirlsLoli],[isGirlAnime],[isCuteAnime],[isGirlsLoliAnime]",
    "title": "ANIME_PIC_1958f71b8bb47fde4ebea2ab0905c196",
    "link_img": "https://live.staticflickr.com/65535/51559428761_6946b12067_o.jpg",
    "id_image": "ANIME_PIC_1958f71b8bb47fde4ebea2ab0905c196",
    "count_view": 0
  }
]