[
  {
    "total_img": 156,
    "number_page": 1,
    "title": "Date A Live",
    "tag": "Water, Shiori Itsuka, Black Hair, Minimalist, Clock, Wedding Dress, Weapon, Origami Tobiichi, Long Hair, Mukuro Hoshimiya, Thigh Highs, Goggles, Anime, Sword, Ribbon, Pistol, White Hair, Swing, Date A Live, Kaguya Yamai, Heterochromia, Reine Murasame, Collar, Yoshino Date A Live, Gun, Purple Eyes, Natsumi Date A Live, Glove, Purple Hair, Cute, Kuudere, Chibi, Tohka Yatogami, Black Dress, Smile, Yellow Eyes, Aqua Eyes, Red Eyes, Skirt, Shrine, Blush, Pantyhose, Skyscraper, Miku Izayoi, Mayuri Date A Live, Yuzuru Yamai, Ponytail, Orange Eyes, Orange Hair, Kotori Itsuka, Torii, Sitting, Rose, White Dress, Twintails, Blonde, Maria Arusu, Shido Itsuka, Japanese Clothes, Armor, Tail, bow Clothing, Nia Honjou Date A Live, Marina Arusu, Short Hair, Swimsuit, Face, Flower, Dress, Rinne Sonogami, Brown Hair, Red Dress, Headband, Pink Eyes, Pink Hair, School Uniform, Gothic, Bride, Blue Eyes, Blue Hair, Mio Takamiya, Boots, Kurumi Tokisaki, Animal Ears, Yukata, Tears, Pillow",
    "description": "Date A Live",
    "link_thumb": "https://live.staticflickr.com/65535/47963083226_20ca4d929b_n.jpg",
    "id_album": "-1031242770",
    "total_view": 156
  },
  {
    "total_img": 320,
    "number_page": 2,
    "title": "Dress",
    "tag": "Dress,",
    "description": "Dress",
    "link_thumb": "https://live.staticflickr.com/65535/48066945096_efda4835b6_n.jpg",
    "id_album": "-1596424748",
    "total_view": 320
  },
  {
    "total_img": 19,
    "number_page": 1,
    "title": "Gothic",
    "tag": "Gothic,",
    "description": "Gothic",
    "link_thumb": "https://live.staticflickr.com/65535/48065620093_e0d5e177c3_n.jpg",
    "id_album": "418430718",
    "total_view": 19
  },
  {
    "total_img": 79,
    "number_page": 1,
    "title": "Heterochromia",
    "tag": "Heterochromia,",
    "description": "Heterochromia",
    "link_thumb": "https://live.staticflickr.com/65535/48067011812_8dff9b64b8_n.jpg",
    "id_album": "-2079186018",
    "total_view": 79
  },
  {
    "total_img": 42,
    "number_page": 1,
    "title": "Kurumi Tokisaki",
    "tag": "Kurumi Tokisaki,",
    "description": "Kurumi Tokisaki",
    "link_thumb": "https://live.staticflickr.com/65535/47963180053_4b7b0eec1d_n.jpg",
    "id_album": "-233174227",
    "total_view": 42
  }
]