[
  {
    "total_img": 3863,
    "number_page": 20,
    "title": "Girls Ears Neko",
    "tag": "Girls Ears Neko,",
    "description": "Girls Ears Neko",
    "link_thumb": "https://live.staticflickr.com/65535/51542199025_2343ce2f5b_n.jpg",
    "id_album": "-2118541861",
    "total_view": 3863
  },
  {
    "total_img": 1012,
    "number_page": 6,
    "title": "Girls Kimono Yukata Cheongsam",
    "tag": "Girls Kimono Yukata Cheongsam,",
    "description": "Girls Kimono Yukata Cheongsam",
    "link_thumb": "https://live.staticflickr.com/65535/50016508376_e4bb0bf7e3_n.jpg",
    "id_album": "489994677",
    "total_view": 1012
  },
  {
    "total_img": 636,
    "number_page": 4,
    "title": "Girls Weapon",
    "tag": "Girls Weapon,",
    "description": "Girls Weapon",
    "link_thumb": "https://live.staticflickr.com/65535/50056613791_abda415054_n.jpg",
    "id_album": "771816625",
    "total_view": 636
  }
]