[
  {
    "total_img": 784,
    "number_page": 4,
    "title": "Kantai Collection",
    "tag": "Water, Green Hair, Tenryuu Kancolle, I58 Kancolle, Wink, Error Musume Kancolle, Black, Weapon, Kasumi Kancolle, Helmet, Umbrella, Saratoga Kancolle, Arrow, Hatsushimo Kancolle, Glove, Rashinban Musume Kancolle, Chibi, Black Dress, Shiratsuyu Kancolle, Kunashiri Kancolle, Chiyoda Kancolle, Game, Makigumo Kancolle, Pink Flower, Ooyodo Kancolle, Orange Hair, Bloomers, Hatsuzuki Kancolle, Ayanami Kancolle, White Dress, Prinz Eugen Kancolle, Kiyoshimo Kancolle, Ocean, Feather, Mikuma Kancolle, PT Imp Group, Food, Kikuzuki Kancolle, Original Anime, Kuma Kancolle, Blue, Brown Hair, Mogami Kancolle, Nowaki Kancolle, Couch, Pink Hair, Furutaka Kancolle, Pola Kancolle, Tokitsukaze Kancolle, Wakaba Kancolle, Tashkent Kancolle, Sake, Hayasui Kancolle, Tie, Blue Eyes, Akebono Kancolle, Iowa Kancolle, Boots, Snowman, Lexington Kancolle, Halo, Etorofu Kancolle, Green Eyes, Taihou Kancolle, Anchorage Demon Kancolle, Underwater, Kantai Collection, Samidare Kancolle, Long Hair, Shirayuki Kancolle, Winter, Yamashiro Kancolle, Agano Kancolle, Kimono, Light Cruiser Hime, Fairy Kancolle, Collar, Yuugumo Kancolle, Purple Hair, Tea Cup, Akigumo Kancolle, Commandant Teste Kancolle, Ark Royal Kancolle, Hiryuu Kancolle, Suzukaze Kancolle, Glasses, I13 Kancolle, Eye Patch, Kentai Collection, Michishio Kancolle, Bird, Sitting, Shoukaku Kancolle, Rocket, While Hair, Blonde, Twintails, Shimushu Kancolle, Rensouhouchan, Harusame Kancolle, Rice, Aquila Kancolle, Akitsu Maru Kancolle, Junyou Kancolle, Natori Kancolle, Yahagi Kancolle, Kirishima Kancolle, Harbour Summer Princess, Apron, Urakaze Kancolle, Pink Eyes, School Uniform, Gothic, Turret, Warspite KanColle, Shigure Kancolle, Airplane, White, Sleeping, Glowing Eyes, Grey Hair, Submarine Hime, Lying Down, U511 Kancolle, Sky, Zuihou Kancolle, Hyuuga Kancolle, Akashi Kancolle, Oboro Kancolle, Shikinami Kancolle, Crying, Yuudachi Kancolle, Yamagumo Kancolle, Sword, Shirt, I401 Kancolle, Ribbon, Gangut Kancolle, Braid, Kitakami Kancolle, I168 Kancolle, Dog, Jintsu Kancolle, Gun, Ooi Kancolle, Scarf, Kasuga Maru Kancolle, Belt, Pantyhose, Asashio, Katori Kancolle, Maruyu Kancolle, Houshou Kancolle, Aoba Kancolle, Airfield Hime, Maikaze Kancolle, Fumizuki Kancolle, Ryuujou Kancolle, Construction Fairy Kancolle, Hiei Kancolle, I8 Kancolle, G11 Girls Frontline, Standard Carrier WoClass, Asakaze Kancolle, Abukuma Kancolle, Bismarck Kancolle, Yuudachi Azur Lane, Headband, Z3 Max Schultz Kancolle, Murakumo Kancolle, Chitose Kancolle, Matsukaze Kancolle, Grey Eyes, Binoculars, Mutsuki Kancolle, Nenohi Kancolle, Kawazake Kancolle, Black Eyes, Asagumo Kancolle, Snow, Jintsuu Kancolle, Kuroshio Kancolle, Digital Art, Penguin, Light Cruiser Demon, Anchorage Water Demon, Hatsuharu Kancolle, Umikaze Kancolle, Kagerou Kancolle, Harukaze Kancolle, Explosion, Yukikaze Kancolle, Sendai Kancolle, Bow, Yellow Eyes, Unryuu Kancolle, Boy, Hoppou Kancolle, Yuubari Kancolle, Heavy Cruiser NeClass, Orange Eyes, Microphone, Arashio Kancolle, Socks, Isuzu Kancolle, I14 Kancolle, Tatsuta Kancolle, bow Clothing, ReClass Kancolle, Short Hair, Naka Kancolle, Midway Hime, Asashio kancolle, Dress, Kashima Kancolle, Brown Eyes, Kinugasa Kancolle, Blue Dress, Maid, Kirishima Arpeggio Of Blue Steel, Cloud, Petal, Peace Sign, Tama Kancolle, Akitsushima Kancolle, Black Hair, Kako Kancolle, Yamato Kancolle, High Heels, Battleship Symbiotic Hime, Blood, Kinu Kancolle, Souryuu Kancolle, Amatsukaze Kancolle, Kamoi Kancolle, Smile, Spring, Ooshio Kancolle, Fujinami Kancolle, Skirt, WoClass Kancolle, Miko Outfit, Teruzuki Kancolle, Isokaze Kancolle, Admiral Kancolle, Aircraft Carrier Demon Kancolle, Japanese Clothes, Abyssal Jellyfish Princess, Yuri, Fish, Amagiri Kancolle, Chocolate, Thigh Boots, Graf Zeppelin Kancolle, Hoodie, Fire, Yamato Naruto, Hat, Ship, Animal Ears, Akizuki Kancolle, Fubuki Kancolle, Snowfall, Thigh Highs, Sakawa Kancolle, Mizuho Kancolle, Headdress, Amagi Kancolle, Littorio Kancolle, Akagi Kancolle, Suzutsuki Kancolle, Yamakaze Kancolle, I19 Kancolle, Shiranui Kancolle, Nagato Kancolle, ChiClass Kancolle, Kirishima Kantai Collection, Yayoi Kancolle, Kongou Kancolle, Knife, Mountain, Satsuki Kancolle, Armor, Hagikaze Kancolle, Katana, Rensouhoukun, Traditional Costume, Cape, Ikazuchi Kancolle, Destroyer Princess Kancolle, Sunset, Haruna Kancolle, Kawakaze Kancolle, Blossom, Robot, Akatsuki KanColle, Tears, Murasame Kancolle, Miyuki Kancolle, Asashimo Kancolle, Moon, Little Girl Admiral Kancolle, Shouhou Kancolle, Chikuma Kancolle, Tanikaze Kancolle, Takanami Kancolle, White Hair, Book, Hatsukaze Kancolle, Fangs, Libeccio Kancolle, Myoukou Kancolle, Horns, Ise Kancolle, Choukai Kancolle, Hibiki Kancolle, Bismarck Azur Lane, Northern Ocean Hime, Musashi Kancolle, Purple Eyes, Jacket, Suitcase, Matsuwa Kancolle, Akatsuki Naruto, Minazuki Kancolle, Jervis Kancolle, Inazuma Kancolle, Shoe, Hiyou Kancolle, Red Hair, Aqua Eyes, Blush, Kaga Kancolle, Ushio Kancolle, Zara Kancolle, Z1 Leberecht Maass Kancolle, Taigei Kancolle, Richelieu Kancolle, Sunbeam, Hatakaze Kancolle, Leaf, I26 Kancolle, Warrior, Hayashimo Kancolle, Uzuki Kancolle, Ro500 KanColle, Tone Kancolle, Lunch, Harbour Princess Kancolle, Battleship Water Demon Kancolle, Naganami Kancolle, Kisaragi Kancolle, Fusou Kancolle, Battleship ReClass, Sakura Blossom, Roma Kancolle, Nachi Kancolle, Night, Uranami Kancolle, Summer, Uniform, Female Admiral Kancolle, Bleached Eyes, Light Carrier NuClass, Mutsu Kancolle, Sazanami Kancolle, Ashigara Kancolle, Bubble, Rain, Anime, Zuikaku Kancolle, Kumano Kancolle, Shimakaze Kancolle, Hamakaze Kancolle, Katsuragi Kancolle, Kaga Azur Lane, Noshiro Kancolle, Red Eyes, Nagara Kancolle, Atago Kancolle, Cap, Kiso Kancolle, Dark, Arare Kancolle, Cat, Chopsticks, Kamikaze Kancolle, Ponytail, Cherry Blossom, Suzuya Kancolle, Yura Kancolle, Flower, Isonami Kancolle, Maya Kancolle, Haguro Kancolle, Woman Warrior, Sagiri Kancolle, Tea, Destroyer Water Demon, Blue Hair, Takao Kancolle",
    "description": "Kantai Collection",
    "link_thumb": "https://live.staticflickr.com/65535/48047158908_6c04ef224f_n.jpg",
    "id_album": "-1911240000",
    "total_view": 784
  },
  {
    "total_img": 2,
    "number_page": 1,
    "title": "Heavy Cruiser NeClass",
    "tag": "Heavy Cruiser NeClass,",
    "description": "Heavy Cruiser NeClass",
    "link_thumb": "https://live.staticflickr.com/65535/48047494501_016d69961b_n.jpg",
    "id_album": "156393724",
    "total_view": 2
  }
]