[
  {
    "total_img": 426,
    "number_page": 3,
    "title": "Your Name",
    "tag": "Water, Sky, Night, Pumpkin, Moss, Minimalist, Miki Okudera, Sayaka Natori, Lake, Hitoha Miyamizu, Torch, Taki Tachibana, Town, Tokyo, Kimono, Tokyo Tower, Rock, Chibi, House, Boy, Sun, Comet, Itomori, Kanji, Train, Puddle, Shinta Takagi, Silhouette, Katsuhiko Teshigawara, Your Name, Kimi No Na Wa, School, Mountain, Stairs, Shinto, Leaf, Short Hair, Hug, Face, Yotsuha Miyamizu, Nature, Skyline, Railroad, Scenery, Notebook, Brown Eyes, Brown Hair, Crater, Schoolyard, Mitsuha Miyamizu, School Uniform, Pencil, Tsukasa Fujii, Cloud, Fire, Halloween, Kiss, Tears",
    "description": "Your Name",
    "link_thumb": "https://live.staticflickr.com/65535/48066549472_fbc98acd1f_n.jpg",
    "id_album": "-86866767",
    "total_view": 426
  },
  {
    "total_img": 232,
    "number_page": 2,
    "title": "Mitsuha Miyamizu",
    "tag": "Mitsuha Miyamizu,",
    "description": "Mitsuha Miyamizu",
    "link_thumb": "https://live.staticflickr.com/65535/48066871042_1e38045ee8_n.jpg",
    "id_album": "-2083793211",
    "total_view": 232
  },
  {
    "total_img": 137,
    "number_page": 1,
    "title": "Taki Tachibana",
    "tag": "Taki Tachibana,",
    "description": "Taki Tachibana",
    "link_thumb": "https://live.staticflickr.com/65535/48066866637_e52dff508d_n.jpg",
    "id_album": "-1671510494",
    "total_view": 137
  }
]