[
  {
    "link_thumb": "https://live.staticflickr.com/65535/48047013212_5956a46765_n.jpg",
    "id_album": "-658539491",
    "description": "KagerouProject_775399",
    "title": "KagerouProject_775399",
    "link_img": "https://live.staticflickr.com/65535/48047013212_8ea827aa2e_o.jpg",
    "id_image": "KagerouProject_775399",
    "count_view": 0
  },
  {
    "link_thumb": "https://live.staticflickr.com/65535/48047031277_afc3862dfd_n.jpg",
    "id_album": "-658539491",
    "description": "KagerouProject_966355",
    "title": "KagerouProject_966355",
    "link_img": "https://live.staticflickr.com/65535/48047031277_d507fc6d54_o.jpg",
    "id_image": "KagerouProject_966355",
    "count_view": 0
  },
  {
    "link_thumb": "https://live.staticflickr.com/65535/48046962281_bc808f2b30_n.jpg",
    "id_album": "-658539491",
    "description": "KagerouProject_966857",
    "title": "KagerouProject_966857",
    "link_img": "https://live.staticflickr.com/65535/48046962281_e426ebf6d9_o.jpg",
    "id_image": "KagerouProject_966857",
    "count_view": 0
  }
]