[
  {
    "link_thumb": "https://live.staticflickr.com/65535/48059414861_11017bda60_n.jpg",
    "id_album": "-903027937",
    "description": "TheIdolmasterCinderellaGirlsStarlightStage_834567",
    "title": "TheIdolmasterCinderellaGirlsStarlightStage_834567",
    "link_img": "https://live.staticflickr.com/65535/48059414861_66f9d56d7a_o.jpg",
    "id_image": "TheIdolmasterCinderellaGirlsStarlightStage_834567",
    "count_view": 0
  },
  {
    "link_thumb": "https://live.staticflickr.com/65535/48059415046_80c9cb5ac7_n.jpg",
    "id_album": "-903027937",
    "description": "TheIdolmasterCinderellaGirlsStarlightStage_834568",
    "title": "TheIdolmasterCinderellaGirlsStarlightStage_834568",
    "link_img": "https://live.staticflickr.com/65535/48059415046_591b8edce8_o.jpg",
    "id_image": "TheIdolmasterCinderellaGirlsStarlightStage_834568",
    "count_view": 0
  },
  {
    "link_thumb": "https://live.staticflickr.com/65535/48059512722_14e2edbf68_n.jpg",
    "id_album": "-903027937",
    "description": "TheIdolmasterCinderellaGirlsStarlightStage_834570",
    "title": "TheIdolmasterCinderellaGirlsStarlightStage_834570",
    "link_img": "https://live.staticflickr.com/65535/48059512722_3c7954a779_o.jpg",
    "id_image": "TheIdolmasterCinderellaGirlsStarlightStage_834570",
    "count_view": 0
  },
  {
    "link_thumb": "https://live.staticflickr.com/65535/48059514267_6b48b361e0_n.jpg",
    "id_album": "-903027937",
    "description": "TheIdolmasterCinderellaGirlsStarlightStage_834848",
    "title": "TheIdolmasterCinderellaGirlsStarlightStage_834848",
    "link_img": "https://live.staticflickr.com/65535/48059514267_821d240fdb_o.jpg",
    "id_image": "TheIdolmasterCinderellaGirlsStarlightStage_834848",
    "count_view": 0
  },
  {
    "link_thumb": "https://live.staticflickr.com/65535/48059465913_105362418c_n.jpg",
    "id_album": "-903027937",
    "description": "TheIdolmasterCinderellaGirlsStarlightStage_840366",
    "title": "TheIdolmasterCinderellaGirlsStarlightStage_840366",
    "link_img": "https://live.staticflickr.com/65535/48059465913_c2e50d3756_o.jpg",
    "id_image": "TheIdolmasterCinderellaGirlsStarlightStage_840366",
    "count_view": 0
  },
  {
    "link_thumb": "https://live.staticflickr.com/65535/48059466723_a3b2eac75f_n.jpg",
    "id_album": "-903027937",
    "description": "TheIdolmasterCinderellaGirlsStarlightStage_840372",
    "title": "TheIdolmasterCinderellaGirlsStarlightStage_840372",
    "link_img": "https://live.staticflickr.com/65535/48059466723_b8d1bb2121_o.jpg",
    "id_image": "TheIdolmasterCinderellaGirlsStarlightStage_840372",
    "count_view": 0
  },
  {
    "link_thumb": "https://live.staticflickr.com/65535/48059470243_1cd4869000_n.jpg",
    "id_album": "-903027937",
    "description": "TheIdolmasterCinderellaGirlsStarlightStage_934681",
    "title": "TheIdolmasterCinderellaGirlsStarlightStage_934681",
    "link_img": "https://live.staticflickr.com/65535/48059470243_a542b823e9_o.jpg",
    "id_image": "TheIdolmasterCinderellaGirlsStarlightStage_934681",
    "count_view": 0
  },
  {
    "link_thumb": "https://live.staticflickr.com/65535/48059662108_396c8f1cb7_n.jpg",
    "id_album": "-903027937",
    "description": "TheiDOLMSTERCinderellaGirls_577202",
    "title": "TheiDOLMSTERCinderellaGirls_577202",
    "link_img": "https://live.staticflickr.com/65535/48059662108_0fd7b8ea56_o.jpg",
    "id_image": "TheiDOLMSTERCinderellaGirls_577202",
    "count_view": 0
  },
  {
    "link_thumb": "https://live.staticflickr.com/65535/48059662368_7c5fd9f3c5_n.jpg",
    "id_album": "-903027937",
    "description": "TheiDOLMSTERCinderellaGirls_578570",
    "title": "TheiDOLMSTERCinderellaGirls_578570",
    "link_img": "https://live.staticflickr.com/65535/48059662368_3d29ccaa78_o.jpg",
    "id_image": "TheiDOLMSTERCinderellaGirls_578570",
    "count_view": 0
  },
  {
    "link_thumb": "https://live.staticflickr.com/65535/48059713517_93531b547f_n.jpg",
    "id_album": "-903027937",
    "description": "TheiDOLMSTERCinderellaGirls_582760",
    "title": "TheiDOLMSTERCinderellaGirls_582760",
    "link_img": "https://live.staticflickr.com/65535/48059713517_3fb4416c5d_o.jpg",
    "id_image": "TheiDOLMSTERCinderellaGirls_582760",
    "count_view": 0
  },
  {
    "link_thumb": "https://live.staticflickr.com/65535/48059615521_d8511ef0fb_n.jpg",
    "id_album": "-903027937",
    "description": "TheiDOLMSTERCinderellaGirls_595807",
    "title": "TheiDOLMSTERCinderellaGirls_595807",
    "link_img": "https://live.staticflickr.com/65535/48059615521_25d74cce55_o.jpg",
    "id_image": "TheiDOLMSTERCinderellaGirls_595807",
    "count_view": 0
  },
  {
    "link_thumb": "https://live.staticflickr.com/65535/48059714777_dd78d34176_n.jpg",
    "id_album": "-903027937",
    "description": "TheiDOLMSTERCinderellaGirls_643335",
    "title": "TheiDOLMSTERCinderellaGirls_643335",
    "link_img": "https://live.staticflickr.com/65535/48059714777_b1c12161dc_o.jpg",
    "id_image": "TheiDOLMSTERCinderellaGirls_643335",
    "count_view": 0
  },
  {
    "link_thumb": "https://live.staticflickr.com/65535/48059616691_f984f3276f_n.jpg",
    "id_album": "-903027937",
    "description": "TheiDOLMSTERCinderellaGirls_664345",
    "title": "TheiDOLMSTERCinderellaGirls_664345",
    "link_img": "https://live.staticflickr.com/65535/48059616691_09a038f50c_o.jpg",
    "id_image": "TheiDOLMSTERCinderellaGirls_664345",
    "count_view": 0
  },
  {
    "link_thumb": "https://live.staticflickr.com/65535/48059742977_be89d1b191_n.jpg",
    "id_album": "-903027937",
    "description": "TheiDOLMSTERCinderellaGirls_790715",
    "title": "TheiDOLMSTERCinderellaGirls_790715",
    "link_img": "https://live.staticflickr.com/65535/48059742977_b187cefab2_o.jpg",
    "id_image": "TheiDOLMSTERCinderellaGirls_790715",
    "count_view": 0
  },
  {
    "link_thumb": "https://live.staticflickr.com/65535/48059648086_9da35da96d_n.jpg",
    "id_album": "-903027937",
    "description": "TheiDOLMSTERCinderellaGirls_802320",
    "title": "TheiDOLMSTERCinderellaGirls_802320",
    "link_img": "https://live.staticflickr.com/65535/48059648086_2da2c866d9_o.jpg",
    "id_image": "TheiDOLMSTERCinderellaGirls_802320",
    "count_view": 0
  },
  {
    "link_thumb": "https://live.staticflickr.com/65535/48059748212_8379a248b2_n.jpg",
    "id_album": "-903027937",
    "description": "TheiDOLMSTERCinderellaGirls_802428",
    "title": "TheiDOLMSTERCinderellaGirls_802428",
    "link_img": "https://live.staticflickr.com/65535/48059748212_15548d1df3_o.jpg",
    "id_image": "TheiDOLMSTERCinderellaGirls_802428",
    "count_view": 0
  },
  {
    "link_thumb": "https://live.staticflickr.com/65535/48059650741_7dcb762803_n.jpg",
    "id_album": "-903027937",
    "description": "TheiDOLMSTERCinderellaGirls_809948",
    "title": "TheiDOLMSTERCinderellaGirls_809948",
    "link_img": "https://live.staticflickr.com/65535/48059650741_552d1d5b4b_o.jpg",
    "id_image": "TheiDOLMSTERCinderellaGirls_809948",
    "count_view": 0
  },
  {
    "link_thumb": "https://live.staticflickr.com/65535/48059652101_4cdd016be5_n.jpg",
    "id_album": "-903027937",
    "description": "TheiDOLMSTERCinderellaGirls_814693",
    "title": "TheiDOLMSTERCinderellaGirls_814693",
    "link_img": "https://live.staticflickr.com/65535/48059652101_3a3f36d3d8_o.jpg",
    "id_image": "TheiDOLMSTERCinderellaGirls_814693",
    "count_view": 0
  },
  {
    "link_thumb": "https://live.staticflickr.com/65535/48059708398_4d00316208_n.jpg",
    "id_album": "-903027937",
    "description": "TheiDOLMSTERCinderellaGirls_840450",
    "title": "TheiDOLMSTERCinderellaGirls_840450",
    "link_img": "https://live.staticflickr.com/65535/48059708398_cf6c0838c7_o.jpg",
    "id_image": "TheiDOLMSTERCinderellaGirls_840450",
    "count_view": 0
  },
  {
    "link_thumb": "https://live.staticflickr.com/65535/48059665971_8a032cf085_n.jpg",
    "id_album": "-903027937",
    "description": "TheiDOLMSTERCinderellaGirls_847952",
    "title": "TheiDOLMSTERCinderellaGirls_847952",
    "link_img": "https://live.staticflickr.com/65535/48059665971_94b84b8634_o.jpg",
    "id_image": "TheiDOLMSTERCinderellaGirls_847952",
    "count_view": 0
  },
  {
    "link_thumb": "https://live.staticflickr.com/65535/48059773287_5b2389c5fa_n.jpg",
    "id_album": "-903027937",
    "description": "TheiDOLMSTERCinderellaGirls_863107",
    "title": "TheiDOLMSTERCinderellaGirls_863107",
    "link_img": "https://live.staticflickr.com/65535/48059773287_4cab5a3056_o.jpg",
    "id_image": "TheiDOLMSTERCinderellaGirls_863107",
    "count_view": 0
  },
  {
    "link_thumb": "https://live.staticflickr.com/65535/48059731733_59b5448f65_n.jpg",
    "id_album": "-903027937",
    "description": "TheiDOLMSTERCinderellaGirls_895391",
    "title": "TheiDOLMSTERCinderellaGirls_895391",
    "link_img": "https://live.staticflickr.com/65535/48059731733_6f8cf27774_o.jpg",
    "id_image": "TheiDOLMSTERCinderellaGirls_895391",
    "count_view": 0
  },
  {
    "link_thumb": "https://live.staticflickr.com/65535/48059748393_768f9fdc91_n.jpg",
    "id_album": "-903027937",
    "description": "TheiDOLMSTERCinderellaGirls_923616",
    "title": "TheiDOLMSTERCinderellaGirls_923616",
    "link_img": "https://live.staticflickr.com/65535/48059748393_b259c62d06_o.jpg",
    "id_image": "TheiDOLMSTERCinderellaGirls_923616",
    "count_view": 0
  },
  {
    "link_thumb": "https://live.staticflickr.com/65535/48059753193_cce7cf5017_n.jpg",
    "id_album": "-903027937",
    "description": "TheiDOLMSTERCinderellaGirls_941575",
    "title": "TheiDOLMSTERCinderellaGirls_941575",
    "link_img": "https://live.staticflickr.com/65535/48059753193_5803e4d8d6_o.jpg",
    "id_image": "TheiDOLMSTERCinderellaGirls_941575",
    "count_view": 0
  },
  {
    "link_thumb": "https://live.staticflickr.com/65535/48059805617_77fa20f13f_n.jpg",
    "id_album": "-903027937",
    "description": "TheiDOLMSTERCinderellaGirls_945725",
    "title": "TheiDOLMSTERCinderellaGirls_945725",
    "link_img": "https://live.staticflickr.com/65535/48059805617_324a629d7f_o.jpg",
    "id_image": "TheiDOLMSTERCinderellaGirls_945725",
    "count_view": 0
  },
  {
    "link_thumb": "https://live.staticflickr.com/65535/48059805797_33d7c076c8_n.jpg",
    "id_album": "-903027937",
    "description": "TheiDOLMSTERCinderellaGirls_945726",
    "title": "TheiDOLMSTERCinderellaGirls_945726",
    "link_img": "https://live.staticflickr.com/65535/48059805797_7ea24385bf_o.jpg",
    "id_image": "TheiDOLMSTERCinderellaGirls_945726",
    "count_view": 0
  },
  {
    "link_thumb": "https://live.staticflickr.com/65535/48059806127_10069906ea_n.jpg",
    "id_album": "-903027937",
    "description": "TheiDOLMSTERCinderellaGirls_945971",
    "title": "TheiDOLMSTERCinderellaGirls_945971",
    "link_img": "https://live.staticflickr.com/65535/48059806127_0189422e18_o.jpg",
    "id_image": "TheiDOLMSTERCinderellaGirls_945971",
    "count_view": 0
  },
  {
    "link_thumb": "https://live.staticflickr.com/65535/48059807747_bc72ba3ba1_n.jpg",
    "id_album": "-903027937",
    "description": "TheiDOLMSTERCinderellaGirls_949277",
    "title": "TheiDOLMSTERCinderellaGirls_949277",
    "link_img": "https://live.staticflickr.com/65535/48059807747_1e3e2ac9e2_o.jpg",
    "id_image": "TheiDOLMSTERCinderellaGirls_949277",
    "count_view": 0
  },
  {
    "link_thumb": "https://live.staticflickr.com/65535/48059761273_acee2cce66_n.jpg",
    "id_album": "-903027937",
    "description": "TheiDOLMSTERCinderellaGirls_952489",
    "title": "TheiDOLMSTERCinderellaGirls_952489",
    "link_img": "https://live.staticflickr.com/65535/48059761273_d710510e41_o.jpg",
    "id_image": "TheiDOLMSTERCinderellaGirls_952489",
    "count_view": 0
  },
  {
    "link_thumb": "https://live.staticflickr.com/65535/48059714351_aa41af59d4_n.jpg",
    "id_album": "-903027937",
    "description": "TheiDOLMSTERCinderellaGirls_954185",
    "title": "TheiDOLMSTERCinderellaGirls_954185",
    "link_img": "https://live.staticflickr.com/65535/48059714351_f6c8691dfe_o.jpg",
    "id_image": "TheiDOLMSTERCinderellaGirls_954185",
    "count_view": 0
  },
  {
    "link_thumb": "https://live.staticflickr.com/65535/48059764653_9c4414ceef_n.jpg",
    "id_album": "-903027937",
    "description": "TheiDOLMSTERCinderellaGirls_955220",
    "title": "TheiDOLMSTERCinderellaGirls_955220",
    "link_img": "https://live.staticflickr.com/65535/48059764653_a1a2fd74a0_o.jpg",
    "id_image": "TheiDOLMSTERCinderellaGirls_955220",
    "count_view": 0
  },
  {
    "link_thumb": "https://live.staticflickr.com/65535/48059825297_969d9e3ea7_n.jpg",
    "id_album": "-903027937",
    "description": "TheiDOLMSTERCinderellaGirls_978836",
    "title": "TheiDOLMSTERCinderellaGirls_978836",
    "link_img": "https://live.staticflickr.com/65535/48059825297_c690f831d4_o.jpg",
    "id_image": "TheiDOLMSTERCinderellaGirls_978836",
    "count_view": 0
  },
  {
    "link_thumb": "https://live.staticflickr.com/65535/48059725621_c148d59499_n.jpg",
    "id_album": "-903027937",
    "description": "TheiDOLMSTERCinderellaGirls_979160",
    "title": "TheiDOLMSTERCinderellaGirls_979160",
    "link_img": "https://live.staticflickr.com/65535/48059725621_6ca9642962_o.jpg",
    "id_image": "TheiDOLMSTERCinderellaGirls_979160",
    "count_view": 0
  },
  {
    "link_thumb": "https://live.staticflickr.com/65535/48059629682_451ed9f85e_n.jpg",
    "id_album": "-903027937",
    "description": "TheiDOLMSTER_572246",
    "title": "TheiDOLMSTER_572246",
    "link_img": "https://live.staticflickr.com/65535/48059629682_70d5d6ae80_o.jpg",
    "id_image": "TheiDOLMSTER_572246",
    "count_view": 0
  },
  {
    "link_thumb": "https://live.staticflickr.com/65535/48059622058_8f3ce027da_n.jpg",
    "id_album": "-903027937",
    "description": "TheiDOLMSTER_686317",
    "title": "TheiDOLMSTER_686317",
    "link_img": "https://live.staticflickr.com/65535/48059622058_0401361bb6_o.jpg",
    "id_image": "TheiDOLMSTER_686317",
    "count_view": 0
  },
  {
    "link_thumb": "https://live.staticflickr.com/65535/48059695957_7bc76298c9_n.jpg",
    "id_album": "-903027937",
    "description": "TheiDOLMSTER_836730",
    "title": "TheiDOLMSTER_836730",
    "link_img": "https://live.staticflickr.com/65535/48059695957_e668e0ab3a_o.jpg",
    "id_image": "TheiDOLMSTER_836730",
    "count_view": 0
  }
]