[
  {
    "link_thumb": "https://live.staticflickr.com/65535/48047875642_46371cb93f_n.jpg",
    "id_album": "-1975672564",
    "description": "KemonoFriends_811591",
    "title": "KemonoFriends_811591",
    "link_img": "https://live.staticflickr.com/65535/48047875642_9a38c368a1_o.jpg",
    "id_image": "KemonoFriends_811591",
    "count_view": 0
  },
  {
    "link_thumb": "https://live.staticflickr.com/65535/48047845813_5bea31b3ed_n.jpg",
    "id_album": "-1975672564",
    "description": "KemonoFriends_828295",
    "title": "KemonoFriends_828295",
    "link_img": "https://live.staticflickr.com/65535/48047845813_beab5a13bf_o.jpg",
    "id_image": "KemonoFriends_828295",
    "count_view": 0
  },
  {
    "link_thumb": "https://live.staticflickr.com/65535/48047809841_78dbc79c02_n.jpg",
    "id_album": "-1975672564",
    "description": "KemonoFriends_837875",
    "title": "KemonoFriends_837875",
    "link_img": "https://live.staticflickr.com/65535/48047809841_54f834e29f_o.jpg",
    "id_image": "KemonoFriends_837875",
    "count_view": 0
  },
  {
    "link_thumb": "https://live.staticflickr.com/65535/48047811281_031124da39_n.jpg",
    "id_album": "-1975672564",
    "description": "KemonoFriends_840134",
    "title": "KemonoFriends_840134",
    "link_img": "https://live.staticflickr.com/65535/48047811281_bc44c66455_o.jpg",
    "id_image": "KemonoFriends_840134",
    "count_view": 0
  },
  {
    "link_thumb": "https://live.staticflickr.com/65535/48047852968_e25ef6784d_n.jpg",
    "id_album": "-1975672564",
    "description": "KemonoFriends_840789",
    "title": "KemonoFriends_840789",
    "link_img": "https://live.staticflickr.com/65535/48047852968_9f899bd81d_o.jpg",
    "id_image": "KemonoFriends_840789",
    "count_view": 0
  },
  {
    "link_thumb": "https://live.staticflickr.com/65535/48047897802_20f1391a67_n.jpg",
    "id_album": "-1975672564",
    "description": "KemonoFriends_878577",
    "title": "KemonoFriends_878577",
    "link_img": "https://live.staticflickr.com/65535/48047897802_cf10776e01_o.jpg",
    "id_image": "KemonoFriends_878577",
    "count_view": 0
  }
]