[
  {
    "total_img": 183,
    "number_page": 1,
    "title": "FateApocrypha",
    "tag": "Water, Amakusa Shirou, Karna FateApocrypha, Wink, William Shakespeare FateApocrypha, Kairi Sisigou, Ruler FateGrand Order, Tattoo, Jeanne dArc Fate Series, Lancer of Black FateApocrypha, Wedding Dress, Weapon, Assassin of Red FateApocrypha, Long Hair, Thigh Highs, Rain, Lancer of Red FateApocrypha, Anime, Sword, Rider of Red FateApocrypha, Shorts, Headdress, Braid, Woman, Ruler FateApocrypha, Berserker of Black FateApocrypha, Frankenstein FateApocrypha, Saber Fate Series, Rider of Black FateApocrypha, Black Dress, Smile, Flag, Blush, Saber of Red FateApocrypha, Ponytail, Headpiece, Siegfried FateApocrypha, Atalanta FateApocrypha, Chain, Sieg FateApocrypha, Shirou Kotomine, Archer FateGrand Order, Butterfly, Bird, Caster of Red FateApocrypha, Sitting, White Dress, Blonde, Fate Series, Saber of Black FateApocrypha, Armor, FateApocrypha, Watch, Semiramis FateApocrypha, Short Hair, Astolfo FateApocrypha, Artoria Pendragon, Caster FateZero, Dress, Archer of Red FateApocrypha, Achilles FateApocrypha, Woman Warrior, Tie, Blue Eyes, Assassin of Black FateApocrypha, Mordred FateApocrypha",
    "description": "FateApocrypha",
    "link_thumb": "https://live.staticflickr.com/65535/47975644318_78f013b9e5_n.jpg",
    "id_album": "209218698",
    "total_view": 183
  },
  {
    "total_img": 14,
    "number_page": 1,
    "title": "Berserker of Black FateApocrypha",
    "tag": "Berserker of Black FateApocrypha,",
    "description": "Berserker of Black FateApocrypha",
    "link_thumb": "https://live.staticflickr.com/65535/47976566048_442c6e8585_n.jpg",
    "id_album": "-1787351097",
    "total_view": 14
  },
  {
    "total_img": 34,
    "number_page": 1,
    "title": "Rider of Black FateApocrypha",
    "tag": "Rider of Black FateApocrypha,",
    "description": "Rider of Black FateApocrypha",
    "link_thumb": "https://live.staticflickr.com/65535/47977070887_87244381eb_n.jpg",
    "id_album": "-1296404152",
    "total_view": 34
  }
]