[
  {
    "total_img": 542,
    "number_page": 3,
    "title": "Touhou 2",
    "tag": "Water, Green Hair, Utsuho Reiuji, Wink, Black Hair, Weapon, Blood, Umbrella, Parsee Mizuhashi, Sekibanki Touhou, Reimu Hakurei, Wakasagihime Touhou, Cup, Arrow, Lyrica Prismriver, Glove, Chibi, Black Dress, Smile, Sun, Skirt, Shizuha Aki, Rumia Touhou, Bunny Ears, Mamizou Futatsuiwa, Momiji Inubashiri, Building, Kosuzu Motoori, Orange Hair, Bloomers, Cake, White Dress, CloseUp, Train Station, Miko Hakurei, Japanese Clothes, Tail, Feather, Fish, Yamame Kurodani, Patchouli Knowledge, Toothbrush, Food, Bed, Nature, Video Game, Artistic, Blue, Brown Hair, Suika Ibuki, Chocolate, Ice, Pink Hair, Mima Touhou, Kagerou Imaizumi, Hieda no Akyuu, Red, Tie, Blue Eyes, Boots, Hat, Sunrise, Mermaid, Animal Ears, Hata no Kokoro, Eirin Yagokoro, Ice Cream, Green Eyes, Scythe, Pumpkin, Stars, Underwater, Sumireko Usami, Snowfall, Reisen Udongein Inaba, Long Hair, Ran Yakumo, Thigh Highs, Kimono, Headdress, Camera, Cirno Touhou, Festival, Purple Hair, Cute, Maribel Hearn, Chen Touhou, Shikieiki Yamaxanadu, Marisa Kirisame, Touhou 2, Eiki Shiki, Glasses, Elly Touhou, Santa Hat, Bird, Sitting, Peach, Blonde, Twintails, Knife, Mountain, Hina Kagiyama, Shinki Touhou, Lunasa Prismriver, Katana, Sunny Milk, Clownpiece Touhou, Pink Eyes, Apron, School Uniform, Selfie, Cape, Gothic, Green Dress, Pepe, Sunset, Shou Toramaru, Tenshi Hinanawi, White, Merlin Prismriver, Pointed Ears, Kaguya Houraisan, Seiga Kaku, Grey Hair, Lying Down, Castle, Yuuka Kazami, Tears, Sky, Yin  Yang, Flandre Scarlet, Moon, Colorful, Japanses Clothes, Junko Touhou, Glitter, Sword, Bottle, Ribbon, Lily White, White Hair, Book, Fangs, Hecatia Lapislazuli, Horns, Braid, Koakuma Touhou, Kogasa Tatara, Ruukoto Touhou, Gun, Satori Komeiji, Purple Eyes, Scarf, Keine Kamishirasawa, Letty Whiterock, Mask, Witch Hat, Shoe, Shanghai touhou, Daiyousei Touhou, Red Hair, Aqua Eyes, Card, Blush, Pantyhose, Animal, SuSan Touhou, Bamboo, Rin Kaenbyou, Alice Margatroid, Chair, Yukari Yakumo, Black  White, Seija Kijin, Doll, Toyosatomimi no Miko, Wings, Sunbeam, Nitori Kawashiro, Leaf, Witch, Mystia Lorelei, Warrior, Wriggle Nightbug, Headband, Shanghai Doll, Minecraft, Yuyuko Saigyouji, Nazrin Touhou, Grey Eyes, Kasen Ibaraki, Sakuya Izayoi, Halloween, Cimo Touhou, Sakura Blossom, Black Eyes, Pancake, Pink Dress, Snow, Night, Digital Art, Fujiwara no Mokou, Grass, Drink, Soga no Tojiko, Wedding Dress, Medicine Melancholy, Remilia Scarlet, Brunette, Rain, Anime, Candy, Tree, Hourai Touhou, Tokiko Touhou, Shinmyoumaru Sukuna, Youmu Konpaku, Koishi Komeiji, Bow, Yellow Eyes, Sakura, Komachi Onozuka, Boy, Red Eyes, Myon Touhou, Dark, Sad, Cat, Tewi Inaba, Fantasy, Suwako Moriya, Fall, Ponytail, Fairy, Orange Eyes, Hatate Himekaidou, Cherry Blossom, Kanako Yasaka, Butterfly, Iku Nagae, Rinnosuke Morichika, Kana Anaberal, Byakuren Hijiri, Rikaku Asakura, Phone, Hong Meiling, bow Clothing, Short Hair, Swimsuit, Necklace, Flower, Dress, Fruit, Mononobe No Futo, Brown Eyes, Snake, Sanae Kochiya, Magic, Goliath Doll, Red Dress, Blue Dress, Maid, Nue Houjuu, Heckler  Koch HK416, Renko Usami, Spirit, Yoshika Miyako, Bride, Assault Rifle, Tea, Blue Hair, Yumemi Okazaki, Cloud, Skull, Forest, Minoriko Aki, Aya Shameimaru, Petal, Yukata, Sagume Kishin",
    "description": "Touhou 2",
    "link_thumb": "https://live.staticflickr.com/65535/48061072878_685013ba76_n.jpg",
    "id_album": "1757441006",
    "total_view": 542
  },
  {
    "total_img": 14,
    "number_page": 1,
    "title": "Myon Touhou",
    "tag": "Myon Touhou,",
    "description": "Myon Touhou",
    "link_thumb": "https://live.staticflickr.com/65535/48062549541_e97d2f6785_n.jpg",
    "id_album": "1769466685",
    "total_view": 14
  },
  {
    "total_img": 86,
    "number_page": 1,
    "title": "Youmu Konpaku",
    "tag": "Youmu Konpaku,",
    "description": "Youmu Konpaku",
    "link_thumb": "https://live.staticflickr.com/65535/48066147072_dd756e6d31_n.jpg",
    "id_album": "-1040710799",
    "total_view": 86
  }
]