[
  {
    "total_img": 96,
    "number_page": 1,
    "title": "Haikyu",
    "tag": "Green Hair, Shoyo Hinata, Green Eyes, Orange Hair, Daichi Sawamura, Black Hair, Ryuunosuke Tanaka, Kei Tsukishima, Toru Oikawa, Lev Haiba, Tadashi Yamaguchi, Tetsuro Kuroo, Kenma Kozume, Hitoka Yachi, Blonde, Chikara Ennoshita, Hinata Hyuga, Sport, Anime, Winter, Yu Nishinoya, Karasuno High, Feather, Short Hair, Volleyball, Nekoma High, Scarf, Brown Hair, Tobio Kageyama, Yellow Eyes, Ryunosuke Tanaka, Fukurodani Academy, Sunset, Tetsurou Kuroo, Koushi Sugawara, Haikyu, Blue Eyes, Wakatoshi Uhijima, Blush, Kotaro Bokuto, Cloud, Kiyoko Shimizu, Asahi Azumane, Nekoma High School",
    "description": "Haikyu",
    "link_thumb": "https://live.staticflickr.com/65535/47993315237_74178406a5_n.jpg",
    "id_album": "-1540159486",
    "total_view": 96
  },
  {
    "total_img": 12,
    "number_page": 1,
    "title": "Tobio Kageyama",
    "tag": "Tobio Kageyama,",
    "description": "Tobio Kageyama",
    "link_thumb": "https://live.staticflickr.com/65535/47993357527_7878451726_n.jpg",
    "id_album": "-39751964",
    "total_view": 12
  }
]