[
  {
    "link_thumb": "https://live.staticflickr.com/65535/48052291623_803fe73a26_n.jpg",
    "id_album": "-505809705",
    "description": "PixivFantasiaFallenKings_522947,[isBoyAnime],[Pixiv Fantasia Fallen Kings],[PixivFantasiaFallenKings]",
    "title": "PixivFantasiaFallenKings_522947",
    "link_img": "https://live.staticflickr.com/65535/48052291623_923753e555_o.jpg",
    "id_image": "PixivFantasiaFallenKings_522947",
    "count_view": 0
  },
  {
    "link_thumb": "https://live.staticflickr.com/65535/48052291853_ba1427d65f_n.jpg",
    "id_album": "-505809705",
    "description": "PixivFantasiaFallenKings_548945,[isGirlAnime],[Pixiv Fantasia Fallen Kings],[PixivFantasiaFallenKings]",
    "title": "PixivFantasiaFallenKings_548945",
    "link_img": "https://live.staticflickr.com/65535/48052291853_1dbcd0f9ae_o.jpg",
    "id_image": "PixivFantasiaFallenKings_548945",
    "count_view": 0
  },
  {
    "link_thumb": "https://live.staticflickr.com/65535/48052292138_88bf0e485a_n.jpg",
    "id_album": "-505809705",
    "description": "PixivFantasiaFallenKings_551098,[isGirlAnime],[isCuteAnime],[Pixiv Fantasia Fallen Kings],[PixivFantasiaFallenKings]",
    "title": "PixivFantasiaFallenKings_551098",
    "link_img": "https://live.staticflickr.com/65535/48052292138_4618d06728_o.jpg",
    "id_image": "PixivFantasiaFallenKings_551098",
    "count_view": 0
  },
  {
    "link_thumb": "https://live.staticflickr.com/65535/48052292618_e5670970c1_n.jpg",
    "id_album": "-505809705",
    "description": "PixivFantasiaFallenKings_552024,[isGirlAnime],[isSadAnime],[isSadAnimeGirl],[isCuteAnime],[isGirlsHatsHoodieAnime],[Pixiv Fantasia Fallen Kings],[PixivFantasiaFallenKings]",
    "title": "PixivFantasiaFallenKings_552024",
    "link_img": "https://live.staticflickr.com/65535/48052292618_edd232503e_o.jpg",
    "id_image": "PixivFantasiaFallenKings_552024",
    "count_view": 0
  },
  {
    "link_thumb": "https://live.staticflickr.com/65535/48052250541_47d8b1d581_n.jpg",
    "id_album": "-505809705",
    "description": "PixivFantasiaFallenKings_556086,[isRandom],[Pixiv Fantasia Fallen Kings],[PixivFantasiaFallenKings]",
    "title": "PixivFantasiaFallenKings_556086",
    "link_img": "https://live.staticflickr.com/65535/48052250541_70e3baa89c_o.jpg",
    "id_image": "PixivFantasiaFallenKings_556086",
    "count_view": 0
  },
  {
    "link_thumb": "https://live.staticflickr.com/65535/48052338577_41ba1145c1_n.jpg",
    "id_album": "-505809705",
    "description": "PixivFantasiaFallenKings_559202,[isGirlAnime],[isSadAnime],[isSadAnimeGirl],[isCuteAnime],[isGirlsLoliAnime],[Pixiv Fantasia Fallen Kings],[PixivFantasiaFallenKings]",
    "title": "PixivFantasiaFallenKings_559202",
    "link_img": "https://live.staticflickr.com/65535/48052338577_79ed51e227_o.jpg",
    "id_image": "PixivFantasiaFallenKings_559202",
    "count_view": 0
  },
  {
    "link_thumb": "https://live.staticflickr.com/65535/48052293848_25d9a5e113_n.jpg",
    "id_album": "-505809705",
    "description": "PixivFantasiaFallenKings_559205,[isGirlAnime],[isSadAnime],[isSadAnimeGirl],[isCuteAnime],[isGirlsLoliAnime],[Pixiv Fantasia Fallen Kings],[PixivFantasiaFallenKings]",
    "title": "PixivFantasiaFallenKings_559205",
    "link_img": "https://live.staticflickr.com/65535/48052293848_72d4113220_o.jpg",
    "id_image": "PixivFantasiaFallenKings_559205",
    "count_view": 0
  },
  {
    "link_thumb": "https://live.staticflickr.com/65535/48052251681_d97ebdeb07_n.jpg",
    "id_album": "-505809705",
    "description": "PixivFantasiaFallenKings_559207,[isGirlAnime],[isSadAnime],[isSadAnimeGirl],[isCuteAnime],[isGirlEarsNekoAnime],[isGirlsLoliAnime],[Pixiv Fantasia Fallen Kings],[PixivFantasiaFallenKings]",
    "title": "PixivFantasiaFallenKings_559207",
    "link_img": "https://live.staticflickr.com/65535/48052251681_fdf686e385_o.jpg",
    "id_image": "PixivFantasiaFallenKings_559207",
    "count_view": 0
  },
  {
    "link_thumb": "https://live.staticflickr.com/65535/48052340067_6f795acce8_n.jpg",
    "id_album": "-505809705",
    "description": "PixivFantasiaFallenKings_559209,[isGirlAnime],[isSadAnime],[isSadAnimeGirl],[isCuteAnime],[isGirlsLoliAnime],[isBlackAnime],[Pixiv Fantasia Fallen Kings],[PixivFantasiaFallenKings]",
    "title": "PixivFantasiaFallenKings_559209",
    "link_img": "https://live.staticflickr.com/65535/48052340067_230b91ef8a_o.jpg",
    "id_image": "PixivFantasiaFallenKings_559209",
    "count_view": 0
  },
  {
    "link_thumb": "https://live.staticflickr.com/65535/48052340297_3a587c8ce9_n.jpg",
    "id_album": "-505809705",
    "description": "PixivFantasiaFallenKings_559210,[isGirlAnime],[isSadAnime],[isSadAnimeGirl],[isCuteAnime],[isGirlsHornsAnime],[isGirlsLoliAnime],[isBlackAnime],[Pixiv Fantasia Fallen Kings],[PixivFantasiaFallenKings]",
    "title": "PixivFantasiaFallenKings_559210",
    "link_img": "https://live.staticflickr.com/65535/48052340297_9a891c08fc_o.jpg",
    "id_image": "PixivFantasiaFallenKings_559210",
    "count_view": 0
  },
  {
    "link_thumb": "https://live.staticflickr.com/65535/48052295223_5ba1689362_n.jpg",
    "id_album": "-505809705",
    "description": "PixivFantasiaFallenKings_559211,[isBoyAnime],[isSadAnime],[isSadAnimeBoy],[Pixiv Fantasia Fallen Kings],[PixivFantasiaFallenKings]",
    "title": "PixivFantasiaFallenKings_559211",
    "link_img": "https://live.staticflickr.com/65535/48052295223_a10f5e73b9_o.jpg",
    "id_image": "PixivFantasiaFallenKings_559211",
    "count_view": 0
  },
  {
    "link_thumb": "https://live.staticflickr.com/65535/48052252646_917503a556_n.jpg",
    "id_album": "-505809705",
    "description": "PixivFantasiaFallenKings_559212,[isGirlAnime],[isSadAnime],[isSadAnimeGirl],[isCuteAnime],[isGirlsLoliAnime],[Pixiv Fantasia Fallen Kings],[PixivFantasiaFallenKings]",
    "title": "PixivFantasiaFallenKings_559212",
    "link_img": "https://live.staticflickr.com/65535/48052252646_f959c071f8_o.jpg",
    "id_image": "PixivFantasiaFallenKings_559212",
    "count_view": 0
  },
  {
    "link_thumb": "https://live.staticflickr.com/65535/48052252866_b8b7695ff2_n.jpg",
    "id_album": "-505809705",
    "description": "PixivFantasiaFallenKings_559213,[isGirlAnime],[isBoyAnime],[Pixiv Fantasia Fallen Kings],[PixivFantasiaFallenKings]",
    "title": "PixivFantasiaFallenKings_559213",
    "link_img": "https://live.staticflickr.com/65535/48052252866_1a6e4a351f_o.jpg",
    "id_image": "PixivFantasiaFallenKings_559213",
    "count_view": 0
  },
  {
    "link_thumb": "https://live.staticflickr.com/65535/48052341142_64bde01685_n.jpg",
    "id_album": "-505809705",
    "description": "PixivFantasiaFallenKings_559214,[isGirlAnime],[Pixiv Fantasia Fallen Kings],[PixivFantasiaFallenKings]",
    "title": "PixivFantasiaFallenKings_559214",
    "link_img": "https://live.staticflickr.com/65535/48052341142_a275962f2e_o.jpg",
    "id_image": "PixivFantasiaFallenKings_559214",
    "count_view": 0
  },
  {
    "link_thumb": "https://live.staticflickr.com/65535/48052341327_f4242b1c8f_n.jpg",
    "id_album": "-505809705",
    "description": "PixivFantasiaFallenKings_559216,[isSceneryArts],[Pixiv Fantasia Fallen Kings],[PixivFantasiaFallenKings]",
    "title": "PixivFantasiaFallenKings_559216",
    "link_img": "https://live.staticflickr.com/65535/48052341327_4df9863d54_o.jpg",
    "id_image": "PixivFantasiaFallenKings_559216",
    "count_view": 0
  },
  {
    "link_thumb": "https://live.staticflickr.com/65535/48052341432_812c08ec8f_n.jpg",
    "id_album": "-505809705",
    "description": "PixivFantasiaFallenKings_559217,[isSceneryArts],[Pixiv Fantasia Fallen Kings],[PixivFantasiaFallenKings]",
    "title": "PixivFantasiaFallenKings_559217",
    "link_img": "https://live.staticflickr.com/65535/48052341432_5aa08de056_o.jpg",
    "id_image": "PixivFantasiaFallenKings_559217",
    "count_view": 0
  },
  {
    "link_thumb": "https://live.staticflickr.com/65535/48052341767_4cf104eced_n.jpg",
    "id_album": "-505809705",
    "description": "PixivFantasiaFallenKings_561518,[isGirlAnime],[isSadAnime],[isSadAnimeGirl],[isCuteAnime],[isGirlsLoliAnime],[Pixiv Fantasia Fallen Kings],[PixivFantasiaFallenKings]",
    "title": "PixivFantasiaFallenKings_561518",
    "link_img": "https://live.staticflickr.com/65535/48052341767_f91809bfa0_o.jpg",
    "id_image": "PixivFantasiaFallenKings_561518",
    "count_view": 0
  },
  {
    "link_thumb": "https://live.staticflickr.com/65535/48052254541_af11b66c6b_n.jpg",
    "id_album": "-505809705",
    "description": "PixivFantasiaFallenKings_576658,[isGirlAnime],[isSadAnime],[isSadAnimeGirl],[isCuteAnime],[isGirlsLoliAnime],[isBlackAnime],[Pixiv Fantasia Fallen Kings],[PixivFantasiaFallenKings]",
    "title": "PixivFantasiaFallenKings_576658",
    "link_img": "https://live.staticflickr.com/65535/48052254541_c934273c06_o.jpg",
    "id_image": "PixivFantasiaFallenKings_576658",
    "count_view": 0
  },
  {
    "link_thumb": "https://live.staticflickr.com/65535/48052297338_7196fc1cbc_n.jpg",
    "id_album": "-505809705",
    "description": "PixivFantasiaFallenKings_576675,[isGirlAnime],[isSadAnime],[isSadAnimeGirl],[isCuteAnime],[isGirlsLoliAnime],[Pixiv Fantasia Fallen Kings],[PixivFantasiaFallenKings]",
    "title": "PixivFantasiaFallenKings_576675",
    "link_img": "https://live.staticflickr.com/65535/48052297338_8d48c1fca6_o.jpg",
    "id_image": "PixivFantasiaFallenKings_576675",
    "count_view": 0
  },
  {
    "link_thumb": "https://live.staticflickr.com/65535/48052254931_4084a0f678_n.jpg",
    "id_album": "-505809705",
    "description": "PixivFantasiaFallenKings_576676,[isGirlAnime],[isSadAnime],[isSadAnimeGirl],[isCuteAnime],[isGirlsHatsHoodieAnime],[isGirlsLoliAnime],[Pixiv Fantasia Fallen Kings],[PixivFantasiaFallenKings]",
    "title": "PixivFantasiaFallenKings_576676",
    "link_img": "https://live.staticflickr.com/65535/48052254931_f335af4e8e_o.jpg",
    "id_image": "PixivFantasiaFallenKings_576676",
    "count_view": 0
  },
  {
    "link_thumb": "https://live.staticflickr.com/65535/48052343202_ea9c84fc7c_n.jpg",
    "id_album": "-505809705",
    "description": "PixivFantasiaFallenKings_576677,[isGirlAnime],[isSadAnime],[isSadAnimeGirl],[isCuteAnime],[isGirlsLoliAnime],[Pixiv Fantasia Fallen Kings],[PixivFantasiaFallenKings]",
    "title": "PixivFantasiaFallenKings_576677",
    "link_img": "https://live.staticflickr.com/65535/48052343202_b10330cfb2_o.jpg",
    "id_image": "PixivFantasiaFallenKings_576677",
    "count_view": 0
  },
  {
    "link_thumb": "https://live.staticflickr.com/65535/48052343352_369e522f25_n.jpg",
    "id_album": "-505809705",
    "description": "PixivFantasiaFallenKings_583160,[isGirlAnime],[Pixiv Fantasia Fallen Kings],[PixivFantasiaFallenKings]",
    "title": "PixivFantasiaFallenKings_583160",
    "link_img": "https://live.staticflickr.com/65535/48052343352_52bb0e6c94_o.jpg",
    "id_image": "PixivFantasiaFallenKings_583160",
    "count_view": 0
  },
  {
    "link_thumb": "https://live.staticflickr.com/65535/48052255416_7f23f02b05_n.jpg",
    "id_album": "-505809705",
    "description": "PixivFantasiaFallenKings_595577,[isGirlAnime],[isSadAnime],[isSadAnimeGirl],[isCuteAnime],[isGirlEarsNekoAnime],[isGirlsLoliAnime],[isGirlsSharpCanineToothAnime],[Pixiv Fantasia Fallen Kings],[PixivFantasiaFallenKings]",
    "title": "PixivFantasiaFallenKings_595577",
    "link_img": "https://live.staticflickr.com/65535/48052255416_0c735efcf2_o.jpg",
    "id_image": "PixivFantasiaFallenKings_595577",
    "count_view": 0
  },
  {
    "link_thumb": "https://live.staticflickr.com/65535/48052343747_a25346a818_n.jpg",
    "id_album": "-505809705",
    "description": "PixivFantasiaFallenKings_595578,[isGirlAnime],[isSadAnime],[isSadAnimeGirl],[isCuteAnime],[isGirlEarsNekoAnime],[isGirlsLoliAnime],[isGirlsSharpCanineToothAnime],[Pixiv Fantasia Fallen Kings],[PixivFantasiaFallenKings]",
    "title": "PixivFantasiaFallenKings_595578",
    "link_img": "https://live.staticflickr.com/65535/48052343747_14a193e86e_o.jpg",
    "id_image": "PixivFantasiaFallenKings_595578",
    "count_view": 0
  },
  {
    "link_thumb": "https://live.staticflickr.com/65535/48052345147_95d8516e22_n.jpg",
    "id_album": "-505809705",
    "description": "PixivFantasiaFallenKings_695270,[isGirlAnime],[isSadAnime],[isSadAnimeGirl],[isCuteAnime],[isGirlsLoliAnime],[Pixiv Fantasia Fallen Kings],[PixivFantasiaFallenKings]",
    "title": "PixivFantasiaFallenKings_695270",
    "link_img": "https://live.staticflickr.com/65535/48052345147_8aaa201ca0_o.jpg",
    "id_image": "PixivFantasiaFallenKings_695270",
    "count_view": 0
  },
  {
    "link_thumb": "https://live.staticflickr.com/65535/48052345617_7c6ab0d8c3_n.jpg",
    "id_album": "-505809705",
    "description": "PixivFantasiaFallenKings_695292,[isGirlAnime],[isSadAnime],[isSadAnimeGirl],[isCuteAnime],[isGirlEarsNekoAnime],[isGirlsLoliAnime],[Pixiv Fantasia Fallen Kings],[PixivFantasiaFallenKings]",
    "title": "PixivFantasiaFallenKings_695292",
    "link_img": "https://live.staticflickr.com/65535/48052345617_f572239191_o.jpg",
    "id_image": "PixivFantasiaFallenKings_695292",
    "count_view": 0
  },
  {
    "link_thumb": "https://live.staticflickr.com/65535/48052257701_a3fc7b9dd6_n.jpg",
    "id_album": "-505809705",
    "description": "PixivFantasiaFallenKings_695313,[isGirlAnime],[isSadAnime],[isSadAnimeGirl],[isCuteAnime],[isGirlsLoliAnime],[Pixiv Fantasia Fallen Kings],[PixivFantasiaFallenKings]",
    "title": "PixivFantasiaFallenKings_695313",
    "link_img": "https://live.staticflickr.com/65535/48052257701_07bb26c285_o.jpg",
    "id_image": "PixivFantasiaFallenKings_695313",
    "count_view": 0
  },
  {
    "link_thumb": "https://live.staticflickr.com/65535/48052302238_827f0ed0f6_n.jpg",
    "id_album": "-505809705",
    "description": "PixivFantasiaFallenKings_711024,[isGirlAnime],[isSadAnime],[isSadAnimeGirl],[isCuteAnime],[isGirlsLoliAnime],[Pixiv Fantasia Fallen Kings],[PixivFantasiaFallenKings]",
    "title": "PixivFantasiaFallenKings_711024",
    "link_img": "https://live.staticflickr.com/65535/48052302238_99db8fdc7c_o.jpg",
    "id_image": "PixivFantasiaFallenKings_711024",
    "count_view": 0
  },
  {
    "link_thumb": "https://live.staticflickr.com/65535/48052259656_39fcc9d338_n.jpg",
    "id_album": "-505809705",
    "description": "PixivFantasiaFallenKings_745620,[isGirlAnime],[isSadAnimeGirl],[isCuteAnime],[isGirlsLoliAnime],[isBlackAnime],[Pixiv Fantasia Fallen Kings],[PixivFantasiaFallenKings]",
    "title": "PixivFantasiaFallenKings_745620",
    "link_img": "https://live.staticflickr.com/65535/48052259656_d8d4820be9_o.jpg",
    "id_image": "PixivFantasiaFallenKings_745620",
    "count_view": 0
  },
  {
    "link_thumb": "https://live.staticflickr.com/65535/48052348522_52670b1bac_n.jpg",
    "id_album": "-505809705",
    "description": "PixivFantasiaFallenKings_838276,[isGirlAnime],[isBoyAnime],[Pixiv Fantasia Fallen Kings],[PixivFantasiaFallenKings]",
    "title": "PixivFantasiaFallenKings_838276",
    "link_img": "https://live.staticflickr.com/65535/48052348522_6002de3532_o.jpg",
    "id_image": "PixivFantasiaFallenKings_838276",
    "count_view": 0
  },
  {
    "link_thumb": "https://live.staticflickr.com/65535/48052260536_286264ff0e_n.jpg",
    "id_album": "-505809705",
    "description": "PixivFantasiaFallenKings_854797,[isGirlAnime],[isSadAnime],[isSadAnimeGirl],[isCuteAnime],[isGirlsLoliAnime],[Pixiv Fantasia Fallen Kings],[PixivFantasiaFallenKings]",
    "title": "PixivFantasiaFallenKings_854797",
    "link_img": "https://live.staticflickr.com/65535/48052260536_9b6b023e3e_o.jpg",
    "id_image": "PixivFantasiaFallenKings_854797",
    "count_view": 0
  },
  {
    "link_thumb": "https://live.staticflickr.com/65535/48052260771_96a15e6f00_n.jpg",
    "id_album": "-505809705",
    "description": "PixivFantasiaFallenKings_918164,[isGirlAnime],[isSadAnime],[isSadAnimeGirl],[isCuteAnime],[isGirlsLoliAnime],[Pixiv Fantasia Fallen Kings],[PixivFantasiaFallenKings]",
    "title": "PixivFantasiaFallenKings_918164",
    "link_img": "https://live.staticflickr.com/65535/48052260771_fcd2b7a5a7_o.jpg",
    "id_image": "PixivFantasiaFallenKings_918164",
    "count_view": 0
  },
  {
    "link_thumb": "https://live.staticflickr.com/65535/48052261991_c53022931d_n.jpg",
    "id_album": "-505809705",
    "description": "PixivFantasiaFallenKings_978218,[isGirlAnime],[isSadAnime],[isSadAnimeGirl],[isCuteAnime],[isGirlsLoliAnime],[Pixiv Fantasia Fallen Kings],[PixivFantasiaFallenKings]",
    "title": "PixivFantasiaFallenKings_978218",
    "link_img": "https://live.staticflickr.com/65535/48052261991_3461086e25_o.jpg",
    "id_image": "PixivFantasiaFallenKings_978218",
    "count_view": 0
  }
]