[
  {
    "total_img": 34,
    "number_page": 1,
    "title": "Tengen Toppa Gurren Lagann",
    "tag": "Sky, Night, Doughnut, Stars, Wink, Black Hair, Mecha, Drink, Wedding Dress, Weapon, Long Hair, Thigh Highs, Goggles, Anime, Bandage, Sword, White Hair, Yoko Littner, Shorts, Bikini, Planet, Coat, Flame, Earrings, Gun, Jacket, Scarf, Reflection, Bodysuit, Gurren Lagann, Smile, Yellow Eyes, Red Hair, Red Eyes, Simon Tengen Toppa Gurren Lagann, Skirt, Belt, Glasses, Sitting, Glass, Kamina Tengen Toppa Gurren Lagann, Sniper Rifle, Blonde, Nia Teppelin, Katana, Necklace, Flower, Universe, Maid, Cape, Sunset, Blue Eyes, Blue Hair, Cloud, Boots, Tengen Toppa Gurren Lagann",
    "description": "Tengen Toppa Gurren Lagann",
    "link_thumb": "https://live.staticflickr.com/65535/48059348337_8b99f83fe2_n.jpg",
    "id_album": "945450668",
    "total_view": 34
  },
  {
    "total_img": 1083,
    "number_page": 6,
    "title": "Anime",
    "tag": "Anime,",
    "description": "Anime",
    "link_thumb": "https://live.staticflickr.com/65535/48066953706_2771a62522_n.jpg",
    "id_album": "-1920923841",
    "total_view": 1083
  },
  {
    "total_img": 7,
    "number_page": 1,
    "title": "Kamina Tengen Toppa Gurren Lagann",
    "tag": "Kamina Tengen Toppa Gurren Lagann,",
    "description": "Kamina Tengen Toppa Gurren Lagann",
    "link_thumb": "https://live.staticflickr.com/65535/48059431517_074ee09ec0_n.jpg",
    "id_album": "-1030167430",
    "total_view": 7
  },
  {
    "total_img": 19,
    "number_page": 1,
    "title": "Mecha",
    "tag": "Mecha,",
    "description": "Mecha",
    "link_thumb": "https://live.staticflickr.com/65535/48059260961_c640d5e632_n.jpg",
    "id_album": "-1608673899",
    "total_view": 19
  }
]