[
  {
    "link_thumb": "https://live.staticflickr.com/65535/47952859932_dcdb7bb8a3_n.jpg",
    "id_album": "1106685088",
    "description": "CodeGeass_104034,[isGirlAnime],[isBoyAnime],[isCoupleAnime],[isKimonoAnime],[Code Geass],[CodeGeass]",
    "title": "CodeGeass_104034",
    "link_img": "https://live.staticflickr.com/65535/47952859932_825d61fcb4_o.jpg",
    "id_image": "CodeGeass_104034",
    "count_view": 0
  },
  {
    "link_thumb": "https://live.staticflickr.com/65535/47952905441_fce3dd2179_n.jpg",
    "id_album": "1106685088",
    "description": "CodeGeass_104543,[isGirlAnime],[Code Geass],[CodeGeass]",
    "title": "CodeGeass_104543",
    "link_img": "https://live.staticflickr.com/65535/47952905441_8218f17782_o.jpg",
    "id_image": "CodeGeass_104543",
    "count_view": 0
  },
  {
    "link_thumb": "https://live.staticflickr.com/65535/47952906031_17778e5a63_n.jpg",
    "id_album": "1106685088",
    "description": "CodeGeass_104779,[isRandom],[Code Geass],[CodeGeass]",
    "title": "CodeGeass_104779",
    "link_img": "https://live.staticflickr.com/65535/47952906031_9bf3f43d5a_o.png",
    "id_image": "CodeGeass_104779",
    "count_view": 0
  },
  {
    "link_thumb": "https://live.staticflickr.com/65535/47952885078_fb297bee46_n.jpg",
    "id_album": "1106685088",
    "description": "CodeGeass_104908,[isRandom],[Code Geass],[CodeGeass]",
    "title": "CodeGeass_104908",
    "link_img": "https://live.staticflickr.com/65535/47952885078_014fb59d3e_o.jpg",
    "id_image": "CodeGeass_104908",
    "count_view": 0
  },
  {
    "link_thumb": "https://live.staticflickr.com/65535/47952917861_f9ef2cd945_n.jpg",
    "id_album": "1106685088",
    "description": "CodeGeass_104948,[isBoyAnime],[Code Geass],[CodeGeass]",
    "title": "CodeGeass_104948",
    "link_img": "https://live.staticflickr.com/65535/47952917861_d179008b21_o.jpg",
    "id_image": "CodeGeass_104948",
    "count_view": 0
  },
  {
    "link_thumb": "https://live.staticflickr.com/65535/47952918396_782c434ddf_n.jpg",
    "id_album": "1106685088",
    "description": "CodeGeass_104952,[isBoyAnime],[Code Geass],[CodeGeass]",
    "title": "CodeGeass_104952",
    "link_img": "https://live.staticflickr.com/65535/47952918396_ab8bf2706e_o.jpg",
    "id_image": "CodeGeass_104952",
    "count_view": 0
  },
  {
    "link_thumb": "https://live.staticflickr.com/65535/47952878622_ed7585da3e_n.jpg",
    "id_album": "1106685088",
    "description": "CodeGeass_104956,[isBoyAnime],[Code Geass],[CodeGeass]",
    "title": "CodeGeass_104956",
    "link_img": "https://live.staticflickr.com/65535/47952878622_db50aea3b2_o.jpg",
    "id_image": "CodeGeass_104956",
    "count_view": 0
  },
  {
    "link_thumb": "https://live.staticflickr.com/65535/47952899553_7b675ff517_n.jpg",
    "id_album": "1106685088",
    "description": "CodeGeass_104993,[isGirlAnime],[isSadAnime],[isSadAnimeGirl],[Code Geass],[CodeGeass]",
    "title": "CodeGeass_104993",
    "link_img": "https://live.staticflickr.com/65535/47952899553_743d17a060_o.jpg",
    "id_image": "CodeGeass_104993",
    "count_view": 0
  },
  {
    "link_thumb": "https://live.staticflickr.com/65535/47952928261_92f1cbe64f_n.jpg",
    "id_album": "1106685088",
    "description": "CodeGeass_105003,[isGirlAnime],[isSceneryArts],[isGirlsHatsHoodieAnime],[Code Geass],[CodeGeass]",
    "title": "CodeGeass_105003",
    "link_img": "https://live.staticflickr.com/65535/47952928261_3bcc39e67e_o.jpg",
    "id_image": "CodeGeass_105003",
    "count_view": 0
  },
  {
    "link_thumb": "https://live.staticflickr.com/65535/47952888352_95c6b717c6_n.jpg",
    "id_album": "1106685088",
    "description": "CodeGeass_105012,[isGirlAnime],[isBoyAnime],[Code Geass],[CodeGeass]",
    "title": "CodeGeass_105012",
    "link_img": "https://live.staticflickr.com/65535/47952888352_22e8d6e7d8_o.jpg",
    "id_image": "CodeGeass_105012",
    "count_view": 0
  },
  {
    "link_thumb": "https://live.staticflickr.com/65535/47952892127_291bb84e25_n.jpg",
    "id_album": "1106685088",
    "description": "CodeGeass_105034,[isRobot],[Code Geass],[CodeGeass]",
    "title": "CodeGeass_105034",
    "link_img": "https://live.staticflickr.com/65535/47952892127_2c1a918915_o.jpg",
    "id_image": "CodeGeass_105034",
    "count_view": 0
  },
  {
    "link_thumb": "https://live.staticflickr.com/65535/47952934331_e23b9bd492_n.jpg",
    "id_album": "1106685088",
    "description": "CodeGeass_105038,[isGirlAnime],[isBoyAnime],[Code Geass],[CodeGeass]",
    "title": "CodeGeass_105038",
    "link_img": "https://live.staticflickr.com/65535/47952934331_a77c42c881_o.jpg",
    "id_image": "CodeGeass_105038",
    "count_view": 0
  },
  {
    "link_thumb": "https://live.staticflickr.com/65535/47952895347_a86d125018_n.jpg",
    "id_album": "1106685088",
    "description": "CodeGeass_105049,[isGirlAnime],[isSadAnime],[isSadAnimeGirl],[Code Geass],[CodeGeass]",
    "title": "CodeGeass_105049",
    "link_img": "https://live.staticflickr.com/65535/47952895347_24350a5028_o.jpg",
    "id_image": "CodeGeass_105049",
    "count_view": 0
  },
  {
    "link_thumb": "https://live.staticflickr.com/65535/47952919163_f1b60bf174_n.jpg",
    "id_album": "1106685088",
    "description": "CodeGeass_105242,[isGirlAnime],[Code Geass],[CodeGeass]",
    "title": "CodeGeass_105242",
    "link_img": "https://live.staticflickr.com/65535/47952919163_69ec5f74a3_o.jpg",
    "id_image": "CodeGeass_105242",
    "count_view": 0
  },
  {
    "link_thumb": "https://live.staticflickr.com/65535/47952955381_e02a919a00_n.jpg",
    "id_album": "1106685088",
    "description": "CodeGeass_112032,[isGirlAnime],[isSadAnime],[isSadAnimeGirl],[Code Geass],[CodeGeass]",
    "title": "CodeGeass_112032",
    "link_img": "https://live.staticflickr.com/65535/47952955381_0902e93402_o.jpg",
    "id_image": "CodeGeass_112032",
    "count_view": 0
  },
  {
    "link_thumb": "https://live.staticflickr.com/65535/47952916382_ae8a2ed1dc_n.jpg",
    "id_album": "1106685088",
    "description": "CodeGeass_112034,[isBoyAnime],[Code Geass],[CodeGeass]",
    "title": "CodeGeass_112034",
    "link_img": "https://live.staticflickr.com/65535/47952916382_7d1143099d_o.jpg",
    "id_image": "CodeGeass_112034",
    "count_view": 0
  },
  {
    "link_thumb": "https://live.staticflickr.com/65535/47952958736_72234c6984_n.jpg",
    "id_album": "1106685088",
    "description": "CodeGeass_112035,[isBoyAnime],[Code Geass],[CodeGeass]",
    "title": "CodeGeass_112035",
    "link_img": "https://live.staticflickr.com/65535/47952958736_bda042782b_o.jpg",
    "id_image": "CodeGeass_112035",
    "count_view": 0
  },
  {
    "link_thumb": "https://live.staticflickr.com/65535/47952959656_3fdc6309e4_n.jpg",
    "id_album": "1106685088",
    "description": "CodeGeass_112036,[isGirlAnime],[isBoyAnime],[Code Geass],[CodeGeass]",
    "title": "CodeGeass_112036",
    "link_img": "https://live.staticflickr.com/65535/47952959656_d47ea3c408_o.jpg",
    "id_image": "CodeGeass_112036",
    "count_view": 0
  },
  {
    "link_thumb": "https://live.staticflickr.com/65535/47952925802_89790a6b0b_n.jpg",
    "id_album": "1106685088",
    "description": "CodeGeass_114299,[isGirlAnime],[isSadAnime],[isSadAnimeGirl],[Code Geass],[CodeGeass]",
    "title": "CodeGeass_114299",
    "link_img": "https://live.staticflickr.com/65535/47952925802_d14023d0be_o.jpg",
    "id_image": "CodeGeass_114299",
    "count_view": 0
  },
  {
    "link_thumb": "https://live.staticflickr.com/65535/47952941448_48bbdb8bac_n.jpg",
    "id_album": "1106685088",
    "description": "CodeGeass_114694,[isBlackAnime],[isRandom],[Code Geass],[CodeGeass]",
    "title": "CodeGeass_114694",
    "link_img": "https://live.staticflickr.com/65535/47952941448_53a23d930d_o.jpg",
    "id_image": "CodeGeass_114694",
    "count_view": 0
  },
  {
    "link_thumb": "https://live.staticflickr.com/65535/47952931087_2869f0c50b_n.jpg",
    "id_album": "1106685088",
    "description": "CodeGeass_118346,[isGirlAnime],[isBoyAnime],[Code Geass],[CodeGeass]",
    "title": "CodeGeass_118346",
    "link_img": "https://live.staticflickr.com/65535/47952931087_1bae5d4eb3_o.jpg",
    "id_image": "CodeGeass_118346",
    "count_view": 0
  },
  {
    "link_thumb": "https://live.staticflickr.com/65535/47952946578_32eba8764c_n.jpg",
    "id_album": "1106685088",
    "description": "CodeGeass_123189,[isGirlAnime],[isBoyAnime],[isSadAnime],[isSadAnimeGirl],[isSadAnimeBoy],[Code Geass],[CodeGeass]",
    "title": "CodeGeass_123189",
    "link_img": "https://live.staticflickr.com/65535/47952946578_dfe6dafe11_o.jpg",
    "id_image": "CodeGeass_123189",
    "count_view": 0
  },
  {
    "link_thumb": "https://live.staticflickr.com/65535/47952932612_5682317298_n.jpg",
    "id_album": "1106685088",
    "description": "CodeGeass_130344,[isGirlAnime],[isBoyAnime],[Code Geass],[CodeGeass]",
    "title": "CodeGeass_130344",
    "link_img": "https://live.staticflickr.com/65535/47952932612_8a813071c8_o.jpg",
    "id_image": "CodeGeass_130344",
    "count_view": 0
  },
  {
    "link_thumb": "https://live.staticflickr.com/65535/47952948373_2992dd022a_n.jpg",
    "id_album": "1106685088",
    "description": "CodeGeass_130347,[isGirlAnime],[isBoyAnime],[Code Geass],[CodeGeass]",
    "title": "CodeGeass_130347",
    "link_img": "https://live.staticflickr.com/65535/47952948373_3b8d661fd3_o.jpg",
    "id_image": "CodeGeass_130347",
    "count_view": 0
  },
  {
    "link_thumb": "https://live.staticflickr.com/65535/47952953158_bdee34c150_n.jpg",
    "id_album": "1106685088",
    "description": "CodeGeass_130352,[isGirlAnime],[isBoyAnime],[isCoupleAnime],[Code Geass],[CodeGeass]",
    "title": "CodeGeass_130352",
    "link_img": "https://live.staticflickr.com/65535/47952953158_143d000a53_o.jpg",
    "id_image": "CodeGeass_130352",
    "count_view": 0
  },
  {
    "link_thumb": "https://live.staticflickr.com/65535/47952949162_cac7b67d54_n.jpg",
    "id_album": "1106685088",
    "description": "CodeGeass_130357,[isBoyAnime],[Code Geass],[CodeGeass]",
    "title": "CodeGeass_130357",
    "link_img": "https://live.staticflickr.com/65535/47952949162_f5ed08dd0d_o.jpg",
    "id_image": "CodeGeass_130357",
    "count_view": 0
  },
  {
    "link_thumb": "https://live.staticflickr.com/65535/47952994046_148ed9c5f4_n.jpg",
    "id_album": "1106685088",
    "description": "CodeGeass_130358,[isGirlAnime],[isBoyAnime],[isCoupleAnime],[Code Geass],[CodeGeass]",
    "title": "CodeGeass_130358",
    "link_img": "https://live.staticflickr.com/65535/47952994046_eb7c5b7dfa_o.jpg",
    "id_image": "CodeGeass_130358",
    "count_view": 0
  },
  {
    "link_thumb": "https://live.staticflickr.com/65535/47952998756_9831204094_n.jpg",
    "id_album": "1106685088",
    "description": "CodeGeass_130368,[isGirlAnime],[isBoyAnime],[Code Geass],[CodeGeass]",
    "title": "CodeGeass_130368",
    "link_img": "https://live.staticflickr.com/65535/47952998756_63d8b9b204_o.jpg",
    "id_image": "CodeGeass_130368",
    "count_view": 0
  },
  {
    "link_thumb": "https://live.staticflickr.com/65535/47952961992_2a73fbd8dc_n.jpg",
    "id_album": "1106685088",
    "description": "CodeGeass_130376,[isGirlAnime],[isBoyAnime],[Code Geass],[CodeGeass]",
    "title": "CodeGeass_130376",
    "link_img": "https://live.staticflickr.com/65535/47952961992_6ec6f0b12a_o.jpg",
    "id_image": "CodeGeass_130376",
    "count_view": 0
  },
  {
    "link_thumb": "https://live.staticflickr.com/65535/47953004201_4d43527a17_n.jpg",
    "id_album": "1106685088",
    "description": "CodeGeass_130380,[isBoyAnime],[Code Geass],[CodeGeass]",
    "title": "CodeGeass_130380",
    "link_img": "https://live.staticflickr.com/65535/47953004201_3d7c8e654c_o.jpg",
    "id_image": "CodeGeass_130380",
    "count_view": 0
  },
  {
    "link_thumb": "https://live.staticflickr.com/65535/47952978038_979ddb1d38_n.jpg",
    "id_album": "1106685088",
    "description": "CodeGeass_130382,[isGirlAnime],[isBoyAnime],[Code Geass],[CodeGeass]",
    "title": "CodeGeass_130382",
    "link_img": "https://live.staticflickr.com/65535/47952978038_213a4dfd87_o.jpg",
    "id_image": "CodeGeass_130382",
    "count_view": 0
  },
  {
    "link_thumb": "https://live.staticflickr.com/65535/47952980523_f9377be3dd_n.jpg",
    "id_album": "1106685088",
    "description": "CodeGeass_130503,[isBoyAnime],[Code Geass],[CodeGeass]",
    "title": "CodeGeass_130503",
    "link_img": "https://live.staticflickr.com/65535/47952980523_e11b824546_o.jpg",
    "id_image": "CodeGeass_130503",
    "count_view": 0
  },
  {
    "link_thumb": "https://live.staticflickr.com/65535/47952967137_c75b0588f4_n.jpg",
    "id_album": "1106685088",
    "description": "CodeGeass_130504,[isGirlAnime],[isBoyAnime],[Code Geass],[CodeGeass]",
    "title": "CodeGeass_130504",
    "link_img": "https://live.staticflickr.com/65535/47952967137_c216740fff_o.jpg",
    "id_image": "CodeGeass_130504",
    "count_view": 0
  },
  {
    "link_thumb": "https://live.staticflickr.com/65535/47952970032_592f49c5a8_n.jpg",
    "id_album": "1106685088",
    "description": "CodeGeass_130508,[isGirlAnime],[isBoyAnime],[Code Geass],[CodeGeass]",
    "title": "CodeGeass_130508",
    "link_img": "https://live.staticflickr.com/65535/47952970032_488525dd75_o.jpg",
    "id_image": "CodeGeass_130508",
    "count_view": 0
  },
  {
    "link_thumb": "https://live.staticflickr.com/65535/47953011901_32944c3068_n.jpg",
    "id_album": "1106685088",
    "description": "CodeGeass_130509,[isBoyAnime],[isBlackAnime],[Code Geass],[CodeGeass]",
    "title": "CodeGeass_130509",
    "link_img": "https://live.staticflickr.com/65535/47953011901_611b9a0024_o.jpg",
    "id_image": "CodeGeass_130509",
    "count_view": 0
  },
  {
    "link_thumb": "https://live.staticflickr.com/65535/47952980142_82aa351f56_n.jpg",
    "id_album": "1106685088",
    "description": "CodeGeass_130518,[isBlackAnime],[isRobot],[Code Geass],[CodeGeass]",
    "title": "CodeGeass_130518",
    "link_img": "https://live.staticflickr.com/65535/47952980142_c7b77a636b_o.jpg",
    "id_image": "CodeGeass_130518",
    "count_view": 0
  },
  {
    "link_thumb": "https://live.staticflickr.com/65535/47953024231_bbc45a5c5f_n.jpg",
    "id_album": "1106685088",
    "description": "CodeGeass_130522,[isBoyAnime],[Code Geass],[CodeGeass]",
    "title": "CodeGeass_130522",
    "link_img": "https://live.staticflickr.com/65535/47953024231_f43d218dbf_o.jpg",
    "id_image": "CodeGeass_130522",
    "count_view": 0
  },
  {
    "link_thumb": "https://live.staticflickr.com/65535/47953025381_ac8e408855_n.jpg",
    "id_album": "1106685088",
    "description": "CodeGeass_130523,[isBoyAnime],[Code Geass],[CodeGeass]",
    "title": "CodeGeass_130523",
    "link_img": "https://live.staticflickr.com/65535/47953025381_87ae84879f_o.jpg",
    "id_image": "CodeGeass_130523",
    "count_view": 0
  },
  {
    "link_thumb": "https://live.staticflickr.com/65535/47952986947_19b03f4aef_n.jpg",
    "id_album": "1106685088",
    "description": "CodeGeass_130527,[isBoyAnime],[isBlackAnime],[Code Geass],[CodeGeass]",
    "title": "CodeGeass_130527",
    "link_img": "https://live.staticflickr.com/65535/47952986947_e35a5e3e38_o.jpg",
    "id_image": "CodeGeass_130527",
    "count_view": 0
  },
  {
    "link_thumb": "https://live.staticflickr.com/65535/47953030176_55629825c9_n.jpg",
    "id_album": "1106685088",
    "description": "CodeGeass_130528,[isGirlAnime],[isBoyAnime],[Code Geass],[CodeGeass]",
    "title": "CodeGeass_130528",
    "link_img": "https://live.staticflickr.com/65535/47953030176_0a6cfbb86a_o.jpg",
    "id_image": "CodeGeass_130528",
    "count_view": 0
  },
  {
    "link_thumb": "https://live.staticflickr.com/65535/47953004813_6e41e0b3de_n.jpg",
    "id_album": "1106685088",
    "description": "CodeGeass_130530,[isGirlAnime],[isBoyAnime],[Code Geass],[CodeGeass]",
    "title": "CodeGeass_130530",
    "link_img": "https://live.staticflickr.com/65535/47953004813_a3b9369be3_o.jpg",
    "id_image": "CodeGeass_130530",
    "count_view": 0
  },
  {
    "link_thumb": "https://live.staticflickr.com/65535/47952990487_41f0100cd9_n.jpg",
    "id_album": "1106685088",
    "description": "CodeGeass_130532,[isBoyAnime],[Code Geass],[CodeGeass]",
    "title": "CodeGeass_130532",
    "link_img": "https://live.staticflickr.com/65535/47952990487_e0b7b79b3d_o.jpg",
    "id_image": "CodeGeass_130532",
    "count_view": 0
  },
  {
    "link_thumb": "https://live.staticflickr.com/65535/47953006038_e58c74b9a3_n.jpg",
    "id_album": "1106685088",
    "description": "CodeGeass_130534,[isBoyAnime],[Code Geass],[CodeGeass]",
    "title": "CodeGeass_130534",
    "link_img": "https://live.staticflickr.com/65535/47953006038_5407e0b765_o.png",
    "id_image": "CodeGeass_130534",
    "count_view": 0
  },
  {
    "link_thumb": "https://live.staticflickr.com/65535/47953009903_4fa4312a6d_n.jpg",
    "id_album": "1106685088",
    "description": "CodeGeass_130537,[isGirlAnime],[isBoyAnime],[Code Geass],[CodeGeass]",
    "title": "CodeGeass_130537",
    "link_img": "https://live.staticflickr.com/65535/47953009903_9278487277_o.jpg",
    "id_image": "CodeGeass_130537",
    "count_view": 0
  },
  {
    "link_thumb": "https://live.staticflickr.com/65535/47953010563_50e897a0e0_n.jpg",
    "id_album": "1106685088",
    "description": "CodeGeass_130538,[isGirlAnime],[Code Geass],[CodeGeass]",
    "title": "CodeGeass_130538",
    "link_img": "https://live.staticflickr.com/65535/47953010563_8c72602537_o.jpg",
    "id_image": "CodeGeass_130538",
    "count_view": 0
  },
  {
    "link_thumb": "https://live.staticflickr.com/65535/47953015928_692eb1433e_n.jpg",
    "id_album": "1106685088",
    "description": "CodeGeass_130544,[isBoyAnime],[Code Geass],[CodeGeass]",
    "title": "CodeGeass_130544",
    "link_img": "https://live.staticflickr.com/65535/47953015928_d1f5ca59aa_o.jpg",
    "id_image": "CodeGeass_130544",
    "count_view": 0
  },
  {
    "link_thumb": "https://live.staticflickr.com/65535/47953017558_66726b20ac_n.jpg",
    "id_album": "1106685088",
    "description": "CodeGeass_136302,[isGirlAnime],[isSadAnime],[isSadAnimeGirl],[Code Geass],[CodeGeass]",
    "title": "CodeGeass_136302",
    "link_img": "https://live.staticflickr.com/65535/47953017558_1e981069a0_o.jpg",
    "id_image": "CodeGeass_136302",
    "count_view": 0
  },
  {
    "link_thumb": "https://live.staticflickr.com/65535/47953023173_cd4594c21b_n.jpg",
    "id_album": "1106685088",
    "description": "CodeGeass_146361,[isGirlAnime],[isCuteAnime],[isGirlsLoliAnime],[Code Geass],[CodeGeass]",
    "title": "CodeGeass_146361",
    "link_img": "https://live.staticflickr.com/65535/47953023173_b83d35cb27_o.jpg",
    "id_image": "CodeGeass_146361",
    "count_view": 0
  },
  {
    "link_thumb": "https://live.staticflickr.com/65535/47953028738_8c5d25be90_n.jpg",
    "id_album": "1106685088",
    "description": "CodeGeass_155126,[isGirlAnime],[Code Geass],[CodeGeass]",
    "title": "CodeGeass_155126",
    "link_img": "https://live.staticflickr.com/65535/47953028738_51a114bf0f_o.jpg",
    "id_image": "CodeGeass_155126",
    "count_view": 0
  },
  {
    "link_thumb": "https://live.staticflickr.com/65535/47953058831_d8332666e3_n.jpg",
    "id_album": "1106685088",
    "description": "CodeGeass_177454,[isGirlAnime],[isSadAnime],[isSadAnimeGirl],[Code Geass],[CodeGeass]",
    "title": "CodeGeass_177454",
    "link_img": "https://live.staticflickr.com/65535/47953058831_0eff40e425_o.jpg",
    "id_image": "CodeGeass_177454",
    "count_view": 0
  },
  {
    "link_thumb": "https://live.staticflickr.com/65535/47953075816_ef5cf226aa_n.jpg",
    "id_album": "1106685088",
    "description": "CodeGeass_214124,[isGirlAnime],[isSadAnime],[isSadAnimeGirl],[Code Geass],[CodeGeass]",
    "title": "CodeGeass_214124",
    "link_img": "https://live.staticflickr.com/65535/47953075816_1350f88c69_o.jpg",
    "id_image": "CodeGeass_214124",
    "count_view": 0
  },
  {
    "link_thumb": "https://live.staticflickr.com/65535/47953079876_dd99cc1633_n.jpg",
    "id_album": "1106685088",
    "description": "CodeGeass_221149,[isGirlAnime],[isBoyAnime],[Code Geass],[CodeGeass]",
    "title": "CodeGeass_221149",
    "link_img": "https://live.staticflickr.com/65535/47953079876_82df96618d_o.png",
    "id_image": "CodeGeass_221149",
    "count_view": 0
  },
  {
    "link_thumb": "https://live.staticflickr.com/65535/47953056628_ff038c4d7f_n.jpg",
    "id_album": "1106685088",
    "description": "CodeGeass_237315,[isBoyAnime],[isSadAnime],[isSadAnimeBoy],[Code Geass],[CodeGeass]",
    "title": "CodeGeass_237315",
    "link_img": "https://live.staticflickr.com/65535/47953056628_cbecb7f063_o.jpg",
    "id_image": "CodeGeass_237315",
    "count_view": 0
  },
  {
    "link_thumb": "https://live.staticflickr.com/65535/47953045452_093de0195c_n.jpg",
    "id_album": "1106685088",
    "description": "CodeGeass_318367,[isGirlAnime],[isGirlFaceMasksAnime],[Code Geass],[CodeGeass]",
    "title": "CodeGeass_318367",
    "link_img": "https://live.staticflickr.com/65535/47953045452_7714a769fa_o.jpg",
    "id_image": "CodeGeass_318367",
    "count_view": 0
  },
  {
    "link_thumb": "https://live.staticflickr.com/65535/47953046087_2025cb1218_n.jpg",
    "id_album": "1106685088",
    "description": "CodeGeass_390082,[isGirlAnime],[Code Geass],[CodeGeass]",
    "title": "CodeGeass_390082",
    "link_img": "https://live.staticflickr.com/65535/47953046087_f1ea726d5e_o.jpg",
    "id_image": "CodeGeass_390082",
    "count_view": 0
  },
  {
    "link_thumb": "https://live.staticflickr.com/65535/47953093251_c658400d7a_n.jpg",
    "id_album": "1106685088",
    "description": "CodeGeass_417926,[isBoyAnime],[Code Geass],[CodeGeass]",
    "title": "CodeGeass_417926",
    "link_img": "https://live.staticflickr.com/65535/47953093251_a22c5a7c17_o.jpg",
    "id_image": "CodeGeass_417926",
    "count_view": 0
  },
  {
    "link_thumb": "https://live.staticflickr.com/65535/47953072993_1f0f557657_n.jpg",
    "id_album": "1106685088",
    "description": "CodeGeass_457868,[isGirlAnime],[isBoyAnime],[Code Geass],[CodeGeass]",
    "title": "CodeGeass_457868",
    "link_img": "https://live.staticflickr.com/65535/47953072993_b6bd0e1bce_o.jpg",
    "id_image": "CodeGeass_457868",
    "count_view": 0
  },
  {
    "link_thumb": "https://live.staticflickr.com/65535/47953058017_8c7d749d04_n.jpg",
    "id_album": "1106685088",
    "description": "CodeGeass_457869,[isBoyAnime],[Code Geass],[CodeGeass]",
    "title": "CodeGeass_457869",
    "link_img": "https://live.staticflickr.com/65535/47953058017_27f6b5b4cb_o.jpg",
    "id_image": "CodeGeass_457869",
    "count_view": 0
  },
  {
    "link_thumb": "https://live.staticflickr.com/65535/47953074233_6ed7596a65_n.jpg",
    "id_album": "1106685088",
    "description": "CodeGeass_47252,[isGirlAnime],[isBoyAnime],[Code Geass],[CodeGeass]",
    "title": "CodeGeass_47252",
    "link_img": "https://live.staticflickr.com/65535/47953074233_9e944678e0_o.jpg",
    "id_image": "CodeGeass_47252",
    "count_view": 0
  },
  {
    "link_thumb": "https://live.staticflickr.com/65535/47953059072_4a10f32a72_n.jpg",
    "id_album": "1106685088",
    "description": "CodeGeass_47417,[isBoyAnime],[isBlackAnime],[Code Geass],[CodeGeass]",
    "title": "CodeGeass_47417",
    "link_img": "https://live.staticflickr.com/65535/47953059072_0a1d7f3a5b_o.jpg",
    "id_image": "CodeGeass_47417",
    "count_view": 0
  },
  {
    "link_thumb": "https://live.staticflickr.com/65535/47953075213_3bc98ff019_n.jpg",
    "id_album": "1106685088",
    "description": "CodeGeass_50915,[isBoyAnime],[Code Geass],[CodeGeass]",
    "title": "CodeGeass_50915",
    "link_img": "https://live.staticflickr.com/65535/47953075213_61e35fcf1a_o.jpg",
    "id_image": "CodeGeass_50915",
    "count_view": 0
  },
  {
    "link_thumb": "https://live.staticflickr.com/65535/47953060107_a29f743092_n.jpg",
    "id_album": "1106685088",
    "description": "CodeGeass_509480,[isRobot],[Code Geass],[CodeGeass]",
    "title": "CodeGeass_509480",
    "link_img": "https://live.staticflickr.com/65535/47953060107_21a7a0f2b7_o.png",
    "id_image": "CodeGeass_509480",
    "count_view": 0
  },
  {
    "link_thumb": "https://live.staticflickr.com/65535/47953106916_f0933197f3_n.jpg",
    "id_album": "1106685088",
    "description": "CodeGeass_57444,[isRobot],[Code Geass],[CodeGeass]",
    "title": "CodeGeass_57444",
    "link_img": "https://live.staticflickr.com/65535/47953106916_b79b940091_o.jpg",
    "id_image": "CodeGeass_57444",
    "count_view": 0
  },
  {
    "link_thumb": "https://live.staticflickr.com/65535/47953107451_85d269d892_n.jpg",
    "id_album": "1106685088",
    "description": "CodeGeass_57497,[isGirlAnime],[isBoyAnime],[Code Geass],[CodeGeass]",
    "title": "CodeGeass_57497",
    "link_img": "https://live.staticflickr.com/65535/47953107451_5aebdb5bca_o.jpg",
    "id_image": "CodeGeass_57497",
    "count_view": 0
  },
  {
    "link_thumb": "https://live.staticflickr.com/65535/47953109271_8a092287fd_n.jpg",
    "id_album": "1106685088",
    "description": "CodeGeass_582793,[isBoyAnime],[Code Geass],[CodeGeass]",
    "title": "CodeGeass_582793",
    "link_img": "https://live.staticflickr.com/65535/47953109271_cd5b95acde_o.png",
    "id_image": "CodeGeass_582793",
    "count_view": 0
  },
  {
    "link_thumb": "https://live.staticflickr.com/65535/47953094732_2f466c64e2_n.jpg",
    "id_album": "1106685088",
    "description": "CodeGeass_633714,[isBoyAnime],[Code Geass],[CodeGeass]",
    "title": "CodeGeass_633714",
    "link_img": "https://live.staticflickr.com/65535/47953094732_7813539aa6_o.jpg",
    "id_image": "CodeGeass_633714",
    "count_view": 0
  },
  {
    "link_thumb": "https://live.staticflickr.com/65535/47953141671_9259573f05_n.jpg",
    "id_album": "1106685088",
    "description": "CodeGeass_633723,[isGirlAnime],[isBoyAnime],[Code Geass],[CodeGeass]",
    "title": "CodeGeass_633723",
    "link_img": "https://live.staticflickr.com/65535/47953141671_70e54c4fd8_o.jpg",
    "id_image": "CodeGeass_633723",
    "count_view": 0
  },
  {
    "link_thumb": "https://live.staticflickr.com/65535/47953142186_eb4647b5bc_n.jpg",
    "id_album": "1106685088",
    "description": "CodeGeass_633724,[isBoyAnime],[Code Geass],[CodeGeass]",
    "title": "CodeGeass_633724",
    "link_img": "https://live.staticflickr.com/65535/47953142186_c698970e42_o.jpg",
    "id_image": "CodeGeass_633724",
    "count_view": 0
  },
  {
    "link_thumb": "https://live.staticflickr.com/65535/47953144071_1ab052af33_n.jpg",
    "id_album": "1106685088",
    "description": "CodeGeass_633726,[isBoyAnime],[Code Geass],[CodeGeass]",
    "title": "CodeGeass_633726",
    "link_img": "https://live.staticflickr.com/65535/47953144071_a47ee766ba_o.jpg",
    "id_image": "CodeGeass_633726",
    "count_view": 0
  },
  {
    "link_thumb": "https://live.staticflickr.com/65535/47953101942_c2ab9b8f07_n.jpg",
    "id_album": "1106685088",
    "description": "CodeGeass_633727,[isBoyAnime],[Code Geass],[CodeGeass]",
    "title": "CodeGeass_633727",
    "link_img": "https://live.staticflickr.com/65535/47953101942_76feca18d2_o.jpg",
    "id_image": "CodeGeass_633727",
    "count_view": 0
  },
  {
    "link_thumb": "https://live.staticflickr.com/65535/47953104132_29119cc074_n.jpg",
    "id_album": "1106685088",
    "description": "CodeGeass_633730,[isBoyAnime],[Code Geass],[CodeGeass]",
    "title": "CodeGeass_633730",
    "link_img": "https://live.staticflickr.com/65535/47953104132_f61fef822b_o.jpg",
    "id_image": "CodeGeass_633730",
    "count_view": 0
  },
  {
    "link_thumb": "https://live.staticflickr.com/65535/47953104517_9708b5f345_n.jpg",
    "id_album": "1106685088",
    "description": "CodeGeass_633731,[isGirlAnime],[Code Geass],[CodeGeass]",
    "title": "CodeGeass_633731",
    "link_img": "https://live.staticflickr.com/65535/47953104517_cc60199138_o.jpg",
    "id_image": "CodeGeass_633731",
    "count_view": 0
  },
  {
    "link_thumb": "https://live.staticflickr.com/65535/47953155136_79e4f9a90e_n.jpg",
    "id_album": "1106685088",
    "description": "CodeGeass_633736,[isGirlAnime],[isBoyAnime],[isSadAnime],[isSadAnimeGirl],[isSadAnimeBoy],[Code Geass],[CodeGeass]",
    "title": "CodeGeass_633736",
    "link_img": "https://live.staticflickr.com/65535/47953155136_004eca94aa_o.jpg",
    "id_image": "CodeGeass_633736",
    "count_view": 0
  },
  {
    "link_thumb": "https://live.staticflickr.com/65535/47953114672_3111b8d565_n.jpg",
    "id_album": "1106685088",
    "description": "CodeGeass_633740,[isGirlAnime],[Code Geass],[CodeGeass]",
    "title": "CodeGeass_633740",
    "link_img": "https://live.staticflickr.com/65535/47953114672_b4244c2109_o.jpg",
    "id_image": "CodeGeass_633740",
    "count_view": 0
  },
  {
    "link_thumb": "https://live.staticflickr.com/65535/47953160411_c920713c57_n.jpg",
    "id_album": "1106685088",
    "description": "CodeGeass_633742,[isGirlAnime],[isCuteAnime],[isGirlsLoliAnime],[Code Geass],[CodeGeass]",
    "title": "CodeGeass_633742",
    "link_img": "https://live.staticflickr.com/65535/47953160411_7227be7dec_o.jpg",
    "id_image": "CodeGeass_633742",
    "count_view": 0
  },
  {
    "link_thumb": "https://live.staticflickr.com/65535/47953138968_0c31304450_n.jpg",
    "id_album": "1106685088",
    "description": "CodeGeass_633753,[isBoyAnime],[Code Geass],[CodeGeass]",
    "title": "CodeGeass_633753",
    "link_img": "https://live.staticflickr.com/65535/47953138968_6048f41c52_o.jpg",
    "id_image": "CodeGeass_633753",
    "count_view": 0
  },
  {
    "link_thumb": "https://live.staticflickr.com/65535/47953174806_03eb85faf0_n.jpg",
    "id_album": "1106685088",
    "description": "CodeGeass_633772,[isGirlAnime],[isBoyAnime],[Code Geass],[CodeGeass]",
    "title": "CodeGeass_633772",
    "link_img": "https://live.staticflickr.com/65535/47953174806_398ea2abb7_o.jpg",
    "id_image": "CodeGeass_633772",
    "count_view": 0
  },
  {
    "link_thumb": "https://live.staticflickr.com/65535/47953139462_8f84605a44_n.jpg",
    "id_album": "1106685088",
    "description": "CodeGeass_633792,[isGirlAnime],[isSadAnime],[isSadAnimeGirl],[Code Geass],[CodeGeass]",
    "title": "CodeGeass_633792",
    "link_img": "https://live.staticflickr.com/65535/47953139462_fc3706431e_o.jpg",
    "id_image": "CodeGeass_633792",
    "count_view": 0
  },
  {
    "link_thumb": "https://live.staticflickr.com/65535/47953149922_2f58b1806c_n.jpg",
    "id_album": "1106685088",
    "description": "CodeGeass_633807,[isBoyAnime],[isBlackAnime],[Code Geass],[CodeGeass]",
    "title": "CodeGeass_633807",
    "link_img": "https://live.staticflickr.com/65535/47953149922_fd20132c85_o.jpg",
    "id_image": "CodeGeass_633807",
    "count_view": 0
  },
  {
    "link_thumb": "https://live.staticflickr.com/65535/47953152872_744d667733_n.jpg",
    "id_album": "1106685088",
    "description": "CodeGeass_633812,[isGirlAnime],[isBoyAnime],[Code Geass],[CodeGeass]",
    "title": "CodeGeass_633812",
    "link_img": "https://live.staticflickr.com/65535/47953152872_36f385cbdf_o.jpg",
    "id_image": "CodeGeass_633812",
    "count_view": 0
  },
  {
    "link_thumb": "https://live.staticflickr.com/65535/47953153952_51cb9572c0_n.jpg",
    "id_album": "1106685088",
    "description": "CodeGeass_633815,[isGirlAnime],[isBoyAnime],[isBlackAnime],[Code Geass],[CodeGeass]",
    "title": "CodeGeass_633815",
    "link_img": "https://live.staticflickr.com/65535/47953153952_e85eda75a5_o.jpg",
    "id_image": "CodeGeass_633815",
    "count_view": 0
  },
  {
    "link_thumb": "https://live.staticflickr.com/65535/47953172163_28afb8eb8b_n.jpg",
    "id_album": "1106685088",
    "description": "CodeGeass_633820,[isBoyAnime],[Code Geass],[CodeGeass]",
    "title": "CodeGeass_633820",
    "link_img": "https://live.staticflickr.com/65535/47953172163_1ffaba39bb_o.jpg",
    "id_image": "CodeGeass_633820",
    "count_view": 0
  },
  {
    "link_thumb": "https://live.staticflickr.com/65535/47953199911_1084edbfd0_n.jpg",
    "id_album": "1106685088",
    "description": "CodeGeass_633829,[isGirlAnime],[Code Geass],[CodeGeass]",
    "title": "CodeGeass_633829",
    "link_img": "https://live.staticflickr.com/65535/47953199911_291c8a7821_o.png",
    "id_image": "CodeGeass_633829",
    "count_view": 0
  },
  {
    "link_thumb": "https://live.staticflickr.com/65535/47953206321_a1b54b89cd_n.jpg",
    "id_album": "1106685088",
    "description": "CodeGeass_633838,[isBoyAnime],[isBlackAnime],[Code Geass],[CodeGeass]",
    "title": "CodeGeass_633838",
    "link_img": "https://live.staticflickr.com/65535/47953206321_0d5aea8ddf_o.jpg",
    "id_image": "CodeGeass_633838",
    "count_view": 0
  },
  {
    "link_thumb": "https://live.staticflickr.com/65535/47953165887_3292506125_n.jpg",
    "id_album": "1106685088",
    "description": "CodeGeass_633840,[isGirlAnime],[Code Geass],[CodeGeass]",
    "title": "CodeGeass_633840",
    "link_img": "https://live.staticflickr.com/65535/47953165887_b7f0a2983d_o.png",
    "id_image": "CodeGeass_633840",
    "count_view": 0
  },
  {
    "link_thumb": "https://live.staticflickr.com/65535/47960312067_846478cbef_n.jpg",
    "id_album": "1106685088",
    "description": "CodeGeass_633859,[isBoyAnime],[Code Geass],[CodeGeass]",
    "title": "CodeGeass_633859",
    "link_img": "https://live.staticflickr.com/65535/47960312067_5ed9929a4b_o.png",
    "id_image": "CodeGeass_633859",
    "count_view": 0
  },
  {
    "link_thumb": "https://live.staticflickr.com/65535/47953188818_029f428a09_n.jpg",
    "id_album": "1106685088",
    "description": "CodeGeass_633861,[isBoyAnime],[Code Geass],[CodeGeass]",
    "title": "CodeGeass_633861",
    "link_img": "https://live.staticflickr.com/65535/47953188818_4285d46b53_o.jpg",
    "id_image": "CodeGeass_633861",
    "count_view": 0
  },
  {
    "link_thumb": "https://live.staticflickr.com/65535/47953178542_c7d65f29c6_n.jpg",
    "id_album": "1106685088",
    "description": "CodeGeass_633871,[isGirlAnime],[isBoyAnime],[isCoupleAnime],[Code Geass],[CodeGeass]",
    "title": "CodeGeass_633871",
    "link_img": "https://live.staticflickr.com/65535/47953178542_f6c14ddb0b_o.jpg",
    "id_image": "CodeGeass_633871",
    "count_view": 0
  },
  {
    "link_thumb": "https://live.staticflickr.com/65535/47953182407_0682740f4b_n.jpg",
    "id_album": "1106685088",
    "description": "CodeGeass_633881,[isGirlAnime],[Code Geass],[CodeGeass]",
    "title": "CodeGeass_633881",
    "link_img": "https://live.staticflickr.com/65535/47953182407_c5d8a0e474_o.jpg",
    "id_image": "CodeGeass_633881",
    "count_view": 0
  },
  {
    "link_thumb": "https://live.staticflickr.com/65535/47953183807_69e6d80358_n.jpg",
    "id_album": "1106685088",
    "description": "CodeGeass_633886,[isGirlAnime],[isSadAnime],[isSadAnimeGirl],[isBlackAnime],[Code Geass],[CodeGeass]",
    "title": "CodeGeass_633886",
    "link_img": "https://live.staticflickr.com/65535/47953183807_6bdf72c1e3_o.jpg",
    "id_image": "CodeGeass_633886",
    "count_view": 0
  },
  {
    "link_thumb": "https://live.staticflickr.com/65535/47953184657_b810ac2b2f_n.jpg",
    "id_album": "1106685088",
    "description": "CodeGeass_633888,[isBoyAnime],[isBlackAnime],[Code Geass],[CodeGeass]",
    "title": "CodeGeass_633888",
    "link_img": "https://live.staticflickr.com/65535/47953184657_417703edf4_o.jpg",
    "id_image": "CodeGeass_633888",
    "count_view": 0
  },
  {
    "link_thumb": "https://live.staticflickr.com/65535/47953195272_8cee1c9310_n.jpg",
    "id_album": "1106685088",
    "description": "CodeGeass_633906,[isBoyAnime],[Code Geass],[CodeGeass]",
    "title": "CodeGeass_633906",
    "link_img": "https://live.staticflickr.com/65535/47953195272_9dba5fe40f_o.jpg",
    "id_image": "CodeGeass_633906",
    "count_view": 0
  },
  {
    "link_thumb": "https://live.staticflickr.com/65535/47953238346_96b3911306_n.jpg",
    "id_album": "1106685088",
    "description": "CodeGeass_633913,[isGirlAnime],[Code Geass],[CodeGeass]",
    "title": "CodeGeass_633913",
    "link_img": "https://live.staticflickr.com/65535/47953238346_17302b8647_o.jpg",
    "id_image": "CodeGeass_633913",
    "count_view": 0
  },
  {
    "link_thumb": "https://live.staticflickr.com/65535/47953238926_ba78a7654a_n.jpg",
    "id_album": "1106685088",
    "description": "CodeGeass_633914,[isBoyAnime],[Code Geass],[CodeGeass]",
    "title": "CodeGeass_633914",
    "link_img": "https://live.staticflickr.com/65535/47953238926_3e39b6e0b0_o.jpg",
    "id_image": "CodeGeass_633914",
    "count_view": 0
  },
  {
    "link_thumb": "https://live.staticflickr.com/65535/47953239956_6061e593b1_n.jpg",
    "id_album": "1106685088",
    "description": "CodeGeass_633916,[isBoyAnime],[Code Geass],[CodeGeass]",
    "title": "CodeGeass_633916",
    "link_img": "https://live.staticflickr.com/65535/47953239956_51d67549ea_o.jpg",
    "id_image": "CodeGeass_633916",
    "count_view": 0
  },
  {
    "link_thumb": "https://live.staticflickr.com/65535/47953204372_66f00f8a3e_n.jpg",
    "id_album": "1106685088",
    "description": "CodeGeass_633921,[isBoyAnime],[Code Geass],[CodeGeass]",
    "title": "CodeGeass_633921",
    "link_img": "https://live.staticflickr.com/65535/47953204372_b9ac7d9969_o.jpg",
    "id_image": "CodeGeass_633921",
    "count_view": 0
  },
  {
    "link_thumb": "https://live.staticflickr.com/65535/47953220183_58ddaeaeab_n.jpg",
    "id_album": "1106685088",
    "description": "CodeGeass_633923,[isGirlAnime],[Code Geass],[CodeGeass]",
    "title": "CodeGeass_633923",
    "link_img": "https://live.staticflickr.com/65535/47953220183_e972364f5d_o.jpg",
    "id_image": "CodeGeass_633923",
    "count_view": 0
  },
  {
    "link_thumb": "https://live.staticflickr.com/65535/47953252451_3b88b3b2bd_n.jpg",
    "id_album": "1106685088",
    "description": "CodeGeass_633937,[isGirlAnime],[isBoyAnime],[isSadAnime],[isSadAnimeGirl],[isSadAnimeBoy],[isCoupleAnime],[isBlackAnime],[Code Geass],[CodeGeass]",
    "title": "CodeGeass_633937",
    "link_img": "https://live.staticflickr.com/65535/47953252451_5b8e3381dc_o.jpg",
    "id_image": "CodeGeass_633937",
    "count_view": 0
  },
  {
    "link_thumb": "https://live.staticflickr.com/65535/47953252448_bd5ea8a663_n.jpg",
    "id_album": "1106685088",
    "description": "CodeGeass_633969,[isGirlAnime],[isBoyAnime],[isCuteAnime],[isGirlsLoliAnime],[Code Geass],[CodeGeass]",
    "title": "CodeGeass_633969",
    "link_img": "https://live.staticflickr.com/65535/47953252448_bf164ac67d_o.jpg",
    "id_image": "CodeGeass_633969",
    "count_view": 0
  },
  {
    "link_thumb": "https://live.staticflickr.com/65535/47953289766_5f778ec30e_n.jpg",
    "id_album": "1106685088",
    "description": "CodeGeass_633977,[isGirlAnime],[isSadAnime],[isSadAnimeGirl],[Code Geass],[CodeGeass]",
    "title": "CodeGeass_633977",
    "link_img": "https://live.staticflickr.com/65535/47953289766_367e7fbedb_o.jpg",
    "id_image": "CodeGeass_633977",
    "count_view": 0
  },
  {
    "link_thumb": "https://live.staticflickr.com/65535/47953265758_3986bd1896_n.jpg",
    "id_album": "1106685088",
    "description": "CodeGeass_633978,[isGirlAnime],[isSadAnime],[isSadAnimeGirl],[isCuteAnime],[Code Geass],[CodeGeass]",
    "title": "CodeGeass_633978",
    "link_img": "https://live.staticflickr.com/65535/47953265758_5c8c8cc195_o.jpg",
    "id_image": "CodeGeass_633978",
    "count_view": 0
  },
  {
    "link_thumb": "https://live.staticflickr.com/65535/47953252177_fe8e68356e_n.jpg",
    "id_album": "1106685088",
    "description": "CodeGeass_633982,[isGirlAnime],[isBoyAnime],[isCoupleAnime],[isCuteAnime],[isGirlsLoliAnime],[Code Geass],[CodeGeass]",
    "title": "CodeGeass_633982",
    "link_img": "https://live.staticflickr.com/65535/47953252177_78e3549b8d_o.jpg",
    "id_image": "CodeGeass_633982",
    "count_view": 0
  },
  {
    "link_thumb": "https://live.staticflickr.com/65535/47953269788_5d9b2cf0ed_n.jpg",
    "id_album": "1106685088",
    "description": "CodeGeass_633988,[isGirlAnime],[isBoyAnime],[isCoupleAnime],[isBlackAnime],[Code Geass],[CodeGeass]",
    "title": "CodeGeass_633988",
    "link_img": "https://live.staticflickr.com/65535/47953269788_fa8198e234_o.jpg",
    "id_image": "CodeGeass_633988",
    "count_view": 0
  },
  {
    "link_thumb": "https://live.staticflickr.com/65535/47953254807_5123c1d314_n.jpg",
    "id_album": "1106685088",
    "description": "CodeGeass_633991,[isBoyAnime],[isBlackAnime],[Code Geass],[CodeGeass]",
    "title": "CodeGeass_633991",
    "link_img": "https://live.staticflickr.com/65535/47953254807_ed74867d6a_o.jpg",
    "id_image": "CodeGeass_633991",
    "count_view": 0
  },
  {
    "link_thumb": "https://live.staticflickr.com/65535/47953272098_d290391222_n.jpg",
    "id_album": "1106685088",
    "description": "CodeGeass_633992,[isGirlAnime],[isBoyAnime],[Code Geass],[CodeGeass]",
    "title": "CodeGeass_633992",
    "link_img": "https://live.staticflickr.com/65535/47953272098_be3e21f5af_o.jpg",
    "id_image": "CodeGeass_633992",
    "count_view": 0
  },
  {
    "link_thumb": "https://live.staticflickr.com/65535/47953273443_9c8602fb86_n.jpg",
    "id_album": "1106685088",
    "description": "CodeGeass_633996,[isBoyAnime],[Code Geass],[CodeGeass]",
    "title": "CodeGeass_633996",
    "link_img": "https://live.staticflickr.com/65535/47953273443_1841d84ec1_o.jpg",
    "id_image": "CodeGeass_633996",
    "count_view": 0
  },
  {
    "link_thumb": "https://live.staticflickr.com/65535/47953300546_c5593c543b_n.jpg",
    "id_album": "1106685088",
    "description": "CodeGeass_634001,[isBoyAnime],[isBlackAnime],[Code Geass],[CodeGeass]",
    "title": "CodeGeass_634001",
    "link_img": "https://live.staticflickr.com/65535/47953300546_9c835d3521_o.jpg",
    "id_image": "CodeGeass_634001",
    "count_view": 0
  },
  {
    "link_thumb": "https://live.staticflickr.com/65535/47953289038_7818692bbe_n.jpg",
    "id_album": "1106685088",
    "description": "CodeGeass_634020,[isGirlAnime],[isBoyAnime],[isBlackAnime],[Code Geass],[CodeGeass]",
    "title": "CodeGeass_634020",
    "link_img": "https://live.staticflickr.com/65535/47953289038_dbaf029a89_o.jpg",
    "id_image": "CodeGeass_634020",
    "count_view": 0
  },
  {
    "link_thumb": "https://live.staticflickr.com/65535/47953314471_984463a5c0_n.jpg",
    "id_album": "1106685088",
    "description": "CodeGeass_634022,[isGirlAnime],[isCuteAnime],[isGirlsLoliAnime],[isKimonoAnime],[Code Geass],[CodeGeass]",
    "title": "CodeGeass_634022",
    "link_img": "https://live.staticflickr.com/65535/47953314471_7e16ea1682_o.jpg",
    "id_image": "CodeGeass_634022",
    "count_view": 0
  },
  {
    "link_thumb": "https://live.staticflickr.com/65535/47953296573_849e6ce72f_n.jpg",
    "id_album": "1106685088",
    "description": "CodeGeass_634034,[isGirlAnime],[isBoyAnime],[Code Geass],[CodeGeass]",
    "title": "CodeGeass_634034",
    "link_img": "https://live.staticflickr.com/65535/47953296573_d5660e683c_o.jpg",
    "id_image": "CodeGeass_634034",
    "count_view": 0
  },
  {
    "link_thumb": "https://live.staticflickr.com/65535/47953321766_2e7bbbd20d_n.jpg",
    "id_album": "1106685088",
    "description": "CodeGeass_634035,[isGirlAnime],[isCuteAnime],[isGirlsLoliAnime],[Code Geass],[CodeGeass]",
    "title": "CodeGeass_634035",
    "link_img": "https://live.staticflickr.com/65535/47953321766_86be38db3c_o.jpg",
    "id_image": "CodeGeass_634035",
    "count_view": 0
  },
  {
    "link_thumb": "https://live.staticflickr.com/65535/47953298238_29979d3649_n.jpg",
    "id_album": "1106685088",
    "description": "CodeGeass_634037,[isGirlAnime],[isBoyAnime],[isBlackAnime],[Code Geass],[CodeGeass]",
    "title": "CodeGeass_634037",
    "link_img": "https://live.staticflickr.com/65535/47953298238_ce92ba5777_o.jpg",
    "id_image": "CodeGeass_634037",
    "count_view": 0
  },
  {
    "link_thumb": "https://live.staticflickr.com/65535/47953293072_eb5a28b316_n.jpg",
    "id_album": "1106685088",
    "description": "CodeGeass_634062,[isGirlAnime],[isCuteAnime],[isGirlEarsNekoAnime],[isGirlsLoliAnime],[Code Geass],[CodeGeass]",
    "title": "CodeGeass_634062",
    "link_img": "https://live.staticflickr.com/65535/47953293072_3e5f94e27d_o.jpg",
    "id_image": "CodeGeass_634062",
    "count_view": 0
  },
  {
    "link_thumb": "https://live.staticflickr.com/65535/47953311443_02d42ffc60_n.jpg",
    "id_album": "1106685088",
    "description": "CodeGeass_634068,[isBoyAnime],[Code Geass],[CodeGeass]",
    "title": "CodeGeass_634068",
    "link_img": "https://live.staticflickr.com/65535/47953311443_7b5b27014b_o.jpg",
    "id_image": "CodeGeass_634068",
    "count_view": 0
  },
  {
    "link_thumb": "https://live.staticflickr.com/65535/47953295997_2d35214d7b_n.jpg",
    "id_album": "1106685088",
    "description": "CodeGeass_634069,[isBoyAnime],[isBlackAnime],[Code Geass],[CodeGeass]",
    "title": "CodeGeass_634069",
    "link_img": "https://live.staticflickr.com/65535/47953295997_95bd20c9cc_o.jpg",
    "id_image": "CodeGeass_634069",
    "count_view": 0
  },
  {
    "link_thumb": "https://live.staticflickr.com/65535/47953350041_4e9f0993c8_n.jpg",
    "id_album": "1106685088",
    "description": "CodeGeass_634100,[isGirlAnime],[isSadAnime],[isSadAnimeGirl],[Code Geass],[CodeGeass]",
    "title": "CodeGeass_634100",
    "link_img": "https://live.staticflickr.com/65535/47953350041_8d35acee9f_o.jpg",
    "id_image": "CodeGeass_634100",
    "count_view": 0
  },
  {
    "link_thumb": "https://live.staticflickr.com/65535/47953310242_0b7216df05_n.jpg",
    "id_album": "1106685088",
    "description": "CodeGeass_634102,[isGirlAnime],[isSadAnime],[isSadAnimeGirl],[Code Geass],[CodeGeass]",
    "title": "CodeGeass_634102",
    "link_img": "https://live.staticflickr.com/65535/47953310242_eb28e24991_o.jpg",
    "id_image": "CodeGeass_634102",
    "count_view": 0
  },
  {
    "link_thumb": "https://live.staticflickr.com/65535/47953352551_0dfd958c67_n.jpg",
    "id_album": "1106685088",
    "description": "CodeGeass_634104,[isBoyAnime],[isBlackAnime],[Code Geass],[CodeGeass]",
    "title": "CodeGeass_634104",
    "link_img": "https://live.staticflickr.com/65535/47953352551_eeac9efc42_o.jpg",
    "id_image": "CodeGeass_634104",
    "count_view": 0
  },
  {
    "link_thumb": "https://live.staticflickr.com/65535/47953360416_f590cb2ce7_n.jpg",
    "id_album": "1106685088",
    "description": "CodeGeass_634126,[isBoyAnime],[Code Geass],[CodeGeass]",
    "title": "CodeGeass_634126",
    "link_img": "https://live.staticflickr.com/65535/47953360416_64f8e51322_o.jpg",
    "id_image": "CodeGeass_634126",
    "count_view": 0
  },
  {
    "link_thumb": "https://live.staticflickr.com/65535/47960332178_d218f7b11c_n.jpg",
    "id_album": "1106685088",
    "description": "CodeGeass_634171,[isGirlAnime],[isSadAnime],[isSadAnimeGirl],[Code Geass],[CodeGeass]",
    "title": "CodeGeass_634171",
    "link_img": "https://live.staticflickr.com/65535/47960332178_df2541367d_o.jpg",
    "id_image": "CodeGeass_634171",
    "count_view": 0
  },
  {
    "link_thumb": "https://live.staticflickr.com/65535/47960321722_b7f86c08d8_n.jpg",
    "id_album": "1106685088",
    "description": "CodeGeass_634174,[isGirlAnime],[isBoyAnime],[Code Geass],[CodeGeass]",
    "title": "CodeGeass_634174",
    "link_img": "https://live.staticflickr.com/65535/47960321722_c49ef0fb28_o.jpg",
    "id_image": "CodeGeass_634174",
    "count_view": 0
  },
  {
    "link_thumb": "https://live.staticflickr.com/65535/47960350933_80442e53f9_n.jpg",
    "id_album": "1106685088",
    "description": "CodeGeass_634196,[isGirlAnime],[Code Geass],[CodeGeass]",
    "title": "CodeGeass_634196",
    "link_img": "https://live.staticflickr.com/65535/47960350933_d5b25900f3_o.jpg",
    "id_image": "CodeGeass_634196",
    "count_view": 0
  },
  {
    "link_thumb": "https://live.staticflickr.com/65535/47960377441_87fa3f2273_n.jpg",
    "id_album": "1106685088",
    "description": "CodeGeass_634201,[isBoyAnime],[Code Geass],[CodeGeass]",
    "title": "CodeGeass_634201",
    "link_img": "https://live.staticflickr.com/65535/47960377441_6606cd7b2e_o.jpg",
    "id_image": "CodeGeass_634201",
    "count_view": 0
  },
  {
    "link_thumb": "https://live.staticflickr.com/65535/47960377921_90a92ed212_n.jpg",
    "id_album": "1106685088",
    "description": "CodeGeass_634202,[isBoyAnime],[Code Geass],[CodeGeass]",
    "title": "CodeGeass_634202",
    "link_img": "https://live.staticflickr.com/65535/47960377921_de0921b7ef_o.jpg",
    "id_image": "CodeGeass_634202",
    "count_view": 0
  },
  {
    "link_thumb": "https://live.staticflickr.com/65535/47960344742_043f18ed0b_n.jpg",
    "id_album": "1106685088",
    "description": "CodeGeass_634214,[isGirlAnime],[Code Geass],[CodeGeass]",
    "title": "CodeGeass_634214",
    "link_img": "https://live.staticflickr.com/65535/47960344742_dc93b380e0_o.jpg",
    "id_image": "CodeGeass_634214",
    "count_view": 0
  },
  {
    "link_thumb": "https://live.staticflickr.com/65535/47960385106_e4b0be2f20_n.jpg",
    "id_album": "1106685088",
    "description": "CodeGeass_634221,[isGirlAnime],[isRobot],[Code Geass],[CodeGeass]",
    "title": "CodeGeass_634221",
    "link_img": "https://live.staticflickr.com/65535/47960385106_aacf21f399_o.jpg",
    "id_image": "CodeGeass_634221",
    "count_view": 0
  },
  {
    "link_thumb": "https://live.staticflickr.com/65535/47960379128_5c6cc31e54_n.jpg",
    "id_album": "1106685088",
    "description": "CodeGeass_634252,[isRobot],[Code Geass],[CodeGeass]",
    "title": "CodeGeass_634252",
    "link_img": "https://live.staticflickr.com/65535/47960379128_f3d97934a5_o.png",
    "id_image": "CodeGeass_634252",
    "count_view": 0
  },
  {
    "link_thumb": "https://live.staticflickr.com/65535/47960369107_bf195ee991_n.jpg",
    "id_album": "1106685088",
    "description": "CodeGeass_634255,[isRobot],[Code Geass],[CodeGeass]",
    "title": "CodeGeass_634255",
    "link_img": "https://live.staticflickr.com/65535/47960369107_14f27ec363_o.gif",
    "id_image": "CodeGeass_634255",
    "count_view": 0
  },
  {
    "link_thumb": "https://live.staticflickr.com/65535/47960370857_2e6c8c707b_n.jpg",
    "id_album": "1106685088",
    "description": "CodeGeass_634257,[isGirlAnime],[isBoyAnime],[Code Geass],[CodeGeass]",
    "title": "CodeGeass_634257",
    "link_img": "https://live.staticflickr.com/65535/47960370857_8195c099a4_o.png",
    "id_image": "CodeGeass_634257",
    "count_view": 0
  },
  {
    "link_thumb": "https://live.staticflickr.com/65535/47960410406_303f902cb4_n.jpg",
    "id_album": "1106685088",
    "description": "CodeGeass_634259,[isBoyAnime],[isBlackAnime],[Code Geass],[CodeGeass]",
    "title": "CodeGeass_634259",
    "link_img": "https://live.staticflickr.com/65535/47960410406_37dd26bd4d_o.jpg",
    "id_image": "CodeGeass_634259",
    "count_view": 0
  },
  {
    "link_thumb": "https://live.staticflickr.com/65535/47954262356_eb2a3ef37e_n.jpg",
    "id_album": "1106685088",
    "description": "CodeGeass_634263,[isBoyAnime],[Code Geass],[CodeGeass]",
    "title": "CodeGeass_634263",
    "link_img": "https://live.staticflickr.com/65535/47954262356_efe94b60b4_o.jpg",
    "id_image": "CodeGeass_634263",
    "count_view": 0
  },
  {
    "link_thumb": "https://live.staticflickr.com/65535/47954265376_90a5c832ed_n.jpg",
    "id_album": "1106685088",
    "description": "CodeGeass_634270,[isGirlAnime],[isSadAnime],[isSadAnimeGirl],[isBlackAnime],[Code Geass],[CodeGeass]",
    "title": "CodeGeass_634270",
    "link_img": "https://live.staticflickr.com/65535/47954265376_9e5af6cb22_o.jpg",
    "id_image": "CodeGeass_634270",
    "count_view": 0
  },
  {
    "link_thumb": "https://live.staticflickr.com/65535/47954275066_55ecc99148_n.jpg",
    "id_album": "1106685088",
    "description": "CodeGeass_634292,[isGirlAnime],[isBoyAnime],[Code Geass],[CodeGeass]",
    "title": "CodeGeass_634292",
    "link_img": "https://live.staticflickr.com/65535/47954275066_412e88fc1d_o.jpg",
    "id_image": "CodeGeass_634292",
    "count_view": 0
  },
  {
    "link_thumb": "https://live.staticflickr.com/65535/47954259447_bfed812f59_n.jpg",
    "id_album": "1106685088",
    "description": "CodeGeass_634474,[isRobot],[Code Geass],[CodeGeass]",
    "title": "CodeGeass_634474",
    "link_img": "https://live.staticflickr.com/65535/47954259447_3ba309c38b_o.jpg",
    "id_image": "CodeGeass_634474",
    "count_view": 0
  },
  {
    "link_thumb": "https://live.staticflickr.com/65535/47954272777_2a5a7e104c_n.jpg",
    "id_album": "1106685088",
    "description": "CodeGeass_634496,[isGirlAnime],[isBoyAnime],[isSadAnime],[isSadAnimeGirl],[isSadAnimeBoy],[isCoupleAnime],[Code Geass],[CodeGeass]",
    "title": "CodeGeass_634496",
    "link_img": "https://live.staticflickr.com/65535/47954272777_f695df1d3c_o.jpg",
    "id_image": "CodeGeass_634496",
    "count_view": 0
  },
  {
    "link_thumb": "https://live.staticflickr.com/65535/47954291258_a02f9d05e4_n.jpg",
    "id_album": "1106685088",
    "description": "CodeGeass_634497,[isBoyAnime],[Code Geass],[CodeGeass]",
    "title": "CodeGeass_634497",
    "link_img": "https://live.staticflickr.com/65535/47954291258_3e588f0e4a_o.jpg",
    "id_image": "CodeGeass_634497",
    "count_view": 0
  },
  {
    "link_thumb": "https://live.staticflickr.com/65535/47954314736_4b122a91a4_n.jpg",
    "id_album": "1106685088",
    "description": "CodeGeass_634498,[isGirlAnime],[isGirlEarsNekoAnime],[Code Geass],[CodeGeass]",
    "title": "CodeGeass_634498",
    "link_img": "https://live.staticflickr.com/65535/47954314736_99f50658bf_o.png",
    "id_image": "CodeGeass_634498",
    "count_view": 0
  },
  {
    "link_thumb": "https://live.staticflickr.com/65535/47954285007_37b595c474_n.jpg",
    "id_album": "1106685088",
    "description": "CodeGeass_634515,[isGirlAnime],[isBoyAnime],[isCuteAnime],[isGirlsLoliAnime],[Code Geass],[CodeGeass]",
    "title": "CodeGeass_634515",
    "link_img": "https://live.staticflickr.com/65535/47954285007_0ebf4ae1af_o.jpg",
    "id_image": "CodeGeass_634515",
    "count_view": 0
  },
  {
    "link_thumb": "https://live.staticflickr.com/65535/47954334802_0efe71b521_n.jpg",
    "id_album": "1106685088",
    "description": "CodeGeass_634614,[isGirlAnime],[isSadAnime],[isSadAnimeGirl],[Code Geass],[CodeGeass]",
    "title": "CodeGeass_634614",
    "link_img": "https://live.staticflickr.com/65535/47954334802_dc5a837ca4_o.jpg",
    "id_image": "CodeGeass_634614",
    "count_view": 0
  },
  {
    "link_thumb": "https://live.staticflickr.com/65535/47954404036_2806e68f37_n.jpg",
    "id_album": "1106685088",
    "description": "CodeGeass_634670,[isGirlAnime],[isSadAnime],[isSadAnimeGirl],[Code Geass],[CodeGeass]",
    "title": "CodeGeass_634670",
    "link_img": "https://live.staticflickr.com/65535/47954404036_c9fbaf07dc_o.jpg",
    "id_image": "CodeGeass_634670",
    "count_view": 0
  },
  {
    "link_thumb": "https://live.staticflickr.com/65535/47954405576_b9c3fc1450_n.jpg",
    "id_album": "1106685088",
    "description": "CodeGeass_634676,[isGirlAnime],[Code Geass],[CodeGeass]",
    "title": "CodeGeass_634676",
    "link_img": "https://live.staticflickr.com/65535/47954405576_9c47f1fd80_o.jpg",
    "id_image": "CodeGeass_634676",
    "count_view": 0
  },
  {
    "link_thumb": "https://live.staticflickr.com/65535/47954374332_0cbf27edd5_n.jpg",
    "id_album": "1106685088",
    "description": "CodeGeass_634694,[isBoyAnime],[Code Geass],[CodeGeass]",
    "title": "CodeGeass_634694",
    "link_img": "https://live.staticflickr.com/65535/47954374332_211957fe80_o.jpg",
    "id_image": "CodeGeass_634694",
    "count_view": 0
  },
  {
    "link_thumb": "https://live.staticflickr.com/65535/47954375807_9ae1f685f6_n.jpg",
    "id_album": "1106685088",
    "description": "CodeGeass_634695,[isGirlAnime],[isSadAnime],[isSadAnimeGirl],[Code Geass],[CodeGeass]",
    "title": "CodeGeass_634695",
    "link_img": "https://live.staticflickr.com/65535/47954375807_188440cc83_o.jpg",
    "id_image": "CodeGeass_634695",
    "count_view": 0
  },
  {
    "link_thumb": "https://live.staticflickr.com/65535/47954403313_36d0866b2e_n.jpg",
    "id_album": "1106685088",
    "description": "CodeGeass_634712,[isGirlAnime],[Code Geass],[CodeGeass]",
    "title": "CodeGeass_634712",
    "link_img": "https://live.staticflickr.com/65535/47954403313_b6468f9bda_o.jpg",
    "id_image": "CodeGeass_634712",
    "count_view": 0
  },
  {
    "link_thumb": "https://live.staticflickr.com/65535/47954431056_4aa60c9372_n.jpg",
    "id_album": "1106685088",
    "description": "CodeGeass_634724,[isGirlAnime],[isSadAnime],[isSadAnimeGirl],[Code Geass],[CodeGeass]",
    "title": "CodeGeass_634724",
    "link_img": "https://live.staticflickr.com/65535/47954431056_22d8de9a96_o.jpg",
    "id_image": "CodeGeass_634724",
    "count_view": 0
  },
  {
    "link_thumb": "https://live.staticflickr.com/65535/47954412643_d90e95f485_n.jpg",
    "id_album": "1106685088",
    "description": "CodeGeass_634728,[isGirlAnime],[isCuteAnime],[Code Geass],[CodeGeass]",
    "title": "CodeGeass_634728",
    "link_img": "https://live.staticflickr.com/65535/47954412643_d149110ff0_o.jpg",
    "id_image": "CodeGeass_634728",
    "count_view": 0
  },
  {
    "link_thumb": "https://live.staticflickr.com/65535/47954438341_08cd81ae6e_n.jpg",
    "id_album": "1106685088",
    "description": "CodeGeass_634735,[isGirlAnime],[isSadAnime],[isSadAnimeGirl],[Code Geass],[CodeGeass]",
    "title": "CodeGeass_634735",
    "link_img": "https://live.staticflickr.com/65535/47954438341_a1f89ca5b7_o.jpg",
    "id_image": "CodeGeass_634735",
    "count_view": 0
  },
  {
    "link_thumb": "https://live.staticflickr.com/65535/47954401112_c4dfc266ab_n.jpg",
    "id_album": "1106685088",
    "description": "CodeGeass_634736,[isGirlAnime],[isSadAnime],[isSadAnimeGirl],[Code Geass],[CodeGeass]",
    "title": "CodeGeass_634736",
    "link_img": "https://live.staticflickr.com/65535/47954401112_2f6291f9c1_o.jpg",
    "id_image": "CodeGeass_634736",
    "count_view": 0
  },
  {
    "link_thumb": "https://live.staticflickr.com/65535/47954441716_e09e1e6a33_n.jpg",
    "id_album": "1106685088",
    "description": "CodeGeass_634740,[isBoyAnime],[Code Geass],[CodeGeass]",
    "title": "CodeGeass_634740",
    "link_img": "https://live.staticflickr.com/65535/47954441716_a6cb66bf6b_o.jpg",
    "id_image": "CodeGeass_634740",
    "count_view": 0
  },
  {
    "link_thumb": "https://live.staticflickr.com/65535/47954444351_3c49b520e1_n.jpg",
    "id_album": "1106685088",
    "description": "CodeGeass_634744,[isGirlAnime],[isBoyAnime],[Code Geass],[CodeGeass]",
    "title": "CodeGeass_634744",
    "link_img": "https://live.staticflickr.com/65535/47954444351_2f94b6ee73_o.jpg",
    "id_image": "CodeGeass_634744",
    "count_view": 0
  },
  {
    "link_thumb": "https://live.staticflickr.com/65535/47954445031_d96d85b7a7_n.jpg",
    "id_album": "1106685088",
    "description": "CodeGeass_634745,[isBoyAnime],[Code Geass],[CodeGeass]",
    "title": "CodeGeass_634745",
    "link_img": "https://live.staticflickr.com/65535/47954445031_cf78823fdb_o.jpg",
    "id_image": "CodeGeass_634745",
    "count_view": 0
  },
  {
    "link_thumb": "https://live.staticflickr.com/65535/47954427348_7729e681c0_n.jpg",
    "id_album": "1106685088",
    "description": "CodeGeass_634750,[isGirlAnime],[Code Geass],[CodeGeass]",
    "title": "CodeGeass_634750",
    "link_img": "https://live.staticflickr.com/65535/47954427348_9bc34313dc_o.jpg",
    "id_image": "CodeGeass_634750",
    "count_view": 0
  },
  {
    "link_thumb": "https://live.staticflickr.com/65535/47954448946_207cebcee7_n.jpg",
    "id_album": "1106685088",
    "description": "CodeGeass_634752,[isBoyAnime],[Code Geass],[CodeGeass]",
    "title": "CodeGeass_634752",
    "link_img": "https://live.staticflickr.com/65535/47954448946_c5bee15393_o.jpg",
    "id_image": "CodeGeass_634752",
    "count_view": 0
  },
  {
    "link_thumb": "https://live.staticflickr.com/65535/47954414722_ae3e451f6b_n.jpg",
    "id_album": "1106685088",
    "description": "CodeGeass_634759,[isGirlAnime],[Code Geass],[CodeGeass]",
    "title": "CodeGeass_634759",
    "link_img": "https://live.staticflickr.com/65535/47954414722_6659557ef2_o.jpg",
    "id_image": "CodeGeass_634759",
    "count_view": 0
  },
  {
    "link_thumb": "https://live.staticflickr.com/65535/47954453086_d4a29fcd8a_n.jpg",
    "id_album": "1106685088",
    "description": "CodeGeass_634761,[isGirlAnime],[isCuteAnime],[isGirlsLoliAnime],[Code Geass],[CodeGeass]",
    "title": "CodeGeass_634761",
    "link_img": "https://live.staticflickr.com/65535/47954453086_451e60ce39_o.jpg",
    "id_image": "CodeGeass_634761",
    "count_view": 0
  },
  {
    "link_thumb": "https://live.staticflickr.com/65535/47954454046_f4c30e7aaa_n.jpg",
    "id_album": "1106685088",
    "description": "CodeGeass_634763,[isGirlAnime],[isCuteAnime],[isGirlsLoliAnime],[Code Geass],[CodeGeass]",
    "title": "CodeGeass_634763",
    "link_img": "https://live.staticflickr.com/65535/47954454046_69de066efe_o.jpg",
    "id_image": "CodeGeass_634763",
    "count_view": 0
  },
  {
    "link_thumb": "https://live.staticflickr.com/65535/47954416607_094b9d1310_n.jpg",
    "id_album": "1106685088",
    "description": "CodeGeass_634764,[isGirlAnime],[isCuteAnime],[isGirlsLoliAnime],[Code Geass],[CodeGeass]",
    "title": "CodeGeass_634764",
    "link_img": "https://live.staticflickr.com/65535/47954416607_d82194757c_o.jpg",
    "id_image": "CodeGeass_634764",
    "count_view": 0
  },
  {
    "link_thumb": "https://live.staticflickr.com/65535/47954436048_3387ce9dc3_n.jpg",
    "id_album": "1106685088",
    "description": "CodeGeass_634766,[isGirlAnime],[Code Geass],[CodeGeass]",
    "title": "CodeGeass_634766",
    "link_img": "https://live.staticflickr.com/65535/47954436048_513fdcd2d0_o.jpg",
    "id_image": "CodeGeass_634766",
    "count_view": 0
  },
  {
    "link_thumb": "https://live.staticflickr.com/65535/47954458176_63ce09d016_n.jpg",
    "id_album": "1106685088",
    "description": "CodeGeass_634769,[isGirlAnime],[isBoyAnime],[Code Geass],[CodeGeass]",
    "title": "CodeGeass_634769",
    "link_img": "https://live.staticflickr.com/65535/47954458176_9ca4cc9c47_o.jpg",
    "id_image": "CodeGeass_634769",
    "count_view": 0
  },
  {
    "link_thumb": "https://live.staticflickr.com/65535/47954439313_efb1f96817_n.jpg",
    "id_album": "1106685088",
    "description": "CodeGeass_634771,[isGirlAnime],[Code Geass],[CodeGeass]",
    "title": "CodeGeass_634771",
    "link_img": "https://live.staticflickr.com/65535/47954439313_f998b6bfc6_o.jpg",
    "id_image": "CodeGeass_634771",
    "count_view": 0
  },
  {
    "link_thumb": "https://live.staticflickr.com/65535/47954459661_4cfe0b6fe7_n.jpg",
    "id_album": "1106685088",
    "description": "CodeGeass_634772,[isGirlAnime],[isCuteAnime],[isGirlsLoliAnime],[Code Geass],[CodeGeass]",
    "title": "CodeGeass_634772",
    "link_img": "https://live.staticflickr.com/65535/47954459661_68426b6757_o.jpg",
    "id_image": "CodeGeass_634772",
    "count_view": 0
  },
  {
    "link_thumb": "https://live.staticflickr.com/65535/47954441518_ea56d0a2c4_n.jpg",
    "id_album": "1106685088",
    "description": "CodeGeass_634776,[isGirlAnime],[isBoyAnime],[Code Geass],[CodeGeass]",
    "title": "CodeGeass_634776",
    "link_img": "https://live.staticflickr.com/65535/47954441518_86b74d91e9_o.jpg",
    "id_image": "CodeGeass_634776",
    "count_view": 0
  },
  {
    "link_thumb": "https://live.staticflickr.com/65535/47954483791_2ef4380ce4_n.jpg",
    "id_album": "1106685088",
    "description": "CodeGeass_634811,[isGirlAnime],[Code Geass],[CodeGeass]",
    "title": "CodeGeass_634811",
    "link_img": "https://live.staticflickr.com/65535/47954483791_081c005587_o.jpg",
    "id_image": "CodeGeass_634811",
    "count_view": 0
  },
  {
    "link_thumb": "https://live.staticflickr.com/65535/47954475922_70621fb4e0_n.jpg",
    "id_album": "1106685088",
    "description": "CodeGeass_634862,[isBoyAnime],[isRobot],[Code Geass],[CodeGeass]",
    "title": "CodeGeass_634862",
    "link_img": "https://live.staticflickr.com/65535/47954475922_5213158be3_o.jpg",
    "id_image": "CodeGeass_634862",
    "count_view": 0
  },
  {
    "link_thumb": "https://live.staticflickr.com/65535/47954476417_9eb1d5004e_n.jpg",
    "id_album": "1106685088",
    "description": "CodeGeass_634863,[isGirlAnime],[Code Geass],[CodeGeass]",
    "title": "CodeGeass_634863",
    "link_img": "https://live.staticflickr.com/65535/47954476417_0f0dae665b_o.jpg",
    "id_image": "CodeGeass_634863",
    "count_view": 0
  },
  {
    "link_thumb": "https://live.staticflickr.com/65535/47954498358_8738cf65bf_n.jpg",
    "id_album": "1106685088",
    "description": "CodeGeass_634867,[isBoyAnime],[isSadAnime],[isSadAnimeBoy],[Code Geass],[CodeGeass]",
    "title": "CodeGeass_634867",
    "link_img": "https://live.staticflickr.com/65535/47954498358_25f2a915f7_o.jpg",
    "id_image": "CodeGeass_634867",
    "count_view": 0
  },
  {
    "link_thumb": "https://live.staticflickr.com/65535/47954481942_e73b85532b_n.jpg",
    "id_album": "1106685088",
    "description": "CodeGeass_634868,[isGirlAnime],[isBoyAnime],[isSadAnime],[isSadAnimeGirl],[isSadAnimeBoy],[isCuteAnime],[isGirlsLoliAnime],[Code Geass],[CodeGeass]",
    "title": "CodeGeass_634868",
    "link_img": "https://live.staticflickr.com/65535/47954481942_c56f21a949_o.jpg",
    "id_image": "CodeGeass_634868",
    "count_view": 0
  },
  {
    "link_thumb": "https://live.staticflickr.com/65535/47954493107_94d7a490ca_n.jpg",
    "id_album": "1106685088",
    "description": "CodeGeass_634902,[isGirlAnime],[Code Geass],[CodeGeass]",
    "title": "CodeGeass_634902",
    "link_img": "https://live.staticflickr.com/65535/47954493107_7326a9e22a_o.jpg",
    "id_image": "CodeGeass_634902",
    "count_view": 0
  },
  {
    "link_thumb": "https://live.staticflickr.com/65535/47954540366_712f3e9410_n.jpg",
    "id_album": "1106685088",
    "description": "CodeGeass_634923,[isBoyAnime],[isSadAnime],[isSadAnimeBoy],[Code Geass],[CodeGeass]",
    "title": "CodeGeass_634923",
    "link_img": "https://live.staticflickr.com/65535/47954540366_b8e07507c0_o.jpg",
    "id_image": "CodeGeass_634923",
    "count_view": 0
  },
  {
    "link_thumb": "https://live.staticflickr.com/65535/47954506632_ea0c4a84db_n.jpg",
    "id_album": "1106685088",
    "description": "CodeGeass_634927,[isGirlAnime],[Code Geass],[CodeGeass]",
    "title": "CodeGeass_634927",
    "link_img": "https://live.staticflickr.com/65535/47954506632_8c60f23e4c_o.png",
    "id_image": "CodeGeass_634927",
    "count_view": 0
  },
  {
    "link_thumb": "https://live.staticflickr.com/65535/47954530563_7f06f9de2f_n.jpg",
    "id_album": "1106685088",
    "description": "CodeGeass_634949,[isBoyAnime],[Code Geass],[CodeGeass]",
    "title": "CodeGeass_634949",
    "link_img": "https://live.staticflickr.com/65535/47954530563_854abda570_o.jpg",
    "id_image": "CodeGeass_634949",
    "count_view": 0
  },
  {
    "link_thumb": "https://live.staticflickr.com/65535/47954554531_9b39445582_n.jpg",
    "id_album": "1106685088",
    "description": "CodeGeass_634956,[isBoyAnime],[Code Geass],[CodeGeass]",
    "title": "CodeGeass_634956",
    "link_img": "https://live.staticflickr.com/65535/47954554531_0b0e408219_o.jpg",
    "id_image": "CodeGeass_634956",
    "count_view": 0
  },
  {
    "link_thumb": "https://live.staticflickr.com/65535/47954595116_c9010ecfb4_n.jpg",
    "id_album": "1106685088",
    "description": "CodeGeass_635317,[isBoyAnime],[Code Geass],[CodeGeass]",
    "title": "CodeGeass_635317",
    "link_img": "https://live.staticflickr.com/65535/47954595116_96a4b60437_o.jpg",
    "id_image": "CodeGeass_635317",
    "count_view": 0
  },
  {
    "link_thumb": "https://live.staticflickr.com/65535/47954564102_d825ee297f_n.jpg",
    "id_album": "1106685088",
    "description": "CodeGeass_635331,[isBoyAnime],[Code Geass],[CodeGeass]",
    "title": "CodeGeass_635331",
    "link_img": "https://live.staticflickr.com/65535/47954564102_9092998f0c_o.jpg",
    "id_image": "CodeGeass_635331",
    "count_view": 0
  },
  {
    "link_thumb": "https://live.staticflickr.com/65535/47954583623_9bb2c3ec09_n.jpg",
    "id_album": "1106685088",
    "description": "CodeGeass_635333,[isGirlAnime],[Code Geass],[CodeGeass]",
    "title": "CodeGeass_635333",
    "link_img": "https://live.staticflickr.com/65535/47954583623_92cfaa500c_o.jpg",
    "id_image": "CodeGeass_635333",
    "count_view": 0
  },
  {
    "link_thumb": "https://live.staticflickr.com/65535/47954604166_d635a23ec5_n.jpg",
    "id_album": "1106685088",
    "description": "CodeGeass_635335,[isBoyAnime],[Code Geass],[CodeGeass]",
    "title": "CodeGeass_635335",
    "link_img": "https://live.staticflickr.com/65535/47954604166_2ef461d3e5_o.jpg",
    "id_image": "CodeGeass_635335",
    "count_view": 0
  },
  {
    "link_thumb": "https://live.staticflickr.com/65535/47954605001_27962a73b7_n.jpg",
    "id_album": "1106685088",
    "description": "CodeGeass_635336,[isBoyAnime],[Code Geass],[CodeGeass]",
    "title": "CodeGeass_635336",
    "link_img": "https://live.staticflickr.com/65535/47954605001_1c22243fe2_o.jpg",
    "id_image": "CodeGeass_635336",
    "count_view": 0
  },
  {
    "link_thumb": "https://live.staticflickr.com/65535/47954610831_3a11d0c0f5_n.jpg",
    "id_album": "1106685088",
    "description": "CodeGeass_635346,[isBoyAnime],[isRobot],[Code Geass],[CodeGeass]",
    "title": "CodeGeass_635346",
    "link_img": "https://live.staticflickr.com/65535/47954610831_ba693134fe_o.jpg",
    "id_image": "CodeGeass_635346",
    "count_view": 0
  },
  {
    "link_thumb": "https://live.staticflickr.com/65535/47954616566_5fb80c953d_n.jpg",
    "id_album": "1106685088",
    "description": "CodeGeass_635356,[isGirlAnime],[isBoyAnime],[Code Geass],[CodeGeass]",
    "title": "CodeGeass_635356",
    "link_img": "https://live.staticflickr.com/65535/47954616566_76aa378b2c_o.jpg",
    "id_image": "CodeGeass_635356",
    "count_view": 0
  },
  {
    "link_thumb": "https://live.staticflickr.com/65535/47954585627_cf9f2325b3_n.jpg",
    "id_album": "1106685088",
    "description": "CodeGeass_635371,[isRobot],[Code Geass],[CodeGeass]",
    "title": "CodeGeass_635371",
    "link_img": "https://live.staticflickr.com/65535/47954585627_34d568e7a4_o.jpg",
    "id_image": "CodeGeass_635371",
    "count_view": 0
  },
  {
    "link_thumb": "https://live.staticflickr.com/65535/47954595847_53d179515f_n.jpg",
    "id_album": "1106685088",
    "description": "CodeGeass_657064,[isGirlAnime],[Code Geass],[CodeGeass]",
    "title": "CodeGeass_657064",
    "link_img": "https://live.staticflickr.com/65535/47954595847_fa9dd039db_o.jpg",
    "id_image": "CodeGeass_657064",
    "count_view": 0
  },
  {
    "link_thumb": "https://live.staticflickr.com/65535/47954596622_e911a911ac_n.jpg",
    "id_album": "1106685088",
    "description": "CodeGeass_657065,[isGirlAnime],[Code Geass],[CodeGeass]",
    "title": "CodeGeass_657065",
    "link_img": "https://live.staticflickr.com/65535/47954596622_6118b21c02_o.png",
    "id_image": "CodeGeass_657065",
    "count_view": 0
  },
  {
    "link_thumb": "https://live.staticflickr.com/65535/47954614753_828256843f_n.jpg",
    "id_album": "1106685088",
    "description": "CodeGeass_657066,[isGirlAnime],[Code Geass],[CodeGeass]",
    "title": "CodeGeass_657066",
    "link_img": "https://live.staticflickr.com/65535/47954614753_1efa401343_o.jpg",
    "id_image": "CodeGeass_657066",
    "count_view": 0
  },
  {
    "link_thumb": "https://live.staticflickr.com/65535/47954616848_74bc45972f_n.jpg",
    "id_album": "1106685088",
    "description": "CodeGeass_657813,[isBoyAnime],[isRobot],[Code Geass],[CodeGeass]",
    "title": "CodeGeass_657813",
    "link_img": "https://live.staticflickr.com/65535/47954616848_066e0aa78f_o.png",
    "id_image": "CodeGeass_657813",
    "count_view": 0
  },
  {
    "link_thumb": "https://live.staticflickr.com/65535/47954600667_1194b33b3c_n.jpg",
    "id_album": "1106685088",
    "description": "CodeGeass_657816,[isBoyAnime],[isSadAnime],[isSadAnimeBoy],[isBlackAnime],[Code Geass],[CodeGeass]",
    "title": "CodeGeass_657816",
    "link_img": "https://live.staticflickr.com/65535/47954600667_b86391f04c_o.jpg",
    "id_image": "CodeGeass_657816",
    "count_view": 0
  },
  {
    "link_thumb": "https://live.staticflickr.com/65535/47954639526_e80efa7998_n.jpg",
    "id_album": "1106685088",
    "description": "CodeGeass_679753,[isBoyAnime],[Code Geass],[CodeGeass]",
    "title": "CodeGeass_679753",
    "link_img": "https://live.staticflickr.com/65535/47954639526_357d3f6ccd_o.jpg",
    "id_image": "CodeGeass_679753",
    "count_view": 0
  },
  {
    "link_thumb": "https://live.staticflickr.com/65535/47954604532_56a53ac709_n.jpg",
    "id_album": "1106685088",
    "description": "CodeGeass_711364,[isBoyAnime],[isSadAnime],[isSadAnimeBoy],[Code Geass],[CodeGeass]",
    "title": "CodeGeass_711364",
    "link_img": "https://live.staticflickr.com/65535/47954604532_4aa80f3ce0_o.png",
    "id_image": "CodeGeass_711364",
    "count_view": 0
  },
  {
    "link_thumb": "https://live.staticflickr.com/65535/47954605807_18bc0df0b6_n.jpg",
    "id_album": "1106685088",
    "description": "CodeGeass_720581,[isGirlAnime],[isBoyAnime],[isCuteAnime],[isGirlsLoliAnime],[Code Geass],[CodeGeass]",
    "title": "CodeGeass_720581",
    "link_img": "https://live.staticflickr.com/65535/47954605807_d5d1035be6_o.png",
    "id_image": "CodeGeass_720581",
    "count_view": 0
  },
  {
    "link_thumb": "https://live.staticflickr.com/65535/47954648336_0af4113517_n.jpg",
    "id_album": "1106685088",
    "description": "CodeGeass_721059,[isBoyAnime],[Code Geass],[CodeGeass]",
    "title": "CodeGeass_721059",
    "link_img": "https://live.staticflickr.com/65535/47954648336_61c6e131c2_o.png",
    "id_image": "CodeGeass_721059",
    "count_view": 0
  },
  {
    "link_thumb": "https://live.staticflickr.com/65535/47954632533_75808031bd_n.jpg",
    "id_album": "1106685088",
    "description": "CodeGeass_721061,[isBoyAnime],[Code Geass],[CodeGeass]",
    "title": "CodeGeass_721061",
    "link_img": "https://live.staticflickr.com/65535/47954632533_95e4329017_o.png",
    "id_image": "CodeGeass_721061",
    "count_view": 0
  },
  {
    "link_thumb": "https://live.staticflickr.com/65535/47954653658_5cd36a7f1c_n.jpg",
    "id_album": "1106685088",
    "description": "CodeGeass_721132,[isBoyAnime],[Code Geass],[CodeGeass]",
    "title": "CodeGeass_721132",
    "link_img": "https://live.staticflickr.com/65535/47954653658_36d1c8091a_o.png",
    "id_image": "CodeGeass_721132",
    "count_view": 0
  },
  {
    "link_thumb": "https://live.staticflickr.com/65535/47954677911_1e7e4ba223_n.jpg",
    "id_album": "1106685088",
    "description": "CodeGeass_73031,[isGirlAnime],[Code Geass],[CodeGeass]",
    "title": "CodeGeass_73031",
    "link_img": "https://live.staticflickr.com/65535/47954677911_c7a2f5d635_o.jpg",
    "id_image": "CodeGeass_73031",
    "count_view": 0
  },
  {
    "link_thumb": "https://live.staticflickr.com/65535/47954678216_5d8de8e031_n.jpg",
    "id_album": "1106685088",
    "description": "CodeGeass_73034,[isGirlAnime],[Code Geass],[CodeGeass]",
    "title": "CodeGeass_73034",
    "link_img": "https://live.staticflickr.com/65535/47954678216_1d07a874a7_o.jpg",
    "id_image": "CodeGeass_73034",
    "count_view": 0
  },
  {
    "link_thumb": "https://live.staticflickr.com/65535/47954640787_5fdf304c1a_n.jpg",
    "id_album": "1106685088",
    "description": "CodeGeass_73048,[isGirlAnime],[Code Geass],[CodeGeass]",
    "title": "CodeGeass_73048",
    "link_img": "https://live.staticflickr.com/65535/47954640787_27159bafca_o.jpg",
    "id_image": "CodeGeass_73048",
    "count_view": 0
  },
  {
    "link_thumb": "https://live.staticflickr.com/65535/47954642302_1af1e8f7f5_n.jpg",
    "id_album": "1106685088",
    "description": "CodeGeass_73054,[isGirlAnime],[isSadAnime],[isSadAnimeGirl],[Code Geass],[CodeGeass]",
    "title": "CodeGeass_73054",
    "link_img": "https://live.staticflickr.com/65535/47954642302_c93041b9d9_o.jpg",
    "id_image": "CodeGeass_73054",
    "count_view": 0
  },
  {
    "link_thumb": "https://live.staticflickr.com/65535/47954685471_c1f94ff913_n.jpg",
    "id_album": "1106685088",
    "description": "CodeGeass_73080,[isRobot],[Code Geass],[CodeGeass]",
    "title": "CodeGeass_73080",
    "link_img": "https://live.staticflickr.com/65535/47954685471_d0239f0a73_o.jpg",
    "id_image": "CodeGeass_73080",
    "count_view": 0
  },
  {
    "link_thumb": "https://live.staticflickr.com/65535/47954651107_db076c28c0_n.jpg",
    "id_album": "1106685088",
    "description": "CodeGeass_73152,[isBoyAnime],[Code Geass],[CodeGeass]",
    "title": "CodeGeass_73152",
    "link_img": "https://live.staticflickr.com/65535/47954651107_219960fdde_o.jpg",
    "id_image": "CodeGeass_73152",
    "count_view": 0
  },
  {
    "link_thumb": "https://live.staticflickr.com/65535/47954694886_53940da8f5_n.jpg",
    "id_album": "1106685088",
    "description": "CodeGeass_73247,[isGirlAnime],[isSadAnime],[isSadAnimeGirl],[Code Geass],[CodeGeass]",
    "title": "CodeGeass_73247",
    "link_img": "https://live.staticflickr.com/65535/47954694886_42d163eb64_o.jpg",
    "id_image": "CodeGeass_73247",
    "count_view": 0
  },
  {
    "link_thumb": "https://live.staticflickr.com/65535/47954664422_888b06527f_n.jpg",
    "id_album": "1106685088",
    "description": "CodeGeass_750400,[isGirlAnime],[isBoyAnime],[Code Geass],[CodeGeass]",
    "title": "CodeGeass_750400",
    "link_img": "https://live.staticflickr.com/65535/47954664422_51c71476e6_o.png",
    "id_image": "CodeGeass_750400",
    "count_view": 0
  },
  {
    "link_thumb": "https://live.staticflickr.com/65535/47954666752_db7f99ea8a_n.jpg",
    "id_album": "1106685088",
    "description": "CodeGeass_750530,[isGirlAnime],[Code Geass],[CodeGeass]",
    "title": "CodeGeass_750530",
    "link_img": "https://live.staticflickr.com/65535/47954666752_fb20063801_o.jpg",
    "id_image": "CodeGeass_750530",
    "count_view": 0
  }
]