[
  {
    "link_thumb": "https://live.staticflickr.com/65535/48066164042_d80e3421f4_n.jpg",
    "id_album": "975426604",
    "description": "Working_743404",
    "title": "Working_743404",
    "link_img": "https://live.staticflickr.com/65535/48066164042_cc6a8b29fb_o.jpg",
    "id_image": "Working_743404",
    "count_view": 0
  },
  {
    "link_thumb": "https://live.staticflickr.com/65535/48066067626_be82203117_n.jpg",
    "id_album": "975426604",
    "description": "Working_766783",
    "title": "Working_766783",
    "link_img": "https://live.staticflickr.com/65535/48066067626_90d133d826_o.jpg",
    "id_image": "Working_766783",
    "count_view": 0
  }
]