[
  {
    "link_thumb": "https://live.staticflickr.com/65535/48052338577_41ba1145c1_n.jpg",
    "id_album": "1150637097",
    "description": "PixivFantasiaFallenKings_559202",
    "title": "PixivFantasiaFallenKings_559202",
    "link_img": "https://live.staticflickr.com/65535/48052338577_79ed51e227_o.jpg",
    "id_image": "PixivFantasiaFallenKings_559202",
    "count_view": 0
  },
  {
    "link_thumb": "https://live.staticflickr.com/65535/48052293848_25d9a5e113_n.jpg",
    "id_album": "1150637097",
    "description": "PixivFantasiaFallenKings_559205",
    "title": "PixivFantasiaFallenKings_559205",
    "link_img": "https://live.staticflickr.com/65535/48052293848_72d4113220_o.jpg",
    "id_image": "PixivFantasiaFallenKings_559205",
    "count_view": 0
  },
  {
    "link_thumb": "https://live.staticflickr.com/65535/48052251681_d97ebdeb07_n.jpg",
    "id_album": "1150637097",
    "description": "PixivFantasiaFallenKings_559207",
    "title": "PixivFantasiaFallenKings_559207",
    "link_img": "https://live.staticflickr.com/65535/48052251681_fdf686e385_o.jpg",
    "id_image": "PixivFantasiaFallenKings_559207",
    "count_view": 0
  },
  {
    "link_thumb": "https://live.staticflickr.com/65535/48052340067_6f795acce8_n.jpg",
    "id_album": "1150637097",
    "description": "PixivFantasiaFallenKings_559209",
    "title": "PixivFantasiaFallenKings_559209",
    "link_img": "https://live.staticflickr.com/65535/48052340067_230b91ef8a_o.jpg",
    "id_image": "PixivFantasiaFallenKings_559209",
    "count_view": 0
  },
  {
    "link_thumb": "https://live.staticflickr.com/65535/48052340297_3a587c8ce9_n.jpg",
    "id_album": "1150637097",
    "description": "PixivFantasiaFallenKings_559210",
    "title": "PixivFantasiaFallenKings_559210",
    "link_img": "https://live.staticflickr.com/65535/48052340297_9a891c08fc_o.jpg",
    "id_image": "PixivFantasiaFallenKings_559210",
    "count_view": 0
  },
  {
    "link_thumb": "https://live.staticflickr.com/65535/48052295223_5ba1689362_n.jpg",
    "id_album": "1150637097",
    "description": "PixivFantasiaFallenKings_559211",
    "title": "PixivFantasiaFallenKings_559211",
    "link_img": "https://live.staticflickr.com/65535/48052295223_a10f5e73b9_o.jpg",
    "id_image": "PixivFantasiaFallenKings_559211",
    "count_view": 0
  },
  {
    "link_thumb": "https://live.staticflickr.com/65535/48052252646_917503a556_n.jpg",
    "id_album": "1150637097",
    "description": "PixivFantasiaFallenKings_559212",
    "title": "PixivFantasiaFallenKings_559212",
    "link_img": "https://live.staticflickr.com/65535/48052252646_f959c071f8_o.jpg",
    "id_image": "PixivFantasiaFallenKings_559212",
    "count_view": 0
  },
  {
    "link_thumb": "https://live.staticflickr.com/65535/48052252866_b8b7695ff2_n.jpg",
    "id_album": "1150637097",
    "description": "PixivFantasiaFallenKings_559213",
    "title": "PixivFantasiaFallenKings_559213",
    "link_img": "https://live.staticflickr.com/65535/48052252866_1a6e4a351f_o.jpg",
    "id_image": "PixivFantasiaFallenKings_559213",
    "count_view": 0
  },
  {
    "link_thumb": "https://live.staticflickr.com/65535/48052341142_64bde01685_n.jpg",
    "id_album": "1150637097",
    "description": "PixivFantasiaFallenKings_559214",
    "title": "PixivFantasiaFallenKings_559214",
    "link_img": "https://live.staticflickr.com/65535/48052341142_a275962f2e_o.jpg",
    "id_image": "PixivFantasiaFallenKings_559214",
    "count_view": 0
  },
  {
    "link_thumb": "https://live.staticflickr.com/65535/48052341327_f4242b1c8f_n.jpg",
    "id_album": "1150637097",
    "description": "PixivFantasiaFallenKings_559216",
    "title": "PixivFantasiaFallenKings_559216",
    "link_img": "https://live.staticflickr.com/65535/48052341327_4df9863d54_o.jpg",
    "id_image": "PixivFantasiaFallenKings_559216",
    "count_view": 0
  },
  {
    "link_thumb": "https://live.staticflickr.com/65535/48052341432_812c08ec8f_n.jpg",
    "id_album": "1150637097",
    "description": "PixivFantasiaFallenKings_559217",
    "title": "PixivFantasiaFallenKings_559217",
    "link_img": "https://live.staticflickr.com/65535/48052341432_5aa08de056_o.jpg",
    "id_image": "PixivFantasiaFallenKings_559217",
    "count_view": 0
  },
  {
    "link_thumb": "https://live.staticflickr.com/65535/48052341767_4cf104eced_n.jpg",
    "id_album": "1150637097",
    "description": "PixivFantasiaFallenKings_561518",
    "title": "PixivFantasiaFallenKings_561518",
    "link_img": "https://live.staticflickr.com/65535/48052341767_f91809bfa0_o.jpg",
    "id_image": "PixivFantasiaFallenKings_561518",
    "count_view": 0
  }
]