[
  {
    "total_img": 16,
    "number_page": 1,
    "title": "Yona of the Dawn",
    "tag": "Ao Yona of the Dawn, Akatsuki no Yona, JaeHa Yona of the Dawn, Cute, Moon, Kija Yona of the Dawn, Rabbit, ShinAh Yona of the Dawn, Red Hair, Suwon Yona of the Dawn, Gift, Yona of the Dawn, Zeno Yona of the Dawn, Yona Yona of the Dawn, Love, Yun Yona of the Dawn, Hug, Child, Hak Son",
    "description": "Yona of the Dawn",
    "link_thumb": "https://live.staticflickr.com/65535/48066191663_dcf0fd9e54_n.jpg",
    "id_album": "-1066742459",
    "total_view": 16
  },
  {
    "total_img": 10,
    "number_page": 1,
    "title": "Child",
    "tag": "Child,",
    "description": "Child",
    "link_thumb": "https://live.staticflickr.com/65535/48066250267_6d834f60da_n.jpg",
    "id_album": "430704260",
    "total_view": 10
  },
  {
    "total_img": 66,
    "number_page": 1,
    "title": "Cute",
    "tag": "Cute,",
    "description": "Cute",
    "link_thumb": "https://live.staticflickr.com/65535/48066203393_b94f334903_n.jpg",
    "id_album": "1273365283",
    "total_view": 66
  },
  {
    "total_img": 11,
    "number_page": 1,
    "title": "Rabbit",
    "tag": "Rabbit,",
    "description": "Rabbit",
    "link_thumb": "https://live.staticflickr.com/65535/48066203393_b94f334903_n.jpg",
    "id_album": "-1940643173",
    "total_view": 11
  },
  {
    "total_img": 9,
    "number_page": 1,
    "title": "Yona Yona of the Dawn",
    "tag": "Yona Yona of the Dawn,",
    "description": "Yona Yona of the Dawn",
    "link_thumb": "https://live.staticflickr.com/65535/48066254552_0a00c28da1_n.jpg",
    "id_album": "1183132762",
    "total_view": 9
  }
]