[
  {
    "total_img": 18,
    "number_page": 1,
    "title": "Anne Happy",
    "tag": "Botan Kumegawa, Anne Happy, Ruri Hibarigaoka, Ren Ekoda, Anne Hanakoizumi, Kodaira AnneHappy, Hibiki Hagyu, Timothy AnneHappy",
    "description": "Anne Happy",
    "link_thumb": "https://live.staticflickr.com/65535/46976573445_39f5167906_n.jpg",
    "id_album": "1043965231",
    "total_view": 18
  },
  {
    "total_img": 12,
    "number_page": 1,
    "title": "Anne Hanakoizumi",
    "tag": "Anne Hanakoizumi,",
    "description": "Anne Hanakoizumi",
    "link_thumb": "https://live.staticflickr.com/65535/47955783736_928e8275b2_n.jpg",
    "id_album": "2014323367",
    "total_view": 12
  },
  {
    "total_img": 2,
    "number_page": 1,
    "title": "Timothy AnneHappy",
    "tag": "Timothy AnneHappy,",
    "description": "Timothy AnneHappy",
    "link_thumb": "https://live.staticflickr.com/65535/47955783736_928e8275b2_n.jpg",
    "id_album": "500758717",
    "total_view": 2
  }
]