[
  {
    "total_img": 72,
    "number_page": 1,
    "title": "Koe No Katachi",
    "tag": "Yae Nishimiya, Koe no Katachi, Tomohiro Nagatsuka, Yuzuru Nishimiya, Shoyo Hinata, Naoka Ueno, Cherry Blossom, Miyoko Sahara, Pink Hair, Shouya Ishida, Satoshi Mashiba, Koe No Katachi, Anime, A Silent Voice, Shouko Nishimiya, Miki Kawai",
    "description": "Koe No Katachi",
    "link_thumb": "https://live.staticflickr.com/65535/48048048067_47a8379a9b_n.jpg",
    "id_album": "1100293889",
    "total_view": 72
  },
  {
    "total_img": 17,
    "number_page": 1,
    "title": "Shouya Ishida",
    "tag": "Shouya Ishida,",
    "description": "Shouya Ishida",
    "link_thumb": "https://live.staticflickr.com/65535/48048018451_e1d31540db_n.jpg",
    "id_album": "156866615",
    "total_view": 17
  }
]