[
  {
    "total_img": 466,
    "number_page": 3,
    "title": "Clannad",
    "tag": "Sky, Nagisa Furukawa, Katsuki Shima, Minimalist, Grass, Crying, Seaside, Kyou Fujibayashi, Long Hair, Tomoya Okazaki, Thigh Highs, Anime, Shorts, Tree, Woman, Youhei Sunohara, Child, Sugisaka Clannad, Yukine Miyazawa, Purple Hair, Kotomi Ichinose, Botan Clannad, Mei Sunohara, Smile, Sun, Boy, Skirt, Kouko Ibuki, Blush, Tomoyo Sakagami, Pantyhose, Glasses, Ponytail, Ushio Okazaki, Toshio Koumura, Junk Robot, Girl from the Illusionary World, Sanae Furukawa, Sitting, Socks, Clannad, Naoyuki Okazaki, White Dress, Field, Potato Air, Shino Okazaki, Yuri, Short Hair, Furukawa Sanae, Flower, Rie Nishina, Dress, School Uniform, Akio Furukawa, Sadness, Blue Eyes, Misae Sagara, Sleeping, Dango, Ryou Fujibayashi, Yusuke Yoshino, Cloud, Lying Down, Fuuko Ibuki",
    "description": "Clannad",
    "link_thumb": "https://live.staticflickr.com/65535/46996170765_1573c18f80_n.jpg",
    "id_album": "106293676",
    "total_view": 466
  },
  {
    "total_img": 92,
    "number_page": 1,
    "title": "Fuuko Ibuki",
    "tag": "Fuuko Ibuki,",
    "description": "Fuuko Ibuki",
    "link_thumb": "https://live.staticflickr.com/65535/47960654051_3203199682_n.jpg",
    "id_album": "1118489750",
    "total_view": 92
  },
  {
    "total_img": 61,
    "number_page": 1,
    "title": "Kotomi Ichinose",
    "tag": "Kotomi Ichinose,",
    "description": "Kotomi Ichinose",
    "link_thumb": "https://live.staticflickr.com/65535/47960654051_3203199682_n.jpg",
    "id_album": "1273748818",
    "total_view": 61
  },
  {
    "total_img": 87,
    "number_page": 1,
    "title": "Kyou Fujibayashi",
    "tag": "Kyou Fujibayashi,",
    "description": "Kyou Fujibayashi",
    "link_thumb": "https://live.staticflickr.com/65535/47955661798_b48dfc0333_n.jpg",
    "id_album": "1124484441",
    "total_view": 87
  },
  {
    "total_img": 209,
    "number_page": 2,
    "title": "Nagisa Furukawa",
    "tag": "Nagisa Furukawa,",
    "description": "Nagisa Furukawa",
    "link_thumb": "https://live.staticflickr.com/65535/47960731458_804cb5beee_n.jpg",
    "id_album": "-761887522",
    "total_view": 209
  },
  {
    "total_img": 46,
    "number_page": 1,
    "title": "Ryou Fujibayashi",
    "tag": "Ryou Fujibayashi,",
    "description": "Ryou Fujibayashi",
    "link_thumb": "https://live.staticflickr.com/65535/47955661798_b48dfc0333_n.jpg",
    "id_album": "1131168242",
    "total_view": 46
  },
  {
    "total_img": 71,
    "number_page": 1,
    "title": "Tomoyo Sakagami",
    "tag": "Tomoyo Sakagami,",
    "description": "Tomoyo Sakagami",
    "link_thumb": "https://live.staticflickr.com/65535/47955661798_b48dfc0333_n.jpg",
    "id_album": "-1659348202",
    "total_view": 71
  }
]