[
  {
    "link_thumb": "https://live.staticflickr.com/65535/51556383636_c237160c89_n.jpg",
    "id_album": "-89234980",
    "description": "ANIME_PIC_f729a18b66154153f10b9daf9392778d,[GirlsCuteCool],[isGirlAnime],[isCuteAnime]",
    "title": "ANIME_PIC_f729a18b66154153f10b9daf9392778d",
    "link_img": "https://live.staticflickr.com/65535/51556383636_51e587cd87_o.jpg",
    "id_image": "ANIME_PIC_f729a18b66154153f10b9daf9392778d",
    "count_view": 0
  },
  {
    "link_thumb": "https://live.staticflickr.com/65535/51557304650_cc16a9e4ff_n.jpg",
    "id_album": "-89234980",
    "description": "ANIME_PIC_f72cbd7607b694dcac48fc8e609e5634,[GirlsCuteCool],[isGirlAnime],[isCuteAnime]",
    "title": "ANIME_PIC_f72cbd7607b694dcac48fc8e609e5634",
    "link_img": "https://live.staticflickr.com/65535/51557304650_9c04922907_o.jpg",
    "id_image": "ANIME_PIC_f72cbd7607b694dcac48fc8e609e5634",
    "count_view": 0
  },
  {
    "link_thumb": "https://live.staticflickr.com/65535/51557304765_c24485dfaf_n.jpg",
    "id_album": "-89234980",
    "description": "ANIME_PIC_f72eeb225e0c7b33fa5bc801e4b4537a,[GirlsCuteCool],[isGirlAnime],[isCuteAnime],[isSadAnimeGirl],[isSadAnime]",
    "title": "ANIME_PIC_f72eeb225e0c7b33fa5bc801e4b4537a",
    "link_img": "https://live.staticflickr.com/65535/51557304765_b776a5ea95_o.jpg",
    "id_image": "ANIME_PIC_f72eeb225e0c7b33fa5bc801e4b4537a",
    "count_view": 0
  },
  {
    "link_thumb": "https://live.staticflickr.com/65535/51557304915_a82bbb36a0_n.jpg",
    "id_album": "-89234980",
    "description": "ANIME_PIC_f7320242e073177ed6a7c1fc3ee35da1,[GirlsCuteCool],[isGirlAnime],[isCuteAnime]",
    "title": "ANIME_PIC_f7320242e073177ed6a7c1fc3ee35da1",
    "link_img": "https://live.staticflickr.com/65535/51557304915_c6dd1550ed_o.jpg",
    "id_image": "ANIME_PIC_f7320242e073177ed6a7c1fc3ee35da1",
    "count_view": 0
  },
  {
    "link_thumb": "https://live.staticflickr.com/65535/51555592607_8987927170_n.jpg",
    "id_album": "-89234980",
    "description": "ANIME_PIC_f733add401a1e8956e9c90d05604e652,[GirlsCuteCool],[isGirlAnime],[isCuteAnime]",
    "title": "ANIME_PIC_f733add401a1e8956e9c90d05604e652",
    "link_img": "https://live.staticflickr.com/65535/51555592607_41d736c478_o.png",
    "id_image": "ANIME_PIC_f733add401a1e8956e9c90d05604e652",
    "count_view": 0
  },
  {
    "link_thumb": "https://live.staticflickr.com/65535/51555592872_0fd2d97957_n.jpg",
    "id_album": "-89234980",
    "description": "ANIME_PIC_f734208e9924742f29348b9356e6c7f5,[GirlsCuteCool],[isGirlAnime],[isCuteAnime],[isGirlsHatsHoodieAnime],[isGirlsLoliAnime]",
    "title": "ANIME_PIC_f734208e9924742f29348b9356e6c7f5",
    "link_img": "https://live.staticflickr.com/65535/51555592872_2a0cebc0eb_o.jpg",
    "id_image": "ANIME_PIC_f734208e9924742f29348b9356e6c7f5",
    "count_view": 0
  },
  {
    "link_thumb": "https://live.staticflickr.com/65535/51557077134_c323b80ab4_n.jpg",
    "id_album": "-89234980",
    "description": "ANIME_PIC_f73512094b400914853fe117e09c31d0,[GirlsCuteCool],[isBoyAnime],[isCoupleAnime],[isGirlAnime],[isCuteAnime]",
    "title": "ANIME_PIC_f73512094b400914853fe117e09c31d0",
    "link_img": "https://live.staticflickr.com/65535/51557077134_6f84c1398f_o.jpg",
    "id_image": "ANIME_PIC_f73512094b400914853fe117e09c31d0",
    "count_view": 0
  },
  {
    "link_thumb": "https://live.staticflickr.com/65535/51557305590_bbae86618b_n.jpg",
    "id_album": "-89234980",
    "description": "ANIME_PIC_f73ac6819f7e7b2af847cbcf4586f264,[GirlsCuteCool],[isGirlAnime],[isCuteAnime],[isGirlsLoliAnime]",
    "title": "ANIME_PIC_f73ac6819f7e7b2af847cbcf4586f264",
    "link_img": "https://live.staticflickr.com/65535/51557305590_326425f65e_o.jpg",
    "id_image": "ANIME_PIC_f73ac6819f7e7b2af847cbcf4586f264",
    "count_view": 0
  },
  {
    "link_thumb": "https://live.staticflickr.com/65535/51556620738_ff76569399_n.jpg",
    "id_album": "-89234980",
    "description": "ANIME_PIC_f73b1c44ca0aa51f5ab2350e887aa739,[GirlsCuteCool],[isGirlAnime],[isCuteAnime]",
    "title": "ANIME_PIC_f73b1c44ca0aa51f5ab2350e887aa739",
    "link_img": "https://live.staticflickr.com/65535/51556620738_b9daef49ed_o.jpg",
    "id_image": "ANIME_PIC_f73b1c44ca0aa51f5ab2350e887aa739",
    "count_view": 0
  },
  {
    "link_thumb": "https://live.staticflickr.com/65535/49987498296_ed3dd84972_n.jpg",
    "id_album": "-89234980",
    "description": "ANIME_PIC_f73f7f9839bdda280b1b06fbe2ccaf95,[isGirlAnime],[isCuteAnime],[Girls Cute Cool],[GirlsCuteCool]",
    "title": "ANIME_PIC_f73f7f9839bdda280b1b06fbe2ccaf95",
    "link_img": "https://live.staticflickr.com/65535/49987498296_7ed8095981_o.png",
    "id_image": "ANIME_PIC_f73f7f9839bdda280b1b06fbe2ccaf95",
    "count_view": 0
  },
  {
    "link_thumb": "https://live.staticflickr.com/65535/51557305945_a2d2bd2553_n.jpg",
    "id_album": "-89234980",
    "description": "ANIME_PIC_f746b7625d8923500d44e8b5aa3650d8,[GirlsCuteCool],[isGirlAnime],[isCuteAnime],[isGirlsLoliAnime],[isSadAnimeGirl],[isSadAnime]",
    "title": "ANIME_PIC_f746b7625d8923500d44e8b5aa3650d8",
    "link_img": "https://live.staticflickr.com/65535/51557305945_37594b11ca_o.png",
    "id_image": "ANIME_PIC_f746b7625d8923500d44e8b5aa3650d8",
    "count_view": 0
  },
  {
    "link_thumb": "https://live.staticflickr.com/65535/51556621193_17ab419ccb_n.jpg",
    "id_album": "-89234980",
    "description": "ANIME_PIC_f747916d86b7546ee3b9ba947be7b023,[GirlsCuteCool],[isGirlAnime],[isCuteAnime]",
    "title": "ANIME_PIC_f747916d86b7546ee3b9ba947be7b023",
    "link_img": "https://live.staticflickr.com/65535/51556621193_b44ec1df1f_o.jpg",
    "id_image": "ANIME_PIC_f747916d86b7546ee3b9ba947be7b023",
    "count_view": 0
  },
  {
    "link_thumb": "https://live.staticflickr.com/65535/51556385646_014d183c1d_n.jpg",
    "id_album": "-89234980",
    "description": "ANIME_PIC_f747e408074ceb4c3684185d4c2bcc63,[GirlsCuteCool],[isGirlAnime],[isCuteAnime],[isGirlsLoliAnime],[isSadAnimeGirl],[isSadAnime]",
    "title": "ANIME_PIC_f747e408074ceb4c3684185d4c2bcc63",
    "link_img": "https://live.staticflickr.com/65535/51556385646_577863c981_o.png",
    "id_image": "ANIME_PIC_f747e408074ceb4c3684185d4c2bcc63",
    "count_view": 0
  },
  {
    "link_thumb": "https://live.staticflickr.com/65535/51556385891_4587530139_n.jpg",
    "id_album": "-89234980",
    "description": "ANIME_PIC_f747effeee1b8bee3678cddd91ff8910,[GirlsCuteCool],[isGirlAnime],[isCuteAnime],[isGirlsLoliAnime],[isSadAnimeGirl],[isSadAnime]",
    "title": "ANIME_PIC_f747effeee1b8bee3678cddd91ff8910",
    "link_img": "https://live.staticflickr.com/65535/51556385891_953519583e_o.jpg",
    "id_image": "ANIME_PIC_f747effeee1b8bee3678cddd91ff8910",
    "count_view": 0
  },
  {
    "link_thumb": "https://live.staticflickr.com/65535/51557306725_67247c5c6b_n.jpg",
    "id_album": "-89234980",
    "description": "ANIME_PIC_f74b834c45344a416f9965817bbbaffb,[GirlsCuteCool],[isGirlAnime],[isCuteAnime],[isGirlsHatsHoodieAnime],[isGirlsLoliAnime]",
    "title": "ANIME_PIC_f74b834c45344a416f9965817bbbaffb",
    "link_img": "https://live.staticflickr.com/65535/51557306725_2603b55228_o.png",
    "id_image": "ANIME_PIC_f74b834c45344a416f9965817bbbaffb",
    "count_view": 0
  },
  {
    "link_thumb": "https://live.staticflickr.com/65535/51555594527_78d31083b4_n.jpg",
    "id_album": "-89234980",
    "description": "ANIME_PIC_f74bc1dde93fc17ba0e790a84298796c,[GirlsCuteCool],[isGirlAnime],[isCuteAnime],[isGirlsLoliAnime]",
    "title": "ANIME_PIC_f74bc1dde93fc17ba0e790a84298796c",
    "link_img": "https://live.staticflickr.com/65535/51555594527_450db708dd_o.jpg",
    "id_image": "ANIME_PIC_f74bc1dde93fc17ba0e790a84298796c",
    "count_view": 0
  },
  {
    "link_thumb": "https://live.staticflickr.com/65535/51557307075_9eaaae53c0_n.jpg",
    "id_album": "-89234980",
    "description": "ANIME_PIC_f74d89636b465494449857bf0f9bd32b,[GirlsCuteCool],[isGirlAnime],[isCuteAnime],[isGirlsHatsHoodieAnime],[isGirlsLoliAnime]",
    "title": "ANIME_PIC_f74d89636b465494449857bf0f9bd32b",
    "link_img": "https://live.staticflickr.com/65535/51557307075_315c561096_o.jpg",
    "id_image": "ANIME_PIC_f74d89636b465494449857bf0f9bd32b",
    "count_view": 0
  },
  {
    "link_thumb": "https://live.staticflickr.com/65535/51555594842_735ac3b593_n.jpg",
    "id_album": "-89234980",
    "description": "ANIME_PIC_f750670159bbc2e377f015225dfd0ae4,[GirlsCuteCool],[isGirlAnime],[isCuteAnime],[isGirlEarsNekoAnime],[isGirlsLoliAnime]",
    "title": "ANIME_PIC_f750670159bbc2e377f015225dfd0ae4",
    "link_img": "https://live.staticflickr.com/65535/51555594842_c442465b39_o.jpg",
    "id_image": "ANIME_PIC_f750670159bbc2e377f015225dfd0ae4",
    "count_view": 0
  },
  {
    "link_thumb": "https://live.staticflickr.com/65535/51557307345_ee9fd03f8a_n.jpg",
    "id_album": "-89234980",
    "description": "ANIME_PIC_f7599b8c619192397042abee9583dfa7,[GirlsCuteCool],[isGirlAnime],[isCuteAnime]",
    "title": "ANIME_PIC_f7599b8c619192397042abee9583dfa7",
    "link_img": "https://live.staticflickr.com/65535/51557307345_1de5822da4_o.jpg",
    "id_image": "ANIME_PIC_f7599b8c619192397042abee9583dfa7",
    "count_view": 0
  },
  {
    "link_thumb": "https://live.staticflickr.com/65535/51557079139_96d3e74649_n.jpg",
    "id_album": "-89234980",
    "description": "ANIME_PIC_f759b5bd3783e4a1d5edb87f43a7d4d6,[GirlsCuteCool],[isGirlAnime],[isCuteAnime]",
    "title": "ANIME_PIC_f759b5bd3783e4a1d5edb87f43a7d4d6",
    "link_img": "https://live.staticflickr.com/65535/51557079139_5e1ed5c2df_o.png",
    "id_image": "ANIME_PIC_f759b5bd3783e4a1d5edb87f43a7d4d6",
    "count_view": 0
  },
  {
    "link_thumb": "https://live.staticflickr.com/65535/51557079404_0af4afc368_n.jpg",
    "id_album": "-89234980",
    "description": "ANIME_PIC_f75b60d928f06ab9b78be1b01a74eea3,[GirlsCuteCool],[isGirlAnime],[isCuteAnime],[isGirlFaceMasksAnime],[isGirlsHatsHoodieAnime],[isGirlsLoliAnime]",
    "title": "ANIME_PIC_f75b60d928f06ab9b78be1b01a74eea3",
    "link_img": "https://live.staticflickr.com/65535/51557079404_cba35007f2_o.jpg",
    "id_image": "ANIME_PIC_f75b60d928f06ab9b78be1b01a74eea3",
    "count_view": 0
  },
  {
    "link_thumb": "https://live.staticflickr.com/65535/51557079584_20678db26d_n.jpg",
    "id_album": "-89234980",
    "description": "ANIME_PIC_f763a073247ab32992c980057721b8ad,[GirlsCuteCool],[isGirlAnime],[isCuteAnime],[isGirlsHatsHoodieAnime],[isGirlsLoliAnime]",
    "title": "ANIME_PIC_f763a073247ab32992c980057721b8ad",
    "link_img": "https://live.staticflickr.com/65535/51557079584_7392cf5f0d_o.png",
    "id_image": "ANIME_PIC_f763a073247ab32992c980057721b8ad",
    "count_view": 0
  },
  {
    "link_thumb": "https://live.staticflickr.com/65535/51556623133_4406031bfe_n.jpg",
    "id_album": "-89234980",
    "description": "ANIME_PIC_f76426328d66aaa1f5fcc5412822aeb1,[GirlsCuteCool],[isGirlAnime],[isCuteAnime],[isGirlsLoliAnime]",
    "title": "ANIME_PIC_f76426328d66aaa1f5fcc5412822aeb1",
    "link_img": "https://live.staticflickr.com/65535/51556623133_559301b06c_o.jpg",
    "id_image": "ANIME_PIC_f76426328d66aaa1f5fcc5412822aeb1",
    "count_view": 0
  },
  {
    "link_thumb": "https://live.staticflickr.com/65535/51557079939_43929256c6_n.jpg",
    "id_album": "-89234980",
    "description": "ANIME_PIC_f765bbbea3fe1e6562aacf16f2aed65b,[GirlsCuteCool],[isGirlAnime],[isCuteAnime]",
    "title": "ANIME_PIC_f765bbbea3fe1e6562aacf16f2aed65b",
    "link_img": "https://live.staticflickr.com/65535/51557079939_2e6cbd7798_o.jpg",
    "id_image": "ANIME_PIC_f765bbbea3fe1e6562aacf16f2aed65b",
    "count_view": 0
  },
  {
    "link_thumb": "https://live.staticflickr.com/65535/51556623433_2b19d74a9e_n.jpg",
    "id_album": "-89234980",
    "description": "ANIME_PIC_f765c507c7d57df2fde217dcd624fd16,[GirlsCuteCool],[isGirlAnime],[isCuteAnime],[isGirlsLoliAnime]",
    "title": "ANIME_PIC_f765c507c7d57df2fde217dcd624fd16",
    "link_img": "https://live.staticflickr.com/65535/51556623433_8cce63754d_o.jpg",
    "id_image": "ANIME_PIC_f765c507c7d57df2fde217dcd624fd16",
    "count_view": 0
  },
  {
    "link_thumb": "https://live.staticflickr.com/65535/51557080234_005a6e3eb9_n.jpg",
    "id_album": "-89234980",
    "description": "ANIME_PIC_f768a322b6b607377dcb0fc2d3852bea,[GirlsCuteCool],[isGirlAnime],[isCuteAnime],[isGirlsLoliAnime]",
    "title": "ANIME_PIC_f768a322b6b607377dcb0fc2d3852bea",
    "link_img": "https://live.staticflickr.com/65535/51557080234_ab89d3d30f_o.jpg",
    "id_image": "ANIME_PIC_f768a322b6b607377dcb0fc2d3852bea",
    "count_view": 0
  },
  {
    "link_thumb": "https://live.staticflickr.com/65535/51556388146_07853ba6c2_n.jpg",
    "id_album": "-89234980",
    "description": "ANIME_PIC_f769f3bb5abe91d9cc4f22e81fd70f7b,[GirlsCuteCool],[isGirlAnime],[isCuteAnime],[isGirlsLoliAnime]",
    "title": "ANIME_PIC_f769f3bb5abe91d9cc4f22e81fd70f7b",
    "link_img": "https://live.staticflickr.com/65535/51556388146_d0c7c4296c_o.png",
    "id_image": "ANIME_PIC_f769f3bb5abe91d9cc4f22e81fd70f7b",
    "count_view": 0
  },
  {
    "link_thumb": "https://live.staticflickr.com/65535/51557080699_04492567e5_n.jpg",
    "id_album": "-89234980",
    "description": "ANIME_PIC_f76c553258251d36f99dc289befcf4d6,[GirlsCuteCool],[isGirlAnime],[isCuteAnime],[isSadAnimeGirl],[isSadAnime]",
    "title": "ANIME_PIC_f76c553258251d36f99dc289befcf4d6",
    "link_img": "https://live.staticflickr.com/65535/51557080699_afc6c85432_o.jpg",
    "id_image": "ANIME_PIC_f76c553258251d36f99dc289befcf4d6",
    "count_view": 0
  },
  {
    "link_thumb": "https://live.staticflickr.com/65535/51557309175_07d7030f16_n.jpg",
    "id_album": "-89234980",
    "description": "ANIME_PIC_f76cc2fc217789b1fa089e143466d24e,[GirlsCuteCool],[isGirlAnime],[isCuteAnime],[isGirlsHatsHoodieAnime]",
    "title": "ANIME_PIC_f76cc2fc217789b1fa089e143466d24e",
    "link_img": "https://live.staticflickr.com/65535/51557309175_3c9c591b26_o.png",
    "id_image": "ANIME_PIC_f76cc2fc217789b1fa089e143466d24e",
    "count_view": 0
  },
  {
    "link_thumb": "https://live.staticflickr.com/65535/51556624263_fe7415bac1_n.jpg",
    "id_album": "-89234980",
    "description": "ANIME_PIC_f77327afd0a659b80b08bd0e888dfabc,[GirlsCuteCool],[isGirlAnime],[isCuteAnime],[isGirlsLoliAnime]",
    "title": "ANIME_PIC_f77327afd0a659b80b08bd0e888dfabc",
    "link_img": "https://live.staticflickr.com/65535/51556624263_245b99f655_o.png",
    "id_image": "ANIME_PIC_f77327afd0a659b80b08bd0e888dfabc",
    "count_view": 0
  },
  {
    "link_thumb": "https://live.staticflickr.com/65535/51556624538_c2cafa2379_n.jpg",
    "id_album": "-89234980",
    "description": "ANIME_PIC_f77c72baf49f1a6ca37b37b0655036f7,[GirlsCuteCool],[isGirlAnime],[isCuteAnime],[isGirlsLoliAnime]",
    "title": "ANIME_PIC_f77c72baf49f1a6ca37b37b0655036f7",
    "link_img": "https://live.staticflickr.com/65535/51556624538_c4096abc60_o.jpg",
    "id_image": "ANIME_PIC_f77c72baf49f1a6ca37b37b0655036f7",
    "count_view": 0
  },
  {
    "link_thumb": "https://live.staticflickr.com/65535/51555597302_b5e5a63d2f_n.jpg",
    "id_album": "-89234980",
    "description": "ANIME_PIC_f780ef6e091139c0f49279e32c52f82e,[GirlsCuteCool],[isGirlAnime],[isCuteAnime],[isGirlEarsNekoAnime],[isGirlsLoliAnime],[isSadAnimeGirl],[isGirlsSharpCanineToothAnime],[isSadAnime]",
    "title": "ANIME_PIC_f780ef6e091139c0f49279e32c52f82e",
    "link_img": "https://live.staticflickr.com/65535/51555597302_bc1edc7792_o.jpg",
    "id_image": "ANIME_PIC_f780ef6e091139c0f49279e32c52f82e",
    "count_view": 0
  },
  {
    "link_thumb": "https://live.staticflickr.com/65535/51555597417_70ac992a69_n.jpg",
    "id_album": "-89234980",
    "description": "ANIME_PIC_f7824d144ef2f8cd791e1cfbbe7b5c3c,[GirlsCuteCool],[isGirlAnime],[isCuteAnime]",
    "title": "ANIME_PIC_f7824d144ef2f8cd791e1cfbbe7b5c3c",
    "link_img": "https://live.staticflickr.com/65535/51555597417_ac80ff0510_o.png",
    "id_image": "ANIME_PIC_f7824d144ef2f8cd791e1cfbbe7b5c3c",
    "count_view": 0
  },
  {
    "link_thumb": "https://live.staticflickr.com/65535/51556389716_a088e3b912_n.jpg",
    "id_album": "-89234980",
    "description": "ANIME_PIC_f782f8c7f7e261b48d7e66d4d9359b52,[GirlsCuteCool],[isGirlAnime],[isCuteAnime],[isGirlsLoliAnime]",
    "title": "ANIME_PIC_f782f8c7f7e261b48d7e66d4d9359b52",
    "link_img": "https://live.staticflickr.com/65535/51556389716_d441eb1dd3_o.jpg",
    "id_image": "ANIME_PIC_f782f8c7f7e261b48d7e66d4d9359b52",
    "count_view": 0
  },
  {
    "link_thumb": "https://live.staticflickr.com/65535/51556389861_226886a8d3_n.jpg",
    "id_album": "-89234980",
    "description": "ANIME_PIC_f78316c55111fbe8428ac8fc7543411f,[GirlsCuteCool],[isGirlAnime],[isCuteAnime],[isSadAnimeGirl],[isSadAnime]",
    "title": "ANIME_PIC_f78316c55111fbe8428ac8fc7543411f",
    "link_img": "https://live.staticflickr.com/65535/51556389861_0cce16ddda_o.png",
    "id_image": "ANIME_PIC_f78316c55111fbe8428ac8fc7543411f",
    "count_view": 0
  },
  {
    "link_thumb": "https://live.staticflickr.com/65535/51555598007_d2005fce83_n.jpg",
    "id_album": "-89234980",
    "description": "ANIME_PIC_f783d13015a5275ad7a1674a39d47e2e,[GirlsCuteCool],[isGirlAnime],[isCuteAnime]",
    "title": "ANIME_PIC_f783d13015a5275ad7a1674a39d47e2e",
    "link_img": "https://live.staticflickr.com/65535/51555598007_106aa77845_o.png",
    "id_image": "ANIME_PIC_f783d13015a5275ad7a1674a39d47e2e",
    "count_view": 0
  },
  {
    "link_thumb": "https://live.staticflickr.com/65535/51555598177_b7c14956d5_n.jpg",
    "id_album": "-89234980",
    "description": "ANIME_PIC_f7853279a044a19c889de9904a91f9e1,[GirlsCuteCool],[isGirlAnime],[isCuteAnime],[isGirlEarsNekoAnime],[isGirlsLoliAnime]",
    "title": "ANIME_PIC_f7853279a044a19c889de9904a91f9e1",
    "link_img": "https://live.staticflickr.com/65535/51555598177_531b0b109f_o.jpg",
    "id_image": "ANIME_PIC_f7853279a044a19c889de9904a91f9e1",
    "count_view": 0
  },
  {
    "link_thumb": "https://live.staticflickr.com/65535/51557082589_e22acfd205_n.jpg",
    "id_album": "-89234980",
    "description": "ANIME_PIC_f786a298f80a5174e08c133899802fc0,[GirlsCuteCool],[isGirlAnime],[isCuteAnime],[isGirlsLoliAnime]",
    "title": "ANIME_PIC_f786a298f80a5174e08c133899802fc0",
    "link_img": "https://live.staticflickr.com/65535/51557082589_6b742005f1_o.png",
    "id_image": "ANIME_PIC_f786a298f80a5174e08c133899802fc0",
    "count_view": 0
  },
  {
    "link_thumb": "https://live.staticflickr.com/65535/51556625998_6d19cdae7d_n.jpg",
    "id_album": "-89234980",
    "description": "ANIME_PIC_f78998162fa8b5224b5645a5ba51c7da,[GirlsCuteCool],[isGirlAnime],[isCuteAnime],[isGirlsHatsHoodieAnime],[isGirlsLoliAnime]",
    "title": "ANIME_PIC_f78998162fa8b5224b5645a5ba51c7da",
    "link_img": "https://live.staticflickr.com/65535/51556625998_871ecd91bc_o.png",
    "id_image": "ANIME_PIC_f78998162fa8b5224b5645a5ba51c7da",
    "count_view": 0
  },
  {
    "link_thumb": "https://live.staticflickr.com/65535/51556390886_b8d99b39e6_n.jpg",
    "id_album": "-89234980",
    "description": "ANIME_PIC_f790768c1941d83e8accd59a02c8f25f,[GirlsCuteCool],[isGirlAnime],[isCuteAnime],[isGirlsLoliAnime]",
    "title": "ANIME_PIC_f790768c1941d83e8accd59a02c8f25f",
    "link_img": "https://live.staticflickr.com/65535/51556390886_0aaea497f3_o.jpg",
    "id_image": "ANIME_PIC_f790768c1941d83e8accd59a02c8f25f",
    "count_view": 0
  },
  {
    "link_thumb": "https://live.staticflickr.com/65535/51556626428_e2512bbe21_n.jpg",
    "id_album": "-89234980",
    "description": "ANIME_PIC_f790c9e795e290f8865025f71d6740b5,[GirlsCuteCool],[isGirlAnime],[isCuteAnime]",
    "title": "ANIME_PIC_f790c9e795e290f8865025f71d6740b5",
    "link_img": "https://live.staticflickr.com/65535/51556626428_485dd04475_o.jpg",
    "id_image": "ANIME_PIC_f790c9e795e290f8865025f71d6740b5",
    "count_view": 0
  },
  {
    "link_thumb": "https://live.staticflickr.com/65535/51556626663_7de3857bea_n.jpg",
    "id_album": "-89234980",
    "description": "ANIME_PIC_f792537bcecef081f6c207555629263c,[GirlsCuteCool],[isGirlAnime],[isCuteAnime]",
    "title": "ANIME_PIC_f792537bcecef081f6c207555629263c",
    "link_img": "https://live.staticflickr.com/65535/51556626663_1f4923f11e_o.jpg",
    "id_image": "ANIME_PIC_f792537bcecef081f6c207555629263c",
    "count_view": 0
  },
  {
    "link_thumb": "https://live.staticflickr.com/65535/51556391546_2b5b070318_n.jpg",
    "id_album": "-89234980",
    "description": "ANIME_PIC_f796e9344fd5e9874bcc3421e096abef,[GirlsCuteCool],[isGirlAnime],[isCuteAnime],[isGirlEarsNekoAnime],[isGirlsHatsHoodieAnime]",
    "title": "ANIME_PIC_f796e9344fd5e9874bcc3421e096abef",
    "link_img": "https://live.staticflickr.com/65535/51556391546_5622762c30_o.jpg",
    "id_image": "ANIME_PIC_f796e9344fd5e9874bcc3421e096abef",
    "count_view": 0
  },
  {
    "link_thumb": "https://live.staticflickr.com/65535/51557083779_eb99b024a6_n.jpg",
    "id_album": "-89234980",
    "description": "ANIME_PIC_f79731821cb3ec749d55343fca89e118,[GirlsCuteCool],[isGirlAnime],[isCuteAnime],[isGirlsLoliAnime]",
    "title": "ANIME_PIC_f79731821cb3ec749d55343fca89e118",
    "link_img": "https://live.staticflickr.com/65535/51557083779_a9bc2f4ba9_o.jpg",
    "id_image": "ANIME_PIC_f79731821cb3ec749d55343fca89e118",
    "count_view": 0
  },
  {
    "link_thumb": "https://live.staticflickr.com/65535/51557312455_a14a656e9e_n.jpg",
    "id_album": "-89234980",
    "description": "ANIME_PIC_f797bda2e1dee37a2e9c16e4e53be214,[GirlsCuteCool],[isGirlAnime],[isCuteAnime],[isGirlsLoliAnime],[isSadAnimeGirl],[isSadAnime]",
    "title": "ANIME_PIC_f797bda2e1dee37a2e9c16e4e53be214",
    "link_img": "https://live.staticflickr.com/65535/51557312455_67c5cf777f_o.png",
    "id_image": "ANIME_PIC_f797bda2e1dee37a2e9c16e4e53be214",
    "count_view": 0
  },
  {
    "link_thumb": "https://live.staticflickr.com/65535/51556627628_54e72b5b0c_n.jpg",
    "id_album": "-89234980",
    "description": "ANIME_PIC_f79b424b8428778d82286df8fe08b8c4,[GirlsCuteCool],[isGirlAnime],[isCuteAnime]",
    "title": "ANIME_PIC_f79b424b8428778d82286df8fe08b8c4",
    "link_img": "https://live.staticflickr.com/65535/51556627628_7db9dbeeba_o.jpg",
    "id_image": "ANIME_PIC_f79b424b8428778d82286df8fe08b8c4",
    "count_view": 0
  },
  {
    "link_thumb": "https://live.staticflickr.com/65535/51556392406_6acd15d056_n.jpg",
    "id_album": "-89234980",
    "description": "ANIME_PIC_f79e4e58e42577efe1363f5a9431b5ae,[GirlsCuteCool],[isGirlAnime],[isCuteAnime],[isGirlEarsNekoAnime],[isGirlsLoliAnime]",
    "title": "ANIME_PIC_f79e4e58e42577efe1363f5a9431b5ae",
    "link_img": "https://live.staticflickr.com/65535/51556392406_26fa1dd111_o.jpg",
    "id_image": "ANIME_PIC_f79e4e58e42577efe1363f5a9431b5ae",
    "count_view": 0
  },
  {
    "link_thumb": "https://live.staticflickr.com/65535/51557313190_3839fd7bf7_n.jpg",
    "id_album": "-89234980",
    "description": "ANIME_PIC_f7a5c240311dea3f3f20a99b0080368c,[GirlsCuteCool],[isGirlAnime],[isCuteAnime],[isBlackAnime]",
    "title": "ANIME_PIC_f7a5c240311dea3f3f20a99b0080368c",
    "link_img": "https://live.staticflickr.com/65535/51557313190_715ef21654_o.png",
    "id_image": "ANIME_PIC_f7a5c240311dea3f3f20a99b0080368c",
    "count_view": 0
  },
  {
    "link_thumb": "https://live.staticflickr.com/65535/51556392861_727e77cf8f_n.jpg",
    "id_album": "-89234980",
    "description": "ANIME_PIC_f7a609e1268120a8502521d6083d50d4,[GirlsCuteCool],[isGirlAnime],[isCuteAnime],[isGirlsLoliAnime]",
    "title": "ANIME_PIC_f7a609e1268120a8502521d6083d50d4",
    "link_img": "https://live.staticflickr.com/65535/51556392861_2a0b596854_o.jpg",
    "id_image": "ANIME_PIC_f7a609e1268120a8502521d6083d50d4",
    "count_view": 0
  },
  {
    "link_thumb": "https://live.staticflickr.com/65535/51556628618_fa47fb567f_n.jpg",
    "id_album": "-89234980",
    "description": "ANIME_PIC_f7aa3610277c270960eec36030207e8a,[GirlsCuteCool],[isGirlAnime],[isCuteAnime],[isGirlsLoliAnime]",
    "title": "ANIME_PIC_f7aa3610277c270960eec36030207e8a",
    "link_img": "https://live.staticflickr.com/65535/51556628618_2609d3e846_o.jpg",
    "id_image": "ANIME_PIC_f7aa3610277c270960eec36030207e8a",
    "count_view": 0
  },
  {
    "link_thumb": "https://live.staticflickr.com/65535/51557313805_249ee6e52a_n.jpg",
    "id_album": "-89234980",
    "description": "ANIME_PIC_f7bc9dbaeb34716204fc1a8712b83d27,[GirlsCuteCool],[isGirlAnime],[isCuteAnime],[isSadAnimeGirl],[isSadAnime]",
    "title": "ANIME_PIC_f7bc9dbaeb34716204fc1a8712b83d27",
    "link_img": "https://live.staticflickr.com/65535/51557313805_0cc7f9d44c_o.jpg",
    "id_image": "ANIME_PIC_f7bc9dbaeb34716204fc1a8712b83d27",
    "count_view": 0
  },
  {
    "link_thumb": "https://live.staticflickr.com/65535/51555601162_5c743d7b7b_n.jpg",
    "id_album": "-89234980",
    "description": "ANIME_PIC_f7bcb9a45ba0dee3133df59baa17accf,[GirlsCuteCool],[isGirlAnime],[isCuteAnime],[isGirlEarsNekoAnime],[isGirlsLoliAnime],[isGirlsSharpCanineToothAnime]",
    "title": "ANIME_PIC_f7bcb9a45ba0dee3133df59baa17accf",
    "link_img": "https://live.staticflickr.com/65535/51555601162_27271c9336_o.png",
    "id_image": "ANIME_PIC_f7bcb9a45ba0dee3133df59baa17accf",
    "count_view": 0
  },
  {
    "link_thumb": "https://live.staticflickr.com/65535/51556629293_ea84d89de9_n.jpg",
    "id_album": "-89234980",
    "description": "ANIME_PIC_f7c27ed9f73bf3fcfb1f90bdbfbc3579,[GirlsCuteCool],[isGirlAnime],[isCuteAnime],[isGirlsHatsHoodieAnime]",
    "title": "ANIME_PIC_f7c27ed9f73bf3fcfb1f90bdbfbc3579",
    "link_img": "https://live.staticflickr.com/65535/51556629293_b24ba90ca3_o.png",
    "id_image": "ANIME_PIC_f7c27ed9f73bf3fcfb1f90bdbfbc3579",
    "count_view": 0
  },
  {
    "link_thumb": "https://live.staticflickr.com/65535/51555601762_f7b5029e58_n.jpg",
    "id_album": "-89234980",
    "description": "ANIME_PIC_f7c2b0f873e9b5ea86a2f0e9b0fdad09,[GirlsCuteCool],[isGirlAnime],[isCuteAnime]",
    "title": "ANIME_PIC_f7c2b0f873e9b5ea86a2f0e9b0fdad09",
    "link_img": "https://live.staticflickr.com/65535/51555601762_136302f113_o.jpg",
    "id_image": "ANIME_PIC_f7c2b0f873e9b5ea86a2f0e9b0fdad09",
    "count_view": 0
  },
  {
    "link_thumb": "https://live.staticflickr.com/65535/51557314750_2f83fba0b4_n.jpg",
    "id_album": "-89234980",
    "description": "ANIME_PIC_f7cc08839a24056ad180769e7d85c54b,[GirlsCuteCool],[isGirlAnime],[isCuteAnime],[isGirlsLoliAnime],[isSadAnimeGirl],[isSadAnime]",
    "title": "ANIME_PIC_f7cc08839a24056ad180769e7d85c54b",
    "link_img": "https://live.staticflickr.com/65535/51557314750_c1ae050098_o.jpg",
    "id_image": "ANIME_PIC_f7cc08839a24056ad180769e7d85c54b",
    "count_view": 0
  },
  {
    "link_thumb": "https://live.staticflickr.com/65535/51556629873_60cc9ba47e_n.jpg",
    "id_album": "-89234980",
    "description": "ANIME_PIC_f7cf6fb95f651ea1f4f050f9ca39b10a,[GirlsCuteCool],[isGirlAnime],[isCuteAnime],[isGirlsLoliAnime]",
    "title": "ANIME_PIC_f7cf6fb95f651ea1f4f050f9ca39b10a",
    "link_img": "https://live.staticflickr.com/65535/51556629873_d02292778b_o.jpg",
    "id_image": "ANIME_PIC_f7cf6fb95f651ea1f4f050f9ca39b10a",
    "count_view": 0
  },
  {
    "link_thumb": "https://live.staticflickr.com/65535/51556630083_b06ee0755d_n.jpg",
    "id_album": "-89234980",
    "description": "ANIME_PIC_f7d39a98f2fa02f948ad809484198615,[GirlsCuteCool],[isGirlAnime],[isCuteAnime],[isGirlEarsNekoAnime]",
    "title": "ANIME_PIC_f7d39a98f2fa02f948ad809484198615",
    "link_img": "https://live.staticflickr.com/65535/51556630083_3b88514d10_o.jpg",
    "id_image": "ANIME_PIC_f7d39a98f2fa02f948ad809484198615",
    "count_view": 0
  },
  {
    "link_thumb": "https://live.staticflickr.com/65535/51557086809_63400a50e2_n.jpg",
    "id_album": "-89234980",
    "description": "ANIME_PIC_f7d41706123b6d056dcd02c083171419,[GirlsCuteCool],[isGirlAnime],[isCuteAnime],[isGirlsLoliAnime]",
    "title": "ANIME_PIC_f7d41706123b6d056dcd02c083171419",
    "link_img": "https://live.staticflickr.com/65535/51557086809_d2c33021a2_o.jpg",
    "id_image": "ANIME_PIC_f7d41706123b6d056dcd02c083171419",
    "count_view": 0
  },
  {
    "link_thumb": "https://live.staticflickr.com/65535/51557315400_8ecc1bb767_n.jpg",
    "id_album": "-89234980",
    "description": "ANIME_PIC_f7d4c03ad6a758a12b62db34c5dc8ee3,[GirlsCuteCool],[isGirlAnime],[isCuteAnime],[isGirlsLoliAnime]",
    "title": "ANIME_PIC_f7d4c03ad6a758a12b62db34c5dc8ee3",
    "link_img": "https://live.staticflickr.com/65535/51557315400_ab39b84b44_o.png",
    "id_image": "ANIME_PIC_f7d4c03ad6a758a12b62db34c5dc8ee3",
    "count_view": 0
  },
  {
    "link_thumb": "https://live.staticflickr.com/65535/51556395306_07d0b7a44b_n.jpg",
    "id_album": "-89234980",
    "description": "ANIME_PIC_f7dc66fc09cdae2d9ecbe9809eaa3d29,[GirlsCuteCool],[isGirlAnime],[isCuteAnime]",
    "title": "ANIME_PIC_f7dc66fc09cdae2d9ecbe9809eaa3d29",
    "link_img": "https://live.staticflickr.com/65535/51556395306_facb4f7779_o.jpg",
    "id_image": "ANIME_PIC_f7dc66fc09cdae2d9ecbe9809eaa3d29",
    "count_view": 0
  },
  {
    "link_thumb": "https://live.staticflickr.com/65535/51556630813_f49cb78ef6_n.jpg",
    "id_album": "-89234980",
    "description": "ANIME_PIC_f7e0626fe68383bd40be3103ce45917d,[GirlsCuteCool],[isGirlAnime],[isCuteAnime],[isGirlsLoliAnime]",
    "title": "ANIME_PIC_f7e0626fe68383bd40be3103ce45917d",
    "link_img": "https://live.staticflickr.com/65535/51556630813_c5ae54d913_o.jpg",
    "id_image": "ANIME_PIC_f7e0626fe68383bd40be3103ce45917d",
    "count_view": 0
  },
  {
    "link_thumb": "https://live.staticflickr.com/65535/51556395606_27ee4fe1e5_n.jpg",
    "id_album": "-89234980",
    "description": "ANIME_PIC_f7e31fbe50c7df7b5a4660bbf788b19d,[GirlsCuteCool],[isGirlAnime],[isCuteAnime],[isGirlEarsNekoAnime],[isGirlsHatsHoodieAnime]",
    "title": "ANIME_PIC_f7e31fbe50c7df7b5a4660bbf788b19d",
    "link_img": "https://live.staticflickr.com/65535/51556395606_f22b5fe793_o.png",
    "id_image": "ANIME_PIC_f7e31fbe50c7df7b5a4660bbf788b19d",
    "count_view": 0
  },
  {
    "link_thumb": "https://live.staticflickr.com/65535/51557087764_820119a79e_n.jpg",
    "id_album": "-89234980",
    "description": "ANIME_PIC_f7e4c4d577cf059ebc2d5916ca142151,[GirlsCuteCool],[isGirlAnime],[isCuteAnime],[isGirlsLoliAnime]",
    "title": "ANIME_PIC_f7e4c4d577cf059ebc2d5916ca142151",
    "link_img": "https://live.staticflickr.com/65535/51557087764_68c28021f9_o.png",
    "id_image": "ANIME_PIC_f7e4c4d577cf059ebc2d5916ca142151",
    "count_view": 0
  },
  {
    "link_thumb": "https://live.staticflickr.com/65535/50151547851_66b836f323_n.jpg",
    "id_album": "-89234980",
    "description": "ANIME_PIC_f7e6bbc7948aecddd9e0f9d78f5c248f,[isGirlAnime],[isCuteAnime],[Girls Cute Cool],[GirlsCuteCool],[isGirlsHatsHoodieAnime]",
    "title": "ANIME_PIC_f7e6bbc7948aecddd9e0f9d78f5c248f",
    "link_img": "https://live.staticflickr.com/65535/50151547851_28aaa8a5d2_o.jpg",
    "id_image": "ANIME_PIC_f7e6bbc7948aecddd9e0f9d78f5c248f",
    "count_view": 0
  },
  {
    "link_thumb": "https://live.staticflickr.com/65535/51557087999_390776c9b6_n.jpg",
    "id_album": "-89234980",
    "description": "ANIME_PIC_f7e7f54260ce49af3f1fdb6f7af1df0a,[GirlsCuteCool],[isGirlAnime],[isCuteAnime],[isGirlsHatsHoodieAnime],[isGirlsLoliAnime]",
    "title": "ANIME_PIC_f7e7f54260ce49af3f1fdb6f7af1df0a",
    "link_img": "https://live.staticflickr.com/65535/51557087999_b1ef2cfdca_o.png",
    "id_image": "ANIME_PIC_f7e7f54260ce49af3f1fdb6f7af1df0a",
    "count_view": 0
  },
  {
    "link_thumb": "https://live.staticflickr.com/65535/51555603927_a329821185_n.jpg",
    "id_album": "-89234980",
    "description": "ANIME_PIC_f7edc4e385130b7028966e49028acc48,[GirlsCuteCool],[isGirlAnime],[isCuteAnime],[isGirlsHatsHoodieAnime],[isGirlsLoliAnime]",
    "title": "ANIME_PIC_f7edc4e385130b7028966e49028acc48",
    "link_img": "https://live.staticflickr.com/65535/51555603927_0b479557ab_o.jpg",
    "id_image": "ANIME_PIC_f7edc4e385130b7028966e49028acc48",
    "count_view": 0
  },
  {
    "link_thumb": "https://live.staticflickr.com/65535/51555604082_5ec8fea3c0_n.jpg",
    "id_album": "-89234980",
    "description": "ANIME_PIC_f7ef944dd2a0dbd0d4a8d3a446234ba2,[GirlsCuteCool],[isGirlAnime],[isCuteAnime],[isGirlsHatsHoodieAnime],[isGirlsLoliAnime]",
    "title": "ANIME_PIC_f7ef944dd2a0dbd0d4a8d3a446234ba2",
    "link_img": "https://live.staticflickr.com/65535/51555604082_d6d51d8087_o.jpg",
    "id_image": "ANIME_PIC_f7ef944dd2a0dbd0d4a8d3a446234ba2",
    "count_view": 0
  },
  {
    "link_thumb": "https://live.staticflickr.com/65535/51556396786_e9f2b6ef37_n.jpg",
    "id_album": "-89234980",
    "description": "ANIME_PIC_f7f2ffd393861a15fafaf7eb4f260d59,[GirlsCuteCool],[isGirlAnime],[isCuteAnime]",
    "title": "ANIME_PIC_f7f2ffd393861a15fafaf7eb4f260d59",
    "link_img": "https://live.staticflickr.com/65535/51556396786_4673603a84_o.jpg",
    "id_image": "ANIME_PIC_f7f2ffd393861a15fafaf7eb4f260d59",
    "count_view": 0
  },
  {
    "link_thumb": "https://live.staticflickr.com/65535/51556632208_b70fee4c87_n.jpg",
    "id_album": "-89234980",
    "description": "ANIME_PIC_f7f51b5ad4ab3a99df951cd9bc3c0919,[GirlsCuteCool],[isGirlAnime],[isCuteAnime],[isGirlsLoliAnime]",
    "title": "ANIME_PIC_f7f51b5ad4ab3a99df951cd9bc3c0919",
    "link_img": "https://live.staticflickr.com/65535/51556632208_c36595906e_o.jpg",
    "id_image": "ANIME_PIC_f7f51b5ad4ab3a99df951cd9bc3c0919",
    "count_view": 0
  },
  {
    "link_thumb": "https://live.staticflickr.com/65535/51556397186_d2ecf54096_n.jpg",
    "id_album": "-89234980",
    "description": "ANIME_PIC_f7f89611aa5bb465c89c41f4093fdf32,[GirlsCuteCool],[isGirlAnime],[isCuteAnime],[isGirlsLoliAnime],[isSadAnimeGirl],[isSadAnime]",
    "title": "ANIME_PIC_f7f89611aa5bb465c89c41f4093fdf32",
    "link_img": "https://live.staticflickr.com/65535/51556397186_8c16f5ede6_o.png",
    "id_image": "ANIME_PIC_f7f89611aa5bb465c89c41f4093fdf32",
    "count_view": 0
  },
  {
    "link_thumb": "https://live.staticflickr.com/65535/51557089359_3e2612009b_n.jpg",
    "id_album": "-89234980",
    "description": "ANIME_PIC_f7f8bffb2442ede0a5e0fce05aa4512d,[GirlsCuteCool],[isGirlAnime],[isCuteAnime],[isGirlsHatsHoodieAnime]",
    "title": "ANIME_PIC_f7f8bffb2442ede0a5e0fce05aa4512d",
    "link_img": "https://live.staticflickr.com/65535/51557089359_41cefd9037_o.jpg",
    "id_image": "ANIME_PIC_f7f8bffb2442ede0a5e0fce05aa4512d",
    "count_view": 0
  },
  {
    "link_thumb": "https://live.staticflickr.com/65535/51556632953_b2b77b866e_n.jpg",
    "id_album": "-89234980",
    "description": "ANIME_PIC_f7fafb7d18451bda5f5b5d99a167f0ab,[GirlsCuteCool],[isGirlAnime],[isCuteAnime],[isGirlsLoliAnime]",
    "title": "ANIME_PIC_f7fafb7d18451bda5f5b5d99a167f0ab",
    "link_img": "https://live.staticflickr.com/65535/51556632953_b9610e2d94_o.jpg",
    "id_image": "ANIME_PIC_f7fafb7d18451bda5f5b5d99a167f0ab",
    "count_view": 0
  },
  {
    "link_thumb": "https://live.staticflickr.com/65535/51556633153_f774867003_n.jpg",
    "id_album": "-89234980",
    "description": "ANIME_PIC_f7fb9571bdb4a4c3906418802d8d9553,[GirlsCuteCool],[isGirlAnime],[isCuteAnime],[isGirlsLoliAnime],[isSadAnimeGirl],[isSadAnime]",
    "title": "ANIME_PIC_f7fb9571bdb4a4c3906418802d8d9553",
    "link_img": "https://live.staticflickr.com/65535/51556633153_8dbb296538_o.jpg",
    "id_image": "ANIME_PIC_f7fb9571bdb4a4c3906418802d8d9553",
    "count_view": 0
  },
  {
    "link_thumb": "https://live.staticflickr.com/65535/51556398031_e4ebf0ecec_n.jpg",
    "id_album": "-89234980",
    "description": "ANIME_PIC_f7fbe2ebe09613d5e1ba5d2795313df4,[GirlsCuteCool],[isGirlAnime],[isCuteAnime]",
    "title": "ANIME_PIC_f7fbe2ebe09613d5e1ba5d2795313df4",
    "link_img": "https://live.staticflickr.com/65535/51556398031_e4c7f1a60d_o.jpg",
    "id_image": "ANIME_PIC_f7fbe2ebe09613d5e1ba5d2795313df4",
    "count_view": 0
  },
  {
    "link_thumb": "https://live.staticflickr.com/65535/51556633498_e96c77b0fd_n.jpg",
    "id_album": "-89234980",
    "description": "ANIME_PIC_f7ff137a90d1110dc3e4740255b923f9,[GirlsCuteCool],[isGirlAnime],[isCuteAnime],[isGirlsLoliAnime]",
    "title": "ANIME_PIC_f7ff137a90d1110dc3e4740255b923f9",
    "link_img": "https://live.staticflickr.com/65535/51556633498_afd1cdeb84_o.jpg",
    "id_image": "ANIME_PIC_f7ff137a90d1110dc3e4740255b923f9",
    "count_view": 0
  },
  {
    "link_thumb": "https://live.staticflickr.com/65535/51555605842_bd8cc47c89_n.jpg",
    "id_album": "-89234980",
    "description": "ANIME_PIC_f7ff68f98118272bab15f2a1d4437433,[GirlsCuteCool],[isGirlAnime],[isCuteAnime],[isGirlsHatsHoodieAnime],[isGirlsLoliAnime]",
    "title": "ANIME_PIC_f7ff68f98118272bab15f2a1d4437433",
    "link_img": "https://live.staticflickr.com/65535/51555605842_3d2f4f4816_o.jpg",
    "id_image": "ANIME_PIC_f7ff68f98118272bab15f2a1d4437433",
    "count_view": 0
  },
  {
    "link_thumb": "https://live.staticflickr.com/65535/51557090359_e32f4b0395_n.jpg",
    "id_album": "-89234980",
    "description": "ANIME_PIC_f803b4c9bc7003e56a74a5c7439f3597,[GirlsCuteCool],[isGirlAnime],[isCuteAnime],[isGirlsLoliAnime],[isSadAnimeGirl],[isSadAnime]",
    "title": "ANIME_PIC_f803b4c9bc7003e56a74a5c7439f3597",
    "link_img": "https://live.staticflickr.com/65535/51557090359_f906099dee_o.jpg",
    "id_image": "ANIME_PIC_f803b4c9bc7003e56a74a5c7439f3597",
    "count_view": 0
  },
  {
    "link_thumb": "https://live.staticflickr.com/65535/51556398781_49d41c8021_n.jpg",
    "id_album": "-89234980",
    "description": "ANIME_PIC_f803d292e4545037d21edb1548d83c29,[GirlsCuteCool],[isGirlAnime],[isCuteAnime]",
    "title": "ANIME_PIC_f803d292e4545037d21edb1548d83c29",
    "link_img": "https://live.staticflickr.com/65535/51556398781_4343fc286f_o.jpg",
    "id_image": "ANIME_PIC_f803d292e4545037d21edb1548d83c29",
    "count_view": 0
  },
  {
    "link_thumb": "https://live.staticflickr.com/65535/51556398886_d9b4ccd089_n.jpg",
    "id_album": "-89234980",
    "description": "ANIME_PIC_f8048c442b96dde3ce7c7bf2062609ba,[GirlsCuteCool],[isGirlAnime],[isCuteAnime],[isGirlsLoliAnime],[isSadAnimeGirl],[isSadAnime]",
    "title": "ANIME_PIC_f8048c442b96dde3ce7c7bf2062609ba",
    "link_img": "https://live.staticflickr.com/65535/51556398886_d8a9e6c317_o.jpg",
    "id_image": "ANIME_PIC_f8048c442b96dde3ce7c7bf2062609ba",
    "count_view": 0
  },
  {
    "link_thumb": "https://live.staticflickr.com/65535/51556399086_9d3dc04191_n.jpg",
    "id_album": "-89234980",
    "description": "ANIME_PIC_f80c94d7807bb2ee3ce53b8bf5ddb667,[GirlsCuteCool],[isGirlAnime],[isCuteAnime],[isGirlsLoliAnime]",
    "title": "ANIME_PIC_f80c94d7807bb2ee3ce53b8bf5ddb667",
    "link_img": "https://live.staticflickr.com/65535/51556399086_a12587e9fd_o.png",
    "id_image": "ANIME_PIC_f80c94d7807bb2ee3ce53b8bf5ddb667",
    "count_view": 0
  },
  {
    "link_thumb": "https://live.staticflickr.com/65535/51555606842_45141a54bf_n.jpg",
    "id_album": "-89234980",
    "description": "ANIME_PIC_f811e2403d6d114dbba411256ae4a824,[GirlsCuteCool],[isGirlAnime],[isCuteAnime]",
    "title": "ANIME_PIC_f811e2403d6d114dbba411256ae4a824",
    "link_img": "https://live.staticflickr.com/65535/51555606842_0f1d6af5cc_o.jpg",
    "id_image": "ANIME_PIC_f811e2403d6d114dbba411256ae4a824",
    "count_view": 0
  },
  {
    "link_thumb": "https://live.staticflickr.com/65535/51556634878_c8d85dcc29_n.jpg",
    "id_album": "-89234980",
    "description": "ANIME_PIC_f8124ad4836414a8879d74e4d1ee2729,[GirlsCuteCool],[isGirlAnime],[isCuteAnime],[isGirlsLoliAnime]",
    "title": "ANIME_PIC_f8124ad4836414a8879d74e4d1ee2729",
    "link_img": "https://live.staticflickr.com/65535/51556634878_2de9d7106e_o.jpg",
    "id_image": "ANIME_PIC_f8124ad4836414a8879d74e4d1ee2729",
    "count_view": 0
  },
  {
    "link_thumb": "https://live.staticflickr.com/65535/51556635033_853bbfdc70_n.jpg",
    "id_album": "-89234980",
    "description": "ANIME_PIC_f814255d36deab8809d4c7f885eb0afe,[GirlsCuteCool],[isGirlAnime],[isCuteAnime],[isGirlsHatsHoodieAnime]",
    "title": "ANIME_PIC_f814255d36deab8809d4c7f885eb0afe",
    "link_img": "https://live.staticflickr.com/65535/51556635033_ba333288bc_o.jpg",
    "id_image": "ANIME_PIC_f814255d36deab8809d4c7f885eb0afe",
    "count_view": 0
  },
  {
    "link_thumb": "https://live.staticflickr.com/65535/51557091644_a777732e93_n.jpg",
    "id_album": "-89234980",
    "description": "ANIME_PIC_f819205c7430e6845a97ea252de31ac6,[GirlsCuteCool],[isGirlAnime],[isCuteAnime]",
    "title": "ANIME_PIC_f819205c7430e6845a97ea252de31ac6",
    "link_img": "https://live.staticflickr.com/65535/51557091644_451e7842a1_o.jpg",
    "id_image": "ANIME_PIC_f819205c7430e6845a97ea252de31ac6",
    "count_view": 0
  },
  {
    "link_thumb": "https://live.staticflickr.com/65535/51557091869_8dd8b3145e_n.jpg",
    "id_album": "-89234980",
    "description": "ANIME_PIC_f81c886a37088ed2c90df15debed0fdc,[GirlsCuteCool],[isGirlAnime],[isCuteAnime]",
    "title": "ANIME_PIC_f81c886a37088ed2c90df15debed0fdc",
    "link_img": "https://live.staticflickr.com/65535/51557091869_e28bd0d6f7_o.jpg",
    "id_image": "ANIME_PIC_f81c886a37088ed2c90df15debed0fdc",
    "count_view": 0
  },
  {
    "link_thumb": "https://live.staticflickr.com/65535/51556635673_01d589b47f_n.jpg",
    "id_album": "-89234980",
    "description": "ANIME_PIC_f81e0ed6eb2909540bdfac11d5129440,[GirlsCuteCool],[isGirlAnime],[isCuteAnime],[isGirlsLoliAnime]",
    "title": "ANIME_PIC_f81e0ed6eb2909540bdfac11d5129440",
    "link_img": "https://live.staticflickr.com/65535/51556635673_e22efb3f4e_o.jpg",
    "id_image": "ANIME_PIC_f81e0ed6eb2909540bdfac11d5129440",
    "count_view": 0
  },
  {
    "link_thumb": "https://live.staticflickr.com/65535/51555608112_2c69e9a2f6_n.jpg",
    "id_album": "-89234980",
    "description": "ANIME_PIC_f81eff8f9391328df271428b1773c7ba,[GirlsCuteCool],[isGirlAnime],[isCuteAnime],[isGirlsHatsHoodieAnime],[isGirlsLoliAnime]",
    "title": "ANIME_PIC_f81eff8f9391328df271428b1773c7ba",
    "link_img": "https://live.staticflickr.com/65535/51555608112_a33f12465d_o.jpg",
    "id_image": "ANIME_PIC_f81eff8f9391328df271428b1773c7ba",
    "count_view": 0
  },
  {
    "link_thumb": "https://live.staticflickr.com/65535/51555608302_a87fdef76d_n.jpg",
    "id_album": "-89234980",
    "description": "ANIME_PIC_f82352bd3f27518a6e021b20c34a60ec,[GirlsCuteCool],[isGirlAnime],[isCuteAnime]",
    "title": "ANIME_PIC_f82352bd3f27518a6e021b20c34a60ec",
    "link_img": "https://live.staticflickr.com/65535/51555608302_544e72d7c9_o.jpg",
    "id_image": "ANIME_PIC_f82352bd3f27518a6e021b20c34a60ec",
    "count_view": 0
  },
  {
    "link_thumb": "https://live.staticflickr.com/65535/51556636163_3ba58e8087_n.jpg",
    "id_album": "-89234980",
    "description": "ANIME_PIC_f824c2533ee9f289306f44368b87d538,[GirlsCuteCool],[isGirlAnime],[isCuteAnime],[isGirlFaceMasksAnime]",
    "title": "ANIME_PIC_f824c2533ee9f289306f44368b87d538",
    "link_img": "https://live.staticflickr.com/65535/51556636163_26ff18f632_o.png",
    "id_image": "ANIME_PIC_f824c2533ee9f289306f44368b87d538",
    "count_view": 0
  },
  {
    "link_thumb": "https://live.staticflickr.com/65535/51555608977_a46b8e1f79_n.jpg",
    "id_album": "-89234980",
    "description": "ANIME_PIC_f8295236b69968933ccb9f0d1303652e,[GirlsCuteCool],[isGirlAnime],[isCuteAnime],[isGirlsLoliAnime]",
    "title": "ANIME_PIC_f8295236b69968933ccb9f0d1303652e",
    "link_img": "https://live.staticflickr.com/65535/51555608977_4d39104ff6_o.jpg",
    "id_image": "ANIME_PIC_f8295236b69968933ccb9f0d1303652e",
    "count_view": 0
  },
  {
    "link_thumb": "https://live.staticflickr.com/65535/51557093374_4960a9e3bb_n.jpg",
    "id_album": "-89234980",
    "description": "ANIME_PIC_f82e7860e221e523abc6e8987dbed8f0,[GirlsCuteCool],[isGirlAnime],[isCuteAnime],[isGirlsLoliAnime]",
    "title": "ANIME_PIC_f82e7860e221e523abc6e8987dbed8f0",
    "link_img": "https://live.staticflickr.com/65535/51557093374_a6746eacb2_o.png",
    "id_image": "ANIME_PIC_f82e7860e221e523abc6e8987dbed8f0",
    "count_view": 0
  },
  {
    "link_thumb": "https://live.staticflickr.com/65535/51557093639_9bf4682702_n.jpg",
    "id_album": "-89234980",
    "description": "ANIME_PIC_f82f6ae98e03415d4a5e5ffca99eb9e7,[GirlsCuteCool],[isGirlAnime],[isCuteAnime],[isGirlsHatsHoodieAnime],[isGirlsLoliAnime],[isSadAnimeGirl],[isSadAnime]",
    "title": "ANIME_PIC_f82f6ae98e03415d4a5e5ffca99eb9e7",
    "link_img": "https://live.staticflickr.com/65535/51557093639_01c865299c_o.jpg",
    "id_image": "ANIME_PIC_f82f6ae98e03415d4a5e5ffca99eb9e7",
    "count_view": 0
  },
  {
    "link_thumb": "https://live.staticflickr.com/65535/51557322370_a53d7e271c_n.jpg",
    "id_album": "-89234980",
    "description": "ANIME_PIC_f831b5687827a46fe70f0e58595a5f42,[GirlsCuteCool],[isGirlAnime],[isCuteAnime],[isGirlEarsNekoAnime]",
    "title": "ANIME_PIC_f831b5687827a46fe70f0e58595a5f42",
    "link_img": "https://live.staticflickr.com/65535/51557322370_9347e404f6_o.jpg",
    "id_image": "ANIME_PIC_f831b5687827a46fe70f0e58595a5f42",
    "count_view": 0
  },
  {
    "link_thumb": "https://live.staticflickr.com/65535/51556402436_f8be302b6a_n.jpg",
    "id_album": "-89234980",
    "description": "ANIME_PIC_f83636058e1ef7ac24e05f7e4525835b,[GirlsCuteCool],[isGirlAnime],[isCuteAnime],[isGirlFaceMasksAnime],[isGirlsLoliAnime]",
    "title": "ANIME_PIC_f83636058e1ef7ac24e05f7e4525835b",
    "link_img": "https://live.staticflickr.com/65535/51556402436_78bb42bcf2_o.jpg",
    "id_image": "ANIME_PIC_f83636058e1ef7ac24e05f7e4525835b",
    "count_view": 0
  },
  {
    "link_thumb": "https://live.staticflickr.com/65535/51555610012_7a7a4990f3_n.jpg",
    "id_album": "-89234980",
    "description": "ANIME_PIC_f838fce37086f9890b864fd7c8054929,[GirlsCuteCool],[isGirlAnime],[isCuteAnime],[isSadAnimeGirl],[isSadAnime]",
    "title": "ANIME_PIC_f838fce37086f9890b864fd7c8054929",
    "link_img": "https://live.staticflickr.com/65535/51555610012_5798b5dd3a_o.png",
    "id_image": "ANIME_PIC_f838fce37086f9890b864fd7c8054929",
    "count_view": 0
  },
  {
    "link_thumb": "https://live.staticflickr.com/65535/51557094484_429cb92450_n.jpg",
    "id_album": "-89234980",
    "description": "ANIME_PIC_f83e047e7285feea944dfa58b2485192,[GirlsCuteCool],[isGirlAnime],[isCuteAnime],[isGirlsLoliAnime]",
    "title": "ANIME_PIC_f83e047e7285feea944dfa58b2485192",
    "link_img": "https://live.staticflickr.com/65535/51557094484_f3d996ec64_o.jpg",
    "id_image": "ANIME_PIC_f83e047e7285feea944dfa58b2485192",
    "count_view": 0
  },
  {
    "link_thumb": "https://live.staticflickr.com/65535/51556638043_774acfd23a_n.jpg",
    "id_album": "-89234980",
    "description": "ANIME_PIC_f83f390b30d14f2b7a8bb567a78fa9a1,[GirlsCuteCool],[isGirlAnime],[isCuteAnime],[isGirlsLoliAnime]",
    "title": "ANIME_PIC_f83f390b30d14f2b7a8bb567a78fa9a1",
    "link_img": "https://live.staticflickr.com/65535/51556638043_582dcb0b64_o.jpg",
    "id_image": "ANIME_PIC_f83f390b30d14f2b7a8bb567a78fa9a1",
    "count_view": 0
  },
  {
    "link_thumb": "https://live.staticflickr.com/65535/51557323435_4aa05ecab5_n.jpg",
    "id_album": "-89234980",
    "description": "ANIME_PIC_f840870de6478dadc325d8ebad1e0334,[GirlsCuteCool],[isGirlAnime],[isCuteAnime],[isGirlsHatsHoodieAnime],[isGirlsLoliAnime]",
    "title": "ANIME_PIC_f840870de6478dadc325d8ebad1e0334",
    "link_img": "https://live.staticflickr.com/65535/51557323435_4bbbc24844_o.png",
    "id_image": "ANIME_PIC_f840870de6478dadc325d8ebad1e0334",
    "count_view": 0
  },
  {
    "link_thumb": "https://live.staticflickr.com/65535/51555611052_92350344bc_n.jpg",
    "id_album": "-89234980",
    "description": "ANIME_PIC_f844d13bfc2367cc7a90bafec1a96940,[GirlsCuteCool],[isGirlAnime],[isCuteAnime],[isGirlsLoliAnime]",
    "title": "ANIME_PIC_f844d13bfc2367cc7a90bafec1a96940",
    "link_img": "https://live.staticflickr.com/65535/51555611052_500c889410_o.jpg",
    "id_image": "ANIME_PIC_f844d13bfc2367cc7a90bafec1a96940",
    "count_view": 0
  },
  {
    "link_thumb": "https://live.staticflickr.com/65535/51557323960_85008197ac_n.jpg",
    "id_album": "-89234980",
    "description": "ANIME_PIC_f8451161c023f90aad5a15d9f86edc58,[GirlsCuteCool],[isGirlAnime],[isCuteAnime],[isGirlsLoliAnime]",
    "title": "ANIME_PIC_f8451161c023f90aad5a15d9f86edc58",
    "link_img": "https://live.staticflickr.com/65535/51557323960_83d013db10_o.jpg",
    "id_image": "ANIME_PIC_f8451161c023f90aad5a15d9f86edc58",
    "count_view": 0
  },
  {
    "link_thumb": "https://live.staticflickr.com/65535/51556638848_d1191bb7c3_n.jpg",
    "id_album": "-89234980",
    "description": "ANIME_PIC_f84df6b47a48737301af5b4ea5d922fb,[GirlsCuteCool],[isGirlAnime],[isCuteAnime],[isGirlsLoliAnime],[isSadAnimeGirl],[isSadAnime]",
    "title": "ANIME_PIC_f84df6b47a48737301af5b4ea5d922fb",
    "link_img": "https://live.staticflickr.com/65535/51556638848_4a352fa440_o.jpg",
    "id_image": "ANIME_PIC_f84df6b47a48737301af5b4ea5d922fb",
    "count_view": 0
  },
  {
    "link_thumb": "https://live.staticflickr.com/65535/51556404041_ac1c65ac3d_n.jpg",
    "id_album": "-89234980",
    "description": "ANIME_PIC_f8506865aab1ec69130f2e603c9b113d,[GirlsCuteCool],[isGirlAnime],[isCuteAnime],[isGirlsLoliAnime],[isSadAnimeGirl],[isSadAnime]",
    "title": "ANIME_PIC_f8506865aab1ec69130f2e603c9b113d",
    "link_img": "https://live.staticflickr.com/65535/51556404041_89db67e614_o.png",
    "id_image": "ANIME_PIC_f8506865aab1ec69130f2e603c9b113d",
    "count_view": 0
  },
  {
    "link_thumb": "https://live.staticflickr.com/65535/51557095954_0007f46b22_n.jpg",
    "id_album": "-89234980",
    "description": "ANIME_PIC_f85232d5dab17d69e337a060e2d8956a,[GirlsCuteCool],[isGirlAnime],[isCuteAnime],[isGirlEarsNekoAnime]",
    "title": "ANIME_PIC_f85232d5dab17d69e337a060e2d8956a",
    "link_img": "https://live.staticflickr.com/65535/51557095954_d134b8a9b8_o.png",
    "id_image": "ANIME_PIC_f85232d5dab17d69e337a060e2d8956a",
    "count_view": 0
  },
  {
    "link_thumb": "https://live.staticflickr.com/65535/51557324915_b874e1df82_n.jpg",
    "id_album": "-89234980",
    "description": "ANIME_PIC_f85342a5ab331b3311e9e7b3b9337250,[GirlsCuteCool],[isGirlAnime],[isCuteAnime]",
    "title": "ANIME_PIC_f85342a5ab331b3311e9e7b3b9337250",
    "link_img": "https://live.staticflickr.com/65535/51557324915_ce2179aea6_o.png",
    "id_image": "ANIME_PIC_f85342a5ab331b3311e9e7b3b9337250",
    "count_view": 0
  },
  {
    "link_thumb": "https://live.staticflickr.com/65535/51557325230_203baa338a_n.jpg",
    "id_album": "-89234980",
    "description": "ANIME_PIC_f855ff3b01934fe074896ba6693af397,[GirlsCuteCool],[isGirlAnime],[isCuteAnime],[isGirlEarsNekoAnime],[isGirlsLoliAnime]",
    "title": "ANIME_PIC_f855ff3b01934fe074896ba6693af397",
    "link_img": "https://live.staticflickr.com/65535/51557325230_9c298c0f9f_o.jpg",
    "id_image": "ANIME_PIC_f855ff3b01934fe074896ba6693af397",
    "count_view": 0
  },
  {
    "link_thumb": "https://live.staticflickr.com/65535/51555612757_88269890d3_n.jpg",
    "id_album": "-89234980",
    "description": "ANIME_PIC_f8587bdfb4712ee25518517ba940c9ff,[GirlsCuteCool],[isGirlAnime],[isCuteAnime],[isGirlsLoliAnime]",
    "title": "ANIME_PIC_f8587bdfb4712ee25518517ba940c9ff",
    "link_img": "https://live.staticflickr.com/65535/51555612757_35a28146c1_o.jpg",
    "id_image": "ANIME_PIC_f8587bdfb4712ee25518517ba940c9ff",
    "count_view": 0
  },
  {
    "link_thumb": "https://live.staticflickr.com/65535/51557325685_0b2a1b732d_n.jpg",
    "id_album": "-89234980",
    "description": "ANIME_PIC_f858d1cdef0548e491268b0f57016510,[GirlsCuteCool],[isGirlAnime],[isCuteAnime]",
    "title": "ANIME_PIC_f858d1cdef0548e491268b0f57016510",
    "link_img": "https://live.staticflickr.com/65535/51557325685_bc162f8d44_o.png",
    "id_image": "ANIME_PIC_f858d1cdef0548e491268b0f57016510",
    "count_view": 0
  },
  {
    "link_thumb": "https://live.staticflickr.com/65535/51556640643_1977b92ded_n.jpg",
    "id_album": "-89234980",
    "description": "ANIME_PIC_f85bf821d6249ee524839ecc2d129343,[GirlsCuteCool],[isGirlAnime],[isCuteAnime],[isGirlsLoliAnime]",
    "title": "ANIME_PIC_f85bf821d6249ee524839ecc2d129343",
    "link_img": "https://live.staticflickr.com/65535/51556640643_4339dfc75b_o.jpg",
    "id_image": "ANIME_PIC_f85bf821d6249ee524839ecc2d129343",
    "count_view": 0
  },
  {
    "link_thumb": "https://live.staticflickr.com/65535/51556640873_ee207c29e4_n.jpg",
    "id_album": "-89234980",
    "description": "ANIME_PIC_f85d967705772816e651b75d27923389,[GirlsCuteCool],[isGirlAnime],[isCuteAnime],[isGirlsLoliAnime]",
    "title": "ANIME_PIC_f85d967705772816e651b75d27923389",
    "link_img": "https://live.staticflickr.com/65535/51556640873_e7373764f0_o.jpg",
    "id_image": "ANIME_PIC_f85d967705772816e651b75d27923389",
    "count_view": 0
  },
  {
    "link_thumb": "https://live.staticflickr.com/65535/51555613647_c4c3505817_n.jpg",
    "id_album": "-89234980",
    "description": "ANIME_PIC_f85ff78408c41c8390da8569c4e26b11,[GirlsCuteCool],[isGirlAnime],[isCuteAnime],[isGirlsHatsHoodieAnime],[isGirlsLoliAnime]",
    "title": "ANIME_PIC_f85ff78408c41c8390da8569c4e26b11",
    "link_img": "https://live.staticflickr.com/65535/51555613647_a7739b6cdb_o.jpg",
    "id_image": "ANIME_PIC_f85ff78408c41c8390da8569c4e26b11",
    "count_view": 0
  },
  {
    "link_thumb": "https://live.staticflickr.com/65535/51557326725_b550a2810c_n.jpg",
    "id_album": "-89234980",
    "description": "ANIME_PIC_f861f00edcbf09117af1f717cb6045b8,[GirlsCuteCool],[isGirlAnime],[isCuteAnime],[isGirlFaceMasksAnime],[isGirlsHatsHoodieAnime],[isGirlsLoliAnime]",
    "title": "ANIME_PIC_f861f00edcbf09117af1f717cb6045b8",
    "link_img": "https://live.staticflickr.com/65535/51557326725_9ebdf6c20c_o.png",
    "id_image": "ANIME_PIC_f861f00edcbf09117af1f717cb6045b8",
    "count_view": 0
  },
  {
    "link_thumb": "https://live.staticflickr.com/65535/51556406881_8e0763e747_n.jpg",
    "id_album": "-89234980",
    "description": "ANIME_PIC_f86427bd3f2270ddaecbb9aa2bddfce9,[GirlsCuteCool],[isGirlAnime],[isCuteAnime]",
    "title": "ANIME_PIC_f86427bd3f2270ddaecbb9aa2bddfce9",
    "link_img": "https://live.staticflickr.com/65535/51556406881_69ced4be17_o.jpg",
    "id_image": "ANIME_PIC_f86427bd3f2270ddaecbb9aa2bddfce9",
    "count_view": 0
  },
  {
    "link_thumb": "https://live.staticflickr.com/65535/51556407201_ddd4cc3f58_n.jpg",
    "id_album": "-89234980",
    "description": "ANIME_PIC_f86abba4251a5bb55f5365f3f67c7b3c,[GirlsCuteCool],[isGirlAnime],[isCuteAnime]",
    "title": "ANIME_PIC_f86abba4251a5bb55f5365f3f67c7b3c",
    "link_img": "https://live.staticflickr.com/65535/51556407201_44e31b613a_o.jpg",
    "id_image": "ANIME_PIC_f86abba4251a5bb55f5365f3f67c7b3c",
    "count_view": 0
  },
  {
    "link_thumb": "https://live.staticflickr.com/65535/51555614647_06f73e2234_n.jpg",
    "id_album": "-89234980",
    "description": "ANIME_PIC_f86ff61d8e9a18fa151b8571e821e97e,[GirlsCuteCool],[isGirlAnime],[isCuteAnime]",
    "title": "ANIME_PIC_f86ff61d8e9a18fa151b8571e821e97e",
    "link_img": "https://live.staticflickr.com/65535/51555614647_0d7ece9acc_o.png",
    "id_image": "ANIME_PIC_f86ff61d8e9a18fa151b8571e821e97e",
    "count_view": 0
  },
  {
    "link_thumb": "https://live.staticflickr.com/65535/51555614952_24e455dc2a_n.jpg",
    "id_album": "-89234980",
    "description": "ANIME_PIC_f87c4c08d319c813185e8981f6abd26b,[GirlsCuteCool],[isGirlAnime],[isCuteAnime],[isGirlsLoliAnime]",
    "title": "ANIME_PIC_f87c4c08d319c813185e8981f6abd26b",
    "link_img": "https://live.staticflickr.com/65535/51555614952_18e1c05644_o.jpg",
    "id_image": "ANIME_PIC_f87c4c08d319c813185e8981f6abd26b",
    "count_view": 0
  },
  {
    "link_thumb": "https://live.staticflickr.com/65535/51556642688_03b9a8eca2_n.jpg",
    "id_album": "-89234980",
    "description": "ANIME_PIC_f8808d1c4bdaa50b043dcfd5055d5ee9,[GirlsCuteCool],[isGirlAnime],[isCuteAnime],[isGirlsLoliAnime]",
    "title": "ANIME_PIC_f8808d1c4bdaa50b043dcfd5055d5ee9",
    "link_img": "https://live.staticflickr.com/65535/51556642688_ce2902021c_o.jpg",
    "id_image": "ANIME_PIC_f8808d1c4bdaa50b043dcfd5055d5ee9",
    "count_view": 0
  },
  {
    "link_thumb": "https://live.staticflickr.com/65535/51556408241_3196fa6280_n.jpg",
    "id_album": "-89234980",
    "description": "ANIME_PIC_f884cce4a23f8650b395f32154bc6604,[GirlsCuteCool],[isGirlAnime],[isCuteAnime],[isGirlsLoliAnime]",
    "title": "ANIME_PIC_f884cce4a23f8650b395f32154bc6604",
    "link_img": "https://live.staticflickr.com/65535/51556408241_89ca211226_o.jpg",
    "id_image": "ANIME_PIC_f884cce4a23f8650b395f32154bc6604",
    "count_view": 0
  },
  {
    "link_thumb": "https://live.staticflickr.com/65535/51557328540_d70f86c31e_n.jpg",
    "id_album": "-89234980",
    "description": "ANIME_PIC_f88ff7deb2174e20b0d900be11c5355a,[GirlsCuteCool],[isGirlAnime],[isCuteAnime],[isGirlsLoliAnime]",
    "title": "ANIME_PIC_f88ff7deb2174e20b0d900be11c5355a",
    "link_img": "https://live.staticflickr.com/65535/51557328540_7297f7ed3b_o.jpg",
    "id_image": "ANIME_PIC_f88ff7deb2174e20b0d900be11c5355a",
    "count_view": 0
  },
  {
    "link_thumb": "https://live.staticflickr.com/65535/51555615902_ce023e9a01_n.jpg",
    "id_album": "-89234980",
    "description": "ANIME_PIC_f8902d68dfec93316b77a7b232333702,[GirlsCuteCool],[isGirlAnime],[isCuteAnime],[isGirlEarsNekoAnime]",
    "title": "ANIME_PIC_f8902d68dfec93316b77a7b232333702",
    "link_img": "https://live.staticflickr.com/65535/51555615902_c137db38d6_o.png",
    "id_image": "ANIME_PIC_f8902d68dfec93316b77a7b232333702",
    "count_view": 0
  },
  {
    "link_thumb": "https://live.staticflickr.com/65535/51557100584_ddb089a97c_n.jpg",
    "id_album": "-89234980",
    "description": "ANIME_PIC_f89376e595c1d9088ec5d0c2baa389be,[GirlsCuteCool],[isGirlAnime],[isCuteAnime]",
    "title": "ANIME_PIC_f89376e595c1d9088ec5d0c2baa389be",
    "link_img": "https://live.staticflickr.com/65535/51557100584_6526d17481_o.jpg",
    "id_image": "ANIME_PIC_f89376e595c1d9088ec5d0c2baa389be",
    "count_view": 0
  },
  {
    "link_thumb": "https://live.staticflickr.com/65535/51556409091_fa6dfb78d7_n.jpg",
    "id_album": "-89234980",
    "description": "ANIME_PIC_f895348e64cbe12dd6bde9309013f1ad,[GirlsCuteCool],[isGirlAnime],[isCuteAnime],[isGirlsLoliAnime]",
    "title": "ANIME_PIC_f895348e64cbe12dd6bde9309013f1ad",
    "link_img": "https://live.staticflickr.com/65535/51556409091_8c85202fcf_o.jpg",
    "id_image": "ANIME_PIC_f895348e64cbe12dd6bde9309013f1ad",
    "count_view": 0
  },
  {
    "link_thumb": "https://live.staticflickr.com/65535/51556409306_de8ca7618d_n.jpg",
    "id_album": "-89234980",
    "description": "ANIME_PIC_f895d8cd4a3f5b673759b634728479dd,[GirlsCuteCool],[isGirlAnime],[isCuteAnime]",
    "title": "ANIME_PIC_f895d8cd4a3f5b673759b634728479dd",
    "link_img": "https://live.staticflickr.com/65535/51556409306_10171fcb03_o.jpg",
    "id_image": "ANIME_PIC_f895d8cd4a3f5b673759b634728479dd",
    "count_view": 0
  },
  {
    "link_thumb": "https://live.staticflickr.com/65535/51557101204_71477ec009_n.jpg",
    "id_album": "-89234980",
    "description": "ANIME_PIC_f8968a7e89eb7e2c51e820aa15f67315,[GirlsCuteCool],[isGirlAnime],[isCuteAnime],[isSadAnimeGirl],[isSadAnime]",
    "title": "ANIME_PIC_f8968a7e89eb7e2c51e820aa15f67315",
    "link_img": "https://live.staticflickr.com/65535/51557101204_65a4623cf2_o.jpg",
    "id_image": "ANIME_PIC_f8968a7e89eb7e2c51e820aa15f67315",
    "count_view": 0
  },
  {
    "link_thumb": "https://live.staticflickr.com/65535/51556644373_0bfd23f19e_n.jpg",
    "id_album": "-89234980",
    "description": "ANIME_PIC_f896f486806a80127f6ea2ede4b14155,[GirlsCuteCool],[isGirlAnime],[isCuteAnime],[isGirlsLoliAnime]",
    "title": "ANIME_PIC_f896f486806a80127f6ea2ede4b14155",
    "link_img": "https://live.staticflickr.com/65535/51556644373_bda7dcebe6_o.jpg",
    "id_image": "ANIME_PIC_f896f486806a80127f6ea2ede4b14155",
    "count_view": 0
  },
  {
    "link_thumb": "https://live.staticflickr.com/65535/51557101574_6d0f379dbd_n.jpg",
    "id_album": "-89234980",
    "description": "ANIME_PIC_f89a0d0c34f5cb960131a199fc46c1d6,[GirlsCuteCool],[isBoyAnime],[isGirlAnime],[isCuteAnime]",
    "title": "ANIME_PIC_f89a0d0c34f5cb960131a199fc46c1d6",
    "link_img": "https://live.staticflickr.com/65535/51557101574_56b8af0b03_o.jpg",
    "id_image": "ANIME_PIC_f89a0d0c34f5cb960131a199fc46c1d6",
    "count_view": 0
  },
  {
    "link_thumb": "https://live.staticflickr.com/65535/51555617337_8d883d0560_n.jpg",
    "id_album": "-89234980",
    "description": "ANIME_PIC_f89a7de9ae8a0a8b8e9cf139fcb0bfe5,[GirlsCuteCool],[isGirlAnime],[isCuteAnime]",
    "title": "ANIME_PIC_f89a7de9ae8a0a8b8e9cf139fcb0bfe5",
    "link_img": "https://live.staticflickr.com/65535/51555617337_a5ba6deec9_o.jpg",
    "id_image": "ANIME_PIC_f89a7de9ae8a0a8b8e9cf139fcb0bfe5",
    "count_view": 0
  },
  {
    "link_thumb": "https://live.staticflickr.com/65535/51557330660_60ca5f4b21_n.jpg",
    "id_album": "-89234980",
    "description": "ANIME_PIC_f89c4b4cd9176f01ef93d73baf0c159b,[GirlsCuteCool],[isGirlAnime],[isCuteAnime],[isGirlsLoliAnime]",
    "title": "ANIME_PIC_f89c4b4cd9176f01ef93d73baf0c159b",
    "link_img": "https://live.staticflickr.com/65535/51557330660_a8ba50720b_o.png",
    "id_image": "ANIME_PIC_f89c4b4cd9176f01ef93d73baf0c159b",
    "count_view": 0
  },
  {
    "link_thumb": "https://live.staticflickr.com/65535/51557102384_a1484e382f_n.jpg",
    "id_album": "-89234980",
    "description": "ANIME_PIC_f89e1672441c51655341b644195a2622,[GirlsCuteCool],[isGirlAnime],[isCuteAnime],[isGirlsLoliAnime],[isSadAnimeGirl],[isSadAnime]",
    "title": "ANIME_PIC_f89e1672441c51655341b644195a2622",
    "link_img": "https://live.staticflickr.com/65535/51557102384_48be7f3cbf_o.jpg",
    "id_image": "ANIME_PIC_f89e1672441c51655341b644195a2622",
    "count_view": 0
  },
  {
    "link_thumb": "https://live.staticflickr.com/65535/51556410821_ff7afa3b7c_n.jpg",
    "id_album": "-89234980",
    "description": "ANIME_PIC_f8a5f59216b96ef22f9893afdd4eee7d,[GirlsCuteCool],[isGirlAnime],[isCuteAnime],[isGirlsLoliAnime],[isSadAnimeGirl],[isSadAnime]",
    "title": "ANIME_PIC_f8a5f59216b96ef22f9893afdd4eee7d",
    "link_img": "https://live.staticflickr.com/65535/51556410821_b433e12f7f_o.jpg",
    "id_image": "ANIME_PIC_f8a5f59216b96ef22f9893afdd4eee7d",
    "count_view": 0
  },
  {
    "link_thumb": "https://live.staticflickr.com/65535/51555618157_87a82d3d9d_n.jpg",
    "id_album": "-89234980",
    "description": "ANIME_PIC_f8a7f60f81042b152ea3d376e4147f08,[GirlsCuteCool],[isGirlAnime],[isCuteAnime],[isSadAnimeGirl],[isSadAnime]",
    "title": "ANIME_PIC_f8a7f60f81042b152ea3d376e4147f08",
    "link_img": "https://live.staticflickr.com/65535/51555618157_b87b866733_o.jpg",
    "id_image": "ANIME_PIC_f8a7f60f81042b152ea3d376e4147f08",
    "count_view": 0
  },
  {
    "link_thumb": "https://live.staticflickr.com/65535/51557331510_014e783ec9_n.jpg",
    "id_album": "-89234980",
    "description": "ANIME_PIC_f8adf0e7d952ee2c9497801126643b0c,[GirlsCuteCool],[isGirlAnime],[isCuteAnime],[isGirlEarsNekoAnime],[isGirlsLoliAnime]",
    "title": "ANIME_PIC_f8adf0e7d952ee2c9497801126643b0c",
    "link_img": "https://live.staticflickr.com/65535/51557331510_8e323330e5_o.jpg",
    "id_image": "ANIME_PIC_f8adf0e7d952ee2c9497801126643b0c",
    "count_view": 0
  },
  {
    "link_thumb": "https://live.staticflickr.com/65535/51556646013_d07f0e3663_n.jpg",
    "id_album": "-89234980",
    "description": "ANIME_PIC_f8aec74455e57d243f3624716654c6c6,[GirlsCuteCool],[isGirlAnime],[isCuteAnime],[isGirlEarsNekoAnime],[isGirlsLoliAnime]",
    "title": "ANIME_PIC_f8aec74455e57d243f3624716654c6c6",
    "link_img": "https://live.staticflickr.com/65535/51556646013_9cf71164c2_o.jpg",
    "id_image": "ANIME_PIC_f8aec74455e57d243f3624716654c6c6",
    "count_view": 0
  },
  {
    "link_thumb": "https://live.staticflickr.com/65535/51555618812_96139e4138_n.jpg",
    "id_album": "-89234980",
    "description": "ANIME_PIC_f8b0069f8c59b58132a729e08123e9d3,[GirlsCuteCool],[isGirlAnime],[isCuteAnime],[isGirlsHatsHoodieAnime],[isGirlsLoliAnime]",
    "title": "ANIME_PIC_f8b0069f8c59b58132a729e08123e9d3",
    "link_img": "https://live.staticflickr.com/65535/51555618812_44bedf612e_o.jpg",
    "id_image": "ANIME_PIC_f8b0069f8c59b58132a729e08123e9d3",
    "count_view": 0
  },
  {
    "link_thumb": "https://live.staticflickr.com/65535/51556411816_25dd4d61ef_n.jpg",
    "id_album": "-89234980",
    "description": "ANIME_PIC_f8b095542d8ab7fd23cdb93a5ce91eb8,[GirlsCuteCool],[isGirlAnime],[isCuteAnime]",
    "title": "ANIME_PIC_f8b095542d8ab7fd23cdb93a5ce91eb8",
    "link_img": "https://live.staticflickr.com/65535/51556411816_758423540f_o.png",
    "id_image": "ANIME_PIC_f8b095542d8ab7fd23cdb93a5ce91eb8",
    "count_view": 0
  },
  {
    "link_thumb": "https://live.staticflickr.com/65535/51557103874_d0caba178e_n.jpg",
    "id_album": "-89234980",
    "description": "ANIME_PIC_f8b0bcc1aab9d0a5ce8dc52b511f2dff,[GirlsCuteCool],[isGirlAnime],[isCuteAnime],[isGirlsHatsHoodieAnime],[isGirlsLoliAnime],[isGirlsSharpCanineToothAnime]",
    "title": "ANIME_PIC_f8b0bcc1aab9d0a5ce8dc52b511f2dff",
    "link_img": "https://live.staticflickr.com/65535/51557103874_bd0f52ca68_o.jpg",
    "id_image": "ANIME_PIC_f8b0bcc1aab9d0a5ce8dc52b511f2dff",
    "count_view": 0
  },
  {
    "link_thumb": "https://live.staticflickr.com/65535/51555619527_267093bd0e_n.jpg",
    "id_album": "-89234980",
    "description": "ANIME_PIC_f8bbde5ee623f47cba166622126c6890,[GirlsCuteCool],[isGirlAnime],[isCuteAnime],[isGirlsHornsAnime]",
    "title": "ANIME_PIC_f8bbde5ee623f47cba166622126c6890",
    "link_img": "https://live.staticflickr.com/65535/51555619527_c6ebdfc4c6_o.jpg",
    "id_image": "ANIME_PIC_f8bbde5ee623f47cba166622126c6890",
    "count_view": 0
  },
  {
    "link_thumb": "https://live.staticflickr.com/65535/51555619647_8191fc378d_n.jpg",
    "id_album": "-89234980",
    "description": "ANIME_PIC_f8bbede070b5de48d0512d706b768121,[GirlsCuteCool],[isGirlAnime],[isCuteAnime],[isGirlsLoliAnime],[isSadAnimeGirl],[isSadAnime]",
    "title": "ANIME_PIC_f8bbede070b5de48d0512d706b768121",
    "link_img": "https://live.staticflickr.com/65535/51555619647_9f1c5bbe76_o.jpg",
    "id_image": "ANIME_PIC_f8bbede070b5de48d0512d706b768121",
    "count_view": 0
  },
  {
    "link_thumb": "https://live.staticflickr.com/65535/51557104369_58c806a302_n.jpg",
    "id_album": "-89234980",
    "description": "ANIME_PIC_f8bdd73f4fdce31cbfdeb287929e0f7f,[GirlsCuteCool],[isGirlAnime],[isCuteAnime],[isGirlsHatsHoodieAnime],[isGirlsLoliAnime],[isGirlsSharpCanineToothAnime]",
    "title": "ANIME_PIC_f8bdd73f4fdce31cbfdeb287929e0f7f",
    "link_img": "https://live.staticflickr.com/65535/51557104369_a8cbedee86_o.jpg",
    "id_image": "ANIME_PIC_f8bdd73f4fdce31cbfdeb287929e0f7f",
    "count_view": 0
  },
  {
    "link_thumb": "https://live.staticflickr.com/65535/51557104499_dfe8e5f40e_n.jpg",
    "id_album": "-89234980",
    "description": "ANIME_PIC_f8be96c8df2acc11013647a9adf52b04,[GirlsCuteCool],[isGirlAnime],[isCuteAnime],[isGirlEarsNekoAnime]",
    "title": "ANIME_PIC_f8be96c8df2acc11013647a9adf52b04",
    "link_img": "https://live.staticflickr.com/65535/51557104499_761af04922_o.png",
    "id_image": "ANIME_PIC_f8be96c8df2acc11013647a9adf52b04",
    "count_view": 0
  },
  {
    "link_thumb": "https://live.staticflickr.com/65535/51556413271_b14d79c85d_n.jpg",
    "id_album": "-89234980",
    "description": "ANIME_PIC_f8c0ffbc0b93830a4cbefbc428a36816,[GirlsCuteCool],[isGirlAnime],[isCuteAnime],[isGirlEarsNekoAnime],[isGirlsHatsHoodieAnime],[isSadAnimeGirl],[isSadAnime]",
    "title": "ANIME_PIC_f8c0ffbc0b93830a4cbefbc428a36816",
    "link_img": "https://live.staticflickr.com/65535/51556413271_93dba049ec_o.jpg",
    "id_image": "ANIME_PIC_f8c0ffbc0b93830a4cbefbc428a36816",
    "count_view": 0
  },
  {
    "link_thumb": "https://live.staticflickr.com/65535/51555620407_e74e9ec59f_n.jpg",
    "id_album": "-89234980",
    "description": "ANIME_PIC_f8c34926ff38cfea32cc532465ca238a,[GirlsCuteCool],[isGirlAnime],[isCuteAnime],[isGirlsHatsHoodieAnime],[isGirlsLoliAnime]",
    "title": "ANIME_PIC_f8c34926ff38cfea32cc532465ca238a",
    "link_img": "https://live.staticflickr.com/65535/51555620407_686a27d56d_o.jpg",
    "id_image": "ANIME_PIC_f8c34926ff38cfea32cc532465ca238a",
    "count_view": 0
  },
  {
    "link_thumb": "https://live.staticflickr.com/65535/51557334010_d50a5f17eb_n.jpg",
    "id_album": "-89234980",
    "description": "ANIME_PIC_f8c474e718c7be3355398e90e24ad869,[GirlsCuteCool],[isGirlAnime],[isCuteAnime]",
    "title": "ANIME_PIC_f8c474e718c7be3355398e90e24ad869",
    "link_img": "https://live.staticflickr.com/65535/51557334010_2a30081580_o.jpg",
    "id_image": "ANIME_PIC_f8c474e718c7be3355398e90e24ad869",
    "count_view": 0
  },
  {
    "link_thumb": "https://live.staticflickr.com/65535/51555620687_ff4f54ba05_n.jpg",
    "id_album": "-89234980",
    "description": "ANIME_PIC_f8c789974632c5e19331811bc7f98bad,[GirlsCuteCool],[isGirlAnime],[isCuteAnime],[isGirlsHatsHoodieAnime],[isGirlsLoliAnime]",
    "title": "ANIME_PIC_f8c789974632c5e19331811bc7f98bad",
    "link_img": "https://live.staticflickr.com/65535/51555620687_d22e98d634_o.jpg",
    "id_image": "ANIME_PIC_f8c789974632c5e19331811bc7f98bad",
    "count_view": 0
  },
  {
    "link_thumb": "https://live.staticflickr.com/65535/51555620822_604b700528_n.jpg",
    "id_album": "-89234980",
    "description": "ANIME_PIC_f8cd0fb76539c5b60f6bb139aab45e85,[GirlsCuteCool],[isGirlAnime],[isCuteAnime],[isSadAnimeGirl],[isSadAnime]",
    "title": "ANIME_PIC_f8cd0fb76539c5b60f6bb139aab45e85",
    "link_img": "https://live.staticflickr.com/65535/51555620822_15e6ed9d20_o.jpg",
    "id_image": "ANIME_PIC_f8cd0fb76539c5b60f6bb139aab45e85",
    "count_view": 0
  },
  {
    "link_thumb": "https://live.staticflickr.com/65535/51556414166_f3240b7142_n.jpg",
    "id_album": "-89234980",
    "description": "ANIME_PIC_f8cea580f663f82cf80b3af396881f5b,[GirlsCuteCool],[isGirlAnime],[isCuteAnime],[isGirlsLoliAnime],[isSadAnimeGirl],[isSadAnime]",
    "title": "ANIME_PIC_f8cea580f663f82cf80b3af396881f5b",
    "link_img": "https://live.staticflickr.com/65535/51556414166_39426e27f2_o.jpg",
    "id_image": "ANIME_PIC_f8cea580f663f82cf80b3af396881f5b",
    "count_view": 0
  },
  {
    "link_thumb": "https://live.staticflickr.com/65535/51556648978_9b9043e748_n.jpg",
    "id_album": "-89234980",
    "description": "ANIME_PIC_f8cebdba7ccadce19e9e925446b89117,[GirlsCuteCool],[isGirlAnime],[isCuteAnime],[isGirlsHatsHoodieAnime],[isGirlsLoliAnime]",
    "title": "ANIME_PIC_f8cebdba7ccadce19e9e925446b89117",
    "link_img": "https://live.staticflickr.com/65535/51556648978_9ef3533d39_o.jpg",
    "id_image": "ANIME_PIC_f8cebdba7ccadce19e9e925446b89117",
    "count_view": 0
  },
  {
    "link_thumb": "https://live.staticflickr.com/65535/51557334950_27d927a68b_n.jpg",
    "id_album": "-89234980",
    "description": "ANIME_PIC_f8cf6cc1ffe2a3a1bcf883e230ed21a9,[GirlsCuteCool],[isGirlAnime],[isCuteAnime],[isGirlsLoliAnime]",
    "title": "ANIME_PIC_f8cf6cc1ffe2a3a1bcf883e230ed21a9",
    "link_img": "https://live.staticflickr.com/65535/51557334950_a0bf2804ab_o.jpg",
    "id_image": "ANIME_PIC_f8cf6cc1ffe2a3a1bcf883e230ed21a9",
    "count_view": 0
  },
  {
    "link_thumb": "https://live.staticflickr.com/65535/51556414701_803c49c97d_n.jpg",
    "id_album": "-89234980",
    "description": "ANIME_PIC_f8d315d303f9f3125dcc2ca752e6fe51,[GirlsCuteCool],[isGirlAnime],[isCuteAnime],[isGirlEarsNekoAnime],[isGirlsLoliAnime],[isSadAnimeGirl],[isSadAnime]",
    "title": "ANIME_PIC_f8d315d303f9f3125dcc2ca752e6fe51",
    "link_img": "https://live.staticflickr.com/65535/51556414701_a712f1e095_o.png",
    "id_image": "ANIME_PIC_f8d315d303f9f3125dcc2ca752e6fe51",
    "count_view": 0
  },
  {
    "link_thumb": "https://live.staticflickr.com/65535/51557335505_8ea1097753_n.jpg",
    "id_album": "-89234980",
    "description": "ANIME_PIC_f8d3e4ce3c660b8d952013228dcbcd86,[GirlsCuteCool],[isGirlAnime],[isCuteAnime],[isGirlsLoliAnime]",
    "title": "ANIME_PIC_f8d3e4ce3c660b8d952013228dcbcd86",
    "link_img": "https://live.staticflickr.com/65535/51557335505_1580d58b04_o.png",
    "id_image": "ANIME_PIC_f8d3e4ce3c660b8d952013228dcbcd86",
    "count_view": 0
  },
  {
    "link_thumb": "https://live.staticflickr.com/65535/51556415261_edaa0023a3_n.jpg",
    "id_album": "-89234980",
    "description": "ANIME_PIC_f8d4c223150040c3de3f6c2665b88e65,[GirlsCuteCool],[isBoyAnime],[isCoupleAnime],[isGirlAnime],[isCuteAnime],[isGirlsHatsHoodieAnime]",
    "title": "ANIME_PIC_f8d4c223150040c3de3f6c2665b88e65",
    "link_img": "https://live.staticflickr.com/65535/51556415261_8a74e423c3_o.jpg",
    "id_image": "ANIME_PIC_f8d4c223150040c3de3f6c2665b88e65",
    "count_view": 0
  },
  {
    "link_thumb": "https://live.staticflickr.com/65535/51556650228_55b421231d_n.jpg",
    "id_album": "-89234980",
    "description": "ANIME_PIC_f8d81a92743820e8d5b047966b1ac62a,[GirlsCuteCool],[isGirlAnime],[isCuteAnime],[isGirlEarsNekoAnime],[isGirlsLoliAnime]",
    "title": "ANIME_PIC_f8d81a92743820e8d5b047966b1ac62a",
    "link_img": "https://live.staticflickr.com/65535/51556650228_9ae7e54118_o.jpg",
    "id_image": "ANIME_PIC_f8d81a92743820e8d5b047966b1ac62a",
    "count_view": 0
  },
  {
    "link_thumb": "https://live.staticflickr.com/65535/51555622622_5c08bff138_n.jpg",
    "id_album": "-89234980",
    "description": "ANIME_PIC_f8d9a8e88624300228aa4eef8d466798,[GirlsCuteCool],[isGirlAnime],[isCuteAnime],[isGirlsHatsHoodieAnime]",
    "title": "ANIME_PIC_f8d9a8e88624300228aa4eef8d466798",
    "link_img": "https://live.staticflickr.com/65535/51555622622_56c5cee32e_o.jpg",
    "id_image": "ANIME_PIC_f8d9a8e88624300228aa4eef8d466798",
    "count_view": 0
  },
  {
    "link_thumb": "https://live.staticflickr.com/65535/51557107469_1af8044a01_n.jpg",
    "id_album": "-89234980",
    "description": "ANIME_PIC_f8dbb0848b9d14600f0931bbdd8d5eea,[GirlsCuteCool],[isGirlAnime],[isCuteAnime],[isGirlsHatsHoodieAnime],[isGirlsLoliAnime]",
    "title": "ANIME_PIC_f8dbb0848b9d14600f0931bbdd8d5eea",
    "link_img": "https://live.staticflickr.com/65535/51557107469_097b325636_o.png",
    "id_image": "ANIME_PIC_f8dbb0848b9d14600f0931bbdd8d5eea",
    "count_view": 0
  },
  {
    "link_thumb": "https://live.staticflickr.com/65535/51556650968_2a9567b745_n.jpg",
    "id_album": "-89234980",
    "description": "ANIME_PIC_f8dc3dccc8e31a23924f02ca90041ba9,[GirlsCuteCool],[isGirlAnime],[isCuteAnime]",
    "title": "ANIME_PIC_f8dc3dccc8e31a23924f02ca90041ba9",
    "link_img": "https://live.staticflickr.com/65535/51556650968_53859787e2_o.png",
    "id_image": "ANIME_PIC_f8dc3dccc8e31a23924f02ca90041ba9",
    "count_view": 0
  },
  {
    "link_thumb": "https://live.staticflickr.com/65535/51557108279_e5f445c040_n.jpg",
    "id_album": "-89234980",
    "description": "ANIME_PIC_f8dd594b0b9f7224533195d1f53d42b3,[GirlsCuteCool],[isBoyAnime],[isCoupleAnime],[isGirlAnime],[isCuteAnime]",
    "title": "ANIME_PIC_f8dd594b0b9f7224533195d1f53d42b3",
    "link_img": "https://live.staticflickr.com/65535/51557108279_e271804460_o.jpg",
    "id_image": "ANIME_PIC_f8dd594b0b9f7224533195d1f53d42b3",
    "count_view": 0
  },
  {
    "link_thumb": "https://live.staticflickr.com/65535/51557337215_c0ef03dc8f_n.jpg",
    "id_album": "-89234980",
    "description": "ANIME_PIC_f8ded3b428bbf22c8a2bfb8b05b8aa41,[GirlsCuteCool],[isGirlAnime],[isCuteAnime]",
    "title": "ANIME_PIC_f8ded3b428bbf22c8a2bfb8b05b8aa41",
    "link_img": "https://live.staticflickr.com/65535/51557337215_45b082c2f0_o.png",
    "id_image": "ANIME_PIC_f8ded3b428bbf22c8a2bfb8b05b8aa41",
    "count_view": 0
  },
  {
    "link_thumb": "https://live.staticflickr.com/65535/51557337460_ac94d3d0a5_n.jpg",
    "id_album": "-89234980",
    "description": "ANIME_PIC_f8e34abaa3e7337ea85e2e23d0b6837c,[GirlsCuteCool],[isGirlAnime],[isCuteAnime],[isGirlsLoliAnime]",
    "title": "ANIME_PIC_f8e34abaa3e7337ea85e2e23d0b6837c",
    "link_img": "https://live.staticflickr.com/65535/51557337460_21ee052a17_o.jpg",
    "id_image": "ANIME_PIC_f8e34abaa3e7337ea85e2e23d0b6837c",
    "count_view": 0
  },
  {
    "link_thumb": "https://live.staticflickr.com/65535/51556651978_ee332b4c51_n.jpg",
    "id_album": "-89234980",
    "description": "ANIME_PIC_f8e563a13c22ef5d5941ca6cf2733351,[GirlsCuteCool],[isGirlAnime],[isCuteAnime],[isGirlsLoliAnime]",
    "title": "ANIME_PIC_f8e563a13c22ef5d5941ca6cf2733351",
    "link_img": "https://live.staticflickr.com/65535/51556651978_b3af79ec76_o.jpg",
    "id_image": "ANIME_PIC_f8e563a13c22ef5d5941ca6cf2733351",
    "count_view": 0
  },
  {
    "link_thumb": "https://live.staticflickr.com/65535/51556652218_863802500e_n.jpg",
    "id_album": "-89234980",
    "description": "ANIME_PIC_f8e642a0fdee9e529de01f036aba9c5e,[GirlsCuteCool],[isGirlAnime],[isCuteAnime],[isGirlsLoliAnime]",
    "title": "ANIME_PIC_f8e642a0fdee9e529de01f036aba9c5e",
    "link_img": "https://live.staticflickr.com/65535/51556652218_1595c22044_o.jpg",
    "id_image": "ANIME_PIC_f8e642a0fdee9e529de01f036aba9c5e",
    "count_view": 0
  },
  {
    "link_thumb": "https://live.staticflickr.com/65535/51557109234_7d9f64a351_n.jpg",
    "id_album": "-89234980",
    "description": "ANIME_PIC_f8e6e9b75ea13694dc92a7e7afad5ed4,[GirlsCuteCool],[isGirlAnime],[isCuteAnime],[isGirlsLoliAnime],[isSadAnimeGirl],[isSadAnime]",
    "title": "ANIME_PIC_f8e6e9b75ea13694dc92a7e7afad5ed4",
    "link_img": "https://live.staticflickr.com/65535/51557109234_7f9009a336_o.jpg",
    "id_image": "ANIME_PIC_f8e6e9b75ea13694dc92a7e7afad5ed4",
    "count_view": 0
  },
  {
    "link_thumb": "https://live.staticflickr.com/65535/51555624767_aff3eacaed_n.jpg",
    "id_album": "-89234980",
    "description": "ANIME_PIC_f8eed89a246af4f939a7277872393e1a,[GirlsCuteCool],[isGirlAnime],[isCuteAnime],[isGirlsHatsHoodieAnime],[isGirlsLoliAnime]",
    "title": "ANIME_PIC_f8eed89a246af4f939a7277872393e1a",
    "link_img": "https://live.staticflickr.com/65535/51555624767_9b2347c9b9_o.jpg",
    "id_image": "ANIME_PIC_f8eed89a246af4f939a7277872393e1a",
    "count_view": 0
  },
  {
    "link_thumb": "https://live.staticflickr.com/65535/51556418061_608be484a4_n.jpg",
    "id_album": "-89234980",
    "description": "ANIME_PIC_f8ef189ef0f2df297d0e81da03dcd180,[GirlsCuteCool],[isGirlAnime],[isCuteAnime],[isGirlsHatsHoodieAnime],[isGirlsLoliAnime]",
    "title": "ANIME_PIC_f8ef189ef0f2df297d0e81da03dcd180",
    "link_img": "https://live.staticflickr.com/65535/51556418061_1848e2d89d_o.jpg",
    "id_image": "ANIME_PIC_f8ef189ef0f2df297d0e81da03dcd180",
    "count_view": 0
  },
  {
    "link_thumb": "https://live.staticflickr.com/65535/51556653078_06d9c0ed52_n.jpg",
    "id_album": "-89234980",
    "description": "ANIME_PIC_f8f331e60820016d49ca46e7c58ce59a,[GirlsCuteCool],[isGirlAnime],[isCuteAnime],[isGirlsLoliAnime]",
    "title": "ANIME_PIC_f8f331e60820016d49ca46e7c58ce59a",
    "link_img": "https://live.staticflickr.com/65535/51556653078_a933e63fa6_o.jpg",
    "id_image": "ANIME_PIC_f8f331e60820016d49ca46e7c58ce59a",
    "count_view": 0
  },
  {
    "link_thumb": "https://live.staticflickr.com/65535/51556418556_0837059da0_n.jpg",
    "id_album": "-89234980",
    "description": "ANIME_PIC_f8f4054364112159039ce4fae1bf8438,[GirlsCuteCool],[isGirlAnime],[isCuteAnime],[isGirlsLoliAnime]",
    "title": "ANIME_PIC_f8f4054364112159039ce4fae1bf8438",
    "link_img": "https://live.staticflickr.com/65535/51556418556_9d097cd110_o.jpg",
    "id_image": "ANIME_PIC_f8f4054364112159039ce4fae1bf8438",
    "count_view": 0
  },
  {
    "link_thumb": "https://live.staticflickr.com/65535/51556653563_76ef4b0c30_n.jpg",
    "id_album": "-89234980",
    "description": "ANIME_PIC_f8f50b59baf805ddbfac6802a4c7b7a4,[GirlsCuteCool],[isGirlAnime],[isCuteAnime],[isGirlsLoliAnime]",
    "title": "ANIME_PIC_f8f50b59baf805ddbfac6802a4c7b7a4",
    "link_img": "https://live.staticflickr.com/65535/51556653563_23fdc975c1_o.jpg",
    "id_image": "ANIME_PIC_f8f50b59baf805ddbfac6802a4c7b7a4",
    "count_view": 0
  },
  {
    "link_thumb": "https://live.staticflickr.com/65535/51557110539_bdc0b55497_n.jpg",
    "id_album": "-89234980",
    "description": "ANIME_PIC_f8f5f6249146ed643e24110293c6143d,[GirlsCuteCool],[isGirlAnime],[isCuteAnime]",
    "title": "ANIME_PIC_f8f5f6249146ed643e24110293c6143d",
    "link_img": "https://live.staticflickr.com/65535/51557110539_ae169494f2_o.jpg",
    "id_image": "ANIME_PIC_f8f5f6249146ed643e24110293c6143d",
    "count_view": 0
  },
  {
    "link_thumb": "https://live.staticflickr.com/65535/51556419216_2813d39217_n.jpg",
    "id_album": "-89234980",
    "description": "ANIME_PIC_f8f64a62cdd4725a593a97cd9183a55c,[GirlsCuteCool],[isGirlAnime],[isCuteAnime]",
    "title": "ANIME_PIC_f8f64a62cdd4725a593a97cd9183a55c",
    "link_img": "https://live.staticflickr.com/65535/51556419216_750b8ac301_o.png",
    "id_image": "ANIME_PIC_f8f64a62cdd4725a593a97cd9183a55c",
    "count_view": 0
  },
  {
    "link_thumb": "https://live.staticflickr.com/65535/51555626567_913611bc85_n.jpg",
    "id_album": "-89234980",
    "description": "ANIME_PIC_f8fb0602f0dde50d286961ce4f2a62e8,[GirlsCuteCool],[isGirlAnime],[isCuteAnime],[isGirlsLoliAnime]",
    "title": "ANIME_PIC_f8fb0602f0dde50d286961ce4f2a62e8",
    "link_img": "https://live.staticflickr.com/65535/51555626567_f3e30c08ee_o.jpg",
    "id_image": "ANIME_PIC_f8fb0602f0dde50d286961ce4f2a62e8",
    "count_view": 0
  },
  {
    "link_thumb": "https://live.staticflickr.com/65535/51556654693_c56ef1fcbe_n.jpg",
    "id_album": "-89234980",
    "description": "ANIME_PIC_f8fb37edf394b338fb05b0584523be66,[GirlsCuteCool],[isGirlAnime],[isCuteAnime],[isGirlsLoliAnime]",
    "title": "ANIME_PIC_f8fb37edf394b338fb05b0584523be66",
    "link_img": "https://live.staticflickr.com/65535/51556654693_1214ac8908_o.jpg",
    "id_image": "ANIME_PIC_f8fb37edf394b338fb05b0584523be66",
    "count_view": 0
  },
  {
    "link_thumb": "https://live.staticflickr.com/65535/51556654908_1fd4fe9973_n.jpg",
    "id_album": "-89234980",
    "description": "ANIME_PIC_f8fe3eee10167ff03ff9b8dab2988b02,[GirlsCuteCool],[isGirlAnime],[isCuteAnime],[isGirlsLoliAnime]",
    "title": "ANIME_PIC_f8fe3eee10167ff03ff9b8dab2988b02",
    "link_img": "https://live.staticflickr.com/65535/51556654908_dc4ddcc0a3_o.jpg",
    "id_image": "ANIME_PIC_f8fe3eee10167ff03ff9b8dab2988b02",
    "count_view": 0
  },
  {
    "link_thumb": "https://live.staticflickr.com/65535/51556420546_042e2d707e_n.jpg",
    "id_album": "-89234980",
    "description": "ANIME_PIC_f8ffe5b3b27ff8e608efd58b9d835bbb,[GirlsCuteCool],[isGirlAnime],[isCuteAnime]",
    "title": "ANIME_PIC_f8ffe5b3b27ff8e608efd58b9d835bbb",
    "link_img": "https://live.staticflickr.com/65535/51556420546_3eb4f86113_o.png",
    "id_image": "ANIME_PIC_f8ffe5b3b27ff8e608efd58b9d835bbb",
    "count_view": 0
  },
  {
    "link_thumb": "https://live.staticflickr.com/65535/51556420961_9b70466f96_n.jpg",
    "id_album": "-89234980",
    "description": "ANIME_PIC_f90285dfeec3fdec741b4984b301c046,[GirlsCuteCool],[isGirlAnime],[isCuteAnime],[isGirlFaceMasksAnime],[isGirlsHatsHoodieAnime],[isGirlsLoliAnime]",
    "title": "ANIME_PIC_f90285dfeec3fdec741b4984b301c046",
    "link_img": "https://live.staticflickr.com/65535/51556420961_683ac55a0c_o.jpg",
    "id_image": "ANIME_PIC_f90285dfeec3fdec741b4984b301c046",
    "count_view": 0
  },
  {
    "link_thumb": "https://live.staticflickr.com/65535/51556655818_c08509eee6_n.jpg",
    "id_album": "-89234980",
    "description": "ANIME_PIC_f90986799f0646105ba09e41c9a064bd,[GirlsCuteCool],[isGirlAnime],[isCuteAnime],[isGirlsHatsHoodieAnime],[isGirlsLoliAnime]",
    "title": "ANIME_PIC_f90986799f0646105ba09e41c9a064bd",
    "link_img": "https://live.staticflickr.com/65535/51556655818_745b56ebb2_o.jpg",
    "id_image": "ANIME_PIC_f90986799f0646105ba09e41c9a064bd",
    "count_view": 0
  },
  {
    "link_thumb": "https://live.staticflickr.com/65535/51556656068_c8095f9e3e_n.jpg",
    "id_album": "-89234980",
    "description": "ANIME_PIC_f90a5ca4716f7c659e800708a0c9e977,[GirlsCuteCool],[isGirlAnime],[isCuteAnime],[isGirlEarsNekoAnime],[isGirlsHatsHoodieAnime],[isGirlsLoliAnime]",
    "title": "ANIME_PIC_f90a5ca4716f7c659e800708a0c9e977",
    "link_img": "https://live.staticflickr.com/65535/51556656068_2dfe9712d6_o.png",
    "id_image": "ANIME_PIC_f90a5ca4716f7c659e800708a0c9e977",
    "count_view": 0
  },
  {
    "link_thumb": "https://live.staticflickr.com/65535/51556421546_2845c412de_n.jpg",
    "id_album": "-89234980",
    "description": "ANIME_PIC_f90a93ef84f2345d9d575b3b35da3dae,[GirlsCuteCool],[isGirlAnime],[isCuteAnime]",
    "title": "ANIME_PIC_f90a93ef84f2345d9d575b3b35da3dae",
    "link_img": "https://live.staticflickr.com/65535/51556421546_e04f9662d4_o.png",
    "id_image": "ANIME_PIC_f90a93ef84f2345d9d575b3b35da3dae",
    "count_view": 0
  },
  {
    "link_thumb": "https://live.staticflickr.com/65535/51556421801_051162055f_n.jpg",
    "id_album": "-89234980",
    "description": "ANIME_PIC_f90b40f75c47dd2a0fc044aa2f638998,[GirlsCuteCool],[isGirlAnime],[isCuteAnime],[isGirlsHatsHoodieAnime]",
    "title": "ANIME_PIC_f90b40f75c47dd2a0fc044aa2f638998",
    "link_img": "https://live.staticflickr.com/65535/51556421801_97b42d64bb_o.jpg",
    "id_image": "ANIME_PIC_f90b40f75c47dd2a0fc044aa2f638998",
    "count_view": 0
  },
  {
    "link_thumb": "https://live.staticflickr.com/65535/51556656883_ab45a9b058_n.jpg",
    "id_album": "-89234980",
    "description": "ANIME_PIC_f90b8d244154d81213bc5f5f2c86d69d,[GirlsCuteCool],[isGirlAnime],[isCuteAnime],[isSadAnimeGirl],[isSadAnime]",
    "title": "ANIME_PIC_f90b8d244154d81213bc5f5f2c86d69d",
    "link_img": "https://live.staticflickr.com/65535/51556656883_71241bfa99_o.png",
    "id_image": "ANIME_PIC_f90b8d244154d81213bc5f5f2c86d69d",
    "count_view": 0
  },
  {
    "link_thumb": "https://live.staticflickr.com/65535/51556422186_70fd4d1ca3_n.jpg",
    "id_album": "-89234980",
    "description": "ANIME_PIC_f90fa3ef7a9bf67b23833873f4119ccd,[GirlsCuteCool],[isGirlAnime],[isCuteAnime],[isGirlsLoliAnime]",
    "title": "ANIME_PIC_f90fa3ef7a9bf67b23833873f4119ccd",
    "link_img": "https://live.staticflickr.com/65535/51556422186_8723f8af14_o.jpg",
    "id_image": "ANIME_PIC_f90fa3ef7a9bf67b23833873f4119ccd",
    "count_view": 0
  },
  {
    "link_thumb": "https://live.staticflickr.com/65535/51557114074_10615c1cf0_n.jpg",
    "id_album": "-89234980",
    "description": "ANIME_PIC_f9101ee66240cf39fd24ea61fe67e16f,[GirlsCuteCool],[isGirlAnime],[isCuteAnime],[isGirlsLoliAnime]",
    "title": "ANIME_PIC_f9101ee66240cf39fd24ea61fe67e16f",
    "link_img": "https://live.staticflickr.com/65535/51557114074_4a932a8b61_o.png",
    "id_image": "ANIME_PIC_f9101ee66240cf39fd24ea61fe67e16f",
    "count_view": 0
  },
  {
    "link_thumb": "https://live.staticflickr.com/65535/51556657613_bc603d80be_n.jpg",
    "id_album": "-89234980",
    "description": "ANIME_PIC_f9119aebfa00b270e51a0454003ef55a,[GirlsCuteCool],[isGirlAnime],[isCuteAnime],[isGirlsHatsHoodieAnime],[isGirlsLoliAnime]",
    "title": "ANIME_PIC_f9119aebfa00b270e51a0454003ef55a",
    "link_img": "https://live.staticflickr.com/65535/51556657613_e197ecda1e_o.png",
    "id_image": "ANIME_PIC_f9119aebfa00b270e51a0454003ef55a",
    "count_view": 0
  },
  {
    "link_thumb": "https://live.staticflickr.com/65535/50030264682_af57641d73_n.jpg",
    "id_album": "-89234980",
    "description": "ANIME_PIC_f911f2a1682ef0dc1e16e6e1b6a1159c,[isGirlAnime],[isCuteAnime],[Girls Cute Cool],[GirlsCuteCool],[isBlackAnime],[isGirlFaceMasksAnime]",
    "title": "ANIME_PIC_f911f2a1682ef0dc1e16e6e1b6a1159c",
    "link_img": "https://live.staticflickr.com/65535/50030264682_dd93966521_o.jpg",
    "id_image": "ANIME_PIC_f911f2a1682ef0dc1e16e6e1b6a1159c",
    "count_view": 0
  },
  {
    "link_thumb": "https://live.staticflickr.com/65535/51555629852_931b61e464_n.jpg",
    "id_album": "-89234980",
    "description": "ANIME_PIC_f915e1f4dce223d3253d64d58a7cd692,[GirlsCuteCool],[isGirlAnime],[isCuteAnime],[isGirlsLoliAnime]",
    "title": "ANIME_PIC_f915e1f4dce223d3253d64d58a7cd692",
    "link_img": "https://live.staticflickr.com/65535/51555629852_facda43dd1_o.jpg",
    "id_image": "ANIME_PIC_f915e1f4dce223d3253d64d58a7cd692",
    "count_view": 0
  },
  {
    "link_thumb": "https://live.staticflickr.com/65535/51557114889_e8f1fd410d_n.jpg",
    "id_album": "-89234980",
    "description": "ANIME_PIC_f9162d1ebef31afb0b66d83be6024b18,[GirlsCuteCool],[isGirlAnime],[isCuteAnime]",
    "title": "ANIME_PIC_f9162d1ebef31afb0b66d83be6024b18",
    "link_img": "https://live.staticflickr.com/65535/51557114889_53d44edff7_o.png",
    "id_image": "ANIME_PIC_f9162d1ebef31afb0b66d83be6024b18",
    "count_view": 0
  },
  {
    "link_thumb": "https://live.staticflickr.com/65535/51556423346_92a44b41a9_n.jpg",
    "id_album": "-89234980",
    "description": "ANIME_PIC_f91630ab72f29650ebe916026c590960,[GirlsCuteCool],[isGirlAnime],[isCuteAnime],[isGirlsLoliAnime],[isSadAnimeGirl],[isSadAnime]",
    "title": "ANIME_PIC_f91630ab72f29650ebe916026c590960",
    "link_img": "https://live.staticflickr.com/65535/51556423346_faffdda3ab_o.jpg",
    "id_image": "ANIME_PIC_f91630ab72f29650ebe916026c590960",
    "count_view": 0
  },
  {
    "link_thumb": "https://live.staticflickr.com/65535/51556423556_ce20eb2ca0_n.jpg",
    "id_album": "-89234980",
    "description": "ANIME_PIC_f91b5448aeef7a900784d7001f1bf950,[GirlsCuteCool],[isGirlAnime],[isCuteAnime],[isGirlsLoliAnime],[isSadAnimeGirl],[isSadAnime]",
    "title": "ANIME_PIC_f91b5448aeef7a900784d7001f1bf950",
    "link_img": "https://live.staticflickr.com/65535/51556423556_657dcf198f_o.jpg",
    "id_image": "ANIME_PIC_f91b5448aeef7a900784d7001f1bf950",
    "count_view": 0
  },
  {
    "link_thumb": "https://live.staticflickr.com/65535/51557344005_70eafb8b32_n.jpg",
    "id_album": "-89234980",
    "description": "ANIME_PIC_f91cb4c7dd2630d190f2895ea472b81f,[GirlsCuteCool],[isGirlAnime],[isCuteAnime],[isBlackAnime],[isSadAnimeGirl],[isSadAnime]",
    "title": "ANIME_PIC_f91cb4c7dd2630d190f2895ea472b81f",
    "link_img": "https://live.staticflickr.com/65535/51557344005_f704424874_o.jpg",
    "id_image": "ANIME_PIC_f91cb4c7dd2630d190f2895ea472b81f",
    "count_view": 0
  },
  {
    "link_thumb": "https://live.staticflickr.com/65535/51557115749_53fa41075a_n.jpg",
    "id_album": "-89234980",
    "description": "ANIME_PIC_f91d9ceb7e3d08d0b032713f9e6f05cd,[GirlsCuteCool],[isGirlAnime],[isCuteAnime],[isSadAnimeGirl],[isSadAnime]",
    "title": "ANIME_PIC_f91d9ceb7e3d08d0b032713f9e6f05cd",
    "link_img": "https://live.staticflickr.com/65535/51557115749_9040ba15ee_o.jpg",
    "id_image": "ANIME_PIC_f91d9ceb7e3d08d0b032713f9e6f05cd",
    "count_view": 0
  },
  {
    "link_thumb": "https://live.staticflickr.com/65535/51557115879_78e761a052_n.jpg",
    "id_album": "-89234980",
    "description": "ANIME_PIC_f9222a84b93f2f7031c59dd2e00af934,[GirlsCuteCool],[isGirlAnime],[isCuteAnime],[isGirlsLoliAnime],[isGirlsSharpCanineToothAnime]",
    "title": "ANIME_PIC_f9222a84b93f2f7031c59dd2e00af934",
    "link_img": "https://live.staticflickr.com/65535/51557115879_c28ce3ef5b_o.jpg",
    "id_image": "ANIME_PIC_f9222a84b93f2f7031c59dd2e00af934",
    "count_view": 0
  },
  {
    "link_thumb": "https://live.staticflickr.com/65535/51555631082_f067d58c1e_n.jpg",
    "id_album": "-89234980",
    "description": "ANIME_PIC_f92731ee56026402d863f5bafe76e232,[GirlsCuteCool],[isGirlAnime],[isCuteAnime]",
    "title": "ANIME_PIC_f92731ee56026402d863f5bafe76e232",
    "link_img": "https://live.staticflickr.com/65535/51555631082_7e74877e71_o.jpg",
    "id_image": "ANIME_PIC_f92731ee56026402d863f5bafe76e232",
    "count_view": 0
  },
  {
    "link_thumb": "https://live.staticflickr.com/65535/51557344785_7d54312706_n.jpg",
    "id_album": "-89234980",
    "description": "ANIME_PIC_f92ad7eba776c85a51e307807b4cbd8e,[GirlsCuteCool],[isGirlAnime],[isCuteAnime]",
    "title": "ANIME_PIC_f92ad7eba776c85a51e307807b4cbd8e",
    "link_img": "https://live.staticflickr.com/65535/51557344785_087c56ef74_o.png",
    "id_image": "ANIME_PIC_f92ad7eba776c85a51e307807b4cbd8e",
    "count_view": 0
  },
  {
    "link_thumb": "https://live.staticflickr.com/65535/51555631792_00faee6026_n.jpg",
    "id_album": "-89234980",
    "description": "ANIME_PIC_f92c6238314472c52b3785bc36a066f6,[GirlsCuteCool],[isGirlAnime],[isCuteAnime],[isGirlsLoliAnime]",
    "title": "ANIME_PIC_f92c6238314472c52b3785bc36a066f6",
    "link_img": "https://live.staticflickr.com/65535/51555631792_0ddfbed4bd_o.jpg",
    "id_image": "ANIME_PIC_f92c6238314472c52b3785bc36a066f6",
    "count_view": 0
  },
  {
    "link_thumb": "https://live.staticflickr.com/65535/51556425131_04c798eed2_n.jpg",
    "id_album": "-89234980",
    "description": "ANIME_PIC_f92f9e4be5f49bfe0858c6f1d0f4e211,[GirlsCuteCool],[isGirlAnime],[isCuteAnime],[isGirlsLoliAnime],[isSadAnimeGirl],[isSadAnime]",
    "title": "ANIME_PIC_f92f9e4be5f49bfe0858c6f1d0f4e211",
    "link_img": "https://live.staticflickr.com/65535/51556425131_2cda378e1f_o.png",
    "id_image": "ANIME_PIC_f92f9e4be5f49bfe0858c6f1d0f4e211",
    "count_view": 0
  },
  {
    "link_thumb": "https://live.staticflickr.com/65535/51557346145_99e77d951f_n.jpg",
    "id_album": "-89234980",
    "description": "ANIME_PIC_f9336956e1cbce92944272b6cb84173f,[GirlsCuteCool],[isGirlAnime],[isCuteAnime],[isSadAnimeGirl],[isSadAnime]",
    "title": "ANIME_PIC_f9336956e1cbce92944272b6cb84173f",
    "link_img": "https://live.staticflickr.com/65535/51557346145_644178288e_o.png",
    "id_image": "ANIME_PIC_f9336956e1cbce92944272b6cb84173f",
    "count_view": 0
  },
  {
    "link_thumb": "https://live.staticflickr.com/65535/51557346675_a91280b23a_n.jpg",
    "id_album": "-89234980",
    "description": "ANIME_PIC_f93afc47eb3feef741de8d68cfb5aa73,[GirlsCuteCool],[isGirlAnime],[isCuteAnime]",
    "title": "ANIME_PIC_f93afc47eb3feef741de8d68cfb5aa73",
    "link_img": "https://live.staticflickr.com/65535/51557346675_59458f16e7_o.jpg",
    "id_image": "ANIME_PIC_f93afc47eb3feef741de8d68cfb5aa73",
    "count_view": 0
  },
  {
    "link_thumb": "https://live.staticflickr.com/65535/51557118299_52c7282b6e_n.jpg",
    "id_album": "-89234980",
    "description": "ANIME_PIC_f93b5901b352a7a04ddfae5771f658ca,[GirlsCuteCool],[isGirlAnime],[isCuteAnime],[isGirlsHatsHoodieAnime],[isGirlsLoliAnime]",
    "title": "ANIME_PIC_f93b5901b352a7a04ddfae5771f658ca",
    "link_img": "https://live.staticflickr.com/65535/51557118299_64d2ef7035_o.jpg",
    "id_image": "ANIME_PIC_f93b5901b352a7a04ddfae5771f658ca",
    "count_view": 0
  },
  {
    "link_thumb": "https://live.staticflickr.com/65535/51557346990_62f71961cc_n.jpg",
    "id_album": "-89234980",
    "description": "ANIME_PIC_f93dd0a121c2a5e5b99139757140855d,[GirlsCuteCool],[isGirlAnime],[isCuteAnime],[isGirlsLoliAnime]",
    "title": "ANIME_PIC_f93dd0a121c2a5e5b99139757140855d",
    "link_img": "https://live.staticflickr.com/65535/51557346990_fe0b2a61ae_o.jpg",
    "id_image": "ANIME_PIC_f93dd0a121c2a5e5b99139757140855d",
    "count_view": 0
  },
  {
    "link_thumb": "https://live.staticflickr.com/65535/51557118574_57c6e1754c_n.jpg",
    "id_album": "-89234980",
    "description": "ANIME_PIC_f93e32440af3477ed605cd4e0d0d51f0,[GirlsCuteCool],[isGirlAnime],[isCuteAnime],[isGirlsLoliAnime]",
    "title": "ANIME_PIC_f93e32440af3477ed605cd4e0d0d51f0",
    "link_img": "https://live.staticflickr.com/65535/51557118574_0eef2631c6_o.jpg",
    "id_image": "ANIME_PIC_f93e32440af3477ed605cd4e0d0d51f0",
    "count_view": 0
  },
  {
    "link_thumb": "https://live.staticflickr.com/65535/51556661943_6eeea8f109_n.jpg",
    "id_album": "-89234980",
    "description": "ANIME_PIC_f93e477df8fe0494e22045a396ff26cb,[GirlsCuteCool],[isGirlAnime],[isCuteAnime],[isSadAnimeGirl],[isSadAnime]",
    "title": "ANIME_PIC_f93e477df8fe0494e22045a396ff26cb",
    "link_img": "https://live.staticflickr.com/65535/51556661943_f75318a3b2_o.jpg",
    "id_image": "ANIME_PIC_f93e477df8fe0494e22045a396ff26cb",
    "count_view": 0
  },
  {
    "link_thumb": "https://live.staticflickr.com/65535/51557347595_f56fcd361e_n.jpg",
    "id_album": "-89234980",
    "description": "ANIME_PIC_f93e704db9eb7a2abd05b4d2aae857fa,[GirlsCuteCool],[isGirlAnime],[isCuteAnime],[isGirlsHatsHoodieAnime],[isGirlsLoliAnime]",
    "title": "ANIME_PIC_f93e704db9eb7a2abd05b4d2aae857fa",
    "link_img": "https://live.staticflickr.com/65535/51557347595_c339174995_o.jpg",
    "id_image": "ANIME_PIC_f93e704db9eb7a2abd05b4d2aae857fa",
    "count_view": 0
  },
  {
    "link_thumb": "https://live.staticflickr.com/65535/51556662408_587de3cefc_n.jpg",
    "id_album": "-89234980",
    "description": "ANIME_PIC_f93f28ee57c0b6f738a54b7c71dbbda7,[GirlsCuteCool],[isGirlAnime],[isCuteAnime],[isGirlsLoliAnime],[isSadAnimeGirl],[isSadAnime]",
    "title": "ANIME_PIC_f93f28ee57c0b6f738a54b7c71dbbda7",
    "link_img": "https://live.staticflickr.com/65535/51556662408_2f0b712b7d_o.jpg",
    "id_image": "ANIME_PIC_f93f28ee57c0b6f738a54b7c71dbbda7",
    "count_view": 0
  }
]