[
  {
    "link_thumb": "https://live.staticflickr.com/65535/49918812756_57e1301972_n.jpg",
    "id_album": "1405432501",
    "description": "FairyTail_305963",
    "title": "FairyTail_305963",
    "link_img": "https://live.staticflickr.com/65535/49918812756_007e7ca219_o.jpg",
    "id_image": "FairyTail_305963",
    "count_view": 0
  },
  {
    "link_thumb": "https://live.staticflickr.com/65535/49919151397_90a0c2c145_n.jpg",
    "id_album": "1405432501",
    "description": "FairyTail_735710",
    "title": "FairyTail_735710",
    "link_img": "https://live.staticflickr.com/65535/49919151397_77df3cb683_o.jpg",
    "id_image": "FairyTail_735710",
    "count_view": 0
  },
  {
    "link_thumb": "https://live.staticflickr.com/65535/49918895311_62c7cb7fbd_n.jpg",
    "id_album": "1405432501",
    "description": "FairyTail_748291",
    "title": "FairyTail_748291",
    "link_img": "https://live.staticflickr.com/65535/49918895311_636a274606_o.jpg",
    "id_image": "FairyTail_748291",
    "count_view": 0
  },
  {
    "link_thumb": "https://live.staticflickr.com/65535/49918381488_a8be7a4172_n.jpg",
    "id_album": "1405432501",
    "description": "FairyTail_748293",
    "title": "FairyTail_748293",
    "link_img": "https://live.staticflickr.com/65535/49918381488_ae8a5bbe9c_o.jpg",
    "id_image": "FairyTail_748293",
    "count_view": 0
  },
  {
    "link_thumb": "https://live.staticflickr.com/65535/49918383638_83a564a564_n.jpg",
    "id_album": "1405432501",
    "description": "FairyTail_748297",
    "title": "FairyTail_748297",
    "link_img": "https://live.staticflickr.com/65535/49918383638_e5dcff18c1_o.jpg",
    "id_image": "FairyTail_748297",
    "count_view": 0
  }
]