[
  {
    "total_img": 168,
    "number_page": 1,
    "title": "Boruto",
    "tag": "Naruto Uzumaki, Orochimaru Naruto, Kakashi Hatake, Deidara Naruto, Black Hair, Minimalist, Tattoo, Minato Namikaze, Long Hair, Blonde, Hinata Hyuga, Sai Naruto, Sarada Uchiha, Chocho Akimichi, Sword, Boruto, Shikadai Nara, Short Hair, Mitsuki Naruto, Himawari Uzumaki, Sasuke Uchiha, Moegi Kazamatsuri, Katana, Neji Hyuga, Gaara Naruto, Kurama Naruto, Chouchou Akimichi, Akatsuki Naruto, Pink Hair, Boy, Hokage Naruto, Jogan Naruto, Boruto Naruto Next Generations, Boruto Anime, Sumire Kakei, Boruto Uzumaki, Blue Eyes, Momoshiki Otsutsuki, Inojin Yamanaka, Hanabi Hyuga, Sakura Haruno, Yamato Naruto, Hiashi Hyuga, Jiraiya Naruto, Might Guy",
    "description": "Boruto",
    "link_thumb": "https://live.staticflickr.com/65535/50352486288_a0c5f935b4_n.jpg",
    "id_album": "1975834136",
    "total_view": 168
  },
  {
    "total_img": 102,
    "number_page": 1,
    "title": "Boruto Uzumaki",
    "tag": "Boruto Uzumaki,",
    "description": "Boruto Uzumaki",
    "link_thumb": "https://live.staticflickr.com/65535/47955747242_bbd26baa13_n.jpg",
    "id_album": "-929541943",
    "total_view": 102
  },
  {
    "total_img": 21,
    "number_page": 1,
    "title": "Himawari Uzumaki",
    "tag": "Himawari Uzumaki,",
    "description": "Himawari Uzumaki",
    "link_thumb": "https://live.staticflickr.com/65535/48071884236_873e8b905a_n.jpg",
    "id_album": "-1198814054",
    "total_view": 21
  },
  {
    "total_img": 39,
    "number_page": 1,
    "title": "Hinata Hyuga",
    "tag": "Hinata Hyuga,",
    "description": "Hinata Hyuga",
    "link_thumb": "https://live.staticflickr.com/65535/48072355517_8340d861f3_n.jpg",
    "id_album": "-304193666",
    "total_view": 39
  },
  {
    "total_img": 275,
    "number_page": 2,
    "title": "Naruto Uzumaki",
    "tag": "Naruto Uzumaki,",
    "description": "Naruto Uzumaki",
    "link_thumb": "https://live.staticflickr.com/65535/48072357038_2cb29b8cf3_n.jpg",
    "id_album": "-571187132",
    "total_view": 275
  }
]