[
  {
    "total_img": 1479,
    "number_page": 8,
    "title": "Colored Girls",
    "tag": "Colored Girls,",
    "description": "Colored Girls",
    "link_thumb": "https://live.staticflickr.com/65535/50154717077_0e3e1e0b9f_n.jpg",
    "id_album": "-635262135",
    "total_view": 1479
  },
  {
    "total_img": 23859,
    "number_page": 120,
    "title": "Girls Cute Cool",
    "tag": "Girls Cute Cool,",
    "description": "Girls Cute Cool",
    "link_thumb": "https://live.staticflickr.com/65535/51542199025_2343ce2f5b_n.jpg",
    "id_album": "-89234980",
    "total_view": 23859
  },
  {
    "total_img": 1012,
    "number_page": 6,
    "title": "Girls Kimono Yukata Cheongsam",
    "tag": "Girls Kimono Yukata Cheongsam,",
    "description": "Girls Kimono Yukata Cheongsam",
    "link_thumb": "https://live.staticflickr.com/65535/50016508376_e4bb0bf7e3_n.jpg",
    "id_album": "489994677",
    "total_view": 1012
  },
  {
    "total_img": 15136,
    "number_page": 76,
    "title": "Girls Loli",
    "tag": "Girls Loli,",
    "description": "Girls Loli",
    "link_thumb": "https://live.staticflickr.com/65535/51542199025_2343ce2f5b_n.jpg",
    "id_album": "-1584065887",
    "total_view": 15136
  }
]