[
  {
    "total_img": 21,
    "number_page": 1,
    "title": "Berrys",
    "tag": "Izuno Youko, Cake, Natsuki Satou, Twinitails, Twintails, Long Hair, Thigh Highs, Anime, bow Clothing, Umbrella, Berrys, Short Hair, Yuna Murikubo, Aya Izutsu, Flower, Cute, Dress, Brown Hair, Yuuka Houkou, Pink Eyes, Pink Hair, School Uniform, Wakaba Tatsumi, Smile, Sunset, Blue Eyes, Blush, Stella Honami Canvendish",
    "description": "Berrys",
    "link_thumb": "https://live.staticflickr.com/65535/46979452055_8ba91148fe_n.jpg",
    "id_album": "397268491",
    "total_view": 21
  }
]