[
  {
    "link_thumb": "https://live.staticflickr.com/65535/47842470762_14cbbe85e4_n.jpg",
    "id_album": "-358721474",
    "description": "AttackOnTitan_814933,[isBoyAnime],[isBlackAnime],[Attack On Titan],[AttackOnTitan]",
    "title": "AttackOnTitan_814933",
    "link_img": "https://live.staticflickr.com/65535/47842470762_2e800dd9b7_o.jpg",
    "id_image": "AttackOnTitan_814933",
    "count_view": 0
  },
  {
    "link_thumb": "https://live.staticflickr.com/65535/46978490625_1aa9a71834_n.jpg",
    "id_album": "-358721474",
    "description": "AttackOnTitan_814934,[isBoyAnime],[Attack On Titan],[AttackOnTitan]",
    "title": "AttackOnTitan_814934",
    "link_img": "https://live.staticflickr.com/65535/46978490625_17d283df81_o.jpg",
    "id_image": "AttackOnTitan_814934",
    "count_view": 0
  },
  {
    "link_thumb": "https://live.staticflickr.com/65535/47842473612_8dece69e30_n.jpg",
    "id_album": "-358721474",
    "description": "AttackOnTitan_814937,[isGirlAnime],[Attack On Titan],[AttackOnTitan]",
    "title": "AttackOnTitan_814937",
    "link_img": "https://live.staticflickr.com/65535/47842473612_30366d7cde_o.jpg",
    "id_image": "AttackOnTitan_814937",
    "count_view": 0
  },
  {
    "link_thumb": "https://live.staticflickr.com/65535/40928173363_55a79ccbc0_n.jpg",
    "id_album": "-358721474",
    "description": "AttackOnTitan_814939,[isBoyAnime],[isBlackAnime],[Attack On Titan],[AttackOnTitan]",
    "title": "AttackOnTitan_814939",
    "link_img": "https://live.staticflickr.com/65535/40928173363_7c33137720_o.jpg",
    "id_image": "AttackOnTitan_814939",
    "count_view": 0
  },
  {
    "link_thumb": "https://live.staticflickr.com/65535/47894572831_873e398dbd_n.jpg",
    "id_album": "-358721474",
    "description": "AttackOnTitan_814940,[isBoyAnime],[Attack On Titan],[AttackOnTitan]",
    "title": "AttackOnTitan_814940",
    "link_img": "https://live.staticflickr.com/65535/47894572831_c60e45946f_o.jpg",
    "id_image": "AttackOnTitan_814940",
    "count_view": 0
  },
  {
    "link_thumb": "https://live.staticflickr.com/65535/46978499425_8041da05e7_n.jpg",
    "id_album": "-358721474",
    "description": "AttackOnTitan_814941,[isGirlAnime],[isBoyAnime],[Attack On Titan],[AttackOnTitan]",
    "title": "AttackOnTitan_814941",
    "link_img": "https://live.staticflickr.com/65535/46978499425_62a46976d7_o.jpg",
    "id_image": "AttackOnTitan_814941",
    "count_view": 0
  },
  {
    "link_thumb": "https://live.staticflickr.com/65535/47894576621_8078468186_n.jpg",
    "id_album": "-358721474",
    "description": "AttackOnTitan_814947,[isGirlAnime],[Attack On Titan],[AttackOnTitan]",
    "title": "AttackOnTitan_814947",
    "link_img": "https://live.staticflickr.com/65535/47894576621_04c9ed8c31_o.jpg",
    "id_image": "AttackOnTitan_814947",
    "count_view": 0
  },
  {
    "link_thumb": "https://live.staticflickr.com/65535/47105322254_f7c2590725_n.jpg",
    "id_album": "-358721474",
    "description": "AttackOnTitan_814948,[isGirlAnime],[Attack On Titan],[AttackOnTitan]",
    "title": "AttackOnTitan_814948",
    "link_img": "https://live.staticflickr.com/65535/47105322254_33aaa87618_o.jpg",
    "id_image": "AttackOnTitan_814948",
    "count_view": 0
  },
  {
    "link_thumb": "https://live.staticflickr.com/65535/47105323154_2354e830bf_n.jpg",
    "id_album": "-358721474",
    "description": "AttackOnTitan_814949,[isGirlAnime],[Attack On Titan],[AttackOnTitan]",
    "title": "AttackOnTitan_814949",
    "link_img": "https://live.staticflickr.com/65535/47105323154_e4b43d0c52_o.jpg",
    "id_image": "AttackOnTitan_814949",
    "count_view": 0
  },
  {
    "link_thumb": "https://live.staticflickr.com/65535/47894578511_b087dd15d0_n.jpg",
    "id_album": "-358721474",
    "description": "AttackOnTitan_814950,[isGirlAnime],[Attack On Titan],[AttackOnTitan]",
    "title": "AttackOnTitan_814950",
    "link_img": "https://live.staticflickr.com/65535/47894578511_985538abb7_o.jpg",
    "id_image": "AttackOnTitan_814950",
    "count_view": 0
  },
  {
    "link_thumb": "https://live.staticflickr.com/65535/47842484562_af3718f964_n.jpg",
    "id_album": "-358721474",
    "description": "AttackOnTitan_814951,[isGirlAnime],[isBoyAnime],[Attack On Titan],[AttackOnTitan]",
    "title": "AttackOnTitan_814951",
    "link_img": "https://live.staticflickr.com/65535/47842484562_ac5b22e735_o.jpg",
    "id_image": "AttackOnTitan_814951",
    "count_view": 0
  },
  {
    "link_thumb": "https://live.staticflickr.com/65535/47105328174_e2dcaa2d00_n.jpg",
    "id_album": "-358721474",
    "description": "AttackOnTitan_814957,[isGirlAnime],[isBoyAnime],[Attack On Titan],[AttackOnTitan]",
    "title": "AttackOnTitan_814957",
    "link_img": "https://live.staticflickr.com/65535/47105328174_ca3eeb9f66_o.jpg",
    "id_image": "AttackOnTitan_814957",
    "count_view": 0
  },
  {
    "link_thumb": "https://live.staticflickr.com/65535/47105332274_52eb6a26ee_n.jpg",
    "id_album": "-358721474",
    "description": "AttackOnTitan_814967,[isGirlAnime],[Attack On Titan],[AttackOnTitan]",
    "title": "AttackOnTitan_814967",
    "link_img": "https://live.staticflickr.com/65535/47105332274_700ee30e8a_o.jpg",
    "id_image": "AttackOnTitan_814967",
    "count_view": 0
  },
  {
    "link_thumb": "https://live.staticflickr.com/65535/47894588621_064c904249_n.jpg",
    "id_album": "-358721474",
    "description": "AttackOnTitan_817371,[isGirlAnime],[isBoyAnime],[Attack On Titan],[AttackOnTitan]",
    "title": "AttackOnTitan_817371",
    "link_img": "https://live.staticflickr.com/65535/47894588621_45d7808cfb_o.jpg",
    "id_image": "AttackOnTitan_817371",
    "count_view": 0
  },
  {
    "link_thumb": "https://live.staticflickr.com/65535/46978515725_0c9cd61c7c_n.jpg",
    "id_album": "-358721474",
    "description": "AttackOnTitan_817928,[isGirlAnime],[isBoyAnime],[Attack On Titan],[AttackOnTitan]",
    "title": "AttackOnTitan_817928",
    "link_img": "https://live.staticflickr.com/65535/46978515725_558d98acae_o.jpg",
    "id_image": "AttackOnTitan_817928",
    "count_view": 0
  },
  {
    "link_thumb": "https://live.staticflickr.com/65535/40928193713_ce01593ab6_n.jpg",
    "id_album": "-358721474",
    "description": "AttackOnTitan_817929,[isGirlAnime],[isBoyAnime],[Attack On Titan],[AttackOnTitan]",
    "title": "AttackOnTitan_817929",
    "link_img": "https://live.staticflickr.com/65535/40928193713_d17daa36b8_o.jpg",
    "id_image": "AttackOnTitan_817929",
    "count_view": 0
  },
  {
    "link_thumb": "https://live.staticflickr.com/65535/46978519025_2ca0c700c2_n.jpg",
    "id_album": "-358721474",
    "description": "AttackOnTitan_819842,[isBoyAnime],[Attack On Titan],[AttackOnTitan]",
    "title": "AttackOnTitan_819842",
    "link_img": "https://live.staticflickr.com/65535/46978519025_44691fb07b_o.jpg",
    "id_image": "AttackOnTitan_819842",
    "count_view": 0
  },
  {
    "link_thumb": "https://live.staticflickr.com/65535/47105341144_81668fc873_n.jpg",
    "id_album": "-358721474",
    "description": "AttackOnTitan_819846,[isGirlAnime],[Attack On Titan],[AttackOnTitan]",
    "title": "AttackOnTitan_819846",
    "link_img": "https://live.staticflickr.com/65535/47105341144_d17571c359_o.jpg",
    "id_image": "AttackOnTitan_819846",
    "count_view": 0
  },
  {
    "link_thumb": "https://live.staticflickr.com/65535/47105343644_7c0f72c3b2_n.jpg",
    "id_album": "-358721474",
    "description": "AttackOnTitan_820726,[isGirlAnime],[isBoyAnime],[isCoupleAnime],[Attack On Titan],[AttackOnTitan]",
    "title": "AttackOnTitan_820726",
    "link_img": "https://live.staticflickr.com/65535/47105343644_e80d1c4129_o.jpg",
    "id_image": "AttackOnTitan_820726",
    "count_view": 0
  },
  {
    "link_thumb": "https://live.staticflickr.com/65535/47842508372_76b95f71d7_n.jpg",
    "id_album": "-358721474",
    "description": "AttackOnTitan_821035,[isGirlAnime],[Attack On Titan],[AttackOnTitan]",
    "title": "AttackOnTitan_821035",
    "link_img": "https://live.staticflickr.com/65535/47842508372_0845a797f1_o.jpg",
    "id_image": "AttackOnTitan_821035",
    "count_view": 0
  },
  {
    "link_thumb": "https://live.staticflickr.com/65535/46978522805_508819ac01_n.jpg",
    "id_album": "-358721474",
    "description": "AttackOnTitan_821036,[isGirlAnime],[Attack On Titan],[AttackOnTitan]",
    "title": "AttackOnTitan_821036",
    "link_img": "https://live.staticflickr.com/65535/46978522805_f07815c56c_o.jpg",
    "id_image": "AttackOnTitan_821036",
    "count_view": 0
  },
  {
    "link_thumb": "https://live.staticflickr.com/65535/46978523675_a2512280ca_n.jpg",
    "id_album": "-358721474",
    "description": "AttackOnTitan_821061,[isBoyAnime],[Attack On Titan],[AttackOnTitan]",
    "title": "AttackOnTitan_821061",
    "link_img": "https://live.staticflickr.com/65535/46978523675_587660bf54_o.jpg",
    "id_image": "AttackOnTitan_821061",
    "count_view": 0
  },
  {
    "link_thumb": "https://live.staticflickr.com/65535/47842511482_2806bedc5b_n.jpg",
    "id_album": "-358721474",
    "description": "AttackOnTitan_821643,[isBoyAnime],[Attack On Titan],[AttackOnTitan]",
    "title": "AttackOnTitan_821643",
    "link_img": "https://live.staticflickr.com/65535/47842511482_bb650a8bc5_o.jpg",
    "id_image": "AttackOnTitan_821643",
    "count_view": 0
  },
  {
    "link_thumb": "https://live.staticflickr.com/65535/47842512102_f721fa993c_n.jpg",
    "id_album": "-358721474",
    "description": "AttackOnTitan_821644,[isBoyAnime],[Attack On Titan],[AttackOnTitan]",
    "title": "AttackOnTitan_821644",
    "link_img": "https://live.staticflickr.com/65535/47842512102_df5cc2d8f5_o.jpg",
    "id_image": "AttackOnTitan_821644",
    "count_view": 0
  },
  {
    "link_thumb": "https://live.staticflickr.com/65535/47105350024_0f7300e7c4_n.jpg",
    "id_album": "-358721474",
    "description": "AttackOnTitan_822128,[isBoyAnime],[isBlackAnime],[Attack On Titan],[AttackOnTitan]",
    "title": "AttackOnTitan_822128",
    "link_img": "https://live.staticflickr.com/65535/47105350024_591692e096_o.jpg",
    "id_image": "AttackOnTitan_822128",
    "count_view": 0
  },
  {
    "link_thumb": "https://live.staticflickr.com/65535/47894600351_cb7b803719_n.jpg",
    "id_album": "-358721474",
    "description": "AttackOnTitan_822869,[isBoyAnime],[Attack On Titan],[AttackOnTitan]",
    "title": "AttackOnTitan_822869",
    "link_img": "https://live.staticflickr.com/65535/47894600351_103b202815_o.jpg",
    "id_image": "AttackOnTitan_822869",
    "count_view": 0
  },
  {
    "link_thumb": "https://live.staticflickr.com/65535/40928203973_7c77a918de_n.jpg",
    "id_album": "-358721474",
    "description": "AttackOnTitan_823341,[isGirlAnime],[isBoyAnime],[Attack On Titan],[AttackOnTitan]",
    "title": "AttackOnTitan_823341",
    "link_img": "https://live.staticflickr.com/65535/40928203973_f6988d9767_o.jpg",
    "id_image": "AttackOnTitan_823341",
    "count_view": 0
  },
  {
    "link_thumb": "https://live.staticflickr.com/65535/46978526355_41f525bfa1_n.jpg",
    "id_album": "-358721474",
    "description": "AttackOnTitan_823724,[isGirlAnime],[Attack On Titan],[AttackOnTitan]",
    "title": "AttackOnTitan_823724",
    "link_img": "https://live.staticflickr.com/65535/46978526355_a0f84d9bb3_o.jpg",
    "id_image": "AttackOnTitan_823724",
    "count_view": 0
  },
  {
    "link_thumb": "https://live.staticflickr.com/65535/47894601841_e9e6d089bc_n.jpg",
    "id_album": "-358721474",
    "description": "AttackOnTitan_823947,[isGirlAnime],[Attack On Titan],[AttackOnTitan]",
    "title": "AttackOnTitan_823947",
    "link_img": "https://live.staticflickr.com/65535/47894601841_4236ef80cc_o.jpg",
    "id_image": "AttackOnTitan_823947",
    "count_view": 0
  },
  {
    "link_thumb": "https://live.staticflickr.com/65535/46978527495_6dbb37b646_n.jpg",
    "id_album": "-358721474",
    "description": "AttackOnTitan_824390,[isGirlAnime],[Attack On Titan],[AttackOnTitan]",
    "title": "AttackOnTitan_824390",
    "link_img": "https://live.staticflickr.com/65535/46978527495_bc8876ea33_o.jpg",
    "id_image": "AttackOnTitan_824390",
    "count_view": 0
  },
  {
    "link_thumb": "https://live.staticflickr.com/65535/47842518862_abcde70106_n.jpg",
    "id_album": "-358721474",
    "description": "AttackOnTitan_825983,[isGirlAnime],[isSadAnime],[isSadAnimeGirl],[Attack On Titan],[AttackOnTitan]",
    "title": "AttackOnTitan_825983",
    "link_img": "https://live.staticflickr.com/65535/47842518862_954bd93730_o.jpg",
    "id_image": "AttackOnTitan_825983",
    "count_view": 0
  },
  {
    "link_thumb": "https://live.staticflickr.com/65535/40928210183_a2f9ed8651_n.jpg",
    "id_album": "-358721474",
    "description": "AttackOnTitan_826064,[isGirlAnime],[Attack On Titan],[AttackOnTitan]",
    "title": "AttackOnTitan_826064",
    "link_img": "https://live.staticflickr.com/65535/40928210183_0efc198240_o.jpg",
    "id_image": "AttackOnTitan_826064",
    "count_view": 0
  },
  {
    "link_thumb": "https://live.staticflickr.com/65535/47105358604_ed415e2377_n.jpg",
    "id_album": "-358721474",
    "description": "AttackOnTitan_826103,[isGirlAnime],[isBoyAnime],[isCoupleAnime],[Attack On Titan],[AttackOnTitan]",
    "title": "AttackOnTitan_826103",
    "link_img": "https://live.staticflickr.com/65535/47105358604_4d0b8f74dd_o.jpg",
    "id_image": "AttackOnTitan_826103",
    "count_view": 0
  },
  {
    "link_thumb": "https://live.staticflickr.com/65535/40928211093_c7417af892_n.jpg",
    "id_album": "-358721474",
    "description": "AttackOnTitan_827338,[isGirlAnime],[Attack On Titan],[AttackOnTitan]",
    "title": "AttackOnTitan_827338",
    "link_img": "https://live.staticflickr.com/65535/40928211093_3aa8c13300_o.jpg",
    "id_image": "AttackOnTitan_827338",
    "count_view": 0
  },
  {
    "link_thumb": "https://live.staticflickr.com/65535/46978531635_08a1c556cb_n.jpg",
    "id_album": "-358721474",
    "description": "AttackOnTitan_827339,[isGirlAnime],[isBoyAnime],[isCoupleAnime],[Attack On Titan],[AttackOnTitan]",
    "title": "AttackOnTitan_827339",
    "link_img": "https://live.staticflickr.com/65535/46978531635_ef2869eb2b_o.jpg",
    "id_image": "AttackOnTitan_827339",
    "count_view": 0
  },
  {
    "link_thumb": "https://live.staticflickr.com/65535/47894616761_0b90574b36_n.jpg",
    "id_album": "-358721474",
    "description": "AttackOnTitan_830704,[isGirlAnime],[Attack On Titan],[AttackOnTitan]",
    "title": "AttackOnTitan_830704",
    "link_img": "https://live.staticflickr.com/65535/47894616761_6a18055860_o.jpg",
    "id_image": "AttackOnTitan_830704",
    "count_view": 0
  },
  {
    "link_thumb": "https://live.staticflickr.com/65535/46978537585_e1c32ff1b5_n.jpg",
    "id_album": "-358721474",
    "description": "AttackOnTitan_830705,[isBoyAnime],[Attack On Titan],[AttackOnTitan]",
    "title": "AttackOnTitan_830705",
    "link_img": "https://live.staticflickr.com/65535/46978537585_b68c60bab6_o.jpg",
    "id_image": "AttackOnTitan_830705",
    "count_view": 0
  },
  {
    "link_thumb": "https://live.staticflickr.com/65535/46978537955_78bb534ebd_n.jpg",
    "id_album": "-358721474",
    "description": "AttackOnTitan_830706,[isGirlAnime],[Attack On Titan],[AttackOnTitan]",
    "title": "AttackOnTitan_830706",
    "link_img": "https://live.staticflickr.com/65535/46978537955_d0b1579592_o.jpg",
    "id_image": "AttackOnTitan_830706",
    "count_view": 0
  },
  {
    "link_thumb": "https://live.staticflickr.com/65535/47894618121_0f72dac63f_n.jpg",
    "id_album": "-358721474",
    "description": "AttackOnTitan_830709,[isBoyAnime],[Attack On Titan],[AttackOnTitan]",
    "title": "AttackOnTitan_830709",
    "link_img": "https://live.staticflickr.com/65535/47894618121_2ec40a2d30_o.jpg",
    "id_image": "AttackOnTitan_830709",
    "count_view": 0
  },
  {
    "link_thumb": "https://live.staticflickr.com/65535/47894618771_c2a57374fa_n.jpg",
    "id_album": "-358721474",
    "description": "AttackOnTitan_831253,[isBoyAnime],[isBlackAnime],[Attack On Titan],[AttackOnTitan]",
    "title": "AttackOnTitan_831253",
    "link_img": "https://live.staticflickr.com/65535/47894618771_e5844d807e_o.jpg",
    "id_image": "AttackOnTitan_831253",
    "count_view": 0
  },
  {
    "link_thumb": "https://live.staticflickr.com/65535/47105376084_848eff4f08_n.jpg",
    "id_album": "-358721474",
    "description": "AttackOnTitan_832902,[isBoyAnime],[Attack On Titan],[AttackOnTitan]",
    "title": "AttackOnTitan_832902",
    "link_img": "https://live.staticflickr.com/65535/47105376084_5ebb55995e_o.jpg",
    "id_image": "AttackOnTitan_832902",
    "count_view": 0
  },
  {
    "link_thumb": "https://live.staticflickr.com/65535/47105376574_2196fe595c_n.jpg",
    "id_album": "-358721474",
    "description": "AttackOnTitan_832906,[isGirlAnime],[isBlackAnime],[Attack On Titan],[AttackOnTitan]",
    "title": "AttackOnTitan_832906",
    "link_img": "https://live.staticflickr.com/65535/47105376574_8a8a2cb2df_o.jpg",
    "id_image": "AttackOnTitan_832906",
    "count_view": 0
  },
  {
    "link_thumb": "https://live.staticflickr.com/65535/40928220093_afab330a4c_n.jpg",
    "id_album": "-358721474",
    "description": "AttackOnTitan_832907,[isGirlAnime],[Attack On Titan],[AttackOnTitan]",
    "title": "AttackOnTitan_832907",
    "link_img": "https://live.staticflickr.com/65535/40928220093_a25eb6b984_o.jpg",
    "id_image": "AttackOnTitan_832907",
    "count_view": 0
  },
  {
    "link_thumb": "https://live.staticflickr.com/65535/47894622571_78e8ccb0d6_n.jpg",
    "id_album": "-358721474",
    "description": "AttackOnTitan_832910,[isGirlAnime],[isCuteAnime],[isGirlsLoliAnime],[Attack On Titan],[AttackOnTitan]",
    "title": "AttackOnTitan_832910",
    "link_img": "https://live.staticflickr.com/65535/47894622571_8937a99b78_o.jpg",
    "id_image": "AttackOnTitan_832910",
    "count_view": 0
  },
  {
    "link_thumb": "https://live.staticflickr.com/65535/47894623361_a363577727_n.jpg",
    "id_album": "-358721474",
    "description": "AttackOnTitan_832912,[isGirlAnime],[Attack On Titan],[AttackOnTitan]",
    "title": "AttackOnTitan_832912",
    "link_img": "https://live.staticflickr.com/65535/47894623361_974df0e29c_o.jpg",
    "id_image": "AttackOnTitan_832912",
    "count_view": 0
  },
  {
    "link_thumb": "https://live.staticflickr.com/65535/47842537812_b4fcb254a3_n.jpg",
    "id_album": "-358721474",
    "description": "AttackOnTitan_832914,[isGirlAnime],[Attack On Titan],[AttackOnTitan]",
    "title": "AttackOnTitan_832914",
    "link_img": "https://live.staticflickr.com/65535/47842537812_c08dd62334_o.jpg",
    "id_image": "AttackOnTitan_832914",
    "count_view": 0
  },
  {
    "link_thumb": "https://live.staticflickr.com/65535/47894625991_d9a8a85b0e_n.jpg",
    "id_album": "-358721474",
    "description": "AttackOnTitan_832918,[isGirlAnime],[Attack On Titan],[AttackOnTitan]",
    "title": "AttackOnTitan_832918",
    "link_img": "https://live.staticflickr.com/65535/47894625991_339bc6331f_o.jpg",
    "id_image": "AttackOnTitan_832918",
    "count_view": 0
  },
  {
    "link_thumb": "https://live.staticflickr.com/65535/47894626631_88bc8434ec_n.jpg",
    "id_album": "-358721474",
    "description": "AttackOnTitan_832920,[isGirlAnime],[isCuteAnime],[isGirlsLoliAnime],[Attack On Titan],[AttackOnTitan]",
    "title": "AttackOnTitan_832920",
    "link_img": "https://live.staticflickr.com/65535/47894626631_72998a8af8_o.jpg",
    "id_image": "AttackOnTitan_832920",
    "count_view": 0
  },
  {
    "link_thumb": "https://live.staticflickr.com/65535/47894626971_ef8e6b12a4_n.jpg",
    "id_album": "-358721474",
    "description": "AttackOnTitan_832921,[isGirlAnime],[Attack On Titan],[AttackOnTitan]",
    "title": "AttackOnTitan_832921",
    "link_img": "https://live.staticflickr.com/65535/47894626971_bb2a5fe97c_o.jpg",
    "id_image": "AttackOnTitan_832921",
    "count_view": 0
  },
  {
    "link_thumb": "https://live.staticflickr.com/65535/46978548445_4a0e4b1177_n.jpg",
    "id_album": "-358721474",
    "description": "AttackOnTitan_832927,[isBoyAnime],[Attack On Titan],[AttackOnTitan]",
    "title": "AttackOnTitan_832927",
    "link_img": "https://live.staticflickr.com/65535/46978548445_f9e92fa82c_o.jpg",
    "id_image": "AttackOnTitan_832927",
    "count_view": 0
  },
  {
    "link_thumb": "https://live.staticflickr.com/65535/46978548705_b01f079a6b_n.jpg",
    "id_album": "-358721474",
    "description": "AttackOnTitan_832928,[isGirlAnime],[Attack On Titan],[AttackOnTitan]",
    "title": "AttackOnTitan_832928",
    "link_img": "https://live.staticflickr.com/65535/46978548705_132a24519b_o.jpg",
    "id_image": "AttackOnTitan_832928",
    "count_view": 0
  },
  {
    "link_thumb": "https://live.staticflickr.com/65535/47105383284_4d035674fd_n.jpg",
    "id_album": "-358721474",
    "description": "AttackOnTitan_832929,[isGirlAnime],[isBoyAnime],[isCoupleAnime],[Attack On Titan],[AttackOnTitan]",
    "title": "AttackOnTitan_832929",
    "link_img": "https://live.staticflickr.com/65535/47105383284_6380f9269d_o.jpg",
    "id_image": "AttackOnTitan_832929",
    "count_view": 0
  },
  {
    "link_thumb": "https://live.staticflickr.com/65535/46978550055_674c10bbf9_n.jpg",
    "id_album": "-358721474",
    "description": "AttackOnTitan_832932,[isGirlAnime],[isBoyAnime],[isCoupleAnime],[Attack On Titan],[AttackOnTitan]",
    "title": "AttackOnTitan_832932",
    "link_img": "https://live.staticflickr.com/65535/46978550055_32bc2b6f90_o.jpg",
    "id_image": "AttackOnTitan_832932",
    "count_view": 0
  },
  {
    "link_thumb": "https://live.staticflickr.com/65535/40928230313_6a02610b53_n.jpg",
    "id_album": "-358721474",
    "description": "AttackOnTitan_832934,[isGirlAnime],[isSadAnime],[isSadAnimeGirl],[Attack On Titan],[AttackOnTitan]",
    "title": "AttackOnTitan_832934",
    "link_img": "https://live.staticflickr.com/65535/40928230313_4a70dfefa2_o.jpg",
    "id_image": "AttackOnTitan_832934",
    "count_view": 0
  },
  {
    "link_thumb": "https://live.staticflickr.com/65535/47105386014_5b77290afa_n.jpg",
    "id_album": "-358721474",
    "description": "AttackOnTitan_832939,[isGirlAnime],[isBoyAnime],[Attack On Titan],[AttackOnTitan]",
    "title": "AttackOnTitan_832939",
    "link_img": "https://live.staticflickr.com/65535/47105386014_07b7ace117_o.jpg",
    "id_image": "AttackOnTitan_832939",
    "count_view": 0
  },
  {
    "link_thumb": "https://live.staticflickr.com/65535/40928234853_229a0630ec_n.jpg",
    "id_album": "-358721474",
    "description": "AttackOnTitan_832944,[isGirlAnime],[isCuteAnime],[isGirlsLoliAnime],[Attack On Titan],[AttackOnTitan]",
    "title": "AttackOnTitan_832944",
    "link_img": "https://live.staticflickr.com/65535/40928234853_d2a4977a01_o.jpg",
    "id_image": "AttackOnTitan_832944",
    "count_view": 0
  },
  {
    "link_thumb": "https://live.staticflickr.com/65535/47894637961_a0f7dfa9bc_n.jpg",
    "id_album": "-358721474",
    "description": "AttackOnTitan_832946,[isGirlAnime],[isBoyAnime],[Attack On Titan],[AttackOnTitan]",
    "title": "AttackOnTitan_832946",
    "link_img": "https://live.staticflickr.com/65535/47894637961_19638f58d6_o.jpg",
    "id_image": "AttackOnTitan_832946",
    "count_view": 0
  },
  {
    "link_thumb": "https://live.staticflickr.com/65535/47894638561_714e845694_n.jpg",
    "id_album": "-358721474",
    "description": "AttackOnTitan_832947,[isBoyAnime],[isBlackAnime],[Attack On Titan],[AttackOnTitan]",
    "title": "AttackOnTitan_832947",
    "link_img": "https://live.staticflickr.com/65535/47894638561_3a2528ecb6_o.jpg",
    "id_image": "AttackOnTitan_832947",
    "count_view": 0
  },
  {
    "link_thumb": "https://live.staticflickr.com/65535/46978553895_a767e4e800_n.jpg",
    "id_album": "-358721474",
    "description": "AttackOnTitan_832948,[isBoyAnime],[Attack On Titan],[AttackOnTitan]",
    "title": "AttackOnTitan_832948",
    "link_img": "https://live.staticflickr.com/65535/46978553895_a793d1427d_o.jpg",
    "id_image": "AttackOnTitan_832948",
    "count_view": 0
  },
  {
    "link_thumb": "https://live.staticflickr.com/65535/47894640291_644a5b738e_n.jpg",
    "id_album": "-358721474",
    "description": "AttackOnTitan_832950,[isGirlAnime],[isSadAnime],[isSadAnimeGirl],[Attack On Titan],[AttackOnTitan]",
    "title": "AttackOnTitan_832950",
    "link_img": "https://live.staticflickr.com/65535/47894640291_ed7bab9212_o.jpg",
    "id_image": "AttackOnTitan_832950",
    "count_view": 0
  },
  {
    "link_thumb": "https://live.staticflickr.com/65535/46978554555_ccebab461c_n.jpg",
    "id_album": "-358721474",
    "description": "AttackOnTitan_832951,[isGirlAnime],[isCuteAnime],[isGirlsLoliAnime],[Attack On Titan],[AttackOnTitan]",
    "title": "AttackOnTitan_832951",
    "link_img": "https://live.staticflickr.com/65535/46978554555_1d2d15265d_o.jpg",
    "id_image": "AttackOnTitan_832951",
    "count_view": 0
  },
  {
    "link_thumb": "https://live.staticflickr.com/65535/47105392564_c5bc930ba3_n.jpg",
    "id_album": "-358721474",
    "description": "AttackOnTitan_832953,[isGirlAnime],[isSadAnime],[isSadAnimeGirl],[Attack On Titan],[AttackOnTitan]",
    "title": "AttackOnTitan_832953",
    "link_img": "https://live.staticflickr.com/65535/47105392564_9e87d532b2_o.jpg",
    "id_image": "AttackOnTitan_832953",
    "count_view": 0
  },
  {
    "link_thumb": "https://live.staticflickr.com/65535/47894642471_1684a53609_n.jpg",
    "id_album": "-358721474",
    "description": "AttackOnTitan_832954,[isGirlAnime],[isCuteAnime],[Attack On Titan],[AttackOnTitan]",
    "title": "AttackOnTitan_832954",
    "link_img": "https://live.staticflickr.com/65535/47894642471_59dc13c9d3_o.jpg",
    "id_image": "AttackOnTitan_832954",
    "count_view": 0
  },
  {
    "link_thumb": "https://live.staticflickr.com/65535/47894643961_3a5603df64_n.jpg",
    "id_album": "-358721474",
    "description": "AttackOnTitan_832957,[isGirlAnime],[Attack On Titan],[AttackOnTitan]",
    "title": "AttackOnTitan_832957",
    "link_img": "https://live.staticflickr.com/65535/47894643961_da7d04c6a6_o.jpg",
    "id_image": "AttackOnTitan_832957",
    "count_view": 0
  },
  {
    "link_thumb": "https://live.staticflickr.com/65535/47894644921_52a8ac0a1f_n.jpg",
    "id_album": "-358721474",
    "description": "AttackOnTitan_832959,[isGirlAnime],[Attack On Titan],[AttackOnTitan]",
    "title": "AttackOnTitan_832959",
    "link_img": "https://live.staticflickr.com/65535/47894644921_657288ff43_o.jpg",
    "id_image": "AttackOnTitan_832959",
    "count_view": 0
  },
  {
    "link_thumb": "https://live.staticflickr.com/65535/47894645471_be81fd7f2a_n.jpg",
    "id_album": "-358721474",
    "description": "AttackOnTitan_832960,[isGirlAnime],[Attack On Titan],[AttackOnTitan]",
    "title": "AttackOnTitan_832960",
    "link_img": "https://live.staticflickr.com/65535/47894645471_59a6733682_o.jpg",
    "id_image": "AttackOnTitan_832960",
    "count_view": 0
  },
  {
    "link_thumb": "https://live.staticflickr.com/65535/47894645981_124228e41b_n.jpg",
    "id_album": "-358721474",
    "description": "AttackOnTitan_832961,[isGirlAnime],[Attack On Titan],[AttackOnTitan]",
    "title": "AttackOnTitan_832961",
    "link_img": "https://live.staticflickr.com/65535/47894645981_c2aa92988b_o.jpg",
    "id_image": "AttackOnTitan_832961",
    "count_view": 0
  },
  {
    "link_thumb": "https://live.staticflickr.com/65535/46978559805_e5805ba97a_n.jpg",
    "id_album": "-358721474",
    "description": "AttackOnTitan_832962,[isGirlAnime],[Attack On Titan],[AttackOnTitan]",
    "title": "AttackOnTitan_832962",
    "link_img": "https://live.staticflickr.com/65535/46978559805_e4e25d7a9e_o.jpg",
    "id_image": "AttackOnTitan_832962",
    "count_view": 0
  },
  {
    "link_thumb": "https://live.staticflickr.com/65535/40928245753_142239d0ab_n.jpg",
    "id_album": "-358721474",
    "description": "AttackOnTitan_832964,[isGirlAnime],[isSadAnime],[isSadAnimeGirl],[Attack On Titan],[AttackOnTitan]",
    "title": "AttackOnTitan_832964",
    "link_img": "https://live.staticflickr.com/65535/40928245753_04baf39d47_o.jpg",
    "id_image": "AttackOnTitan_832964",
    "count_view": 0
  },
  {
    "link_thumb": "https://live.staticflickr.com/65535/47894647661_3893d79848_n.jpg",
    "id_album": "-358721474",
    "description": "AttackOnTitan_832965,[isGirlAnime],[isCuteAnime],[isGirlsLoliAnime],[Attack On Titan],[AttackOnTitan]",
    "title": "AttackOnTitan_832965",
    "link_img": "https://live.staticflickr.com/65535/47894647661_591d32512f_o.jpg",
    "id_image": "AttackOnTitan_832965",
    "count_view": 0
  },
  {
    "link_thumb": "https://live.staticflickr.com/65535/46978561175_48c3c4ba23_n.jpg",
    "id_album": "-358721474",
    "description": "AttackOnTitan_832966,[isGirlAnime],[isSadAnime],[isSadAnimeGirl],[Attack On Titan],[AttackOnTitan]",
    "title": "AttackOnTitan_832966",
    "link_img": "https://live.staticflickr.com/65535/46978561175_053a5898b5_o.jpg",
    "id_image": "AttackOnTitan_832966",
    "count_view": 0
  },
  {
    "link_thumb": "https://live.staticflickr.com/65535/40928248453_e83ab734d9_n.jpg",
    "id_album": "-358721474",
    "description": "AttackOnTitan_832969,[isGirlAnime],[isCuteAnime],[Attack On Titan],[AttackOnTitan]",
    "title": "AttackOnTitan_832969",
    "link_img": "https://live.staticflickr.com/65535/40928248453_681372b3ea_o.jpg",
    "id_image": "AttackOnTitan_832969",
    "count_view": 0
  },
  {
    "link_thumb": "https://live.staticflickr.com/65535/47894649871_0441c4cf8a_n.jpg",
    "id_album": "-358721474",
    "description": "AttackOnTitan_832972,[isGirlAnime],[isCuteAnime],[Attack On Titan],[AttackOnTitan]",
    "title": "AttackOnTitan_832972",
    "link_img": "https://live.staticflickr.com/65535/47894649871_eabcd779a7_o.jpg",
    "id_image": "AttackOnTitan_832972",
    "count_view": 0
  },
  {
    "link_thumb": "https://live.staticflickr.com/65535/47842556642_4e67c3df4b_n.jpg",
    "id_album": "-358721474",
    "description": "AttackOnTitan_832973,[isGirlAnime],[isCuteAnime],[Attack On Titan],[AttackOnTitan]",
    "title": "AttackOnTitan_832973",
    "link_img": "https://live.staticflickr.com/65535/47842556642_b22b963d6b_o.jpg",
    "id_image": "AttackOnTitan_832973",
    "count_view": 0
  },
  {
    "link_thumb": "https://live.staticflickr.com/65535/46978562595_122142f5f4_n.jpg",
    "id_album": "-358721474",
    "description": "AttackOnTitan_832974,[isGirlAnime],[Attack On Titan],[AttackOnTitan]",
    "title": "AttackOnTitan_832974",
    "link_img": "https://live.staticflickr.com/65535/46978562595_4b7d08f4c1_o.jpg",
    "id_image": "AttackOnTitan_832974",
    "count_view": 0
  },
  {
    "link_thumb": "https://live.staticflickr.com/65535/47105399824_742fb5acc9_n.jpg",
    "id_album": "-358721474",
    "description": "AttackOnTitan_832976,[isGirlAnime],[isSadAnime],[isSadAnimeGirl],[Attack On Titan],[AttackOnTitan]",
    "title": "AttackOnTitan_832976",
    "link_img": "https://live.staticflickr.com/65535/47105399824_bc0693920d_o.jpg",
    "id_image": "AttackOnTitan_832976",
    "count_view": 0
  },
  {
    "link_thumb": "https://live.staticflickr.com/65535/40928254433_eef57a6e25_n.jpg",
    "id_album": "-358721474",
    "description": "AttackOnTitan_832979,[isGirlAnime],[isCuteAnime],[Attack On Titan],[AttackOnTitan]",
    "title": "AttackOnTitan_832979",
    "link_img": "https://live.staticflickr.com/65535/40928254433_e587531231_o.jpg",
    "id_image": "AttackOnTitan_832979",
    "count_view": 0
  },
  {
    "link_thumb": "https://live.staticflickr.com/65535/46978563485_9079326e05_n.jpg",
    "id_album": "-358721474",
    "description": "AttackOnTitan_832980,[isGirlAnime],[Attack On Titan],[AttackOnTitan]",
    "title": "AttackOnTitan_832980",
    "link_img": "https://live.staticflickr.com/65535/46978563485_ef5db181d8_o.jpg",
    "id_image": "AttackOnTitan_832980",
    "count_view": 0
  },
  {
    "link_thumb": "https://live.staticflickr.com/65535/40928256253_19891d0d08_n.jpg",
    "id_album": "-358721474",
    "description": "AttackOnTitan_832983,[isGirlAnime],[isBoyAnime],[isCoupleAnime],[Attack On Titan],[AttackOnTitan]",
    "title": "AttackOnTitan_832983",
    "link_img": "https://live.staticflickr.com/65535/40928256253_fd6a079b34_o.jpg",
    "id_image": "AttackOnTitan_832983",
    "count_view": 0
  },
  {
    "link_thumb": "https://live.staticflickr.com/65535/40928256653_1a5436fc97_n.jpg",
    "id_album": "-358721474",
    "description": "AttackOnTitan_832984,[isGirlAnime],[isCuteAnime],[Attack On Titan],[AttackOnTitan]",
    "title": "AttackOnTitan_832984",
    "link_img": "https://live.staticflickr.com/65535/40928256653_7de157c2ec_o.jpg",
    "id_image": "AttackOnTitan_832984",
    "count_view": 0
  },
  {
    "link_thumb": "https://live.staticflickr.com/65535/40928257443_b4831bf38a_n.jpg",
    "id_album": "-358721474",
    "description": "AttackOnTitan_832986,[isGirlAnime],[isSadAnime],[isSadAnimeGirl],[Attack On Titan],[AttackOnTitan]",
    "title": "AttackOnTitan_832986",
    "link_img": "https://live.staticflickr.com/65535/40928257443_e0d9805d57_o.jpg",
    "id_image": "AttackOnTitan_832986",
    "count_view": 0
  },
  {
    "link_thumb": "https://live.staticflickr.com/65535/47105403934_fdcc0cf2da_n.jpg",
    "id_album": "-358721474",
    "description": "AttackOnTitan_832987,[isGirlAnime],[isBoyAnime],[isCoupleAnime],[Attack On Titan],[AttackOnTitan]",
    "title": "AttackOnTitan_832987",
    "link_img": "https://live.staticflickr.com/65535/47105403934_bcd27f2124_o.jpg",
    "id_image": "AttackOnTitan_832987",
    "count_view": 0
  },
  {
    "link_thumb": "https://live.staticflickr.com/65535/40928258073_831bfaa241_n.jpg",
    "id_album": "-358721474",
    "description": "AttackOnTitan_832988,[isGirlAnime],[isCuteAnime],[isGirlsLoliAnime],[Attack On Titan],[AttackOnTitan]",
    "title": "AttackOnTitan_832988",
    "link_img": "https://live.staticflickr.com/65535/40928258073_2bf411899e_o.jpg",
    "id_image": "AttackOnTitan_832988",
    "count_view": 0
  },
  {
    "link_thumb": "https://live.staticflickr.com/65535/47894655731_74642fc50d_n.jpg",
    "id_album": "-358721474",
    "description": "AttackOnTitan_832991,[isGirlAnime],[isSadAnime],[isSadAnimeGirl],[Attack On Titan],[AttackOnTitan]",
    "title": "AttackOnTitan_832991",
    "link_img": "https://live.staticflickr.com/65535/47894655731_33753ba36d_o.jpg",
    "id_image": "AttackOnTitan_832991",
    "count_view": 0
  },
  {
    "link_thumb": "https://live.staticflickr.com/65535/47105408284_c88408d40e_n.jpg",
    "id_album": "-358721474",
    "description": "AttackOnTitan_832995,[isGirlAnime],[isSadAnime],[isSadAnimeGirl],[Attack On Titan],[AttackOnTitan]",
    "title": "AttackOnTitan_832995",
    "link_img": "https://live.staticflickr.com/65535/47105408284_3ec8c376a6_o.jpg",
    "id_image": "AttackOnTitan_832995",
    "count_view": 0
  },
  {
    "link_thumb": "https://live.staticflickr.com/65535/47105408804_9bdcef0257_n.jpg",
    "id_album": "-358721474",
    "description": "AttackOnTitan_832996,[isGirlAnime],[Attack On Titan],[AttackOnTitan]",
    "title": "AttackOnTitan_832996",
    "link_img": "https://live.staticflickr.com/65535/47105408804_3d53cab474_o.jpg",
    "id_image": "AttackOnTitan_832996",
    "count_view": 0
  },
  {
    "link_thumb": "https://live.staticflickr.com/65535/47842566102_b314e20236_n.jpg",
    "id_album": "-358721474",
    "description": "AttackOnTitan_832998,[isGirlAnime],[isSadAnime],[isSadAnimeGirl],[isBlackAnime],[Attack On Titan],[AttackOnTitan]",
    "title": "AttackOnTitan_832998",
    "link_img": "https://live.staticflickr.com/65535/47842566102_b8d4279621_o.jpg",
    "id_image": "AttackOnTitan_832998",
    "count_view": 0
  },
  {
    "link_thumb": "https://live.staticflickr.com/65535/46978569085_c941190e06_n.jpg",
    "id_album": "-358721474",
    "description": "AttackOnTitan_832999,[isGirlAnime],[isSadAnime],[isSadAnimeGirl],[Attack On Titan],[AttackOnTitan]",
    "title": "AttackOnTitan_832999",
    "link_img": "https://live.staticflickr.com/65535/46978569085_2e6df5d1bb_o.jpg",
    "id_image": "AttackOnTitan_832999",
    "count_view": 0
  },
  {
    "link_thumb": "https://live.staticflickr.com/65535/47842568492_99e964b2be_n.jpg",
    "id_album": "-358721474",
    "description": "AttackOnTitan_833002,[isGirlAnime],[isBoyAnime],[isSadAnime],[Attack On Titan],[AttackOnTitan]",
    "title": "AttackOnTitan_833002",
    "link_img": "https://live.staticflickr.com/65535/47842568492_307af6d1be_o.jpg",
    "id_image": "AttackOnTitan_833002",
    "count_view": 0
  },
  {
    "link_thumb": "https://live.staticflickr.com/65535/47842573862_ec1cea981e_n.jpg",
    "id_album": "-358721474",
    "description": "AttackOnTitan_833004,[isGirlAnime],[isSadAnime],[isSadAnimeGirl],[Attack On Titan],[AttackOnTitan]",
    "title": "AttackOnTitan_833004",
    "link_img": "https://live.staticflickr.com/65535/47842573862_a29144b138_o.jpg",
    "id_image": "AttackOnTitan_833004",
    "count_view": 0
  },
  {
    "link_thumb": "https://live.staticflickr.com/65535/47894664891_07cf3563f9_n.jpg",
    "id_album": "-358721474",
    "description": "AttackOnTitan_833006,[isBoyAnime],[isSadAnime],[isSadAnimeBoy],[Attack On Titan],[AttackOnTitan]",
    "title": "AttackOnTitan_833006",
    "link_img": "https://live.staticflickr.com/65535/47894664891_bd9b1bb8ea_o.jpg",
    "id_image": "AttackOnTitan_833006",
    "count_view": 0
  },
  {
    "link_thumb": "https://live.staticflickr.com/65535/47842576192_7b22a65101_n.jpg",
    "id_album": "-358721474",
    "description": "AttackOnTitan_833007,[isGirlAnime],[Attack On Titan],[AttackOnTitan]",
    "title": "AttackOnTitan_833007",
    "link_img": "https://live.staticflickr.com/65535/47842576192_2fdc6bf7d6_o.jpg",
    "id_image": "AttackOnTitan_833007",
    "count_view": 0
  },
  {
    "link_thumb": "https://live.staticflickr.com/65535/46978574045_fc4a54fd8d_n.jpg",
    "id_album": "-358721474",
    "description": "AttackOnTitan_833008,[isGirlAnime],[Attack On Titan],[AttackOnTitan]",
    "title": "AttackOnTitan_833008",
    "link_img": "https://live.staticflickr.com/65535/46978574045_05c888b663_o.jpg",
    "id_image": "AttackOnTitan_833008",
    "count_view": 0
  },
  {
    "link_thumb": "https://live.staticflickr.com/65535/47842580562_a80bfda0da_n.jpg",
    "id_album": "-358721474",
    "description": "AttackOnTitan_833013,[isGirlAnime],[Attack On Titan],[AttackOnTitan]",
    "title": "AttackOnTitan_833013",
    "link_img": "https://live.staticflickr.com/65535/47842580562_3eb2358213_o.jpg",
    "id_image": "AttackOnTitan_833013",
    "count_view": 0
  },
  {
    "link_thumb": "https://live.staticflickr.com/65535/46978576725_4220c403fc_n.jpg",
    "id_album": "-358721474",
    "description": "AttackOnTitan_833015,[isGirlAnime],[Attack On Titan],[AttackOnTitan]",
    "title": "AttackOnTitan_833015",
    "link_img": "https://live.staticflickr.com/65535/46978576725_ac0815fcb0_o.jpg",
    "id_image": "AttackOnTitan_833015",
    "count_view": 0
  },
  {
    "link_thumb": "https://live.staticflickr.com/65535/40928272323_ec92fbabc4_n.jpg",
    "id_album": "-358721474",
    "description": "AttackOnTitan_833017,[isGirlAnime],[isSadAnime],[isSadAnimeGirl],[Attack On Titan],[AttackOnTitan]",
    "title": "AttackOnTitan_833017",
    "link_img": "https://live.staticflickr.com/65535/40928272323_acc045e480_o.jpg",
    "id_image": "AttackOnTitan_833017",
    "count_view": 0
  },
  {
    "link_thumb": "https://live.staticflickr.com/65535/40928272853_e6f1a0b298_n.jpg",
    "id_album": "-358721474",
    "description": "AttackOnTitan_833019,[isGirlAnime],[Attack On Titan],[AttackOnTitan]",
    "title": "AttackOnTitan_833019",
    "link_img": "https://live.staticflickr.com/65535/40928272853_8bc636cf66_o.jpg",
    "id_image": "AttackOnTitan_833019",
    "count_view": 0
  },
  {
    "link_thumb": "https://live.staticflickr.com/65535/47842585712_0e09e3dc64_n.jpg",
    "id_album": "-358721474",
    "description": "AttackOnTitan_833021,[isGirlAnime],[isCuteAnime],[Attack On Titan],[AttackOnTitan]",
    "title": "AttackOnTitan_833021",
    "link_img": "https://live.staticflickr.com/65535/47842585712_7f466c436d_o.jpg",
    "id_image": "AttackOnTitan_833021",
    "count_view": 0
  },
  {
    "link_thumb": "https://live.staticflickr.com/65535/47894675221_bb8b247e34_n.jpg",
    "id_album": "-358721474",
    "description": "AttackOnTitan_833023,[isGirlAnime],[isCuteAnime],[Attack On Titan],[AttackOnTitan]",
    "title": "AttackOnTitan_833023",
    "link_img": "https://live.staticflickr.com/65535/47894675221_70a4d3a0a0_o.jpg",
    "id_image": "AttackOnTitan_833023",
    "count_view": 0
  },
  {
    "link_thumb": "https://live.staticflickr.com/65535/47842587352_92b8a661d7_n.jpg",
    "id_album": "-358721474",
    "description": "AttackOnTitan_833024,[isGirlAnime],[isSadAnime],[isSadAnimeGirl],[Attack On Titan],[AttackOnTitan]",
    "title": "AttackOnTitan_833024",
    "link_img": "https://live.staticflickr.com/65535/47842587352_760fa7be71_o.jpg",
    "id_image": "AttackOnTitan_833024",
    "count_view": 0
  },
  {
    "link_thumb": "https://live.staticflickr.com/65535/40928275043_e3db1c3b50_n.jpg",
    "id_album": "-358721474",
    "description": "AttackOnTitan_833025,[isGirlAnime],[Attack On Titan],[AttackOnTitan]",
    "title": "AttackOnTitan_833025",
    "link_img": "https://live.staticflickr.com/65535/40928275043_1345800df4_o.jpg",
    "id_image": "AttackOnTitan_833025",
    "count_view": 0
  },
  {
    "link_thumb": "https://live.staticflickr.com/65535/46978581905_a7f6159d91_n.jpg",
    "id_album": "-358721474",
    "description": "AttackOnTitan_833027,[isGirlAnime],[isCuteAnime],[isGirlsLoliAnime],[Attack On Titan],[AttackOnTitan]",
    "title": "AttackOnTitan_833027",
    "link_img": "https://live.staticflickr.com/65535/46978581905_54010e3927_o.jpg",
    "id_image": "AttackOnTitan_833027",
    "count_view": 0
  },
  {
    "link_thumb": "https://live.staticflickr.com/65535/46978582775_c15b242030_n.jpg",
    "id_album": "-358721474",
    "description": "AttackOnTitan_833029,[isGirlAnime],[Attack On Titan],[AttackOnTitan]",
    "title": "AttackOnTitan_833029",
    "link_img": "https://live.staticflickr.com/65535/46978582775_2416ef034d_o.jpg",
    "id_image": "AttackOnTitan_833029",
    "count_view": 0
  },
  {
    "link_thumb": "https://live.staticflickr.com/65535/47894677761_8ee93f5e00_n.jpg",
    "id_album": "-358721474",
    "description": "AttackOnTitan_833030,[isGirlAnime],[isCuteAnime],[isGirlsLoliAnime],[Attack On Titan],[AttackOnTitan]",
    "title": "AttackOnTitan_833030",
    "link_img": "https://live.staticflickr.com/65535/47894677761_bcdc6e91d4_o.jpg",
    "id_image": "AttackOnTitan_833030",
    "count_view": 0
  },
  {
    "link_thumb": "https://live.staticflickr.com/65535/47894678201_0ce8c7cae8_n.jpg",
    "id_album": "-358721474",
    "description": "AttackOnTitan_833031,[isGirlAnime],[isSadAnime],[isSadAnimeGirl],[Attack On Titan],[AttackOnTitan]",
    "title": "AttackOnTitan_833031",
    "link_img": "https://live.staticflickr.com/65535/47894678201_a430200ef5_o.jpg",
    "id_image": "AttackOnTitan_833031",
    "count_view": 0
  },
  {
    "link_thumb": "https://live.staticflickr.com/65535/40928278133_4464ece32b_n.jpg",
    "id_album": "-358721474",
    "description": "AttackOnTitan_833032,[isGirlAnime],[isSadAnime],[isSadAnimeGirl],[Attack On Titan],[AttackOnTitan]",
    "title": "AttackOnTitan_833032",
    "link_img": "https://live.staticflickr.com/65535/40928278133_f49af52deb_o.jpg",
    "id_image": "AttackOnTitan_833032",
    "count_view": 0
  },
  {
    "link_thumb": "https://live.staticflickr.com/65535/40928278543_bb7836af33_n.jpg",
    "id_album": "-358721474",
    "description": "AttackOnTitan_833033,[isGirlAnime],[isCuteAnime],[Attack On Titan],[AttackOnTitan]",
    "title": "AttackOnTitan_833033",
    "link_img": "https://live.staticflickr.com/65535/40928278543_a10a05433c_o.jpg",
    "id_image": "AttackOnTitan_833033",
    "count_view": 0
  },
  {
    "link_thumb": "https://live.staticflickr.com/65535/47105427034_de426c6439_n.jpg",
    "id_album": "-358721474",
    "description": "AttackOnTitan_833034,[isGirlAnime],[isSadAnime],[isSadAnimeGirl],[Attack On Titan],[AttackOnTitan]",
    "title": "AttackOnTitan_833034",
    "link_img": "https://live.staticflickr.com/65535/47105427034_1c9209c707_o.jpg",
    "id_image": "AttackOnTitan_833034",
    "count_view": 0
  },
  {
    "link_thumb": "https://live.staticflickr.com/65535/47105427674_15e3302ae2_n.jpg",
    "id_album": "-358721474",
    "description": "AttackOnTitan_833035,[isGirlAnime],[isBoyAnime],[isCoupleAnime],[Attack On Titan],[AttackOnTitan]",
    "title": "AttackOnTitan_833035",
    "link_img": "https://live.staticflickr.com/65535/47105427674_0ee3dfb56f_o.jpg",
    "id_image": "AttackOnTitan_833035",
    "count_view": 0
  },
  {
    "link_thumb": "https://live.staticflickr.com/65535/47894679651_aef22b591a_n.jpg",
    "id_album": "-358721474",
    "description": "AttackOnTitan_833037,[isGirlAnime],[isSadAnime],[isSadAnimeGirl],[Attack On Titan],[AttackOnTitan]",
    "title": "AttackOnTitan_833037",
    "link_img": "https://live.staticflickr.com/65535/47894679651_6061b70a72_o.jpg",
    "id_image": "AttackOnTitan_833037",
    "count_view": 0
  },
  {
    "link_thumb": "https://live.staticflickr.com/65535/47105429234_a5e03fa32a_n.jpg",
    "id_album": "-358721474",
    "description": "AttackOnTitan_833038,[isGirlAnime],[Attack On Titan],[AttackOnTitan]",
    "title": "AttackOnTitan_833038",
    "link_img": "https://live.staticflickr.com/65535/47105429234_f031824dde_o.jpg",
    "id_image": "AttackOnTitan_833038",
    "count_view": 0
  },
  {
    "link_thumb": "https://live.staticflickr.com/65535/46978587635_046c94b08c_n.jpg",
    "id_album": "-358721474",
    "description": "AttackOnTitan_833040,[isGirlAnime],[isBoyAnime],[isSadAnime],[isSadAnimeGirl],[isSadAnimeBoy],[isCoupleAnime],[Attack On Titan],[AttackOnTitan]",
    "title": "AttackOnTitan_833040",
    "link_img": "https://live.staticflickr.com/65535/46978587635_10b587f689_o.jpg",
    "id_image": "AttackOnTitan_833040",
    "count_view": 0
  },
  {
    "link_thumb": "https://live.staticflickr.com/65535/47105431024_1903a60eb9_n.jpg",
    "id_album": "-358721474",
    "description": "AttackOnTitan_833041,[isGirlAnime],[Attack On Titan],[AttackOnTitan]",
    "title": "AttackOnTitan_833041",
    "link_img": "https://live.staticflickr.com/65535/47105431024_8410258de3_o.jpg",
    "id_image": "AttackOnTitan_833041",
    "count_view": 0
  },
  {
    "link_thumb": "https://live.staticflickr.com/65535/47842595392_71d63e9438_n.jpg",
    "id_album": "-358721474",
    "description": "AttackOnTitan_833042,[isGirlAnime],[isSadAnime],[isSadAnimeGirl],[Attack On Titan],[AttackOnTitan]",
    "title": "AttackOnTitan_833042",
    "link_img": "https://live.staticflickr.com/65535/47842595392_7784b264d1_o.jpg",
    "id_image": "AttackOnTitan_833042",
    "count_view": 0
  },
  {
    "link_thumb": "https://live.staticflickr.com/65535/47105432434_da2ea2026f_n.jpg",
    "id_album": "-358721474",
    "description": "AttackOnTitan_833043,[isGirlAnime],[isBoyAnime],[isCoupleAnime],[Attack On Titan],[AttackOnTitan]",
    "title": "AttackOnTitan_833043",
    "link_img": "https://live.staticflickr.com/65535/47105432434_1fdd10bfcf_o.jpg",
    "id_image": "AttackOnTitan_833043",
    "count_view": 0
  },
  {
    "link_thumb": "https://live.staticflickr.com/65535/47894681281_4ac78bb249_n.jpg",
    "id_album": "-358721474",
    "description": "AttackOnTitan_833044,[isGirlAnime],[isBoyAnime],[isCoupleAnime],[Attack On Titan],[AttackOnTitan]",
    "title": "AttackOnTitan_833044",
    "link_img": "https://live.staticflickr.com/65535/47894681281_933b3d7005_o.jpg",
    "id_image": "AttackOnTitan_833044",
    "count_view": 0
  },
  {
    "link_thumb": "https://live.staticflickr.com/65535/46978590515_9fe527e408_n.jpg",
    "id_album": "-358721474",
    "description": "AttackOnTitan_833045,[isGirlAnime],[Attack On Titan],[AttackOnTitan]",
    "title": "AttackOnTitan_833045",
    "link_img": "https://live.staticflickr.com/65535/46978590515_8f198cd02f_o.jpg",
    "id_image": "AttackOnTitan_833045",
    "count_view": 0
  },
  {
    "link_thumb": "https://live.staticflickr.com/65535/47842596862_f2392337c8_n.jpg",
    "id_album": "-358721474",
    "description": "AttackOnTitan_833046,[isGirlAnime],[isSadAnime],[isSadAnimeGirl],[Attack On Titan],[AttackOnTitan]",
    "title": "AttackOnTitan_833046",
    "link_img": "https://live.staticflickr.com/65535/47842596862_457149015e_o.jpg",
    "id_image": "AttackOnTitan_833046",
    "count_view": 0
  },
  {
    "link_thumb": "https://live.staticflickr.com/65535/47105434924_fa667bcf09_n.jpg",
    "id_album": "-358721474",
    "description": "AttackOnTitan_833048,[isGirlAnime],[Attack On Titan],[AttackOnTitan]",
    "title": "AttackOnTitan_833048",
    "link_img": "https://live.staticflickr.com/65535/47105434924_79527f18b4_o.jpg",
    "id_image": "AttackOnTitan_833048",
    "count_view": 0
  },
  {
    "link_thumb": "https://live.staticflickr.com/65535/40928285153_b2f318b369_n.jpg",
    "id_album": "-358721474",
    "description": "AttackOnTitan_833049,[isGirlAnime],[Attack On Titan],[AttackOnTitan]",
    "title": "AttackOnTitan_833049",
    "link_img": "https://live.staticflickr.com/65535/40928285153_13f1beb922_o.jpg",
    "id_image": "AttackOnTitan_833049",
    "count_view": 0
  },
  {
    "link_thumb": "https://live.staticflickr.com/65535/46978592275_d793956180_n.jpg",
    "id_album": "-358721474",
    "description": "AttackOnTitan_833050,[isGirlAnime],[Attack On Titan],[AttackOnTitan]",
    "title": "AttackOnTitan_833050",
    "link_img": "https://live.staticflickr.com/65535/46978592275_f9aced14b2_o.jpg",
    "id_image": "AttackOnTitan_833050",
    "count_view": 0
  },
  {
    "link_thumb": "https://live.staticflickr.com/65535/47105436854_5b2a779610_n.jpg",
    "id_album": "-358721474",
    "description": "AttackOnTitan_833052,[isGirlAnime],[isBoyAnime],[isCoupleAnime],[Attack On Titan],[AttackOnTitan]",
    "title": "AttackOnTitan_833052",
    "link_img": "https://live.staticflickr.com/65535/47105436854_8d70521037_o.jpg",
    "id_image": "AttackOnTitan_833052",
    "count_view": 0
  },
  {
    "link_thumb": "https://live.staticflickr.com/65535/40928287563_574a6d3f1d_n.jpg",
    "id_album": "-358721474",
    "description": "AttackOnTitan_833053,[isGirlAnime],[isSadAnimeGirl],[Attack On Titan],[AttackOnTitan]",
    "title": "AttackOnTitan_833053",
    "link_img": "https://live.staticflickr.com/65535/40928287563_52073046c2_o.jpg",
    "id_image": "AttackOnTitan_833053",
    "count_view": 0
  },
  {
    "link_thumb": "https://live.staticflickr.com/65535/47894684681_87723c2f3a_n.jpg",
    "id_album": "-358721474",
    "description": "AttackOnTitan_833054,[isGirlAnime],[isSadAnime],[isSadAnimeGirl],[Attack On Titan],[AttackOnTitan]",
    "title": "AttackOnTitan_833054",
    "link_img": "https://live.staticflickr.com/65535/47894684681_65ce1b1d3f_o.jpg",
    "id_image": "AttackOnTitan_833054",
    "count_view": 0
  },
  {
    "link_thumb": "https://live.staticflickr.com/65535/47105437984_d3418abaf1_n.jpg",
    "id_album": "-358721474",
    "description": "AttackOnTitan_833055,[isGirlAnime],[Attack On Titan],[AttackOnTitan]",
    "title": "AttackOnTitan_833055",
    "link_img": "https://live.staticflickr.com/65535/47105437984_56bef9ed2e_o.jpg",
    "id_image": "AttackOnTitan_833055",
    "count_view": 0
  },
  {
    "link_thumb": "https://live.staticflickr.com/65535/47105441724_0f4fe7f636_n.jpg",
    "id_album": "-358721474",
    "description": "AttackOnTitan_833059,[isGirlAnime],[isCuteAnime],[isGirlsLoliAnime],[Attack On Titan],[AttackOnTitan]",
    "title": "AttackOnTitan_833059",
    "link_img": "https://live.staticflickr.com/65535/47105441724_febbb9d991_o.jpg",
    "id_image": "AttackOnTitan_833059",
    "count_view": 0
  },
  {
    "link_thumb": "https://live.staticflickr.com/65535/40928294593_1896ab8470_n.jpg",
    "id_album": "-358721474",
    "description": "AttackOnTitan_833060,[isGirlAnime],[isBlackAnime],[Attack On Titan],[AttackOnTitan]",
    "title": "AttackOnTitan_833060",
    "link_img": "https://live.staticflickr.com/65535/40928294593_1f7d08c6b9_o.jpg",
    "id_image": "AttackOnTitan_833060",
    "count_view": 0
  },
  {
    "link_thumb": "https://live.staticflickr.com/65535/40928296463_992cec504f_n.jpg",
    "id_album": "-358721474",
    "description": "AttackOnTitan_833064,[isGirlAnime],[isSadAnime],[isSadAnimeGirl],[Attack On Titan],[AttackOnTitan]",
    "title": "AttackOnTitan_833064",
    "link_img": "https://live.staticflickr.com/65535/40928296463_3cc767f2f4_o.jpg",
    "id_image": "AttackOnTitan_833064",
    "count_view": 0
  },
  {
    "link_thumb": "https://live.staticflickr.com/65535/47842604432_66563f19ae_n.jpg",
    "id_album": "-358721474",
    "description": "AttackOnTitan_833065,[isGirlAnime],[Attack On Titan],[AttackOnTitan]",
    "title": "AttackOnTitan_833065",
    "link_img": "https://live.staticflickr.com/65535/47842604432_bacf0a67f7_o.jpg",
    "id_image": "AttackOnTitan_833065",
    "count_view": 0
  },
  {
    "link_thumb": "https://live.staticflickr.com/65535/47105445074_647d1535d1_n.jpg",
    "id_album": "-358721474",
    "description": "AttackOnTitan_833068,[isGirlAnime],[isSadAnimeGirl],[Attack On Titan],[AttackOnTitan]",
    "title": "AttackOnTitan_833068",
    "link_img": "https://live.staticflickr.com/65535/47105445074_64d0df05aa_o.jpg",
    "id_image": "AttackOnTitan_833068",
    "count_view": 0
  },
  {
    "link_thumb": "https://live.staticflickr.com/65535/47894690871_6b424aea62_n.jpg",
    "id_album": "-358721474",
    "description": "AttackOnTitan_833069,[isGirlAnime],[isBoyAnime],[isCoupleAnime],[Attack On Titan],[AttackOnTitan]",
    "title": "AttackOnTitan_833069",
    "link_img": "https://live.staticflickr.com/65535/47894690871_85fc2d0fdb_o.jpg",
    "id_image": "AttackOnTitan_833069",
    "count_view": 0
  },
  {
    "link_thumb": "https://live.staticflickr.com/65535/40928300293_e62fa5c5b3_n.jpg",
    "id_album": "-358721474",
    "description": "AttackOnTitan_833071,[isGirlAnime],[Attack On Titan],[AttackOnTitan]",
    "title": "AttackOnTitan_833071",
    "link_img": "https://live.staticflickr.com/65535/40928300293_768fab087a_o.jpg",
    "id_image": "AttackOnTitan_833071",
    "count_view": 0
  },
  {
    "link_thumb": "https://live.staticflickr.com/65535/46978608505_6d300aae75_n.jpg",
    "id_album": "-358721474",
    "description": "AttackOnTitan_833090,[isBoyAnime],[Attack On Titan],[AttackOnTitan]",
    "title": "AttackOnTitan_833090",
    "link_img": "https://live.staticflickr.com/65535/46978608505_421cfd0ac4_o.jpg",
    "id_image": "AttackOnTitan_833090",
    "count_view": 0
  },
  {
    "link_thumb": "https://live.staticflickr.com/65535/40928304153_815bc63f04_n.jpg",
    "id_album": "-358721474",
    "description": "AttackOnTitan_833648,[isBoyAnime],[Attack On Titan],[AttackOnTitan]",
    "title": "AttackOnTitan_833648",
    "link_img": "https://live.staticflickr.com/65535/40928304153_44e526ca25_o.jpg",
    "id_image": "AttackOnTitan_833648",
    "count_view": 0
  },
  {
    "link_thumb": "https://live.staticflickr.com/65535/40928304623_73a2e75aba_n.jpg",
    "id_album": "-358721474",
    "description": "AttackOnTitan_833651,[isGirlAnime],[Attack On Titan],[AttackOnTitan]",
    "title": "AttackOnTitan_833651",
    "link_img": "https://live.staticflickr.com/65535/40928304623_6ac3a726d6_o.jpg",
    "id_image": "AttackOnTitan_833651",
    "count_view": 0
  },
  {
    "link_thumb": "https://live.staticflickr.com/65535/47842612982_ce37a1e1f6_n.jpg",
    "id_album": "-358721474",
    "description": "AttackOnTitan_834930,[isBoyAnime],[Attack On Titan],[AttackOnTitan]",
    "title": "AttackOnTitan_834930",
    "link_img": "https://live.staticflickr.com/65535/47842612982_54a7d86dd3_o.jpg",
    "id_image": "AttackOnTitan_834930",
    "count_view": 0
  },
  {
    "link_thumb": "https://live.staticflickr.com/65535/40928312733_5db27af15e_n.jpg",
    "id_album": "-358721474",
    "description": "AttackOnTitan_838113,[isBoyAnime],[isSadAnime],[isSadAnimeBoy],[Attack On Titan],[AttackOnTitan]",
    "title": "AttackOnTitan_838113",
    "link_img": "https://live.staticflickr.com/65535/40928312733_61c2e9094b_o.jpg",
    "id_image": "AttackOnTitan_838113",
    "count_view": 0
  },
  {
    "link_thumb": "https://live.staticflickr.com/65535/46978616785_48687594ea_n.jpg",
    "id_album": "-358721474",
    "description": "AttackOnTitan_838122,[isGirlAnime],[Attack On Titan],[AttackOnTitan]",
    "title": "AttackOnTitan_838122",
    "link_img": "https://live.staticflickr.com/65535/46978616785_4b23d84c75_o.jpg",
    "id_image": "AttackOnTitan_838122",
    "count_view": 0
  },
  {
    "link_thumb": "https://live.staticflickr.com/65535/47105461144_d9b6b80b4e_n.jpg",
    "id_album": "-358721474",
    "description": "AttackOnTitan_843341,[isSceneryArts],[Attack On Titan],[AttackOnTitan]",
    "title": "AttackOnTitan_843341",
    "link_img": "https://live.staticflickr.com/65535/47105461144_ce6f564692_o.jpg",
    "id_image": "AttackOnTitan_843341",
    "count_view": 0
  },
  {
    "link_thumb": "https://live.staticflickr.com/65535/47842621652_aeba8e6b2e_n.jpg",
    "id_album": "-358721474",
    "description": "AttackOnTitan_845580,[isGirlAnime],[isBoyAnime],[isCoupleAnime],[Attack On Titan],[AttackOnTitan]",
    "title": "AttackOnTitan_845580",
    "link_img": "https://live.staticflickr.com/65535/47842621652_df9f7da8a2_o.jpg",
    "id_image": "AttackOnTitan_845580",
    "count_view": 0
  },
  {
    "link_thumb": "https://live.staticflickr.com/65535/47105464514_637dd2c344_n.jpg",
    "id_album": "-358721474",
    "description": "AttackOnTitan_848065,[isGirlAnime],[isBoyAnime],[isCoupleAnime],[Attack On Titan],[AttackOnTitan]",
    "title": "AttackOnTitan_848065",
    "link_img": "https://live.staticflickr.com/65535/47105464514_0ae8a79bde_o.jpg",
    "id_image": "AttackOnTitan_848065",
    "count_view": 0
  },
  {
    "link_thumb": "https://live.staticflickr.com/65535/47105465064_b9e86411b1_n.jpg",
    "id_album": "-358721474",
    "description": "AttackOnTitan_848449,[isGirlAnime],[isSadAnime],[isSadAnimeGirl],[Attack On Titan],[AttackOnTitan]",
    "title": "AttackOnTitan_848449",
    "link_img": "https://live.staticflickr.com/65535/47105465064_241a97f5e0_o.jpg",
    "id_image": "AttackOnTitan_848449",
    "count_view": 0
  },
  {
    "link_thumb": "https://live.staticflickr.com/65535/46978623105_a526b2d7a3_n.jpg",
    "id_album": "-358721474",
    "description": "AttackOnTitan_849954,[isGirlAnime],[Attack On Titan],[AttackOnTitan]",
    "title": "AttackOnTitan_849954",
    "link_img": "https://live.staticflickr.com/65535/46978623105_7f51114b18_o.jpg",
    "id_image": "AttackOnTitan_849954",
    "count_view": 0
  },
  {
    "link_thumb": "https://live.staticflickr.com/65535/47842626682_c9acc7cb7c_n.jpg",
    "id_album": "-358721474",
    "description": "AttackOnTitan_849956,[isGirlAnime],[Attack On Titan],[AttackOnTitan]",
    "title": "AttackOnTitan_849956",
    "link_img": "https://live.staticflickr.com/65535/47842626682_fe33753208_o.jpg",
    "id_image": "AttackOnTitan_849956",
    "count_view": 0
  },
  {
    "link_thumb": "https://live.staticflickr.com/65535/46978625795_5066d0cc2c_n.jpg",
    "id_album": "-358721474",
    "description": "AttackOnTitan_849961,[isBoyAnime],[Attack On Titan],[AttackOnTitan]",
    "title": "AttackOnTitan_849961",
    "link_img": "https://live.staticflickr.com/65535/46978625795_77f914a255_o.jpg",
    "id_image": "AttackOnTitan_849961",
    "count_view": 0
  },
  {
    "link_thumb": "https://live.staticflickr.com/65535/47894714331_f266320cda_n.jpg",
    "id_album": "-358721474",
    "description": "AttackOnTitan_857191,[isBoyAnime],[Attack On Titan],[AttackOnTitan]",
    "title": "AttackOnTitan_857191",
    "link_img": "https://live.staticflickr.com/65535/47894714331_351ef08783_o.jpg",
    "id_image": "AttackOnTitan_857191",
    "count_view": 0
  },
  {
    "link_thumb": "https://live.staticflickr.com/65535/40928321073_d7da9ea2a5_n.jpg",
    "id_album": "-358721474",
    "description": "AttackOnTitan_868258,[isGirlAnime],[isCuteAnime],[Attack On Titan],[AttackOnTitan]",
    "title": "AttackOnTitan_868258",
    "link_img": "https://live.staticflickr.com/65535/40928321073_50280ccf0d_o.jpg",
    "id_image": "AttackOnTitan_868258",
    "count_view": 0
  },
  {
    "link_thumb": "https://live.staticflickr.com/65535/47105474544_0d0655ea77_n.jpg",
    "id_album": "-358721474",
    "description": "AttackOnTitan_873698,[isGirlAnime],[isCuteAnime],[Attack On Titan],[AttackOnTitan]",
    "title": "AttackOnTitan_873698",
    "link_img": "https://live.staticflickr.com/65535/47105474544_c2d0cfb9f0_o.jpg",
    "id_image": "AttackOnTitan_873698",
    "count_view": 0
  },
  {
    "link_thumb": "https://live.staticflickr.com/65535/40928321613_c9fd98416b_n.jpg",
    "id_album": "-358721474",
    "description": "AttackOnTitan_876330,[isGirlAnime],[isBoyAnime],[Attack On Titan],[AttackOnTitan]",
    "title": "AttackOnTitan_876330",
    "link_img": "https://live.staticflickr.com/65535/40928321613_1dd5dbf22d_o.jpg",
    "id_image": "AttackOnTitan_876330",
    "count_view": 0
  },
  {
    "link_thumb": "https://live.staticflickr.com/65535/47894717381_5e25bfd863_n.jpg",
    "id_album": "-358721474",
    "description": "AttackOnTitan_884478,[isBoyAnime],[Attack On Titan],[AttackOnTitan]",
    "title": "AttackOnTitan_884478",
    "link_img": "https://live.staticflickr.com/65535/47894717381_4490ba724c_o.jpg",
    "id_image": "AttackOnTitan_884478",
    "count_view": 0
  },
  {
    "link_thumb": "https://live.staticflickr.com/65535/47842633842_63f126a277_n.jpg",
    "id_album": "-358721474",
    "description": "AttackOnTitan_884617,[isGirlAnime],[Attack On Titan],[AttackOnTitan]",
    "title": "AttackOnTitan_884617",
    "link_img": "https://live.staticflickr.com/65535/47842633842_1f1d25d9b9_o.jpg",
    "id_image": "AttackOnTitan_884617",
    "count_view": 0
  },
  {
    "link_thumb": "https://live.staticflickr.com/65535/47842635272_6e57f4b847_n.jpg",
    "id_album": "-358721474",
    "description": "AttackOnTitan_884619,[isGirlAnime],[Attack On Titan],[AttackOnTitan]",
    "title": "AttackOnTitan_884619",
    "link_img": "https://live.staticflickr.com/65535/47842635272_04137d58b1_o.jpg",
    "id_image": "AttackOnTitan_884619",
    "count_view": 0
  },
  {
    "link_thumb": "https://live.staticflickr.com/65535/47894721271_ffe31a0df5_n.jpg",
    "id_album": "-358721474",
    "description": "AttackOnTitan_884623,[isGirlAnime],[isBoyAnime],[Attack On Titan],[AttackOnTitan]",
    "title": "AttackOnTitan_884623",
    "link_img": "https://live.staticflickr.com/65535/47894721271_371b942ea3_o.jpg",
    "id_image": "AttackOnTitan_884623",
    "count_view": 0
  },
  {
    "link_thumb": "https://live.staticflickr.com/65535/46978637725_aaffd86af3_n.jpg",
    "id_album": "-358721474",
    "description": "AttackOnTitan_899006,[isBoyAnime],[Attack On Titan],[AttackOnTitan]",
    "title": "AttackOnTitan_899006",
    "link_img": "https://live.staticflickr.com/65535/46978637725_5f7ac66d64_o.jpg",
    "id_image": "AttackOnTitan_899006",
    "count_view": 0
  },
  {
    "link_thumb": "https://live.staticflickr.com/65535/46978659155_8b367a8910_n.jpg",
    "id_album": "-358721474",
    "description": "AttackOnTitan_899444,[isSceneryArts],[Attack On Titan],[AttackOnTitan]",
    "title": "AttackOnTitan_899444",
    "link_img": "https://live.staticflickr.com/65535/46978659155_aedbf4e650_o.jpg",
    "id_image": "AttackOnTitan_899444",
    "count_view": 0
  },
  {
    "link_thumb": "https://live.staticflickr.com/65535/47894746501_01f5a6c4ae_n.jpg",
    "id_album": "-358721474",
    "description": "AttackOnTitan_902454,[isGirlAnime],[isSadAnime],[isSadAnimeGirl],[isBlackAnime],[Attack On Titan],[AttackOnTitan]",
    "title": "AttackOnTitan_902454",
    "link_img": "https://live.staticflickr.com/65535/47894746501_8a35239774_o.jpg",
    "id_image": "AttackOnTitan_902454",
    "count_view": 0
  },
  {
    "link_thumb": "https://live.staticflickr.com/65535/47894752241_74751823b2_n.jpg",
    "id_album": "-358721474",
    "description": "AttackOnTitan_910379,[isGirlAnime],[isBoyAnime],[isCoupleAnime],[Attack On Titan],[AttackOnTitan]",
    "title": "AttackOnTitan_910379",
    "link_img": "https://live.staticflickr.com/65535/47894752241_3cf12fe8f3_o.jpg",
    "id_image": "AttackOnTitan_910379",
    "count_view": 0
  },
  {
    "link_thumb": "https://live.staticflickr.com/65535/47894753001_7115b2e8d4_n.jpg",
    "id_album": "-358721474",
    "description": "AttackOnTitan_912509,[isGirlAnime],[isCuteAnime],[Attack On Titan],[AttackOnTitan]",
    "title": "AttackOnTitan_912509",
    "link_img": "https://live.staticflickr.com/65535/47894753001_01293c544d_o.jpg",
    "id_image": "AttackOnTitan_912509",
    "count_view": 0
  },
  {
    "link_thumb": "https://live.staticflickr.com/65535/47105510964_bb2586f289_n.jpg",
    "id_album": "-358721474",
    "description": "AttackOnTitan_915774,[isGirlAnime],[isSadAnime],[isSadAnimeGirl],[isBlackAnime],[Attack On Titan],[AttackOnTitan]",
    "title": "AttackOnTitan_915774",
    "link_img": "https://live.staticflickr.com/65535/47105510964_dac713850a_o.jpg",
    "id_image": "AttackOnTitan_915774",
    "count_view": 0
  },
  {
    "link_thumb": "https://live.staticflickr.com/65535/40928351633_00595799ff_n.jpg",
    "id_album": "-358721474",
    "description": "AttackOnTitan_916236,[isGirlAnime],[isSadAnime],[isSadAnimeGirl],[Attack On Titan],[AttackOnTitan]",
    "title": "AttackOnTitan_916236",
    "link_img": "https://live.staticflickr.com/65535/40928351633_5409a37c76_o.jpg",
    "id_image": "AttackOnTitan_916236",
    "count_view": 0
  },
  {
    "link_thumb": "https://live.staticflickr.com/65535/47105511934_0b313cb97f_n.jpg",
    "id_album": "-358721474",
    "description": "AttackOnTitan_919227,[isGirlAnime],[isBoyAnime],[Attack On Titan],[AttackOnTitan]",
    "title": "AttackOnTitan_919227",
    "link_img": "https://live.staticflickr.com/65535/47105511934_c02415f042_o.jpg",
    "id_image": "AttackOnTitan_919227",
    "count_view": 0
  },
  {
    "link_thumb": "https://live.staticflickr.com/65535/46978669335_14c0790241_n.jpg",
    "id_album": "-358721474",
    "description": "AttackOnTitan_924919,[isGirlAnime],[isBlackAnime],[Attack On Titan],[AttackOnTitan]",
    "title": "AttackOnTitan_924919",
    "link_img": "https://live.staticflickr.com/65535/46978669335_0a36ef6942_o.jpg",
    "id_image": "AttackOnTitan_924919",
    "count_view": 0
  },
  {
    "link_thumb": "https://live.staticflickr.com/65535/47894759661_fb14966113_n.jpg",
    "id_album": "-358721474",
    "description": "AttackOnTitan_925146,[isBoyAnime],[Attack On Titan],[AttackOnTitan]",
    "title": "AttackOnTitan_925146",
    "link_img": "https://live.staticflickr.com/65535/47894759661_05979204c0_o.jpg",
    "id_image": "AttackOnTitan_925146",
    "count_view": 0
  },
  {
    "link_thumb": "https://live.staticflickr.com/65535/46978670625_db5877cb2c_n.jpg",
    "id_album": "-358721474",
    "description": "AttackOnTitan_925150,[isBoyAnime],[Attack On Titan],[AttackOnTitan]",
    "title": "AttackOnTitan_925150",
    "link_img": "https://live.staticflickr.com/65535/46978670625_86b5a21a9e_o.jpg",
    "id_image": "AttackOnTitan_925150",
    "count_view": 0
  },
  {
    "link_thumb": "https://live.staticflickr.com/65535/47894761761_5787d990bf_n.jpg",
    "id_album": "-358721474",
    "description": "AttackOnTitan_925166,[isSceneryArts],[Attack On Titan],[AttackOnTitan]",
    "title": "AttackOnTitan_925166",
    "link_img": "https://live.staticflickr.com/65535/47894761761_764aa0df99_o.jpg",
    "id_image": "AttackOnTitan_925166",
    "count_view": 0
  },
  {
    "link_thumb": "https://live.staticflickr.com/65535/46978673815_d1d9ccbbbc_n.jpg",
    "id_album": "-358721474",
    "description": "AttackOnTitan_930377,[isBoyAnime],[isSceneryArts],[Attack On Titan],[AttackOnTitan]",
    "title": "AttackOnTitan_930377",
    "link_img": "https://live.staticflickr.com/65535/46978673815_0969505823_o.jpg",
    "id_image": "AttackOnTitan_930377",
    "count_view": 0
  },
  {
    "link_thumb": "https://live.staticflickr.com/65535/47105520654_fba63a861c_n.jpg",
    "id_album": "-358721474",
    "description": "AttackOnTitan_934413,[isGirlAnime],[isCuteAnime],[Attack On Titan],[AttackOnTitan]",
    "title": "AttackOnTitan_934413",
    "link_img": "https://live.staticflickr.com/65535/47105520654_16186b43ea_o.jpg",
    "id_image": "AttackOnTitan_934413",
    "count_view": 0
  },
  {
    "link_thumb": "https://live.staticflickr.com/65535/47842679822_bfa9bedfe4_n.jpg",
    "id_album": "-358721474",
    "description": "AttackOnTitan_935925,[isGirlAnime],[isSadAnime],[isSadAnimeGirl],[Attack On Titan],[AttackOnTitan]",
    "title": "AttackOnTitan_935925",
    "link_img": "https://live.staticflickr.com/65535/47842679822_34bb539605_o.jpg",
    "id_image": "AttackOnTitan_935925",
    "count_view": 0
  },
  {
    "link_thumb": "https://live.staticflickr.com/65535/47105524364_644f966f63_n.jpg",
    "id_album": "-358721474",
    "description": "AttackOnTitan_936367,[isGirlAnime],[isBoyAnime],[Attack On Titan],[AttackOnTitan]",
    "title": "AttackOnTitan_936367",
    "link_img": "https://live.staticflickr.com/65535/47105524364_b62ebb23c6_o.jpg",
    "id_image": "AttackOnTitan_936367",
    "count_view": 0
  },
  {
    "link_thumb": "https://live.staticflickr.com/65535/40928362823_a9552422a8_n.jpg",
    "id_album": "-358721474",
    "description": "AttackOnTitan_936370,[isBoyAnime],[Attack On Titan],[AttackOnTitan]",
    "title": "AttackOnTitan_936370",
    "link_img": "https://live.staticflickr.com/65535/40928362823_7e35368d98_o.jpg",
    "id_image": "AttackOnTitan_936370",
    "count_view": 0
  },
  {
    "link_thumb": "https://live.staticflickr.com/65535/46978682365_58a91356ce_n.jpg",
    "id_album": "-358721474",
    "description": "AttackOnTitan_936371,[isGirlAnime],[isBoyAnime],[Attack On Titan],[AttackOnTitan]",
    "title": "AttackOnTitan_936371",
    "link_img": "https://live.staticflickr.com/65535/46978682365_7d3f847ea2_o.jpg",
    "id_image": "AttackOnTitan_936371",
    "count_view": 0
  },
  {
    "link_thumb": "https://live.staticflickr.com/65535/47105525294_80c8ee817c_n.jpg",
    "id_album": "-358721474",
    "description": "AttackOnTitan_936391,[isGirlAnime],[isBlackAnime],[Attack On Titan],[AttackOnTitan]",
    "title": "AttackOnTitan_936391",
    "link_img": "https://live.staticflickr.com/65535/47105525294_f8f0c4b381_o.jpg",
    "id_image": "AttackOnTitan_936391",
    "count_view": 0
  },
  {
    "link_thumb": "https://live.staticflickr.com/65535/46978683935_809e2da820_n.jpg",
    "id_album": "-358721474",
    "description": "AttackOnTitan_936495,[isGirlAnime],[Attack On Titan],[AttackOnTitan]",
    "title": "AttackOnTitan_936495",
    "link_img": "https://live.staticflickr.com/65535/46978683935_d8e4f2e514_o.jpg",
    "id_image": "AttackOnTitan_936495",
    "count_view": 0
  },
  {
    "link_thumb": "https://live.staticflickr.com/65535/47894775481_439c77d9eb_n.jpg",
    "id_album": "-358721474",
    "description": "AttackOnTitan_937858,[isBoyAnime],[Attack On Titan],[AttackOnTitan]",
    "title": "AttackOnTitan_937858",
    "link_img": "https://live.staticflickr.com/65535/47894775481_a425cdbcec_o.jpg",
    "id_image": "AttackOnTitan_937858",
    "count_view": 0
  },
  {
    "link_thumb": "https://live.staticflickr.com/65535/47105528554_984cf74a1c_n.jpg",
    "id_album": "-358721474",
    "description": "AttackOnTitan_937861,[isBoyAnime],[isBlackAnime],[Attack On Titan],[AttackOnTitan]",
    "title": "AttackOnTitan_937861",
    "link_img": "https://live.staticflickr.com/65535/47105528554_89a1d6ee4c_o.jpg",
    "id_image": "AttackOnTitan_937861",
    "count_view": 0
  },
  {
    "link_thumb": "https://live.staticflickr.com/65535/47105530494_ecd0e3e90c_n.jpg",
    "id_album": "-358721474",
    "description": "AttackOnTitan_937865,[isBoyAnime],[Attack On Titan],[AttackOnTitan]",
    "title": "AttackOnTitan_937865",
    "link_img": "https://live.staticflickr.com/65535/47105530494_3f704f9ed8_o.jpg",
    "id_image": "AttackOnTitan_937865",
    "count_view": 0
  },
  {
    "link_thumb": "https://live.staticflickr.com/65535/40928372983_8626943a83_n.jpg",
    "id_album": "-358721474",
    "description": "AttackOnTitan_937872,[isBoyAnime],[Attack On Titan],[AttackOnTitan]",
    "title": "AttackOnTitan_937872",
    "link_img": "https://live.staticflickr.com/65535/40928372983_e635571d7d_o.jpg",
    "id_image": "AttackOnTitan_937872",
    "count_view": 0
  },
  {
    "link_thumb": "https://live.staticflickr.com/65535/47894781911_7bed94e7ba_n.jpg",
    "id_album": "-358721474",
    "description": "AttackOnTitan_937873,[isBoyAnime],[Attack On Titan],[AttackOnTitan]",
    "title": "AttackOnTitan_937873",
    "link_img": "https://live.staticflickr.com/65535/47894781911_4b949a0320_o.jpg",
    "id_image": "AttackOnTitan_937873",
    "count_view": 0
  },
  {
    "link_thumb": "https://live.staticflickr.com/65535/47894782091_c2cda6dc52_n.jpg",
    "id_album": "-358721474",
    "description": "AttackOnTitan_937874,[isBoyAnime],[Attack On Titan],[AttackOnTitan]",
    "title": "AttackOnTitan_937874",
    "link_img": "https://live.staticflickr.com/65535/47894782091_2b49660b6f_o.jpg",
    "id_image": "AttackOnTitan_937874",
    "count_view": 0
  },
  {
    "link_thumb": "https://live.staticflickr.com/65535/46978699945_c92ddef3db_n.jpg",
    "id_album": "-358721474",
    "description": "AttackOnTitan_937875,[isBoyAnime],[Attack On Titan],[AttackOnTitan]",
    "title": "AttackOnTitan_937875",
    "link_img": "https://live.staticflickr.com/65535/46978699945_bcedc7f088_o.jpg",
    "id_image": "AttackOnTitan_937875",
    "count_view": 0
  },
  {
    "link_thumb": "https://live.staticflickr.com/65535/46978702185_d47a957656_n.jpg",
    "id_album": "-358721474",
    "description": "AttackOnTitan_937877,[isBoyAnime],[Attack On Titan],[AttackOnTitan]",
    "title": "AttackOnTitan_937877",
    "link_img": "https://live.staticflickr.com/65535/46978702185_05b6778d34_o.jpg",
    "id_image": "AttackOnTitan_937877",
    "count_view": 0
  },
  {
    "link_thumb": "https://live.staticflickr.com/65535/40928378253_8dc1a50c40_n.jpg",
    "id_album": "-358721474",
    "description": "AttackOnTitan_937879,[isBoyAnime],[Attack On Titan],[AttackOnTitan]",
    "title": "AttackOnTitan_937879",
    "link_img": "https://live.staticflickr.com/65535/40928378253_ab011e5d2f_o.jpg",
    "id_image": "AttackOnTitan_937879",
    "count_view": 0
  },
  {
    "link_thumb": "https://live.staticflickr.com/65535/47894784331_ba6f530dd4_n.jpg",
    "id_album": "-358721474",
    "description": "AttackOnTitan_937880,[isBoyAnime],[Attack On Titan],[AttackOnTitan]",
    "title": "AttackOnTitan_937880",
    "link_img": "https://live.staticflickr.com/65535/47894784331_34bb7d6aab_o.jpg",
    "id_image": "AttackOnTitan_937880",
    "count_view": 0
  },
  {
    "link_thumb": "https://live.staticflickr.com/65535/47894784921_a03d98ff8e_n.jpg",
    "id_album": "-358721474",
    "description": "AttackOnTitan_937881,[isBoyAnime],[Attack On Titan],[AttackOnTitan]",
    "title": "AttackOnTitan_937881",
    "link_img": "https://live.staticflickr.com/65535/47894784921_e01595aa00_o.jpg",
    "id_image": "AttackOnTitan_937881",
    "count_view": 0
  },
  {
    "link_thumb": "https://live.staticflickr.com/65535/47894785441_aca4efa9f1_n.jpg",
    "id_album": "-358721474",
    "description": "AttackOnTitan_937882,[isBoyAnime],[Attack On Titan],[AttackOnTitan]",
    "title": "AttackOnTitan_937882",
    "link_img": "https://live.staticflickr.com/65535/47894785441_9e97c8db54_o.jpg",
    "id_image": "AttackOnTitan_937882",
    "count_view": 0
  },
  {
    "link_thumb": "https://live.staticflickr.com/65535/47894785821_746b80ec56_n.jpg",
    "id_album": "-358721474",
    "description": "AttackOnTitan_937883,[isBoyAnime],[Attack On Titan],[AttackOnTitan]",
    "title": "AttackOnTitan_937883",
    "link_img": "https://live.staticflickr.com/65535/47894785821_dac40b4af9_o.jpg",
    "id_image": "AttackOnTitan_937883",
    "count_view": 0
  },
  {
    "link_thumb": "https://live.staticflickr.com/65535/47842695162_d3f27083bd_n.jpg",
    "id_album": "-358721474",
    "description": "AttackOnTitan_937884,[isBoyAnime],[Attack On Titan],[AttackOnTitan]",
    "title": "AttackOnTitan_937884",
    "link_img": "https://live.staticflickr.com/65535/47842695162_77203605e5_o.jpg",
    "id_image": "AttackOnTitan_937884",
    "count_view": 0
  },
  {
    "link_thumb": "https://live.staticflickr.com/65535/47894786631_968914eb38_n.jpg",
    "id_album": "-358721474",
    "description": "AttackOnTitan_937886,[isBoyAnime],[Attack On Titan],[AttackOnTitan]",
    "title": "AttackOnTitan_937886",
    "link_img": "https://live.staticflickr.com/65535/47894786631_40f905db95_o.jpg",
    "id_image": "AttackOnTitan_937886",
    "count_view": 0
  },
  {
    "link_thumb": "https://live.staticflickr.com/65535/40928383003_bb5f98ef90_n.jpg",
    "id_album": "-358721474",
    "description": "AttackOnTitan_937889,[isGirlAnime],[isBoyAnime],[isCoupleAnime],[Attack On Titan],[AttackOnTitan]",
    "title": "AttackOnTitan_937889",
    "link_img": "https://live.staticflickr.com/65535/40928383003_62773a3d2d_o.jpg",
    "id_image": "AttackOnTitan_937889",
    "count_view": 0
  },
  {
    "link_thumb": "https://live.staticflickr.com/65535/40928383513_c1d13c560b_n.jpg",
    "id_album": "-358721474",
    "description": "AttackOnTitan_937890,[isBoyAnime],[Attack On Titan],[AttackOnTitan]",
    "title": "AttackOnTitan_937890",
    "link_img": "https://live.staticflickr.com/65535/40928383513_6b5d65fa3e_o.jpg",
    "id_image": "AttackOnTitan_937890",
    "count_view": 0
  },
  {
    "link_thumb": "https://live.staticflickr.com/65535/40928384243_8ab325e439_n.jpg",
    "id_album": "-358721474",
    "description": "AttackOnTitan_937892,[isGirlAnime],[isBlackAnime],[Attack On Titan],[AttackOnTitan]",
    "title": "AttackOnTitan_937892",
    "link_img": "https://live.staticflickr.com/65535/40928384243_c1c694dde5_o.jpg",
    "id_image": "AttackOnTitan_937892",
    "count_view": 0
  },
  {
    "link_thumb": "https://live.staticflickr.com/65535/40928384973_df89150cae_n.jpg",
    "id_album": "-358721474",
    "description": "AttackOnTitan_937894,[isGirlAnime],[isBoyAnime],[Attack On Titan],[AttackOnTitan]",
    "title": "AttackOnTitan_937894",
    "link_img": "https://live.staticflickr.com/65535/40928384973_d5f2d1e4aa_o.jpg",
    "id_image": "AttackOnTitan_937894",
    "count_view": 0
  },
  {
    "link_thumb": "https://live.staticflickr.com/65535/40928385523_7d834be2ba_n.jpg",
    "id_album": "-358721474",
    "description": "AttackOnTitan_942019,[isGirlAnime],[isBoyAnime],[isCoupleAnime],[Attack On Titan],[AttackOnTitan]",
    "title": "AttackOnTitan_942019",
    "link_img": "https://live.staticflickr.com/65535/40928385523_9f1315a4da_o.jpg",
    "id_image": "AttackOnTitan_942019",
    "count_view": 0
  },
  {
    "link_thumb": "https://live.staticflickr.com/65535/46978710585_233fbde880_n.jpg",
    "id_album": "-358721474",
    "description": "AttackOnTitan_944402,[isBoyAnime],[Attack On Titan],[AttackOnTitan]",
    "title": "AttackOnTitan_944402",
    "link_img": "https://live.staticflickr.com/65535/46978710585_3865c36281_o.jpg",
    "id_image": "AttackOnTitan_944402",
    "count_view": 0
  },
  {
    "link_thumb": "https://live.staticflickr.com/65535/40928388783_838f2b7eef_n.jpg",
    "id_album": "-358721474",
    "description": "AttackOnTitan_947820,[isGirlAnime],[isBoyAnime],[isCoupleAnime],[Attack On Titan],[AttackOnTitan]",
    "title": "AttackOnTitan_947820",
    "link_img": "https://live.staticflickr.com/65535/40928388783_f186712e78_o.jpg",
    "id_image": "AttackOnTitan_947820",
    "count_view": 0
  },
  {
    "link_thumb": "https://live.staticflickr.com/65535/40928393573_2e8e5953ed_n.jpg",
    "id_album": "-358721474",
    "description": "AttackOnTitan_949551,[isBoyAnime],[Attack On Titan],[AttackOnTitan]",
    "title": "AttackOnTitan_949551",
    "link_img": "https://live.staticflickr.com/65535/40928393573_e1cab05e54_o.jpg",
    "id_image": "AttackOnTitan_949551",
    "count_view": 0
  },
  {
    "link_thumb": "https://live.staticflickr.com/65535/47842706772_f355191011_n.jpg",
    "id_album": "-358721474",
    "description": "AttackOnTitan_951562,[isBoyAnime],[isBlackAnime],[Attack On Titan],[AttackOnTitan]",
    "title": "AttackOnTitan_951562",
    "link_img": "https://live.staticflickr.com/65535/47842706772_072b03f7e1_o.jpg",
    "id_image": "AttackOnTitan_951562",
    "count_view": 0
  },
  {
    "link_thumb": "https://live.staticflickr.com/65535/46978727625_2b0aaa1929_n.jpg",
    "id_album": "-358721474",
    "description": "AttackOnTitan_955174,[isBoyAnime],[isBlackAnime],[Attack On Titan],[AttackOnTitan]",
    "title": "AttackOnTitan_955174",
    "link_img": "https://live.staticflickr.com/65535/46978727625_fc5331c758_o.jpg",
    "id_image": "AttackOnTitan_955174",
    "count_view": 0
  },
  {
    "link_thumb": "https://live.staticflickr.com/65535/40928404813_e74c4f5252_n.jpg",
    "id_album": "-358721474",
    "description": "AttackOnTitan_960058,[isBoyAnime],[Attack On Titan],[AttackOnTitan]",
    "title": "AttackOnTitan_960058",
    "link_img": "https://live.staticflickr.com/65535/40928404813_ded92c51b6_o.jpg",
    "id_image": "AttackOnTitan_960058",
    "count_view": 0
  },
  {
    "link_thumb": "https://live.staticflickr.com/65535/46978736945_f1de4bae7d_n.jpg",
    "id_album": "-358721474",
    "description": "AttackOnTitan_967321,[isBoyAnime],[Attack On Titan],[AttackOnTitan]",
    "title": "AttackOnTitan_967321",
    "link_img": "https://live.staticflickr.com/65535/46978736945_683e50c03e_o.jpg",
    "id_image": "AttackOnTitan_967321",
    "count_view": 0
  }
]