[
  {
    "link_thumb": "https://live.staticflickr.com/65535/48048059163_316544fc60_n.jpg",
    "id_album": "-1685561906",
    "description": "KoiSuruKimochiNoKasanekata_781862,[isGirlAnime],[isSadAnime],[isSadAnimeGirl],[isCuteAnime],[isGirlsLoliAnime],[Koi Suru Kimochi No Kasanekata],[KoiSuruKimochiNoKasanekata]",
    "title": "KoiSuruKimochiNoKasanekata_781862",
    "link_img": "https://live.staticflickr.com/65535/48048059163_81068ee427_o.jpg",
    "id_image": "KoiSuruKimochiNoKasanekata_781862",
    "count_view": 0
  },
  {
    "link_thumb": "https://live.staticflickr.com/65535/48048020481_3f06c1b421_n.jpg",
    "id_album": "-1685561906",
    "description": "KoiSuruKimochiNoKasanekata_821168,[isGirlAnime],[isSadAnime],[isSadAnimeGirl],[isCuteAnime],[isGirlsLoliAnime],[Koi Suru Kimochi No Kasanekata],[KoiSuruKimochiNoKasanekata]",
    "title": "KoiSuruKimochiNoKasanekata_821168",
    "link_img": "https://live.staticflickr.com/65535/48048020481_589c1bea7f_o.jpg",
    "id_image": "KoiSuruKimochiNoKasanekata_821168",
    "count_view": 0
  },
  {
    "link_thumb": "https://live.staticflickr.com/65535/48048060893_6c6ae82842_n.jpg",
    "id_album": "-1685561906",
    "description": "KoiSuruKimochiNoKasanekata_821169,[isGirlAnime],[isSadAnime],[isSadAnimeGirl],[isCuteAnime],[isGirlsLoliAnime],[Koi Suru Kimochi No Kasanekata],[KoiSuruKimochiNoKasanekata]",
    "title": "KoiSuruKimochiNoKasanekata_821169",
    "link_img": "https://live.staticflickr.com/65535/48048060893_63dda10bd4_o.jpg",
    "id_image": "KoiSuruKimochiNoKasanekata_821169",
    "count_view": 0
  }
]