[
  {
    "link_thumb": "https://live.staticflickr.com/65535/48060753708_cd2935b9b9_n.jpg",
    "id_album": "1967241290",
    "description": "Touhou_149391",
    "title": "Touhou_149391",
    "link_img": "https://live.staticflickr.com/65535/48060753708_8af305b97d_o.jpg",
    "id_image": "Touhou_149391",
    "count_view": 0
  },
  {
    "link_thumb": "https://live.staticflickr.com/65535/48060727051_e7019b4a64_n.jpg",
    "id_album": "1967241290",
    "description": "Touhou_158605",
    "title": "Touhou_158605",
    "link_img": "https://live.staticflickr.com/65535/48060727051_73273dac44_o.jpg",
    "id_image": "Touhou_158605",
    "count_view": 0
  },
  {
    "link_thumb": "https://live.staticflickr.com/65535/48060843672_4fe0a4348d_n.jpg",
    "id_album": "1967241290",
    "description": "Touhou_165297",
    "title": "Touhou_165297",
    "link_img": "https://live.staticflickr.com/65535/48060843672_1986cdb802_o.jpg",
    "id_image": "Touhou_165297",
    "count_view": 0
  },
  {
    "link_thumb": "https://live.staticflickr.com/65535/48060820483_954fab6fd3_n.jpg",
    "id_album": "1967241290",
    "description": "Touhou_197612",
    "title": "Touhou_197612",
    "link_img": "https://live.staticflickr.com/65535/48060820483_73e7c3c327_o.jpg",
    "id_image": "Touhou_197612",
    "count_view": 0
  },
  {
    "link_thumb": "https://live.staticflickr.com/65535/48060877982_2993433597_n.jpg",
    "id_album": "1967241290",
    "description": "Touhou_205588",
    "title": "Touhou_205588",
    "link_img": "https://live.staticflickr.com/65535/48060877982_dab06f0361_o.jpg",
    "id_image": "Touhou_205588",
    "count_view": 0
  },
  {
    "link_thumb": "https://live.staticflickr.com/65535/48060786586_a7b065bd64_n.jpg",
    "id_album": "1967241290",
    "description": "Touhou_210115",
    "title": "Touhou_210115",
    "link_img": "https://live.staticflickr.com/65535/48060786586_0483b835a7_o.jpg",
    "id_image": "Touhou_210115",
    "count_view": 0
  },
  {
    "link_thumb": "https://live.staticflickr.com/65535/48060884172_ed96a66335_n.jpg",
    "id_album": "1967241290",
    "description": "Touhou_212906",
    "title": "Touhou_212906",
    "link_img": "https://live.staticflickr.com/65535/48060884172_93ded65c59_o.jpg",
    "id_image": "Touhou_212906",
    "count_view": 0
  },
  {
    "link_thumb": "https://live.staticflickr.com/65535/48060888292_b64493e05e_n.jpg",
    "id_album": "1967241290",
    "description": "Touhou_213186",
    "title": "Touhou_213186",
    "link_img": "https://live.staticflickr.com/65535/48060888292_9b18d27392_o.jpg",
    "id_image": "Touhou_213186",
    "count_view": 0
  },
  {
    "link_thumb": "https://live.staticflickr.com/65535/48060839413_f6a4be5bab_n.jpg",
    "id_album": "1967241290",
    "description": "Touhou_214064",
    "title": "Touhou_214064",
    "link_img": "https://live.staticflickr.com/65535/48060839413_1591678992_o.jpg",
    "id_image": "Touhou_214064",
    "count_view": 0
  },
  {
    "link_thumb": "https://live.staticflickr.com/65535/48060803286_6119405391_n.jpg",
    "id_album": "1967241290",
    "description": "Touhou_215162",
    "title": "Touhou_215162",
    "link_img": "https://live.staticflickr.com/65535/48060803286_9338018944_o.jpg",
    "id_image": "Touhou_215162",
    "count_view": 0
  },
  {
    "link_thumb": "https://live.staticflickr.com/65535/48060803551_d6e70cf8f2_n.jpg",
    "id_album": "1967241290",
    "description": "Touhou_215408",
    "title": "Touhou_215408",
    "link_img": "https://live.staticflickr.com/65535/48060803551_f9fa5cabb1_o.jpg",
    "id_image": "Touhou_215408",
    "count_view": 0
  },
  {
    "link_thumb": "https://live.staticflickr.com/65535/48060900857_8d1208e422_n.jpg",
    "id_album": "1967241290",
    "description": "Touhou_215505",
    "title": "Touhou_215505",
    "link_img": "https://live.staticflickr.com/65535/48060900857_ceb52bbb5c_o.jpg",
    "id_image": "Touhou_215505",
    "count_view": 0
  },
  {
    "link_thumb": "https://live.staticflickr.com/65535/48060808866_b88e6218e0_n.jpg",
    "id_album": "1967241290",
    "description": "Touhou_215602",
    "title": "Touhou_215602",
    "link_img": "https://live.staticflickr.com/65535/48060808866_22bd4afc92_o.jpg",
    "id_image": "Touhou_215602",
    "count_view": 0
  },
  {
    "link_thumb": "https://live.staticflickr.com/65535/48060965462_0f96f44264_n.jpg",
    "id_album": "1967241290",
    "description": "Touhou_267446",
    "title": "Touhou_267446",
    "link_img": "https://live.staticflickr.com/65535/48060965462_2c987bc49a_o.jpg",
    "id_image": "Touhou_267446",
    "count_view": 0
  },
  {
    "link_thumb": "https://live.staticflickr.com/65535/48060915418_8a4a351b52_n.jpg",
    "id_album": "1967241290",
    "description": "Touhou_267455",
    "title": "Touhou_267455",
    "link_img": "https://live.staticflickr.com/65535/48060915418_5470988762_o.jpg",
    "id_image": "Touhou_267455",
    "count_view": 0
  },
  {
    "link_thumb": "https://live.staticflickr.com/65535/48060959678_19ec1c73b1_n.jpg",
    "id_album": "1967241290",
    "description": "Touhou_306953",
    "title": "Touhou_306953",
    "link_img": "https://live.staticflickr.com/65535/48060959678_707b630220_o.jpg",
    "id_image": "Touhou_306953",
    "count_view": 0
  },
  {
    "link_thumb": "https://live.staticflickr.com/65535/48061051917_20797e201d_n.jpg",
    "id_album": "1967241290",
    "description": "Touhou_448451",
    "title": "Touhou_448451",
    "link_img": "https://live.staticflickr.com/65535/48061051917_21fb55c6b9_o.jpg",
    "id_image": "Touhou_448451",
    "count_view": 0
  },
  {
    "link_thumb": "https://live.staticflickr.com/65535/48060961556_e1de271c44_n.jpg",
    "id_album": "1967241290",
    "description": "Touhou_48326",
    "title": "Touhou_48326",
    "link_img": "https://live.staticflickr.com/65535/48060961556_7a06cd56f0_o.jpg",
    "id_image": "Touhou_48326",
    "count_view": 0
  },
  {
    "link_thumb": "https://live.staticflickr.com/65535/48061039288_45cea7b2de_n.jpg",
    "id_album": "1967241290",
    "description": "Touhou_545711",
    "title": "Touhou_545711",
    "link_img": "https://live.staticflickr.com/65535/48061039288_b829a32b5c_o.jpg",
    "id_image": "Touhou_545711",
    "count_view": 0
  },
  {
    "link_thumb": "https://live.staticflickr.com/65535/48061022856_818d4dcc5a_n.jpg",
    "id_album": "1967241290",
    "description": "Touhou_557777",
    "title": "Touhou_557777",
    "link_img": "https://live.staticflickr.com/65535/48061022856_802acf94c2_o.jpg",
    "id_image": "Touhou_557777",
    "count_view": 0
  },
  {
    "link_thumb": "https://live.staticflickr.com/65535/48061048681_7e2edea069_n.jpg",
    "id_album": "1967241290",
    "description": "Touhou_558856",
    "title": "Touhou_558856",
    "link_img": "https://live.staticflickr.com/65535/48061048681_875276068b_o.jpg",
    "id_image": "Touhou_558856",
    "count_view": 0
  },
  {
    "link_thumb": "https://live.staticflickr.com/65535/48061102188_c9ab534d08_n.jpg",
    "id_album": "1967241290",
    "description": "Touhou_558885",
    "title": "Touhou_558885",
    "link_img": "https://live.staticflickr.com/65535/48061102188_3866d3ca15_o.jpg",
    "id_image": "Touhou_558885",
    "count_view": 0
  },
  {
    "link_thumb": "https://live.staticflickr.com/65535/48061191207_4acfe05307_n.jpg",
    "id_album": "1967241290",
    "description": "Touhou_656184",
    "title": "Touhou_656184",
    "link_img": "https://live.staticflickr.com/65535/48061191207_d54579bf7f_o.jpg",
    "id_image": "Touhou_656184",
    "count_view": 0
  },
  {
    "link_thumb": "https://live.staticflickr.com/65535/48061104566_2ff72151db_n.jpg",
    "id_album": "1967241290",
    "description": "Touhou_673449",
    "title": "Touhou_673449",
    "link_img": "https://live.staticflickr.com/65535/48061104566_6988e41364_o.jpg",
    "id_image": "Touhou_673449",
    "count_view": 0
  },
  {
    "link_thumb": "https://live.staticflickr.com/65535/48061186308_47909a61da_n.jpg",
    "id_album": "1967241290",
    "description": "Touhou_689759",
    "title": "Touhou_689759",
    "link_img": "https://live.staticflickr.com/65535/48061186308_731eeb8338_o.jpg",
    "id_image": "Touhou_689759",
    "count_view": 0
  },
  {
    "link_thumb": "https://live.staticflickr.com/65535/48061264202_0e7eef33ac_n.jpg",
    "id_album": "1967241290",
    "description": "Touhou_702510",
    "title": "Touhou_702510",
    "link_img": "https://live.staticflickr.com/65535/48061264202_cced9f5485_o.jpg",
    "id_image": "Touhou_702510",
    "count_view": 0
  },
  {
    "link_thumb": "https://live.staticflickr.com/65535/48061310517_4afe2da502_n.jpg",
    "id_album": "1967241290",
    "description": "Touhou_722898",
    "title": "Touhou_722898",
    "link_img": "https://live.staticflickr.com/65535/48061310517_8de448c3ef_o.jpg",
    "id_image": "Touhou_722898",
    "count_view": 0
  },
  {
    "link_thumb": "https://live.staticflickr.com/65535/48061213951_1d75c12edc_n.jpg",
    "id_album": "1967241290",
    "description": "Touhou_722948",
    "title": "Touhou_722948",
    "link_img": "https://live.staticflickr.com/65535/48061213951_a9b97f8d36_o.jpg",
    "id_image": "Touhou_722948",
    "count_view": 0
  },
  {
    "link_thumb": "https://live.staticflickr.com/65535/48061277253_403c90cea4_n.jpg",
    "id_album": "1967241290",
    "description": "Touhou_725617",
    "title": "Touhou_725617",
    "link_img": "https://live.staticflickr.com/65535/48061277253_9a7b606c90_o.jpg",
    "id_image": "Touhou_725617",
    "count_view": 0
  },
  {
    "link_thumb": "https://live.staticflickr.com/65535/48061397606_b984f3f8d5_n.jpg",
    "id_album": "1967241290",
    "description": "Touhou_751740",
    "title": "Touhou_751740",
    "link_img": "https://live.staticflickr.com/65535/48061397606_a7637a2fd5_o.jpg",
    "id_image": "Touhou_751740",
    "count_view": 0
  },
  {
    "link_thumb": "https://live.staticflickr.com/65535/48061464588_a0b9972fd9_n.jpg",
    "id_album": "1967241290",
    "description": "Touhou_751800",
    "title": "Touhou_751800",
    "link_img": "https://live.staticflickr.com/65535/48061464588_31716da2b5_o.jpg",
    "id_image": "Touhou_751800",
    "count_view": 0
  },
  {
    "link_thumb": "https://live.staticflickr.com/65535/48061552402_b72e1ec5f8_n.jpg",
    "id_album": "1967241290",
    "description": "Touhou_752917",
    "title": "Touhou_752917",
    "link_img": "https://live.staticflickr.com/65535/48061552402_ea9bd56d22_o.jpg",
    "id_image": "Touhou_752917",
    "count_view": 0
  },
  {
    "link_thumb": "https://live.staticflickr.com/65535/48061503498_1303beb693_n.jpg",
    "id_album": "1967241290",
    "description": "Touhou_752920",
    "title": "Touhou_752920",
    "link_img": "https://live.staticflickr.com/65535/48061503498_542483ec90_o.jpg",
    "id_image": "Touhou_752920",
    "count_view": 0
  },
  {
    "link_thumb": "https://live.staticflickr.com/65535/48061479491_ce5bc02fdd_n.jpg",
    "id_album": "1967241290",
    "description": "Touhou_754175",
    "title": "Touhou_754175",
    "link_img": "https://live.staticflickr.com/65535/48061479491_a4531d6a19_o.jpg",
    "id_image": "Touhou_754175",
    "count_view": 0
  },
  {
    "link_thumb": "https://live.staticflickr.com/65535/48061510266_0348903eeb_n.jpg",
    "id_album": "1967241290",
    "description": "Touhou_755637",
    "title": "Touhou_755637",
    "link_img": "https://live.staticflickr.com/65535/48061510266_f222b2070d_o.jpg",
    "id_image": "Touhou_755637",
    "count_view": 0
  },
  {
    "link_thumb": "https://live.staticflickr.com/65535/48061618743_40e41acef5_n.jpg",
    "id_album": "1967241290",
    "description": "Touhou_761018",
    "title": "Touhou_761018",
    "link_img": "https://live.staticflickr.com/65535/48061618743_b73b956cbb_o.jpg",
    "id_image": "Touhou_761018",
    "count_view": 0
  },
  {
    "link_thumb": "https://live.staticflickr.com/65535/48061760227_b9edff47a4_n.jpg",
    "id_album": "1967241290",
    "description": "Touhou_761340",
    "title": "Touhou_761340",
    "link_img": "https://live.staticflickr.com/65535/48061760227_d55f03fb40_o.jpg",
    "id_image": "Touhou_761340",
    "count_view": 0
  },
  {
    "link_thumb": "https://live.staticflickr.com/65535/48061686046_1585577160_n.jpg",
    "id_album": "1967241290",
    "description": "Touhou_761398",
    "title": "Touhou_761398",
    "link_img": "https://live.staticflickr.com/65535/48061686046_67b126053e_o.jpg",
    "id_image": "Touhou_761398",
    "count_view": 0
  },
  {
    "link_thumb": "https://live.staticflickr.com/65535/48061856827_cac8f8a3dd_n.jpg",
    "id_album": "1967241290",
    "description": "Touhou_761943",
    "title": "Touhou_761943",
    "link_img": "https://live.staticflickr.com/65535/48061856827_09ed64bb78_o.jpg",
    "id_image": "Touhou_761943",
    "count_view": 0
  },
  {
    "link_thumb": "https://live.staticflickr.com/65535/48061824896_37c3966535_n.jpg",
    "id_album": "1967241290",
    "description": "Touhou_762179",
    "title": "Touhou_762179",
    "link_img": "https://live.staticflickr.com/65535/48061824896_1c866340be_o.jpg",
    "id_image": "Touhou_762179",
    "count_view": 0
  },
  {
    "link_thumb": "https://live.staticflickr.com/65535/48061931227_e79f19dc0e_n.jpg",
    "id_album": "1967241290",
    "description": "Touhou_762255",
    "title": "Touhou_762255",
    "link_img": "https://live.staticflickr.com/65535/48061931227_42a61540b1_o.jpg",
    "id_image": "Touhou_762255",
    "count_view": 0
  },
  {
    "link_thumb": "https://live.staticflickr.com/65535/48061921323_97d579e974_n.jpg",
    "id_album": "1967241290",
    "description": "Touhou_762520",
    "title": "Touhou_762520",
    "link_img": "https://live.staticflickr.com/65535/48061921323_15b0ba9d8f_o.jpg",
    "id_image": "Touhou_762520",
    "count_view": 0
  },
  {
    "link_thumb": "https://live.staticflickr.com/65535/48062154172_ce930ddc3b_n.jpg",
    "id_album": "1967241290",
    "description": "Touhou_763082",
    "title": "Touhou_763082",
    "link_img": "https://live.staticflickr.com/65535/48062154172_d20ce3d4a1_o.jpg",
    "id_image": "Touhou_763082",
    "count_view": 0
  },
  {
    "link_thumb": "https://live.staticflickr.com/65535/48062118356_b50f0148b0_n.jpg",
    "id_album": "1967241290",
    "description": "Touhou_767540",
    "title": "Touhou_767540",
    "link_img": "https://live.staticflickr.com/65535/48062118356_c134c68222_o.jpg",
    "id_image": "Touhou_767540",
    "count_view": 0
  },
  {
    "link_thumb": "https://live.staticflickr.com/65535/48062234212_24a0528096_n.jpg",
    "id_album": "1967241290",
    "description": "Touhou_769752",
    "title": "Touhou_769752",
    "link_img": "https://live.staticflickr.com/65535/48062234212_5452b89a1f_o.jpg",
    "id_image": "Touhou_769752",
    "count_view": 0
  },
  {
    "link_thumb": "https://live.staticflickr.com/65535/48062329097_665deec652_n.jpg",
    "id_album": "1967241290",
    "description": "Touhou_777576",
    "title": "Touhou_777576",
    "link_img": "https://live.staticflickr.com/65535/48062329097_407a6e9706_o.jpg",
    "id_image": "Touhou_777576",
    "count_view": 0
  },
  {
    "link_thumb": "https://live.staticflickr.com/65535/48062327698_703b9c4808_n.jpg",
    "id_album": "1967241290",
    "description": "Touhou_785566",
    "title": "Touhou_785566",
    "link_img": "https://live.staticflickr.com/65535/48062327698_a84916c741_o.jpg",
    "id_image": "Touhou_785566",
    "count_view": 0
  },
  {
    "link_thumb": "https://live.staticflickr.com/65535/48062338028_5215df0c65_n.jpg",
    "id_album": "1967241290",
    "description": "Touhou_786953",
    "title": "Touhou_786953",
    "link_img": "https://live.staticflickr.com/65535/48062338028_ab4d10a2b0_o.jpg",
    "id_image": "Touhou_786953",
    "count_view": 0
  },
  {
    "link_thumb": "https://live.staticflickr.com/65535/48062339418_4e5d284c03_n.jpg",
    "id_album": "1967241290",
    "description": "Touhou_787168",
    "title": "Touhou_787168",
    "link_img": "https://live.staticflickr.com/65535/48062339418_278409d5b1_o.jpg",
    "id_image": "Touhou_787168",
    "count_view": 0
  },
  {
    "link_thumb": "https://live.staticflickr.com/65535/48062334326_05b590ccdd_n.jpg",
    "id_album": "1967241290",
    "description": "Touhou_795415",
    "title": "Touhou_795415",
    "link_img": "https://live.staticflickr.com/65535/48062334326_7edfe00e17_o.jpg",
    "id_image": "Touhou_795415",
    "count_view": 0
  },
  {
    "link_thumb": "https://live.staticflickr.com/65535/48062445402_95646879f7_n.jpg",
    "id_album": "1967241290",
    "description": "Touhou_798594",
    "title": "Touhou_798594",
    "link_img": "https://live.staticflickr.com/65535/48062445402_5d40d4873b_o.jpg",
    "id_image": "Touhou_798594",
    "count_view": 0
  },
  {
    "link_thumb": "https://live.staticflickr.com/65535/48062412433_e79b2dde9e_n.jpg",
    "id_album": "1967241290",
    "description": "Touhou_804238",
    "title": "Touhou_804238",
    "link_img": "https://live.staticflickr.com/65535/48062412433_fc5997862b_o.jpg",
    "id_image": "Touhou_804238",
    "count_view": 0
  },
  {
    "link_thumb": "https://live.staticflickr.com/65535/48062381866_5f79e86e9b_n.jpg",
    "id_album": "1967241290",
    "description": "Touhou_817198",
    "title": "Touhou_817198",
    "link_img": "https://live.staticflickr.com/65535/48062381866_43657eef85_o.jpg",
    "id_image": "Touhou_817198",
    "count_view": 0
  },
  {
    "link_thumb": "https://live.staticflickr.com/65535/48062454023_5a1f7d3560_n.jpg",
    "id_album": "1967241290",
    "description": "Touhou_828610",
    "title": "Touhou_828610",
    "link_img": "https://live.staticflickr.com/65535/48062454023_17f2e20059_o.jpg",
    "id_image": "Touhou_828610",
    "count_view": 0
  },
  {
    "link_thumb": "https://live.staticflickr.com/65535/48062458593_9f328343c1_n.jpg",
    "id_album": "1967241290",
    "description": "Touhou_830236",
    "title": "Touhou_830236",
    "link_img": "https://live.staticflickr.com/65535/48062458593_7f3f5b719b_o.jpg",
    "id_image": "Touhou_830236",
    "count_view": 0
  },
  {
    "link_thumb": "https://live.staticflickr.com/65535/48062516067_9076a5c8a7_n.jpg",
    "id_album": "1967241290",
    "description": "Touhou_835889",
    "title": "Touhou_835889",
    "link_img": "https://live.staticflickr.com/65535/48062516067_60cd257808_o.jpg",
    "id_image": "Touhou_835889",
    "count_view": 0
  },
  {
    "link_thumb": "https://live.staticflickr.com/65535/48062563537_060f6a7b5b_n.jpg",
    "id_album": "1967241290",
    "description": "Touhou_846556",
    "title": "Touhou_846556",
    "link_img": "https://live.staticflickr.com/65535/48062563537_629d6c6cc3_o.jpg",
    "id_image": "Touhou_846556",
    "count_view": 0
  },
  {
    "link_thumb": "https://live.staticflickr.com/65535/48062563922_c04cf64882_n.jpg",
    "id_album": "1967241290",
    "description": "Touhou_846561",
    "title": "Touhou_846561",
    "link_img": "https://live.staticflickr.com/65535/48062563922_05dc92626e_o.jpg",
    "id_image": "Touhou_846561",
    "count_view": 0
  },
  {
    "link_thumb": "https://live.staticflickr.com/65535/48062564837_fb8e21e2d5_n.jpg",
    "id_album": "1967241290",
    "description": "Touhou_846586",
    "title": "Touhou_846586",
    "link_img": "https://live.staticflickr.com/65535/48062564837_c1bc1052c6_o.jpg",
    "id_image": "Touhou_846586",
    "count_view": 0
  },
  {
    "link_thumb": "https://live.staticflickr.com/65535/48062565132_2f2406651a_n.jpg",
    "id_album": "1967241290",
    "description": "Touhou_846587",
    "title": "Touhou_846587",
    "link_img": "https://live.staticflickr.com/65535/48062565132_887ebf0196_o.jpg",
    "id_image": "Touhou_846587",
    "count_view": 0
  },
  {
    "link_thumb": "https://live.staticflickr.com/65535/48062569142_2d7a707a5b_n.jpg",
    "id_album": "1967241290",
    "description": "Touhou_846631",
    "title": "Touhou_846631",
    "link_img": "https://live.staticflickr.com/65535/48062569142_4a43ec2612_o.jpg",
    "id_image": "Touhou_846631",
    "count_view": 0
  },
  {
    "link_thumb": "https://live.staticflickr.com/65535/48062569402_ab24885820_n.jpg",
    "id_album": "1967241290",
    "description": "Touhou_846634",
    "title": "Touhou_846634",
    "link_img": "https://live.staticflickr.com/65535/48062569402_2d03ec79ab_o.jpg",
    "id_image": "Touhou_846634",
    "count_view": 0
  },
  {
    "link_thumb": "https://live.staticflickr.com/65535/48062523608_4aa6229fb8_n.jpg",
    "id_album": "1967241290",
    "description": "Touhou_846840",
    "title": "Touhou_846840",
    "link_img": "https://live.staticflickr.com/65535/48062523608_3598089674_o.jpg",
    "id_image": "Touhou_846840",
    "count_view": 0
  },
  {
    "link_thumb": "https://live.staticflickr.com/65535/48062625812_ffc4a9aa4a_n.jpg",
    "id_album": "1967241290",
    "description": "Touhou_867474",
    "title": "Touhou_867474",
    "link_img": "https://live.staticflickr.com/65535/48062625812_516bb98d7d_o.jpg",
    "id_image": "Touhou_867474",
    "count_view": 0
  },
  {
    "link_thumb": "https://live.staticflickr.com/65535/48062632428_f8d8499822_n.jpg",
    "id_album": "1967241290",
    "description": "Touhou_892413",
    "title": "Touhou_892413",
    "link_img": "https://live.staticflickr.com/65535/48062632428_e63fa219ac_o.jpg",
    "id_image": "Touhou_892413",
    "count_view": 0
  },
  {
    "link_thumb": "https://live.staticflickr.com/65535/48062731182_8f6a1155b7_n.jpg",
    "id_album": "1967241290",
    "description": "Touhou_913700",
    "title": "Touhou_913700",
    "link_img": "https://live.staticflickr.com/65535/48062731182_555eee9a7c_o.jpg",
    "id_image": "Touhou_913700",
    "count_view": 0
  },
  {
    "link_thumb": "https://live.staticflickr.com/65535/48062759867_124f9712a9_n.jpg",
    "id_album": "1967241290",
    "description": "Touhou_915400",
    "title": "Touhou_915400",
    "link_img": "https://live.staticflickr.com/65535/48062759867_8bebbce2cc_o.jpg",
    "id_image": "Touhou_915400",
    "count_view": 0
  },
  {
    "link_thumb": "https://live.staticflickr.com/65535/48062764583_5a1b54367c_n.jpg",
    "id_album": "1967241290",
    "description": "Touhou_917437",
    "title": "Touhou_917437",
    "link_img": "https://live.staticflickr.com/65535/48062764583_cc3a223002_o.jpg",
    "id_image": "Touhou_917437",
    "count_view": 0
  },
  {
    "link_thumb": "https://live.staticflickr.com/65535/48062795598_ef3746d649_n.jpg",
    "id_album": "1967241290",
    "description": "Touhou_920458",
    "title": "Touhou_920458",
    "link_img": "https://live.staticflickr.com/65535/48062795598_ddacce4ae6_o.jpg",
    "id_image": "Touhou_920458",
    "count_view": 0
  },
  {
    "link_thumb": "https://live.staticflickr.com/65535/48062746476_564a186bdf_n.jpg",
    "id_album": "1967241290",
    "description": "Touhou_920461",
    "title": "Touhou_920461",
    "link_img": "https://live.staticflickr.com/65535/48062746476_40dda2a519_o.jpg",
    "id_image": "Touhou_920461",
    "count_view": 0
  },
  {
    "link_thumb": "https://live.staticflickr.com/65535/48062800323_4009430928_n.jpg",
    "id_album": "1967241290",
    "description": "Touhou_920661",
    "title": "Touhou_920661",
    "link_img": "https://live.staticflickr.com/65535/48062800323_ebfaab25d1_o.jpg",
    "id_image": "Touhou_920661",
    "count_view": 0
  },
  {
    "link_thumb": "https://live.staticflickr.com/65535/48062752406_475519c753_n.jpg",
    "id_album": "1967241290",
    "description": "Touhou_920669",
    "title": "Touhou_920669",
    "link_img": "https://live.staticflickr.com/65535/48062752406_a3931d449d_o.jpg",
    "id_image": "Touhou_920669",
    "count_view": 0
  },
  {
    "link_thumb": "https://live.staticflickr.com/65535/48062763096_df84cd779e_n.jpg",
    "id_album": "1967241290",
    "description": "Touhou_921408",
    "title": "Touhou_921408",
    "link_img": "https://live.staticflickr.com/65535/48062763096_5820b61f2a_o.jpg",
    "id_image": "Touhou_921408",
    "count_view": 0
  },
  {
    "link_thumb": "https://live.staticflickr.com/65535/48062833663_e897cb5552_n.jpg",
    "id_album": "1967241290",
    "description": "Touhou_930592",
    "title": "Touhou_930592",
    "link_img": "https://live.staticflickr.com/65535/48062833663_49227c6459_o.jpg",
    "id_image": "Touhou_930592",
    "count_view": 0
  },
  {
    "link_thumb": "https://live.staticflickr.com/65535/48062845811_6e4c10f3fd_n.jpg",
    "id_album": "1967241290",
    "description": "Touhou_964881",
    "title": "Touhou_964881",
    "link_img": "https://live.staticflickr.com/65535/48062845811_14c4c3a9b2_o.jpg",
    "id_image": "Touhou_964881",
    "count_view": 0
  }
]