[
  {
    "total_img": 501,
    "number_page": 3,
    "title": "Black Rock Shooter",
    "tag": "Mato Kuroi, Brs, Green Eyes, Snow, Moon, Black Hair, Hatsune Miku, Tattoo, Dead Master Black Rock Shooter, Mato, Black, Glow, Weapon, Long Hair, Eye, Thigh Highs, Anime, Sword, White Hair, Crow, Shorts, Bikini, Horns, Heterochromia, Flame, Gun, Circle, Chariot Black Rock Shooter, Bloodborne, Cute, Vocaloid, Crucifix, Smile, Red Eyes, Skirt, Chess Board, Pink, Kagari Izuriha, Belt, Water Drop, Dark, Glasses, Fantasy, Raven, Chain, Cannon, Cherry Blossom, Bird, Sitting, Black Matagi, Twintails, Black Gold Saw, Wings, White Rock Shooter, Figurine, Yuri, Short Hair, Yomi Takanashi, Katana, Bullet, Rear, Blue, Strength Black Rock Shooter, Insane Black Rock Shooter, Saya Irino, Ice, Maid, Woman Warrior, Black Rock Shooter, Yuu Koutari, Tie, Blue Eyes, Blue Hair, Glowing Eyes, Hoodie, Fire, Skull",
    "description": "Black Rock Shooter",
    "link_thumb": "https://live.staticflickr.com/65535/46982154815_bea462d035_n.jpg",
    "id_album": "1471799172",
    "total_view": 501
  },
  {
    "total_img": 2,
    "number_page": 1,
    "title": "White Rock Shooter",
    "tag": "White Rock Shooter,",
    "description": "White Rock Shooter",
    "link_thumb": "https://live.staticflickr.com/65535/40933910423_9c5bdb0a99_n.jpg",
    "id_album": "-1967654307",
    "total_view": 2
  }
]