[
  {
    "total_img": 9,
    "number_page": 1,
    "title": "Zombie Land Saga",
    "tag": "Saki Nikaidou, Bubble, Flower, Zombie Land Saga, Yuugiri Zombie Land Saga, Junko Konno, Sakura Minamoto, Ai Mizuno, Lily Hoshikawa, Romero Zombie Land Saga, Koutarou Tatsumi, Tae Yamada",
    "description": "Zombie Land Saga",
    "link_thumb": "https://live.staticflickr.com/65535/48067013868_508bb40071_n.jpg",
    "id_album": "-799252251",
    "total_view": 9
  }
]