[
  {
    "link_thumb": "https://live.staticflickr.com/65535/48074180296_9353baf25c_n.jpg",
    "id_album": "890259371",
    "description": "OnePunchMan_656715",
    "title": "OnePunchMan_656715",
    "link_img": "https://live.staticflickr.com/65535/48074180296_310e510dd6_o.jpg",
    "id_image": "OnePunchMan_656715",
    "count_view": 0
  },
  {
    "link_thumb": "https://live.staticflickr.com/65535/48074181726_b8a06a3148_n.jpg",
    "id_album": "890259371",
    "description": "OnePunchMan_656719",
    "title": "OnePunchMan_656719",
    "link_img": "https://live.staticflickr.com/65535/48074181726_713452860e_o.jpg",
    "id_image": "OnePunchMan_656719",
    "count_view": 0
  },
  {
    "link_thumb": "https://live.staticflickr.com/65535/48074229653_1bafc3c3b1_n.jpg",
    "id_album": "890259371",
    "description": "OnePunchMan_656724",
    "title": "OnePunchMan_656724",
    "link_img": "https://live.staticflickr.com/65535/48074229653_8a06b57a1f_o.jpg",
    "id_image": "OnePunchMan_656724",
    "count_view": 0
  },
  {
    "link_thumb": "https://live.staticflickr.com/65535/48074299557_d7e62b7fb3_n.jpg",
    "id_album": "890259371",
    "description": "OnePunchMan_660725",
    "title": "OnePunchMan_660725",
    "link_img": "https://live.staticflickr.com/65535/48074299557_5748b29266_o.jpg",
    "id_image": "OnePunchMan_660725",
    "count_view": 0
  },
  {
    "link_thumb": "https://live.staticflickr.com/65535/48074304602_eca0e3eded_n.jpg",
    "id_album": "890259371",
    "description": "OnePunchMan_662807",
    "title": "OnePunchMan_662807",
    "link_img": "https://live.staticflickr.com/65535/48074304602_0e671b0bc1_o.jpg",
    "id_image": "OnePunchMan_662807",
    "count_view": 0
  },
  {
    "link_thumb": "https://live.staticflickr.com/65535/48074243538_b50b774333_n.jpg",
    "id_album": "890259371",
    "description": "OnePunchMan_662808",
    "title": "OnePunchMan_662808",
    "link_img": "https://live.staticflickr.com/65535/48074243538_5705838183_o.jpg",
    "id_image": "OnePunchMan_662808",
    "count_view": 0
  },
  {
    "link_thumb": "https://live.staticflickr.com/65535/48074308292_0275507753_n.jpg",
    "id_album": "890259371",
    "description": "OnePunchMan_664415",
    "title": "OnePunchMan_664415",
    "link_img": "https://live.staticflickr.com/65535/48074308292_a24ce6676f_o.jpg",
    "id_image": "OnePunchMan_664415",
    "count_view": 0
  },
  {
    "link_thumb": "https://live.staticflickr.com/65535/48074248196_c025728f3e_n.jpg",
    "id_album": "890259371",
    "description": "OnePunchMan_677083",
    "title": "OnePunchMan_677083",
    "link_img": "https://live.staticflickr.com/65535/48074248196_bae49aa760_o.jpg",
    "id_image": "OnePunchMan_677083",
    "count_view": 0
  },
  {
    "link_thumb": "https://live.staticflickr.com/65535/48074255526_a57817d834_n.jpg",
    "id_album": "890259371",
    "description": "OnePunchMan_682569",
    "title": "OnePunchMan_682569",
    "link_img": "https://live.staticflickr.com/65535/48074255526_e96df2d1a5_o.jpg",
    "id_image": "OnePunchMan_682569",
    "count_view": 0
  },
  {
    "link_thumb": "https://live.staticflickr.com/65535/48074417252_da9dd245d6_n.jpg",
    "id_album": "890259371",
    "description": "OnePunchMan_950031",
    "title": "OnePunchMan_950031",
    "link_img": "https://live.staticflickr.com/65535/48074417252_3fdbf302fc_o.jpg",
    "id_image": "OnePunchMan_950031",
    "count_view": 0
  }
]