[
  {
    "link_thumb": "https://live.staticflickr.com/65535/47977046797_2361fa017d_n.jpg",
    "id_album": "1355167576",
    "description": "FateGrandOrder_915462",
    "title": "FateGrandOrder_915462",
    "link_img": "https://live.staticflickr.com/65535/47977046797_e282b2dc1c_o.jpg",
    "id_image": "FateGrandOrder_915462",
    "count_view": 0
  },
  {
    "link_thumb": "https://live.staticflickr.com/65535/47980901308_3bf08fa360_n.jpg",
    "id_album": "1355167576",
    "description": "FateStayNightUnlimitedBladeWorks_815590",
    "title": "FateStayNightUnlimitedBladeWorks_815590",
    "link_img": "https://live.staticflickr.com/65535/47980901308_b2a4ef3843_o.jpg",
    "id_image": "FateStayNightUnlimitedBladeWorks_815590",
    "count_view": 0
  }
]