[
  {
    "total_img": 10,
    "number_page": 1,
    "title": "Wish Upon the Pleiades",
    "tag": "Green Eyes, Night, Colorful, Wink, Black Hair, Itsuki Wish Upon The Pleiades, Minato Wish Upon the Pleiades, White Dress, Aoi Wish Upon The Pleiades, Blonde, Long Hair, Twintails, Hikaru Wish Upon The Pleiades, Goggles, Bubble, Nanako Wish Upon The Pleiades, Anime, Wish Upon the Pleiades, Book, bow Clothing, Shorts, Short Hair, Elnath Wish Upon The Pleiades, Purple Eyes, Purple Hair, Cheerleader, Brown Hair, Pink Eyes, Headband, Pink Hair, School Uniform, Yellow Eyes, Skirt, Tie, Blue Eyes, Blue Hair, Blush, Hoodie, Pantyhose, Glasses, Hat, Ponytail, Subaru Wish Upon the Pleiades",
    "description": "Wish Upon the Pleiades",
    "link_thumb": "https://live.staticflickr.com/65535/48066028058_a1004c6b6d_n.jpg",
    "id_album": "-1359965948",
    "total_view": 10
  },
  {
    "total_img": 3,
    "number_page": 1,
    "title": "Subaru Wish Upon the Pleiades",
    "tag": "Subaru Wish Upon the Pleiades,",
    "description": "Subaru Wish Upon the Pleiades",
    "link_thumb": "https://live.staticflickr.com/65535/48066031848_ba48ae368d_n.jpg",
    "id_album": "-814616884",
    "total_view": 3
  }
]