[
  {
    "link_thumb": "https://live.staticflickr.com/65535/47955558052_d143dcdd4f_n.jpg",
    "id_album": "1954781146",
    "description": "Crossover_123023",
    "title": "Crossover_123023",
    "link_img": "https://live.staticflickr.com/65535/47955558052_1cbd8fafd1_o.jpg",
    "id_image": "Crossover_123023",
    "count_view": 0
  },
  {
    "link_thumb": "https://live.staticflickr.com/65535/47960505433_7afbc614c4_n.jpg",
    "id_album": "1954781146",
    "description": "Crossover_752904",
    "title": "Crossover_752904",
    "link_img": "https://live.staticflickr.com/65535/47960505433_c3d667851e_o.jpg",
    "id_image": "Crossover_752904",
    "count_view": 0
  },
  {
    "link_thumb": "https://live.staticflickr.com/65535/47960654051_3203199682_n.jpg",
    "id_album": "1954781146",
    "description": "Crossover_813195",
    "title": "Crossover_813195",
    "link_img": "https://live.staticflickr.com/65535/47960654051_57a5bb95ab_o.jpg",
    "id_image": "Crossover_813195",
    "count_view": 0
  },
  {
    "link_thumb": "https://live.staticflickr.com/65535/47966950982_e799aceeb3_n.jpg",
    "id_album": "1954781146",
    "description": "Crossover_902871",
    "title": "Crossover_902871",
    "link_img": "https://live.staticflickr.com/65535/47966950982_7ccabed71e_o.jpg",
    "id_image": "Crossover_902871",
    "count_view": 0
  },
  {
    "link_thumb": "https://live.staticflickr.com/65535/48060700248_133d5e8179_n.jpg",
    "id_album": "1954781146",
    "description": "Touhou_111558",
    "title": "Touhou_111558",
    "link_img": "https://live.staticflickr.com/65535/48060700248_8a57fd011d_o.jpg",
    "id_image": "Touhou_111558",
    "count_view": 0
  },
  {
    "link_thumb": "https://live.staticflickr.com/65535/48060708178_cf4061624f_n.jpg",
    "id_album": "1954781146",
    "description": "Touhou_112647",
    "title": "Touhou_112647",
    "link_img": "https://live.staticflickr.com/65535/48060708178_294bf22bd0_o.jpg",
    "id_image": "Touhou_112647",
    "count_view": 0
  },
  {
    "link_thumb": "https://live.staticflickr.com/65535/48060710523_ed554116e9_n.jpg",
    "id_album": "1954781146",
    "description": "Touhou_112971",
    "title": "Touhou_112971",
    "link_img": "https://live.staticflickr.com/65535/48060710523_7b1bc9d57d_o.jpg",
    "id_image": "Touhou_112971",
    "count_view": 0
  },
  {
    "link_thumb": "https://live.staticflickr.com/65535/48060770727_65e5c93128_n.jpg",
    "id_album": "1954781146",
    "description": "Touhou_123000",
    "title": "Touhou_123000",
    "link_img": "https://live.staticflickr.com/65535/48060770727_aed412888c_o.jpg",
    "id_image": "Touhou_123000",
    "count_view": 0
  },
  {
    "link_thumb": "https://live.staticflickr.com/65535/48060725083_3aa488ef27_n.jpg",
    "id_album": "1954781146",
    "description": "Touhou_123129",
    "title": "Touhou_123129",
    "link_img": "https://live.staticflickr.com/65535/48060725083_3cdb4dcbec_o.jpg",
    "id_image": "Touhou_123129",
    "count_view": 0
  },
  {
    "link_thumb": "https://live.staticflickr.com/65535/48060780557_8731ac025f_n.jpg",
    "id_album": "1954781146",
    "description": "Touhou_123822",
    "title": "Touhou_123822",
    "link_img": "https://live.staticflickr.com/65535/48060780557_cbcc959b3c_o.jpg",
    "id_image": "Touhou_123822",
    "count_view": 0
  },
  {
    "link_thumb": "https://live.staticflickr.com/65535/48060753983_ab30963032_n.jpg",
    "id_album": "1954781146",
    "description": "Touhou_149403",
    "title": "Touhou_149403",
    "link_img": "https://live.staticflickr.com/65535/48060753983_5d8d1f1dd9_o.jpg",
    "id_image": "Touhou_149403",
    "count_view": 0
  },
  {
    "link_thumb": "https://live.staticflickr.com/65535/48060710701_c0c6e1c6e2_n.jpg",
    "id_album": "1954781146",
    "description": "Touhou_149455",
    "title": "Touhou_149455",
    "link_img": "https://live.staticflickr.com/65535/48060710701_b67c7b3160_o.jpg",
    "id_image": "Touhou_149455",
    "count_view": 0
  },
  {
    "link_thumb": "https://live.staticflickr.com/65535/48060807237_61744b0def_n.jpg",
    "id_album": "1954781146",
    "description": "Touhou_151378",
    "title": "Touhou_151378",
    "link_img": "https://live.staticflickr.com/65535/48060807237_55ebdf56a4_o.jpg",
    "id_image": "Touhou_151378",
    "count_view": 0
  },
  {
    "link_thumb": "https://live.staticflickr.com/65535/48060815473_45ffcfcffc_n.jpg",
    "id_album": "1954781146",
    "description": "Touhou_194096",
    "title": "Touhou_194096",
    "link_img": "https://live.staticflickr.com/65535/48060815473_c28faae97a_o.jpg",
    "id_image": "Touhou_194096",
    "count_view": 0
  },
  {
    "link_thumb": "https://live.staticflickr.com/65535/48060815663_1e5f2852d9_n.jpg",
    "id_album": "1954781146",
    "description": "Touhou_194097",
    "title": "Touhou_194097",
    "link_img": "https://live.staticflickr.com/65535/48060815663_381f280174_o.jpg",
    "id_image": "Touhou_194097",
    "count_view": 0
  },
  {
    "link_thumb": "https://live.staticflickr.com/65535/48060816023_c0cfd49781_n.jpg",
    "id_album": "1954781146",
    "description": "Touhou_194098",
    "title": "Touhou_194098",
    "link_img": "https://live.staticflickr.com/65535/48060816023_60b3f9f5f8_o.jpg",
    "id_image": "Touhou_194098",
    "count_view": 0
  },
  {
    "link_thumb": "https://live.staticflickr.com/65535/48060776151_aa18699d21_n.jpg",
    "id_album": "1954781146",
    "description": "Touhou_197044",
    "title": "Touhou_197044",
    "link_img": "https://live.staticflickr.com/65535/48060776151_b5c7b542c5_o.jpg",
    "id_image": "Touhou_197044",
    "count_view": 0
  },
  {
    "link_thumb": "https://live.staticflickr.com/65535/48060776986_cec4ae7483_n.jpg",
    "id_album": "1954781146",
    "description": "Touhou_197743",
    "title": "Touhou_197743",
    "link_img": "https://live.staticflickr.com/65535/48060776986_1136ffe953_o.jpg",
    "id_image": "Touhou_197743",
    "count_view": 0
  },
  {
    "link_thumb": "https://live.staticflickr.com/65535/48060875537_bbeee83ae5_n.jpg",
    "id_album": "1954781146",
    "description": "Touhou_20198",
    "title": "Touhou_20198",
    "link_img": "https://live.staticflickr.com/65535/48060875537_895e93ace1_o.jpg",
    "id_image": "Touhou_20198",
    "count_view": 0
  },
  {
    "link_thumb": "https://live.staticflickr.com/65535/48060832913_df7c8b5a71_n.jpg",
    "id_album": "1954781146",
    "description": "Touhou_212988",
    "title": "Touhou_212988",
    "link_img": "https://live.staticflickr.com/65535/48060832913_18f678be10_o.jpg",
    "id_image": "Touhou_212988",
    "count_view": 0
  },
  {
    "link_thumb": "https://live.staticflickr.com/65535/48060835438_7559dde0f1_n.jpg",
    "id_album": "1954781146",
    "description": "Touhou_213182",
    "title": "Touhou_213182",
    "link_img": "https://live.staticflickr.com/65535/48060835438_656133d798_o.jpg",
    "id_image": "Touhou_213182",
    "count_view": 0
  },
  {
    "link_thumb": "https://live.staticflickr.com/65535/48060840481_1a47ffb3d6_n.jpg",
    "id_album": "1954781146",
    "description": "Touhou_226999",
    "title": "Touhou_226999",
    "link_img": "https://live.staticflickr.com/65535/48060840481_ac68fcd595_o.jpg",
    "id_image": "Touhou_226999",
    "count_view": 0
  },
  {
    "link_thumb": "https://live.staticflickr.com/65535/48060863266_cf86cea534_n.jpg",
    "id_album": "1954781146",
    "description": "Touhou_263292",
    "title": "Touhou_263292",
    "link_img": "https://live.staticflickr.com/65535/48060863266_b43204b52b_o.jpg",
    "id_image": "Touhou_263292",
    "count_view": 0
  },
  {
    "link_thumb": "https://live.staticflickr.com/65535/48060915418_8a4a351b52_n.jpg",
    "id_album": "1954781146",
    "description": "Touhou_267455",
    "title": "Touhou_267455",
    "link_img": "https://live.staticflickr.com/65535/48060915418_5470988762_o.jpg",
    "id_image": "Touhou_267455",
    "count_view": 0
  },
  {
    "link_thumb": "https://live.staticflickr.com/65535/48060925333_109cbab3e3_n.jpg",
    "id_album": "1954781146",
    "description": "Touhou_275272",
    "title": "Touhou_275272",
    "link_img": "https://live.staticflickr.com/65535/48060925333_e78091a2d5_o.jpg",
    "id_image": "Touhou_275272",
    "count_view": 0
  },
  {
    "link_thumb": "https://live.staticflickr.com/65535/48060975058_151300549e_n.jpg",
    "id_album": "1954781146",
    "description": "Touhou_315209",
    "title": "Touhou_315209",
    "link_img": "https://live.staticflickr.com/65535/48060975058_a96096dc57_o.jpg",
    "id_image": "Touhou_315209",
    "count_view": 0
  },
  {
    "link_thumb": "https://live.staticflickr.com/65535/48060931111_8f2664b80e_n.jpg",
    "id_album": "1954781146",
    "description": "Touhou_315217",
    "title": "Touhou_315217",
    "link_img": "https://live.staticflickr.com/65535/48060931111_6884222313_o.jpg",
    "id_image": "Touhou_315217",
    "count_view": 0
  },
  {
    "link_thumb": "https://live.staticflickr.com/65535/48061072292_51ef25746a_n.jpg",
    "id_album": "1954781146",
    "description": "Touhou_534225",
    "title": "Touhou_534225",
    "link_img": "https://live.staticflickr.com/65535/48061072292_c77153d905_o.jpg",
    "id_image": "Touhou_534225",
    "count_view": 0
  },
  {
    "link_thumb": "https://live.staticflickr.com/65535/48060996136_f854e0200c_n.jpg",
    "id_album": "1954781146",
    "description": "Touhou_548189",
    "title": "Touhou_548189",
    "link_img": "https://live.staticflickr.com/65535/48060996136_77ab8e5ddc_o.jpg",
    "id_image": "Touhou_548189",
    "count_view": 0
  },
  {
    "link_thumb": "https://live.staticflickr.com/65535/48061068848_f835e7b8c3_n.jpg",
    "id_album": "1954781146",
    "description": "Touhou_557775",
    "title": "Touhou_557775",
    "link_img": "https://live.staticflickr.com/65535/48061068848_3ab70eee19_o.jpg",
    "id_image": "Touhou_557775",
    "count_view": 0
  },
  {
    "link_thumb": "https://live.staticflickr.com/65535/48061022856_818d4dcc5a_n.jpg",
    "id_album": "1954781146",
    "description": "Touhou_557777",
    "title": "Touhou_557777",
    "link_img": "https://live.staticflickr.com/65535/48061022856_802acf94c2_o.jpg",
    "id_image": "Touhou_557777",
    "count_view": 0
  },
  {
    "link_thumb": "https://live.staticflickr.com/65535/48061024716_39e37bb9c4_n.jpg",
    "id_album": "1954781146",
    "description": "Touhou_557787",
    "title": "Touhou_557787",
    "link_img": "https://live.staticflickr.com/65535/48061024716_a5e240d461_o.jpg",
    "id_image": "Touhou_557787",
    "count_view": 0
  },
  {
    "link_thumb": "https://live.staticflickr.com/65535/48061071683_15fb75f414_n.jpg",
    "id_album": "1954781146",
    "description": "Touhou_557789",
    "title": "Touhou_557789",
    "link_img": "https://live.staticflickr.com/65535/48061071683_19bd5e013a_o.jpg",
    "id_image": "Touhou_557789",
    "count_view": 0
  },
  {
    "link_thumb": "https://live.staticflickr.com/65535/48061072878_685013ba76_n.jpg",
    "id_album": "1954781146",
    "description": "Touhou_557857",
    "title": "Touhou_557857",
    "link_img": "https://live.staticflickr.com/65535/48061072878_6a9c152b13_o.jpg",
    "id_image": "Touhou_557857",
    "count_view": 0
  },
  {
    "link_thumb": "https://live.staticflickr.com/65535/48061047061_a9e6671216_n.jpg",
    "id_album": "1954781146",
    "description": "Touhou_558849",
    "title": "Touhou_558849",
    "link_img": "https://live.staticflickr.com/65535/48061047061_f233f1235b_o.jpg",
    "id_image": "Touhou_558849",
    "count_view": 0
  },
  {
    "link_thumb": "https://live.staticflickr.com/65535/48061136013_9c01430784_n.jpg",
    "id_album": "1954781146",
    "description": "Touhou_656167",
    "title": "Touhou_656167",
    "link_img": "https://live.staticflickr.com/65535/48061136013_173c1d577e_o.jpg",
    "id_image": "Touhou_656167",
    "count_view": 0
  },
  {
    "link_thumb": "https://live.staticflickr.com/65535/48061191207_4acfe05307_n.jpg",
    "id_album": "1954781146",
    "description": "Touhou_656184",
    "title": "Touhou_656184",
    "link_img": "https://live.staticflickr.com/65535/48061191207_d54579bf7f_o.jpg",
    "id_image": "Touhou_656184",
    "count_view": 0
  },
  {
    "link_thumb": "https://live.staticflickr.com/65535/48061095146_255fbac4ef_n.jpg",
    "id_album": "1954781146",
    "description": "Touhou_660473",
    "title": "Touhou_660473",
    "link_img": "https://live.staticflickr.com/65535/48061095146_7fb472262f_o.jpg",
    "id_image": "Touhou_660473",
    "count_view": 0
  },
  {
    "link_thumb": "https://live.staticflickr.com/65535/48061101561_42533bfac6_n.jpg",
    "id_album": "1954781146",
    "description": "Touhou_672901",
    "title": "Touhou_672901",
    "link_img": "https://live.staticflickr.com/65535/48061101561_e20bd7a54c_o.jpg",
    "id_image": "Touhou_672901",
    "count_view": 0
  },
  {
    "link_thumb": "https://live.staticflickr.com/65535/48061201502_69b427cb64_n.jpg",
    "id_album": "1954781146",
    "description": "Touhou_672934",
    "title": "Touhou_672934",
    "link_img": "https://live.staticflickr.com/65535/48061201502_709a6e8ca2_o.jpg",
    "id_image": "Touhou_672934",
    "count_view": 0
  },
  {
    "link_thumb": "https://live.staticflickr.com/65535/48061205537_b442354d36_n.jpg",
    "id_album": "1954781146",
    "description": "Touhou_673475",
    "title": "Touhou_673475",
    "link_img": "https://live.staticflickr.com/65535/48061205537_4dfe207dba_o.jpg",
    "id_image": "Touhou_673475",
    "count_view": 0
  },
  {
    "link_thumb": "https://live.staticflickr.com/65535/48061225892_cc872168cd_n.jpg",
    "id_album": "1954781146",
    "description": "Touhou_681218",
    "title": "Touhou_681218",
    "link_img": "https://live.staticflickr.com/65535/48061225892_5cea9604a1_o.jpg",
    "id_image": "Touhou_681218",
    "count_view": 0
  },
  {
    "link_thumb": "https://live.staticflickr.com/65535/48061254642_bb8fa1770a_n.jpg",
    "id_album": "1954781146",
    "description": "Touhou_698438",
    "title": "Touhou_698438",
    "link_img": "https://live.staticflickr.com/65535/48061254642_efdfc07672_o.jpg",
    "id_image": "Touhou_698438",
    "count_view": 0
  },
  {
    "link_thumb": "https://live.staticflickr.com/65535/48061219728_7df0b35bcc_n.jpg",
    "id_album": "1954781146",
    "description": "Touhou_710197",
    "title": "Touhou_710197",
    "link_img": "https://live.staticflickr.com/65535/48061219728_9b720aa78f_o.jpg",
    "id_image": "Touhou_710197",
    "count_view": 0
  },
  {
    "link_thumb": "https://live.staticflickr.com/65535/48061270922_9b9cfa2468_n.jpg",
    "id_album": "1954781146",
    "description": "Touhou_710256",
    "title": "Touhou_710256",
    "link_img": "https://live.staticflickr.com/65535/48061270922_0d76ecd9e7_o.jpg",
    "id_image": "Touhou_710256",
    "count_view": 0
  },
  {
    "link_thumb": "https://live.staticflickr.com/65535/48061229306_94de1aef29_n.jpg",
    "id_album": "1954781146",
    "description": "Touhou_725618",
    "title": "Touhou_725618",
    "link_img": "https://live.staticflickr.com/65535/48061229306_5385c28ede_o.jpg",
    "id_image": "Touhou_725618",
    "count_view": 0
  },
  {
    "link_thumb": "https://live.staticflickr.com/65535/48061232101_b40cdefe48_n.jpg",
    "id_album": "1954781146",
    "description": "Touhou_728097",
    "title": "Touhou_728097",
    "link_img": "https://live.staticflickr.com/65535/48061232101_160f6352f5_o.jpg",
    "id_image": "Touhou_728097",
    "count_view": 0
  },
  {
    "link_thumb": "https://live.staticflickr.com/65535/48061292748_626f3d6a3f_n.jpg",
    "id_album": "1954781146",
    "description": "Touhou_730096",
    "title": "Touhou_730096",
    "link_img": "https://live.staticflickr.com/65535/48061292748_2b054dd08a_o.jpg",
    "id_image": "Touhou_730096",
    "count_view": 0
  },
  {
    "link_thumb": "https://live.staticflickr.com/65535/48061362157_490d3c1bf9_n.jpg",
    "id_album": "1954781146",
    "description": "Touhou_73773",
    "title": "Touhou_73773",
    "link_img": "https://live.staticflickr.com/65535/48061362157_d17ddb6bed_o.jpg",
    "id_image": "Touhou_73773",
    "count_view": 0
  },
  {
    "link_thumb": "https://live.staticflickr.com/65535/48061374016_4d92f8ed30_n.jpg",
    "id_album": "1954781146",
    "description": "Touhou_751663",
    "title": "Touhou_751663",
    "link_img": "https://live.staticflickr.com/65535/48061374016_5d6df08e50_o.jpg",
    "id_image": "Touhou_751663",
    "count_view": 0
  },
  {
    "link_thumb": "https://live.staticflickr.com/65535/48061426953_29855d98af_n.jpg",
    "id_album": "1954781146",
    "description": "Touhou_751677",
    "title": "Touhou_751677",
    "link_img": "https://live.staticflickr.com/65535/48061426953_1a7d4a00f2_o.jpg",
    "id_image": "Touhou_751677",
    "count_view": 0
  },
  {
    "link_thumb": "https://live.staticflickr.com/65535/48061503153_2a03050d0f_n.jpg",
    "id_album": "1954781146",
    "description": "Touhou_752919",
    "title": "Touhou_752919",
    "link_img": "https://live.staticflickr.com/65535/48061503153_d7032c4cfc_o.jpg",
    "id_image": "Touhou_752919",
    "count_view": 0
  },
  {
    "link_thumb": "https://live.staticflickr.com/65535/48061503763_8e1293df52_n.jpg",
    "id_album": "1954781146",
    "description": "Touhou_752921",
    "title": "Touhou_752921",
    "link_img": "https://live.staticflickr.com/65535/48061503763_ea0400d64e_o.jpg",
    "id_image": "Touhou_752921",
    "count_view": 0
  },
  {
    "link_thumb": "https://live.staticflickr.com/65535/48061505448_00f5610561_n.jpg",
    "id_album": "1954781146",
    "description": "Touhou_752995",
    "title": "Touhou_752995",
    "link_img": "https://live.staticflickr.com/65535/48061505448_d0dbbe541c_o.jpg",
    "id_image": "Touhou_752995",
    "count_view": 0
  },
  {
    "link_thumb": "https://live.staticflickr.com/65535/48061626323_45e48b4f29_n.jpg",
    "id_album": "1954781146",
    "description": "Touhou_761041",
    "title": "Touhou_761041",
    "link_img": "https://live.staticflickr.com/65535/48061626323_02c1c579fb_o.jpg",
    "id_image": "Touhou_761041",
    "count_view": 0
  },
  {
    "link_thumb": "https://live.staticflickr.com/65535/48061582526_f25808e98e_n.jpg",
    "id_album": "1954781146",
    "description": "Touhou_761062",
    "title": "Touhou_761062",
    "link_img": "https://live.staticflickr.com/65535/48061582526_08301623f1_o.jpg",
    "id_image": "Touhou_761062",
    "count_view": 0
  },
  {
    "link_thumb": "https://live.staticflickr.com/65535/48061636343_cb94dc6703_n.jpg",
    "id_album": "1954781146",
    "description": "Touhou_761092",
    "title": "Touhou_761092",
    "link_img": "https://live.staticflickr.com/65535/48061636343_4a3e9007c4_o.jpg",
    "id_image": "Touhou_761092",
    "count_view": 0
  },
  {
    "link_thumb": "https://live.staticflickr.com/65535/48061655488_0767218bf3_n.jpg",
    "id_album": "1954781146",
    "description": "Touhou_761162",
    "title": "Touhou_761162",
    "link_img": "https://live.staticflickr.com/65535/48061655488_28d7fe5a39_o.jpg",
    "id_image": "Touhou_761162",
    "count_view": 0
  },
  {
    "link_thumb": "https://live.staticflickr.com/65535/48061740422_feb3f08daf_n.jpg",
    "id_album": "1954781146",
    "description": "Touhou_761271",
    "title": "Touhou_761271",
    "link_img": "https://live.staticflickr.com/65535/48061740422_7333bf9a23_o.jpg",
    "id_image": "Touhou_761271",
    "count_view": 0
  },
  {
    "link_thumb": "https://live.staticflickr.com/65535/48061713168_ef5a218b0f_n.jpg",
    "id_album": "1954781146",
    "description": "Touhou_761347",
    "title": "Touhou_761347",
    "link_img": "https://live.staticflickr.com/65535/48061713168_274592b2e4_o.jpg",
    "id_image": "Touhou_761347",
    "count_view": 0
  },
  {
    "link_thumb": "https://live.staticflickr.com/65535/48061776767_b7f3231ea4_n.jpg",
    "id_album": "1954781146",
    "description": "Touhou_761385",
    "title": "Touhou_761385",
    "link_img": "https://live.staticflickr.com/65535/48061776767_78cb4fa088_o.jpg",
    "id_image": "Touhou_761385",
    "count_view": 0
  },
  {
    "link_thumb": "https://live.staticflickr.com/65535/48061746923_8ea9316332_n.jpg",
    "id_album": "1954781146",
    "description": "Touhou_761466",
    "title": "Touhou_761466",
    "link_img": "https://live.staticflickr.com/65535/48061746923_b1fafb516e_o.jpg",
    "id_image": "Touhou_761466",
    "count_view": 0
  },
  {
    "link_thumb": "https://live.staticflickr.com/65535/48061752336_f87e24d19f_n.jpg",
    "id_album": "1954781146",
    "description": "Touhou_761916",
    "title": "Touhou_761916",
    "link_img": "https://live.staticflickr.com/65535/48061752336_9254e4b08b_o.jpg",
    "id_image": "Touhou_761916",
    "count_view": 0
  },
  {
    "link_thumb": "https://live.staticflickr.com/65535/48061852372_a2ff8b82f1_n.jpg",
    "id_album": "1954781146",
    "description": "Touhou_761928",
    "title": "Touhou_761928",
    "link_img": "https://live.staticflickr.com/65535/48061852372_6d62a27a40_o.jpg",
    "id_image": "Touhou_761928",
    "count_view": 0
  },
  {
    "link_thumb": "https://live.staticflickr.com/65535/48061857447_88a21ab640_n.jpg",
    "id_album": "1954781146",
    "description": "Touhou_761945",
    "title": "Touhou_761945",
    "link_img": "https://live.staticflickr.com/65535/48061857447_8222974041_o.jpg",
    "id_image": "Touhou_761945",
    "count_view": 0
  },
  {
    "link_thumb": "https://live.staticflickr.com/65535/48061782311_6f98340cca_n.jpg",
    "id_album": "1954781146",
    "description": "Touhou_762039",
    "title": "Touhou_762039",
    "link_img": "https://live.staticflickr.com/65535/48061782311_8674d2f16a_o.jpg",
    "id_image": "Touhou_762039",
    "count_view": 0
  },
  {
    "link_thumb": "https://live.staticflickr.com/65535/48061889877_26e35fcd15_n.jpg",
    "id_album": "1954781146",
    "description": "Touhou_762075",
    "title": "Touhou_762075",
    "link_img": "https://live.staticflickr.com/65535/48061889877_f13f01735e_o.jpg",
    "id_image": "Touhou_762075",
    "count_view": 0
  },
  {
    "link_thumb": "https://live.staticflickr.com/65535/48061846948_c6a9e1ecb7_n.jpg",
    "id_album": "1954781146",
    "description": "Touhou_762098",
    "title": "Touhou_762098",
    "link_img": "https://live.staticflickr.com/65535/48061846948_ecf3d86fe0_o.jpg",
    "id_image": "Touhou_762098",
    "count_view": 0
  },
  {
    "link_thumb": "https://live.staticflickr.com/65535/48061810226_7324b15799_n.jpg",
    "id_album": "1954781146",
    "description": "Touhou_762133",
    "title": "Touhou_762133",
    "link_img": "https://live.staticflickr.com/65535/48061810226_16ecd6d505_o.jpg",
    "id_image": "Touhou_762133",
    "count_view": 0
  },
  {
    "link_thumb": "https://live.staticflickr.com/65535/48062086707_2635e651f7_n.jpg",
    "id_album": "1954781146",
    "description": "Touhou_762860",
    "title": "Touhou_762860",
    "link_img": "https://live.staticflickr.com/65535/48062086707_31becf9816_o.jpg",
    "id_image": "Touhou_762860",
    "count_view": 0
  },
  {
    "link_thumb": "https://live.staticflickr.com/65535/48062008941_89dfec3c03_n.jpg",
    "id_album": "1954781146",
    "description": "Touhou_762914",
    "title": "Touhou_762914",
    "link_img": "https://live.staticflickr.com/65535/48062008941_6b9805e90d_o.jpg",
    "id_image": "Touhou_762914",
    "count_view": 0
  },
  {
    "link_thumb": "https://live.staticflickr.com/65535/48062061838_85fcb8024c_n.jpg",
    "id_album": "1954781146",
    "description": "Touhou_762924",
    "title": "Touhou_762924",
    "link_img": "https://live.staticflickr.com/65535/48062061838_1d4200e8ee_o.jpg",
    "id_image": "Touhou_762924",
    "count_view": 0
  },
  {
    "link_thumb": "https://live.staticflickr.com/65535/48062084998_dbf83ff3c7_n.jpg",
    "id_album": "1954781146",
    "description": "Touhou_762969",
    "title": "Touhou_762969",
    "link_img": "https://live.staticflickr.com/65535/48062084998_495475c552_o.jpg",
    "id_image": "Touhou_762969",
    "count_view": 0
  },
  {
    "link_thumb": "https://live.staticflickr.com/65535/48062090733_93ff236d6a_n.jpg",
    "id_album": "1954781146",
    "description": "Touhou_763006",
    "title": "Touhou_763006",
    "link_img": "https://live.staticflickr.com/65535/48062090733_cb4fc16ddd_o.jpg",
    "id_image": "Touhou_763006",
    "count_view": 0
  },
  {
    "link_thumb": "https://live.staticflickr.com/65535/48062165113_7e18e02291_n.jpg",
    "id_album": "1954781146",
    "description": "Touhou_764022",
    "title": "Touhou_764022",
    "link_img": "https://live.staticflickr.com/65535/48062165113_99572b059d_o.jpg",
    "id_image": "Touhou_764022",
    "count_view": 0
  },
  {
    "link_thumb": "https://live.staticflickr.com/65535/48062234212_24a0528096_n.jpg",
    "id_album": "1954781146",
    "description": "Touhou_769752",
    "title": "Touhou_769752",
    "link_img": "https://live.staticflickr.com/65535/48062234212_5452b89a1f_o.jpg",
    "id_image": "Touhou_769752",
    "count_view": 0
  },
  {
    "link_thumb": "https://live.staticflickr.com/65535/48062246372_a34c8a6b30_n.jpg",
    "id_album": "1954781146",
    "description": "Touhou_770315",
    "title": "Touhou_770315",
    "link_img": "https://live.staticflickr.com/65535/48062246372_5f29f86fac_o.jpg",
    "id_image": "Touhou_770315",
    "count_view": 0
  },
  {
    "link_thumb": "https://live.staticflickr.com/65535/48062165711_a9186d02f2_n.jpg",
    "id_album": "1954781146",
    "description": "Touhou_770383",
    "title": "Touhou_770383",
    "link_img": "https://live.staticflickr.com/65535/48062165711_d16f6ec511_o.jpg",
    "id_image": "Touhou_770383",
    "count_view": 0
  },
  {
    "link_thumb": "https://live.staticflickr.com/65535/48062270787_70cfc8cce3_n.jpg",
    "id_album": "1954781146",
    "description": "Touhou_770412",
    "title": "Touhou_770412",
    "link_img": "https://live.staticflickr.com/65535/48062270787_56e4481466_o.jpg",
    "id_image": "Touhou_770412",
    "count_view": 0
  },
  {
    "link_thumb": "https://live.staticflickr.com/65535/48062288302_4a42be6945_n.jpg",
    "id_album": "1954781146",
    "description": "Touhou_770452",
    "title": "Touhou_770452",
    "link_img": "https://live.staticflickr.com/65535/48062288302_d402781113_o.jpg",
    "id_image": "Touhou_770452",
    "count_view": 0
  },
  {
    "link_thumb": "https://live.staticflickr.com/65535/48062244388_9dc322ff4b_n.jpg",
    "id_album": "1954781146",
    "description": "Touhou_770457",
    "title": "Touhou_770457",
    "link_img": "https://live.staticflickr.com/65535/48062244388_19b7484522_o.jpg",
    "id_image": "Touhou_770457",
    "count_view": 0
  },
  {
    "link_thumb": "https://live.staticflickr.com/65535/48062253393_765c78919a_n.jpg",
    "id_album": "1954781146",
    "description": "Touhou_773212",
    "title": "Touhou_773212",
    "link_img": "https://live.staticflickr.com/65535/48062253393_7fd2e10bc2_o.jpg",
    "id_image": "Touhou_773212",
    "count_view": 0
  },
  {
    "link_thumb": "https://live.staticflickr.com/65535/48062308502_6359c0257c_n.jpg",
    "id_album": "1954781146",
    "description": "Touhou_775331",
    "title": "Touhou_775331",
    "link_img": "https://live.staticflickr.com/65535/48062308502_1b9914c4e7_o.jpg",
    "id_image": "Touhou_775331",
    "count_view": 0
  },
  {
    "link_thumb": "https://live.staticflickr.com/65535/48062311762_18143b071d_n.jpg",
    "id_album": "1954781146",
    "description": "Touhou_775361",
    "title": "Touhou_775361",
    "link_img": "https://live.staticflickr.com/65535/48062311762_571d445dde_o.jpg",
    "id_image": "Touhou_775361",
    "count_view": 0
  },
  {
    "link_thumb": "https://live.staticflickr.com/65535/48062327367_95767459c6_n.jpg",
    "id_album": "1954781146",
    "description": "Touhou_777556",
    "title": "Touhou_777556",
    "link_img": "https://live.staticflickr.com/65535/48062327367_9effc6ff71_o.jpg",
    "id_image": "Touhou_777556",
    "count_view": 0
  },
  {
    "link_thumb": "https://live.staticflickr.com/65535/48062329387_d8881590fd_n.jpg",
    "id_album": "1954781146",
    "description": "Touhou_777649",
    "title": "Touhou_777649",
    "link_img": "https://live.staticflickr.com/65535/48062329387_0e7a8c46f3_o.jpg",
    "id_image": "Touhou_777649",
    "count_view": 0
  },
  {
    "link_thumb": "https://live.staticflickr.com/65535/48062336027_22c5de26e4_n.jpg",
    "id_album": "1954781146",
    "description": "Touhou_778226",
    "title": "Touhou_778226",
    "link_img": "https://live.staticflickr.com/65535/48062336027_f3941bceff_o.jpg",
    "id_image": "Touhou_778226",
    "count_view": 0
  },
  {
    "link_thumb": "https://live.staticflickr.com/65535/48062343607_6cdc3bcb8a_n.jpg",
    "id_album": "1954781146",
    "description": "Touhou_780924",
    "title": "Touhou_780924",
    "link_img": "https://live.staticflickr.com/65535/48062343607_ec571cfdb1_o.jpg",
    "id_image": "Touhou_780924",
    "count_view": 0
  },
  {
    "link_thumb": "https://live.staticflickr.com/65535/48062423372_f0121c5398_n.jpg",
    "id_album": "1954781146",
    "description": "Touhou_791080",
    "title": "Touhou_791080",
    "link_img": "https://live.staticflickr.com/65535/48062423372_45affd31d4_o.jpg",
    "id_image": "Touhou_791080",
    "count_view": 0
  },
  {
    "link_thumb": "https://live.staticflickr.com/65535/48062341896_1a791636e0_n.jpg",
    "id_album": "1954781146",
    "description": "Touhou_798576",
    "title": "Touhou_798576",
    "link_img": "https://live.staticflickr.com/65535/48062341896_5009aecfc6_o.jpg",
    "id_image": "Touhou_798576",
    "count_view": 0
  },
  {
    "link_thumb": "https://live.staticflickr.com/65535/48062355686_5cef71c506_n.jpg",
    "id_album": "1954781146",
    "description": "Touhou_798703",
    "title": "Touhou_798703",
    "link_img": "https://live.staticflickr.com/65535/48062355686_7cb23e4426_o.jpg",
    "id_image": "Touhou_798703",
    "count_view": 0
  },
  {
    "link_thumb": "https://live.staticflickr.com/65535/48062412433_e79b2dde9e_n.jpg",
    "id_album": "1954781146",
    "description": "Touhou_804238",
    "title": "Touhou_804238",
    "link_img": "https://live.staticflickr.com/65535/48062412433_fc5997862b_o.jpg",
    "id_image": "Touhou_804238",
    "count_view": 0
  },
  {
    "link_thumb": "https://live.staticflickr.com/65535/48062362291_5e39daa850_n.jpg",
    "id_album": "1954781146",
    "description": "Touhou_806532",
    "title": "Touhou_806532",
    "link_img": "https://live.staticflickr.com/65535/48062362291_207b515a7e_o.jpg",
    "id_image": "Touhou_806532",
    "count_view": 0
  },
  {
    "link_thumb": "https://live.staticflickr.com/65535/48062417173_5aa65c001e_n.jpg",
    "id_album": "1954781146",
    "description": "Touhou_809882",
    "title": "Touhou_809882",
    "link_img": "https://live.staticflickr.com/65535/48062417173_81b52c209b_o.jpg",
    "id_image": "Touhou_809882",
    "count_view": 0
  },
  {
    "link_thumb": "https://live.staticflickr.com/65535/48062373791_e835db9bac_n.jpg",
    "id_album": "1954781146",
    "description": "Touhou_813583",
    "title": "Touhou_813583",
    "link_img": "https://live.staticflickr.com/65535/48062373791_e160fe15a3_o.jpg",
    "id_image": "Touhou_813583",
    "count_view": 0
  },
  {
    "link_thumb": "https://live.staticflickr.com/65535/48062374656_47b813805f_n.jpg",
    "id_album": "1954781146",
    "description": "Touhou_813622",
    "title": "Touhou_813622",
    "link_img": "https://live.staticflickr.com/65535/48062374656_fbde524004_o.jpg",
    "id_image": "Touhou_813622",
    "count_view": 0
  },
  {
    "link_thumb": "https://live.staticflickr.com/65535/48062474947_e92c029962_n.jpg",
    "id_album": "1954781146",
    "description": "Touhou_813822",
    "title": "Touhou_813822",
    "link_img": "https://live.staticflickr.com/65535/48062474947_f6cc1fb89a_o.jpg",
    "id_image": "Touhou_813822",
    "count_view": 0
  },
  {
    "link_thumb": "https://live.staticflickr.com/65535/48062377941_58e66e4b78_n.jpg",
    "id_album": "1954781146",
    "description": "Touhou_815505",
    "title": "Touhou_815505",
    "link_img": "https://live.staticflickr.com/65535/48062377941_73e0fd6468_o.jpg",
    "id_image": "Touhou_815505",
    "count_view": 0
  },
  {
    "link_thumb": "https://live.staticflickr.com/65535/48062384146_0b01c7b159_n.jpg",
    "id_album": "1954781146",
    "description": "Touhou_818470",
    "title": "Touhou_818470",
    "link_img": "https://live.staticflickr.com/65535/48062384146_0d09a39a0e_o.jpg",
    "id_image": "Touhou_818470",
    "count_view": 0
  },
  {
    "link_thumb": "https://live.staticflickr.com/65535/48062384326_c6595f7ccc_n.jpg",
    "id_album": "1954781146",
    "description": "Touhou_819231",
    "title": "Touhou_819231",
    "link_img": "https://live.staticflickr.com/65535/48062384326_d22bb4d772_o.jpg",
    "id_image": "Touhou_819231",
    "count_view": 0
  },
  {
    "link_thumb": "https://live.staticflickr.com/65535/48062498017_08b517ac46_n.jpg",
    "id_album": "1954781146",
    "description": "Touhou_826308",
    "title": "Touhou_826308",
    "link_img": "https://live.staticflickr.com/65535/48062498017_ab4593171c_o.jpg",
    "id_image": "Touhou_826308",
    "count_view": 0
  },
  {
    "link_thumb": "https://live.staticflickr.com/65535/48062450748_673476c707_n.jpg",
    "id_album": "1954781146",
    "description": "Touhou_827228",
    "title": "Touhou_827228",
    "link_img": "https://live.staticflickr.com/65535/48062450748_931faeef12_o.jpg",
    "id_image": "Touhou_827228",
    "count_view": 0
  },
  {
    "link_thumb": "https://live.staticflickr.com/65535/48062504627_141a09f3d9_n.jpg",
    "id_album": "1954781146",
    "description": "Touhou_829416",
    "title": "Touhou_829416",
    "link_img": "https://live.staticflickr.com/65535/48062504627_c24f04b043_o.jpg",
    "id_image": "Touhou_829416",
    "count_view": 0
  },
  {
    "link_thumb": "https://live.staticflickr.com/65535/48062511477_6992e20ae4_n.jpg",
    "id_album": "1954781146",
    "description": "Touhou_830924",
    "title": "Touhou_830924",
    "link_img": "https://live.staticflickr.com/65535/48062511477_5eca2b24fa_o.jpg",
    "id_image": "Touhou_830924",
    "count_view": 0
  },
  {
    "link_thumb": "https://live.staticflickr.com/65535/48062474658_f10efdde80_n.jpg",
    "id_album": "1954781146",
    "description": "Touhou_837764",
    "title": "Touhou_837764",
    "link_img": "https://live.staticflickr.com/65535/48062474658_3b4c35b106_o.jpg",
    "id_image": "Touhou_837764",
    "count_view": 0
  },
  {
    "link_thumb": "https://live.staticflickr.com/65535/48062426316_cb296d8f19_n.jpg",
    "id_album": "1954781146",
    "description": "Touhou_839097",
    "title": "Touhou_839097",
    "link_img": "https://live.staticflickr.com/65535/48062426316_7f25c84e5a_o.jpg",
    "id_image": "Touhou_839097",
    "count_view": 0
  },
  {
    "link_thumb": "https://live.staticflickr.com/65535/48062508328_0e318d5478_n.jpg",
    "id_album": "1954781146",
    "description": "Touhou_846028",
    "title": "Touhou_846028",
    "link_img": "https://live.staticflickr.com/65535/48062508328_abbe4243e7_o.jpg",
    "id_image": "Touhou_846028",
    "count_view": 0
  },
  {
    "link_thumb": "https://live.staticflickr.com/65535/48062574767_5a527fda41_n.jpg",
    "id_album": "1954781146",
    "description": "Touhou_847091",
    "title": "Touhou_847091",
    "link_img": "https://live.staticflickr.com/65535/48062574767_497e2abe52_o.jpg",
    "id_image": "Touhou_847091",
    "count_view": 0
  },
  {
    "link_thumb": "https://live.staticflickr.com/65535/48062576247_1c1b5bd31d_n.jpg",
    "id_album": "1954781146",
    "description": "Touhou_847097",
    "title": "Touhou_847097",
    "link_img": "https://live.staticflickr.com/65535/48062576247_6fa3e3c33f_o.jpg",
    "id_image": "Touhou_847097",
    "count_view": 0
  },
  {
    "link_thumb": "https://live.staticflickr.com/65535/48062576847_3e4b09290a_n.jpg",
    "id_album": "1954781146",
    "description": "Touhou_847098",
    "title": "Touhou_847098",
    "link_img": "https://live.staticflickr.com/65535/48062576847_22a25250d7_o.jpg",
    "id_image": "Touhou_847098",
    "count_view": 0
  },
  {
    "link_thumb": "https://live.staticflickr.com/65535/48062479261_7c84ae055e_n.jpg",
    "id_album": "1954781146",
    "description": "Touhou_847102",
    "title": "Touhou_847102",
    "link_img": "https://live.staticflickr.com/65535/48062479261_588706f464_o.jpg",
    "id_image": "Touhou_847102",
    "count_view": 0
  },
  {
    "link_thumb": "https://live.staticflickr.com/65535/48062481201_83600e8097_n.jpg",
    "id_album": "1954781146",
    "description": "Touhou_847353",
    "title": "Touhou_847353",
    "link_img": "https://live.staticflickr.com/65535/48062481201_9dbdb39421_o.jpg",
    "id_image": "Touhou_847353",
    "count_view": 0
  },
  {
    "link_thumb": "https://live.staticflickr.com/65535/48062582102_e8a22114d8_n.jpg",
    "id_album": "1954781146",
    "description": "Touhou_847412",
    "title": "Touhou_847412",
    "link_img": "https://live.staticflickr.com/65535/48062582102_d9a44577ff_o.jpg",
    "id_image": "Touhou_847412",
    "count_view": 0
  },
  {
    "link_thumb": "https://live.staticflickr.com/65535/48062585852_51590ab0b5_n.jpg",
    "id_album": "1954781146",
    "description": "Touhou_847892",
    "title": "Touhou_847892",
    "link_img": "https://live.staticflickr.com/65535/48062585852_6abcb0eecb_o.jpg",
    "id_image": "Touhou_847892",
    "count_view": 0
  },
  {
    "link_thumb": "https://live.staticflickr.com/65535/48062504431_5d0d9a0e3b_n.jpg",
    "id_album": "1954781146",
    "description": "Touhou_857048",
    "title": "Touhou_857048",
    "link_img": "https://live.staticflickr.com/65535/48062504431_faf2e19934_o.jpg",
    "id_image": "Touhou_857048",
    "count_view": 0
  },
  {
    "link_thumb": "https://live.staticflickr.com/65535/48062606992_ebab2029b7_n.jpg",
    "id_album": "1954781146",
    "description": "Touhou_859859",
    "title": "Touhou_859859",
    "link_img": "https://live.staticflickr.com/65535/48062606992_7ed505e811_o.jpg",
    "id_image": "Touhou_859859",
    "count_view": 0
  },
  {
    "link_thumb": "https://live.staticflickr.com/65535/48062638347_3c0cf982d3_n.jpg",
    "id_album": "1954781146",
    "description": "Touhou_870309",
    "title": "Touhou_870309",
    "link_img": "https://live.staticflickr.com/65535/48062638347_c9f7705228_o.jpg",
    "id_image": "Touhou_870309",
    "count_view": 0
  },
  {
    "link_thumb": "https://live.staticflickr.com/65535/48062605413_acceddaba5_n.jpg",
    "id_album": "1954781146",
    "description": "Touhou_873038",
    "title": "Touhou_873038",
    "link_img": "https://live.staticflickr.com/65535/48062605413_20c64ab584_o.jpg",
    "id_image": "Touhou_873038",
    "count_view": 0
  },
  {
    "link_thumb": "https://live.staticflickr.com/65535/48062605793_07a732e16f_n.jpg",
    "id_album": "1954781146",
    "description": "Touhou_873273",
    "title": "Touhou_873273",
    "link_img": "https://live.staticflickr.com/65535/48062605793_927f6b8a7d_o.jpg",
    "id_image": "Touhou_873273",
    "count_view": 0
  },
  {
    "link_thumb": "https://live.staticflickr.com/65535/48062558951_d434a2e471_n.jpg",
    "id_album": "1954781146",
    "description": "Touhou_875406",
    "title": "Touhou_875406",
    "link_img": "https://live.staticflickr.com/65535/48062558951_6b26f84f5c_o.jpg",
    "id_image": "Touhou_875406",
    "count_view": 0
  },
  {
    "link_thumb": "https://live.staticflickr.com/65535/48062563496_6a26f19846_n.jpg",
    "id_album": "1954781146",
    "description": "Touhou_877019",
    "title": "Touhou_877019",
    "link_img": "https://live.staticflickr.com/65535/48062563496_c00fd351ac_o.jpg",
    "id_image": "Touhou_877019",
    "count_view": 0
  },
  {
    "link_thumb": "https://live.staticflickr.com/65535/48062669007_5fb5c9950b_n.jpg",
    "id_album": "1954781146",
    "description": "Touhou_884475",
    "title": "Touhou_884475",
    "link_img": "https://live.staticflickr.com/65535/48062669007_e8b1aa5770_o.jpg",
    "id_image": "Touhou_884475",
    "count_view": 0
  },
  {
    "link_thumb": "https://live.staticflickr.com/65535/48062578601_b6eb769564_n.jpg",
    "id_album": "1954781146",
    "description": "Touhou_890361",
    "title": "Touhou_890361",
    "link_img": "https://live.staticflickr.com/65535/48062578601_3c7207c12a_o.jpg",
    "id_image": "Touhou_890361",
    "count_view": 0
  },
  {
    "link_thumb": "https://live.staticflickr.com/65535/48062580041_3e015928ee_n.jpg",
    "id_album": "1954781146",
    "description": "Touhou_890834",
    "title": "Touhou_890834",
    "link_img": "https://live.staticflickr.com/65535/48062580041_595ea42bfd_o.jpg",
    "id_image": "Touhou_890834",
    "count_view": 0
  },
  {
    "link_thumb": "https://live.staticflickr.com/65535/48062594866_1f9d5d2673_n.jpg",
    "id_album": "1954781146",
    "description": "Touhou_903378",
    "title": "Touhou_903378",
    "link_img": "https://live.staticflickr.com/65535/48062594866_c08d0578b3_o.jpg",
    "id_image": "Touhou_903378",
    "count_view": 0
  },
  {
    "link_thumb": "https://live.staticflickr.com/65535/48062726392_32d0c10fff_n.jpg",
    "id_album": "1954781146",
    "description": "Touhou_912691",
    "title": "Touhou_912691",
    "link_img": "https://live.staticflickr.com/65535/48062726392_acbce8c7e2_o.jpg",
    "id_image": "Touhou_912691",
    "count_view": 0
  },
  {
    "link_thumb": "https://live.staticflickr.com/65535/48062731182_8f6a1155b7_n.jpg",
    "id_album": "1954781146",
    "description": "Touhou_913700",
    "title": "Touhou_913700",
    "link_img": "https://live.staticflickr.com/65535/48062731182_555eee9a7c_o.jpg",
    "id_image": "Touhou_913700",
    "count_view": 0
  },
  {
    "link_thumb": "https://live.staticflickr.com/65535/48062665016_6e8aa04fc6_n.jpg",
    "id_album": "1954781146",
    "description": "Touhou_915631",
    "title": "Touhou_915631",
    "link_img": "https://live.staticflickr.com/65535/48062665016_4959e3bacc_o.jpg",
    "id_image": "Touhou_915631",
    "count_view": 0
  },
  {
    "link_thumb": "https://live.staticflickr.com/65535/48062701431_61fd3f93d4_n.jpg",
    "id_album": "1954781146",
    "description": "Touhou_917011",
    "title": "Touhou_917011",
    "link_img": "https://live.staticflickr.com/65535/48062701431_708570cb6c_o.jpg",
    "id_image": "Touhou_917011",
    "count_view": 0
  },
  {
    "link_thumb": "https://live.staticflickr.com/65535/48062802462_117b93dc32_n.jpg",
    "id_album": "1954781146",
    "description": "Touhou_917348",
    "title": "Touhou_917348",
    "link_img": "https://live.staticflickr.com/65535/48062802462_d370bbaf07_o.jpg",
    "id_image": "Touhou_917348",
    "count_view": 0
  },
  {
    "link_thumb": "https://live.staticflickr.com/65535/48062789006_60b2ca3c40_n.jpg",
    "id_album": "1954781146",
    "description": "Touhou_934235",
    "title": "Touhou_934235",
    "link_img": "https://live.staticflickr.com/65535/48062789006_55c690a522_o.jpg",
    "id_image": "Touhou_934235",
    "count_view": 0
  },
  {
    "link_thumb": "https://live.staticflickr.com/65535/48062843203_270aec1345_n.jpg",
    "id_album": "1954781146",
    "description": "Touhou_937269",
    "title": "Touhou_937269",
    "link_img": "https://live.staticflickr.com/65535/48062843203_9cf723257f_o.jpg",
    "id_image": "Touhou_937269",
    "count_view": 0
  },
  {
    "link_thumb": "https://live.staticflickr.com/65535/48062850608_832bd2c0c3_n.jpg",
    "id_album": "1954781146",
    "description": "Touhou_940531",
    "title": "Touhou_940531",
    "link_img": "https://live.staticflickr.com/65535/48062850608_57d9eed173_o.jpg",
    "id_image": "Touhou_940531",
    "count_view": 0
  },
  {
    "link_thumb": "https://live.staticflickr.com/65535/48062812086_61fdeeb855_n.jpg",
    "id_album": "1954781146",
    "description": "Touhou_945768",
    "title": "Touhou_945768",
    "link_img": "https://live.staticflickr.com/65535/48062812086_2caf64271e_o.jpg",
    "id_image": "Touhou_945768",
    "count_view": 0
  }
]