[
  {
    "total_img": 26,
    "number_page": 1,
    "title": "Will o Wisp",
    "tag": "Will Will o Wisp, Jack Will o Wisp, Gyl Will o Wisp, Emilio Will o Wisp, Emily Will o Wisp, Hanna Ellington, Ignis Will o Wisp, Hobblrdy Will o Wisp, Will o Wisp",
    "description": "Will o Wisp",
    "link_thumb": "https://live.staticflickr.com/65535/48066071432_732d524edb_n.jpg",
    "id_album": "635586320",
    "total_view": 26
  },
  {
    "total_img": 14,
    "number_page": 1,
    "title": "Hanna Ellington",
    "tag": "Hanna Ellington,",
    "description": "Hanna Ellington",
    "link_thumb": "https://live.staticflickr.com/65535/48065976821_30803ea35a_n.jpg",
    "id_album": "870556275",
    "total_view": 14
  },
  {
    "total_img": 8,
    "number_page": 1,
    "title": "Ignis Will o Wisp",
    "tag": "Ignis Will o Wisp,",
    "description": "Ignis Will o Wisp",
    "link_thumb": "https://live.staticflickr.com/65535/48066081682_ea08f82a52_n.jpg",
    "id_album": "1233420459",
    "total_view": 8
  }
]