[
  {
    "total_img": 155,
    "number_page": 1,
    "title": "Beyond the Boundary",
    "tag": "Mirai Kuriyama, Orange Eyes, Orange Hair, Playing, Black Hair, Kyoukai no Kanata, Akihito Kanbara, Shizuku Ninomiya, Blood, Bleached Eyes, Blonde, Long Hair, Anime, Hiroomi Nase, Short Hair, Flower, Brown Hair, School Uniform, Yellow Eyes, Ai Shindou, Boy, Beyond the Boundary, Red Eyes, Sakura Inami, Skirt, Izumi Nase, Mitsuki Nase, Glasses",
    "description": "Beyond the Boundary",
    "link_thumb": "https://live.staticflickr.com/65535/47106498204_dc500a417c_n.jpg",
    "id_album": "2145005115",
    "total_view": 155
  },
  {
    "total_img": 446,
    "number_page": 3,
    "title": "Flower",
    "tag": "Flower,",
    "description": "Flower",
    "link_thumb": "https://live.staticflickr.com/65535/48066963006_4ebcb40f16_n.jpg",
    "id_album": "-1577336454",
    "total_view": 446
  }
]