[
  {
    "link_thumb": "https://live.staticflickr.com/65535/48073294106_8072ce4e1f_n.jpg",
    "id_album": "586688602",
    "description": "NoGameNoLife_830017,[isGirlAnime],[isBoyAnime],[No Game No Life],[NoGameNoLife]",
    "title": "NoGameNoLife_830017",
    "link_img": "https://live.staticflickr.com/65535/48073294106_b0f5678917_o.jpg",
    "id_image": "NoGameNoLife_830017",
    "count_view": 0
  },
  {
    "link_thumb": "https://live.staticflickr.com/65535/48073294571_f289a87948_n.jpg",
    "id_album": "586688602",
    "description": "NoGameNoLife_830019,[isGirlAnime],[isSadAnime],[isSadAnimeGirl],[isCuteAnime],[isGirlsLoliAnime],[No Game No Life],[NoGameNoLife]",
    "title": "NoGameNoLife_830019",
    "link_img": "https://live.staticflickr.com/65535/48073294571_b5aaa6e0f1_o.jpg",
    "id_image": "NoGameNoLife_830019",
    "count_view": 0
  },
  {
    "link_thumb": "https://live.staticflickr.com/65535/48073294841_56c90675c9_n.jpg",
    "id_album": "586688602",
    "description": "NoGameNoLife_830020,[isGirlAnime],[isSadAnime],[isSadAnimeGirl],[isCuteAnime],[isGirlEarsNekoAnime],[isGirlsLoliAnime],[No Game No Life],[NoGameNoLife]",
    "title": "NoGameNoLife_830020",
    "link_img": "https://live.staticflickr.com/65535/48073294841_0ef416dbb6_o.jpg",
    "id_image": "NoGameNoLife_830020",
    "count_view": 0
  },
  {
    "link_thumb": "https://live.staticflickr.com/65535/48073295391_9576b570b4_n.jpg",
    "id_album": "586688602",
    "description": "NoGameNoLife_830022,[isGirlAnime],[isBoyAnime],[No Game No Life],[NoGameNoLife]",
    "title": "NoGameNoLife_830022",
    "link_img": "https://live.staticflickr.com/65535/48073295391_b7d1a4cb0d_o.jpg",
    "id_image": "NoGameNoLife_830022",
    "count_view": 0
  },
  {
    "link_thumb": "https://live.staticflickr.com/65535/48073401757_dc501b8129_n.jpg",
    "id_album": "586688602",
    "description": "NoGameNoLife_830028,[isGirlAnime],[isSadAnime],[isSadAnimeGirl],[isCuteAnime],[isGirlsLoliAnime],[No Game No Life],[NoGameNoLife]",
    "title": "NoGameNoLife_830028",
    "link_img": "https://live.staticflickr.com/65535/48073401757_6041ce6f46_o.jpg",
    "id_image": "NoGameNoLife_830028",
    "count_view": 0
  },
  {
    "link_thumb": "https://live.staticflickr.com/65535/48073298806_ed105b47aa_n.jpg",
    "id_album": "586688602",
    "description": "NoGameNoLife_830036,[isGirlAnime],[isSadAnime],[isSadAnimeGirl],[isCuteAnime],[isGirlEarsNekoAnime],[isGirlsLoliAnime],[isKimonoAnime],[No Game No Life],[NoGameNoLife]",
    "title": "NoGameNoLife_830036",
    "link_img": "https://live.staticflickr.com/65535/48073298806_d4a62d95d4_o.jpg",
    "id_image": "NoGameNoLife_830036",
    "count_view": 0
  },
  {
    "link_thumb": "https://live.staticflickr.com/65535/48073299096_754e65de11_n.jpg",
    "id_album": "586688602",
    "description": "NoGameNoLife_830037,[isGirlAnime],[isSadAnime],[isSadAnimeGirl],[isCuteAnime],[isGirlsLoliAnime],[No Game No Life],[NoGameNoLife]",
    "title": "NoGameNoLife_830037",
    "link_img": "https://live.staticflickr.com/65535/48073299096_1bcd47de69_o.jpg",
    "id_image": "NoGameNoLife_830037",
    "count_view": 0
  },
  {
    "link_thumb": "https://live.staticflickr.com/65535/48073347053_e10e4a911d_n.jpg",
    "id_album": "586688602",
    "description": "NoGameNoLife_830046,[isGirlAnime],[isSadAnime],[isSadAnimeGirl],[isCuteAnime],[isGirlsLoliAnime],[No Game No Life],[NoGameNoLife]",
    "title": "NoGameNoLife_830046",
    "link_img": "https://live.staticflickr.com/65535/48073347053_d253249c52_o.jpg",
    "id_image": "NoGameNoLife_830046",
    "count_view": 0
  },
  {
    "link_thumb": "https://live.staticflickr.com/65535/48073302186_e74e09a732_n.jpg",
    "id_album": "586688602",
    "description": "NoGameNoLife_830051,[isGirlAnime],[isSadAnime],[isSadAnimeGirl],[isCuteAnime],[isGirlsLoliAnime],[No Game No Life],[NoGameNoLife]",
    "title": "NoGameNoLife_830051",
    "link_img": "https://live.staticflickr.com/65535/48073302186_9ce31b52d4_o.jpg",
    "id_image": "NoGameNoLife_830051",
    "count_view": 0
  },
  {
    "link_thumb": "https://live.staticflickr.com/65535/48073303206_1f71ce914a_n.jpg",
    "id_album": "586688602",
    "description": "NoGameNoLife_830055,[isGirlAnime],[isSadAnime],[isSadAnimeGirl],[isCuteAnime],[isGirlsLoliAnime],[No Game No Life],[NoGameNoLife]",
    "title": "NoGameNoLife_830055",
    "link_img": "https://live.staticflickr.com/65535/48073303206_d91b5298b1_o.jpg",
    "id_image": "NoGameNoLife_830055",
    "count_view": 0
  },
  {
    "link_thumb": "https://live.staticflickr.com/65535/48073349683_625cca5ecf_n.jpg",
    "id_album": "586688602",
    "description": "NoGameNoLife_830057,[isGirlAnime],[isBoyAnime],[isCuteAnime],[isGirlsLoliAnime],[No Game No Life],[NoGameNoLife]",
    "title": "NoGameNoLife_830057",
    "link_img": "https://live.staticflickr.com/65535/48073349683_ae16fa72c0_o.jpg",
    "id_image": "NoGameNoLife_830057",
    "count_view": 0
  },
  {
    "link_thumb": "https://live.staticflickr.com/65535/48073304376_0607cdf0d4_n.jpg",
    "id_album": "586688602",
    "description": "NoGameNoLife_830059,[isGirlAnime],[isSadAnime],[isSadAnimeGirl],[isCuteAnime],[isGirlsLoliAnime],[No Game No Life],[NoGameNoLife]",
    "title": "NoGameNoLife_830059",
    "link_img": "https://live.staticflickr.com/65535/48073304376_ea4b9849ae_o.jpg",
    "id_image": "NoGameNoLife_830059",
    "count_view": 0
  },
  {
    "link_thumb": "https://live.staticflickr.com/65535/48073409687_61188c46e9_n.jpg",
    "id_album": "586688602",
    "description": "NoGameNoLife_830063,[isGirlAnime],[isSadAnime],[isSadAnimeGirl],[isCuteAnime],[isGirlsLoliAnime],[isKimonoAnime],[No Game No Life],[NoGameNoLife]",
    "title": "NoGameNoLife_830063",
    "link_img": "https://live.staticflickr.com/65535/48073409687_3bfe832d02_o.jpg",
    "id_image": "NoGameNoLife_830063",
    "count_view": 0
  },
  {
    "link_thumb": "https://live.staticflickr.com/65535/48073305786_e1a4a00648_n.jpg",
    "id_album": "586688602",
    "description": "NoGameNoLife_830065,[isGirlAnime],[isSadAnime],[isSadAnimeGirl],[isCuteAnime],[isGirlsLoliAnime],[No Game No Life],[NoGameNoLife]",
    "title": "NoGameNoLife_830065",
    "link_img": "https://live.staticflickr.com/65535/48073305786_92b5d00b0b_o.jpg",
    "id_image": "NoGameNoLife_830065",
    "count_view": 0
  },
  {
    "link_thumb": "https://live.staticflickr.com/65535/48073352263_04039da020_n.jpg",
    "id_album": "586688602",
    "description": "NoGameNoLife_830066,[isGirlAnime],[isSadAnime],[isSadAnimeGirl],[isCuteAnime],[isGirlsLoliAnime],[No Game No Life],[NoGameNoLife]",
    "title": "NoGameNoLife_830066",
    "link_img": "https://live.staticflickr.com/65535/48073352263_11df5a1193_o.jpg",
    "id_image": "NoGameNoLife_830066",
    "count_view": 0
  },
  {
    "link_thumb": "https://live.staticflickr.com/65535/48073352623_62f044f5ca_n.jpg",
    "id_album": "586688602",
    "description": "NoGameNoLife_830073,[isGirlAnime],[isSadAnime],[isSadAnimeGirl],[isCuteAnime],[isGirlEarsNekoAnime],[isGirlsLoliAnime],[No Game No Life],[NoGameNoLife]",
    "title": "NoGameNoLife_830073",
    "link_img": "https://live.staticflickr.com/65535/48073352623_611fee534b_o.jpg",
    "id_image": "NoGameNoLife_830073",
    "count_view": 0
  },
  {
    "link_thumb": "https://live.staticflickr.com/65535/48073411757_e70ac78ec6_n.jpg",
    "id_album": "586688602",
    "description": "NoGameNoLife_834933,[isGirlAnime],[isSadAnime],[isSadAnimeGirl],[isCuteAnime],[isGirlsLoliAnime],[No Game No Life],[NoGameNoLife]",
    "title": "NoGameNoLife_834933",
    "link_img": "https://live.staticflickr.com/65535/48073411757_f9013f8251_o.jpg",
    "id_image": "NoGameNoLife_834933",
    "count_view": 0
  },
  {
    "link_thumb": "https://live.staticflickr.com/65535/48073412087_37a01167f1_n.jpg",
    "id_album": "586688602",
    "description": "NoGameNoLife_837892,[isGirlAnime],[isBoyAnime],[No Game No Life],[NoGameNoLife]",
    "title": "NoGameNoLife_837892",
    "link_img": "https://live.staticflickr.com/65535/48073412087_09a26712af_o.jpg",
    "id_image": "NoGameNoLife_837892",
    "count_view": 0
  },
  {
    "link_thumb": "https://live.staticflickr.com/65535/48073412757_a78fc2c866_n.jpg",
    "id_album": "586688602",
    "description": "NoGameNoLife_837894,[isGirlAnime],[isBlackAnime],[No Game No Life],[NoGameNoLife]",
    "title": "NoGameNoLife_837894",
    "link_img": "https://live.staticflickr.com/65535/48073412757_325fd14c4a_o.jpg",
    "id_image": "NoGameNoLife_837894",
    "count_view": 0
  },
  {
    "link_thumb": "https://live.staticflickr.com/65535/48073414242_c8e082727c_n.jpg",
    "id_album": "586688602",
    "description": "NoGameNoLife_837900,[isGirlAnime],[isBoyAnime],[No Game No Life],[NoGameNoLife]",
    "title": "NoGameNoLife_837900",
    "link_img": "https://live.staticflickr.com/65535/48073414242_f91b3f10cc_o.jpg",
    "id_image": "NoGameNoLife_837900",
    "count_view": 0
  },
  {
    "link_thumb": "https://live.staticflickr.com/65535/48073356463_5cb0aa7cf0_n.jpg",
    "id_album": "586688602",
    "description": "NoGameNoLife_837901,[isGirlAnime],[isSadAnime],[isSadAnimeGirl],[isCuteAnime],[No Game No Life],[NoGameNoLife]",
    "title": "NoGameNoLife_837901",
    "link_img": "https://live.staticflickr.com/65535/48073356463_b679c846e4_o.jpg",
    "id_image": "NoGameNoLife_837901",
    "count_view": 0
  },
  {
    "link_thumb": "https://live.staticflickr.com/65535/48073415482_cc14413f15_n.jpg",
    "id_album": "586688602",
    "description": "NoGameNoLife_838365,[isGirlAnime],[isSadAnime],[isSadAnimeGirl],[isCuteAnime],[isGirlEarsNekoAnime],[isGirlsLoliAnime],[No Game No Life],[NoGameNoLife]",
    "title": "NoGameNoLife_838365",
    "link_img": "https://live.staticflickr.com/65535/48073415482_ccf9e01ef3_o.jpg",
    "id_image": "NoGameNoLife_838365",
    "count_view": 0
  },
  {
    "link_thumb": "https://live.staticflickr.com/65535/48073416967_ae2b8bee5a_n.jpg",
    "id_album": "586688602",
    "description": "NoGameNoLife_838373,[isGirlAnime],[isSadAnime],[isSadAnimeGirl],[isCuteAnime],[isGirlFaceMasksAnime],[isGirlsLoliAnime],[No Game No Life],[NoGameNoLife]",
    "title": "NoGameNoLife_838373",
    "link_img": "https://live.staticflickr.com/65535/48073416967_e8a2946242_o.jpg",
    "id_image": "NoGameNoLife_838373",
    "count_view": 0
  },
  {
    "link_thumb": "https://live.staticflickr.com/65535/48073359043_359884503b_n.jpg",
    "id_album": "586688602",
    "description": "NoGameNoLife_838543,[isRandom],[No Game No Life],[NoGameNoLife]",
    "title": "NoGameNoLife_838543",
    "link_img": "https://live.staticflickr.com/65535/48073359043_c2455d2a63_o.jpg",
    "id_image": "NoGameNoLife_838543",
    "count_view": 0
  },
  {
    "link_thumb": "https://live.staticflickr.com/65535/48073360023_dc2ec66abc_n.jpg",
    "id_album": "586688602",
    "description": "NoGameNoLife_850080,[isRandom],[No Game No Life],[NoGameNoLife]",
    "title": "NoGameNoLife_850080",
    "link_img": "https://live.staticflickr.com/65535/48073360023_e94f65c13c_o.jpg",
    "id_image": "NoGameNoLife_850080",
    "count_view": 0
  },
  {
    "link_thumb": "https://live.staticflickr.com/65535/48073418852_d12b347ded_n.jpg",
    "id_album": "586688602",
    "description": "NoGameNoLife_854021,[isGirlAnime],[isBoyAnime],[No Game No Life],[NoGameNoLife]",
    "title": "NoGameNoLife_854021",
    "link_img": "https://live.staticflickr.com/65535/48073418852_8700beb0c4_o.jpg",
    "id_image": "NoGameNoLife_854021",
    "count_view": 0
  },
  {
    "link_thumb": "https://live.staticflickr.com/65535/48073315021_a5affb2635_n.jpg",
    "id_album": "586688602",
    "description": "NoGameNoLife_856839,[isGirlAnime],[isBoyAnime],[isSadAnime],[isSadAnimeGirl],[isCuteAnime],[isGirlsLoliAnime],[No Game No Life],[NoGameNoLife]",
    "title": "NoGameNoLife_856839",
    "link_img": "https://live.staticflickr.com/65535/48073315021_eed9606fe9_o.jpg",
    "id_image": "NoGameNoLife_856839",
    "count_view": 0
  },
  {
    "link_thumb": "https://live.staticflickr.com/65535/48073362913_11e4ac07db_n.jpg",
    "id_album": "586688602",
    "description": "NoGameNoLife_858639,[isGirlAnime],[isSadAnime],[isSadAnimeGirl],[isCuteAnime],[isGirlEarsNekoAnime],[isGirlsLoliAnime],[No Game No Life],[NoGameNoLife]",
    "title": "NoGameNoLife_858639",
    "link_img": "https://live.staticflickr.com/65535/48073362913_cb3fe9ccda_o.jpg",
    "id_image": "NoGameNoLife_858639",
    "count_view": 0
  },
  {
    "link_thumb": "https://live.staticflickr.com/65535/48073363978_1ebd59c664_n.jpg",
    "id_album": "586688602",
    "description": "NoGameNoLife_863161,[isGirlAnime],[isBoyAnime],[isSadAnime],[isSadAnimeGirl],[isCuteAnime],[isGirlFaceMasksAnime],[isGirlsLoliAnime],[No Game No Life],[NoGameNoLife]",
    "title": "NoGameNoLife_863161",
    "link_img": "https://live.staticflickr.com/65535/48073363978_97d3456576_o.jpg",
    "id_image": "NoGameNoLife_863161",
    "count_view": 0
  },
  {
    "link_thumb": "https://live.staticflickr.com/65535/48073365043_87bd75d0d8_n.jpg",
    "id_album": "586688602",
    "description": "NoGameNoLife_863181,[isGirlAnime],[isSadAnime],[isSadAnimeGirl],[isCuteAnime],[isGirlsHatsHoodieAnime],[isGirlsLoliAnime],[No Game No Life],[NoGameNoLife]",
    "title": "NoGameNoLife_863181",
    "link_img": "https://live.staticflickr.com/65535/48073365043_b5eb0af08d_o.jpg",
    "id_image": "NoGameNoLife_863181",
    "count_view": 0
  },
  {
    "link_thumb": "https://live.staticflickr.com/65535/48073319061_27d0a5c898_n.jpg",
    "id_album": "586688602",
    "description": "NoGameNoLife_863182,[isGirlAnime],[isSadAnime],[isSadAnimeGirl],[isCuteAnime],[isGirlsLoliAnime],[No Game No Life],[NoGameNoLife]",
    "title": "NoGameNoLife_863182",
    "link_img": "https://live.staticflickr.com/65535/48073319061_aef976e5d3_o.jpg",
    "id_image": "NoGameNoLife_863182",
    "count_view": 0
  },
  {
    "link_thumb": "https://live.staticflickr.com/65535/48073424062_909bec69a2_n.jpg",
    "id_album": "586688602",
    "description": "NoGameNoLife_863183,[isGirlAnime],[isSadAnime],[isSadAnimeGirl],[isCuteAnime],[isGirlsHatsHoodieAnime],[isGirlsLoliAnime],[No Game No Life],[NoGameNoLife]",
    "title": "NoGameNoLife_863183",
    "link_img": "https://live.staticflickr.com/65535/48073424062_7278dfeb6a_o.jpg",
    "id_image": "NoGameNoLife_863183",
    "count_view": 0
  },
  {
    "link_thumb": "https://live.staticflickr.com/65535/48073319766_9744954cb4_n.jpg",
    "id_album": "586688602",
    "description": "NoGameNoLife_863329,[isGirlAnime],[isBoyAnime],[isSadAnime],[isSadAnimeGirl],[isCuteAnime],[isGirlsLoliAnime],[No Game No Life],[NoGameNoLife]",
    "title": "NoGameNoLife_863329",
    "link_img": "https://live.staticflickr.com/65535/48073319766_f3dddb63b6_o.jpg",
    "id_image": "NoGameNoLife_863329",
    "count_view": 0
  },
  {
    "link_thumb": "https://live.staticflickr.com/65535/48073367693_3d9564553a_n.jpg",
    "id_album": "586688602",
    "description": "NoGameNoLife_873661,[isGirlAnime],[isSadAnime],[isSadAnimeGirl],[isCuteAnime],[isGirlFaceMasksAnime],[isGirlsLoliAnime],[No Game No Life],[NoGameNoLife]",
    "title": "NoGameNoLife_873661",
    "link_img": "https://live.staticflickr.com/65535/48073367693_935de016bf_o.jpg",
    "id_image": "NoGameNoLife_873661",
    "count_view": 0
  },
  {
    "link_thumb": "https://live.staticflickr.com/65535/48073428047_797bd5a2c8_n.jpg",
    "id_album": "586688602",
    "description": "NoGameNoLife_905336,[isGirlAnime],[isSadAnime],[isSadAnimeGirl],[isCuteAnime],[isGirlsLoliAnime],[No Game No Life],[NoGameNoLife]",
    "title": "NoGameNoLife_905336",
    "link_img": "https://live.staticflickr.com/65535/48073428047_caa804c4db_o.jpg",
    "id_image": "NoGameNoLife_905336",
    "count_view": 0
  },
  {
    "link_thumb": "https://live.staticflickr.com/65535/48073428912_9df23a18d8_n.jpg",
    "id_album": "586688602",
    "description": "NoGameNoLife_905338,[isGirlAnime],[isSadAnime],[isSadAnimeGirl],[isCuteAnime],[isGirlsLoliAnime],[No Game No Life],[NoGameNoLife]",
    "title": "NoGameNoLife_905338",
    "link_img": "https://live.staticflickr.com/65535/48073428912_5fd4cb40f7_o.jpg",
    "id_image": "NoGameNoLife_905338",
    "count_view": 0
  },
  {
    "link_thumb": "https://live.staticflickr.com/65535/48073331591_0c6e5ddaa3_n.jpg",
    "id_album": "586688602",
    "description": "NoGameNoLife_906366,[isGirlAnime],[isSadAnime],[isSadAnimeGirl],[isCuteAnime],[isGirlsLoliAnime],[No Game No Life],[NoGameNoLife]",
    "title": "NoGameNoLife_906366",
    "link_img": "https://live.staticflickr.com/65535/48073331591_7dde266e4a_o.jpg",
    "id_image": "NoGameNoLife_906366",
    "count_view": 0
  },
  {
    "link_thumb": "https://live.staticflickr.com/65535/48073334346_8a08125282_n.jpg",
    "id_album": "586688602",
    "description": "NoGameNoLife_942119,[isRandom],[No Game No Life],[NoGameNoLife]",
    "title": "NoGameNoLife_942119",
    "link_img": "https://live.staticflickr.com/65535/48073334346_63cb6cd545_o.jpg",
    "id_image": "NoGameNoLife_942119",
    "count_view": 0
  }
]