[
  {
    "link_thumb": "https://live.staticflickr.com/65535/48070867228_65314840e5_n.jpg",
    "id_album": "-768622073",
    "description": "MonogatariSeries_126587",
    "title": "MonogatariSeries_126587",
    "link_img": "https://live.staticflickr.com/65535/48070867228_a7054aa63e_o.jpg",
    "id_image": "MonogatariSeries_126587",
    "count_view": 0
  },
  {
    "link_thumb": "https://live.staticflickr.com/65535/48070872043_63ec2e9c29_n.jpg",
    "id_album": "-768622073",
    "description": "MonogatariSeries_212935",
    "title": "MonogatariSeries_212935",
    "link_img": "https://live.staticflickr.com/65535/48070872043_92d089e06e_o.jpg",
    "id_image": "MonogatariSeries_212935",
    "count_view": 0
  },
  {
    "link_thumb": "https://live.staticflickr.com/65535/48070833751_fbc99fc0a3_n.jpg",
    "id_album": "-768622073",
    "description": "MonogatariSeries_306977",
    "title": "MonogatariSeries_306977",
    "link_img": "https://live.staticflickr.com/65535/48070833751_765bd8a991_o.jpg",
    "id_image": "MonogatariSeries_306977",
    "count_view": 0
  },
  {
    "link_thumb": "https://live.staticflickr.com/65535/48070938688_224e82fc49_n.jpg",
    "id_album": "-768622073",
    "description": "MonogatariSeries_562256",
    "title": "MonogatariSeries_562256",
    "link_img": "https://live.staticflickr.com/65535/48070938688_d57d7cd1b6_o.jpg",
    "id_image": "MonogatariSeries_562256",
    "count_view": 0
  },
  {
    "link_thumb": "https://live.staticflickr.com/65535/48071001972_e89a306758_n.jpg",
    "id_album": "-768622073",
    "description": "MonogatariSeries_643899",
    "title": "MonogatariSeries_643899",
    "link_img": "https://live.staticflickr.com/65535/48071001972_bb21c5ac29_o.jpg",
    "id_image": "MonogatariSeries_643899",
    "count_view": 0
  },
  {
    "link_thumb": "https://live.staticflickr.com/65535/48070903756_16c7cd36ff_n.jpg",
    "id_album": "-768622073",
    "description": "MonogatariSeries_669229",
    "title": "MonogatariSeries_669229",
    "link_img": "https://live.staticflickr.com/65535/48070903756_d3e56a3998_o.jpg",
    "id_image": "MonogatariSeries_669229",
    "count_view": 0
  },
  {
    "link_thumb": "https://live.staticflickr.com/65535/48070904571_07de2fae63_n.jpg",
    "id_album": "-768622073",
    "description": "MonogatariSeries_669233",
    "title": "MonogatariSeries_669233",
    "link_img": "https://live.staticflickr.com/65535/48070904571_10b5125482_o.jpg",
    "id_image": "MonogatariSeries_669233",
    "count_view": 0
  },
  {
    "link_thumb": "https://live.staticflickr.com/65535/48071012777_0caaa05b4c_n.jpg",
    "id_album": "-768622073",
    "description": "MonogatariSeries_669234",
    "title": "MonogatariSeries_669234",
    "link_img": "https://live.staticflickr.com/65535/48071012777_c93a3cd06b_o.jpg",
    "id_image": "MonogatariSeries_669234",
    "count_view": 0
  },
  {
    "link_thumb": "https://live.staticflickr.com/65535/48071014062_0c57a4e2f5_n.jpg",
    "id_album": "-768622073",
    "description": "MonogatariSeries_674721",
    "title": "MonogatariSeries_674721",
    "link_img": "https://live.staticflickr.com/65535/48071014062_8b5f963758_o.jpg",
    "id_image": "MonogatariSeries_674721",
    "count_view": 0
  },
  {
    "link_thumb": "https://live.staticflickr.com/65535/48070956073_64f7aac655_n.jpg",
    "id_album": "-768622073",
    "description": "MonogatariSeries_676505",
    "title": "MonogatariSeries_676505",
    "link_img": "https://live.staticflickr.com/65535/48070956073_2760a624a9_o.jpg",
    "id_image": "MonogatariSeries_676505",
    "count_view": 0
  },
  {
    "link_thumb": "https://live.staticflickr.com/65535/48070963193_c77de09e06_n.jpg",
    "id_album": "-768622073",
    "description": "MonogatariSeries_698766",
    "title": "MonogatariSeries_698766",
    "link_img": "https://live.staticflickr.com/65535/48070963193_d8dffbe76f_o.jpg",
    "id_image": "MonogatariSeries_698766",
    "count_view": 0
  },
  {
    "link_thumb": "https://live.staticflickr.com/65535/48071024102_095dab9cb3_n.jpg",
    "id_album": "-768622073",
    "description": "MonogatariSeries_720814",
    "title": "MonogatariSeries_720814",
    "link_img": "https://live.staticflickr.com/65535/48071024102_40546ec6e4_o.jpg",
    "id_image": "MonogatariSeries_720814",
    "count_view": 0
  },
  {
    "link_thumb": "https://live.staticflickr.com/65535/48071041302_f512726294_n.jpg",
    "id_album": "-768622073",
    "description": "MonogatariSeries_724995",
    "title": "MonogatariSeries_724995",
    "link_img": "https://live.staticflickr.com/65535/48071041302_e8e53d0a0b_o.jpg",
    "id_image": "MonogatariSeries_724995",
    "count_view": 0
  },
  {
    "link_thumb": "https://live.staticflickr.com/65535/48071154856_59137b9b9c_n.jpg",
    "id_album": "-768622073",
    "description": "MonogatariSeries_837166",
    "title": "MonogatariSeries_837166",
    "link_img": "https://live.staticflickr.com/65535/48071154856_ab7c91aec2_o.jpg",
    "id_image": "MonogatariSeries_837166",
    "count_view": 0
  },
  {
    "link_thumb": "https://live.staticflickr.com/65535/48071297483_6e0f7b1ca4_n.jpg",
    "id_album": "-768622073",
    "description": "Music_849086",
    "title": "Music_849086",
    "link_img": "https://live.staticflickr.com/65535/48071297483_625ea1acce_o.jpg",
    "id_image": "Music_849086",
    "count_view": 0
  },
  {
    "link_thumb": "https://live.staticflickr.com/65535/48071357402_f11a1a2614_n.jpg",
    "id_album": "-768622073",
    "description": "Music_914019",
    "title": "Music_914019",
    "link_img": "https://live.staticflickr.com/65535/48071357402_e3394bb1d6_o.jpg",
    "id_image": "Music_914019",
    "count_view": 0
  },
  {
    "link_thumb": "https://live.staticflickr.com/65535/48071321676_41eb52e2d6_n.jpg",
    "id_album": "-768622073",
    "description": "MyHeroAcademia_815257",
    "title": "MyHeroAcademia_815257",
    "link_img": "https://live.staticflickr.com/65535/48071321676_afe9c9f5cc_o.jpg",
    "id_image": "MyHeroAcademia_815257",
    "count_view": 0
  },
  {
    "link_thumb": "https://live.staticflickr.com/65535/48071428587_589eca9c7b_n.jpg",
    "id_album": "-768622073",
    "description": "MyHeroAcademia_815264",
    "title": "MyHeroAcademia_815264",
    "link_img": "https://live.staticflickr.com/65535/48071428587_928a33bea2_o.jpg",
    "id_image": "MyHeroAcademia_815264",
    "count_view": 0
  },
  {
    "link_thumb": "https://live.staticflickr.com/65535/48071492257_24bddced2a_n.jpg",
    "id_album": "-768622073",
    "description": "MyHeroAcademia_856573",
    "title": "MyHeroAcademia_856573",
    "link_img": "https://live.staticflickr.com/65535/48071492257_49261d2fd5_o.jpg",
    "id_image": "MyHeroAcademia_856573",
    "count_view": 0
  },
  {
    "link_thumb": "https://live.staticflickr.com/65535/48071449023_33ecf85318_n.jpg",
    "id_album": "-768622073",
    "description": "MyHeroAcademia_856643",
    "title": "MyHeroAcademia_856643",
    "link_img": "https://live.staticflickr.com/65535/48071449023_7bb953a0c6_o.jpg",
    "id_image": "MyHeroAcademia_856643",
    "count_view": 0
  },
  {
    "link_thumb": "https://live.staticflickr.com/65535/48071499653_6b33bff9cb_n.jpg",
    "id_album": "-768622073",
    "description": "MyHeroAcademia_932697",
    "title": "MyHeroAcademia_932697",
    "link_img": "https://live.staticflickr.com/65535/48071499653_a8221a7ff0_o.jpg",
    "id_image": "MyHeroAcademia_932697",
    "count_view": 0
  },
  {
    "link_thumb": "https://live.staticflickr.com/65535/48071561447_5f5dfeb4f8_n.jpg",
    "id_album": "-768622073",
    "description": "MyHeroAcademia_933418",
    "title": "MyHeroAcademia_933418",
    "link_img": "https://live.staticflickr.com/65535/48071561447_acbfbecd97_o.jpg",
    "id_image": "MyHeroAcademia_933418",
    "count_view": 0
  },
  {
    "link_thumb": "https://live.staticflickr.com/65535/48071458401_3d5b7c7a61_n.jpg",
    "id_album": "-768622073",
    "description": "MyHeroAcademia_935847",
    "title": "MyHeroAcademia_935847",
    "link_img": "https://live.staticflickr.com/65535/48071458401_a4b259534a_o.jpg",
    "id_image": "MyHeroAcademia_935847",
    "count_view": 0
  },
  {
    "link_thumb": "https://live.staticflickr.com/65535/48071507233_d0f92e1bd3_n.jpg",
    "id_album": "-768622073",
    "description": "MyHeroAcademia_935848",
    "title": "MyHeroAcademia_935848",
    "link_img": "https://live.staticflickr.com/65535/48071507233_359e77069b_o.jpg",
    "id_image": "MyHeroAcademia_935848",
    "count_view": 0
  },
  {
    "link_thumb": "https://live.staticflickr.com/65535/48071458966_e52a611856_n.jpg",
    "id_album": "-768622073",
    "description": "MyHeroAcademia_935849",
    "title": "MyHeroAcademia_935849",
    "link_img": "https://live.staticflickr.com/65535/48071458966_331586a165_o.jpg",
    "id_image": "MyHeroAcademia_935849",
    "count_view": 0
  },
  {
    "link_thumb": "https://live.staticflickr.com/65535/48071464716_baf7fbb016_n.jpg",
    "id_album": "-768622073",
    "description": "MyHeroAcademia_937821",
    "title": "MyHeroAcademia_937821",
    "link_img": "https://live.staticflickr.com/65535/48071464716_75c98ba0e0_o.jpg",
    "id_image": "MyHeroAcademia_937821",
    "count_view": 0
  },
  {
    "link_thumb": "https://live.staticflickr.com/65535/48071615557_37669b817d_n.jpg",
    "id_album": "-768622073",
    "description": "MyHeroAcademia_955735",
    "title": "MyHeroAcademia_955735",
    "link_img": "https://live.staticflickr.com/65535/48071615557_8f9458fb65_o.jpg",
    "id_image": "MyHeroAcademia_955735",
    "count_view": 0
  },
  {
    "link_thumb": "https://live.staticflickr.com/65535/48071671651_3ae71d481d_n.jpg",
    "id_album": "-768622073",
    "description": "MyTeenRomanticComedySNAFU_955219",
    "title": "MyTeenRomanticComedySNAFU_955219",
    "link_img": "https://live.staticflickr.com/65535/48071671651_42c4a9f77f_o.jpg",
    "id_image": "MyTeenRomanticComedySNAFU_955219",
    "count_view": 0
  },
  {
    "link_thumb": "https://live.staticflickr.com/65535/48072069691_05effc7c33_n.jpg",
    "id_album": "-768622073",
    "description": "Naruto_936559",
    "title": "Naruto_936559",
    "link_img": "https://live.staticflickr.com/65535/48072069691_f0dd8dee72_o.jpg",
    "id_image": "Naruto_936559",
    "count_view": 0
  },
  {
    "link_thumb": "https://live.staticflickr.com/65535/48072960882_44aed4c556_n.jpg",
    "id_album": "-768622073",
    "description": "Nisekoi_505666",
    "title": "Nisekoi_505666",
    "link_img": "https://live.staticflickr.com/65535/48072960882_aa86e979d3_o.jpg",
    "id_image": "Nisekoi_505666",
    "count_view": 0
  },
  {
    "link_thumb": "https://live.staticflickr.com/65535/48072910498_2f07cba78d_n.jpg",
    "id_album": "-768622073",
    "description": "Nisekoi_672171",
    "title": "Nisekoi_672171",
    "link_img": "https://live.staticflickr.com/65535/48072910498_386c78b11e_o.jpg",
    "id_image": "Nisekoi_672171",
    "count_view": 0
  },
  {
    "link_thumb": "https://live.staticflickr.com/65535/48072862191_2f54aae7e6_n.jpg",
    "id_album": "-768622073",
    "description": "Nisekoi_680378",
    "title": "Nisekoi_680378",
    "link_img": "https://live.staticflickr.com/65535/48072862191_87fb470a87_o.jpg",
    "id_image": "Nisekoi_680378",
    "count_view": 0
  },
  {
    "link_thumb": "https://live.staticflickr.com/65535/48072864701_7f3293dd2c_n.jpg",
    "id_album": "-768622073",
    "description": "Nisekoi_691892",
    "title": "Nisekoi_691892",
    "link_img": "https://live.staticflickr.com/65535/48072864701_218fefe344_o.jpg",
    "id_image": "Nisekoi_691892",
    "count_view": 0
  },
  {
    "link_thumb": "https://live.staticflickr.com/65535/48072915608_1620e8c66b_n.jpg",
    "id_album": "-768622073",
    "description": "Nisekoi_691898",
    "title": "Nisekoi_691898",
    "link_img": "https://live.staticflickr.com/65535/48072915608_ca674f552d_o.jpg",
    "id_image": "Nisekoi_691898",
    "count_view": 0
  },
  {
    "link_thumb": "https://live.staticflickr.com/65535/48072869106_4df55a7ab1_n.jpg",
    "id_album": "-768622073",
    "description": "Nisekoi_695924",
    "title": "Nisekoi_695924",
    "link_img": "https://live.staticflickr.com/65535/48072869106_b6a929eca1_o.jpg",
    "id_image": "Nisekoi_695924",
    "count_view": 0
  },
  {
    "link_thumb": "https://live.staticflickr.com/65535/48072980427_aa023021cb_n.jpg",
    "id_album": "-768622073",
    "description": "Nisekoi_699648",
    "title": "Nisekoi_699648",
    "link_img": "https://live.staticflickr.com/65535/48072980427_cdefd6c7af_o.jpg",
    "id_image": "Nisekoi_699648",
    "count_view": 0
  },
  {
    "link_thumb": "https://live.staticflickr.com/65535/48072873951_b90e5b0411_n.jpg",
    "id_album": "-768622073",
    "description": "Nisekoi_701011",
    "title": "Nisekoi_701011",
    "link_img": "https://live.staticflickr.com/65535/48072873951_9885af5d84_o.jpg",
    "id_image": "Nisekoi_701011",
    "count_view": 0
  },
  {
    "link_thumb": "https://live.staticflickr.com/65535/48072983017_b91756b248_n.jpg",
    "id_album": "-768622073",
    "description": "Nisekoi_701015",
    "title": "Nisekoi_701015",
    "link_img": "https://live.staticflickr.com/65535/48072983017_17af14cfd0_o.jpg",
    "id_image": "Nisekoi_701015",
    "count_view": 0
  },
  {
    "link_thumb": "https://live.staticflickr.com/65535/48072983402_9199cce61a_n.jpg",
    "id_album": "-768622073",
    "description": "Nisekoi_701016",
    "title": "Nisekoi_701016",
    "link_img": "https://live.staticflickr.com/65535/48072983402_b5a644ed01_o.jpg",
    "id_image": "Nisekoi_701016",
    "count_view": 0
  },
  {
    "link_thumb": "https://live.staticflickr.com/65535/48072926853_35227a898d_n.jpg",
    "id_album": "-768622073",
    "description": "Nisekoi_701037",
    "title": "Nisekoi_701037",
    "link_img": "https://live.staticflickr.com/65535/48072926853_7a08704ffa_o.jpg",
    "id_image": "Nisekoi_701037",
    "count_view": 0
  },
  {
    "link_thumb": "https://live.staticflickr.com/65535/48072986067_f34aa67262_n.jpg",
    "id_album": "-768622073",
    "description": "Nisekoi_701078",
    "title": "Nisekoi_701078",
    "link_img": "https://live.staticflickr.com/65535/48072986067_edc0a6e797_o.jpg",
    "id_image": "Nisekoi_701078",
    "count_view": 0
  },
  {
    "link_thumb": "https://live.staticflickr.com/65535/48072991307_59b7725f7c_n.jpg",
    "id_album": "-768622073",
    "description": "Nisekoi_701523",
    "title": "Nisekoi_701523",
    "link_img": "https://live.staticflickr.com/65535/48072991307_0cb233df5b_o.jpg",
    "id_image": "Nisekoi_701523",
    "count_view": 0
  },
  {
    "link_thumb": "https://live.staticflickr.com/65535/48072935078_189838c03b_n.jpg",
    "id_album": "-768622073",
    "description": "Nisekoi_702795",
    "title": "Nisekoi_702795",
    "link_img": "https://live.staticflickr.com/65535/48072935078_2b7ba76ff8_o.jpg",
    "id_image": "Nisekoi_702795",
    "count_view": 0
  },
  {
    "link_thumb": "https://live.staticflickr.com/65535/48072886306_ab27d454d1_n.jpg",
    "id_album": "-768622073",
    "description": "Nisekoi_704961",
    "title": "Nisekoi_704961",
    "link_img": "https://live.staticflickr.com/65535/48072886306_f385740ca4_o.jpg",
    "id_image": "Nisekoi_704961",
    "count_view": 0
  },
  {
    "link_thumb": "https://live.staticflickr.com/65535/48073000587_b67bf3e618_n.jpg",
    "id_album": "-768622073",
    "description": "Nisekoi_737150",
    "title": "Nisekoi_737150",
    "link_img": "https://live.staticflickr.com/65535/48073000587_0f10ff3f31_o.jpg",
    "id_image": "Nisekoi_737150",
    "count_view": 0
  },
  {
    "link_thumb": "https://live.staticflickr.com/65535/48072942228_3d2f0540dd_n.jpg",
    "id_album": "-768622073",
    "description": "Nisekoi_737364",
    "title": "Nisekoi_737364",
    "link_img": "https://live.staticflickr.com/65535/48072942228_0f9a9061df_o.jpg",
    "id_image": "Nisekoi_737364",
    "count_view": 0
  },
  {
    "link_thumb": "https://live.staticflickr.com/65535/48072893591_e5a426f275_n.jpg",
    "id_album": "-768622073",
    "description": "Nisekoi_744963",
    "title": "Nisekoi_744963",
    "link_img": "https://live.staticflickr.com/65535/48072893591_64f83b75d5_o.jpg",
    "id_image": "Nisekoi_744963",
    "count_view": 0
  },
  {
    "link_thumb": "https://live.staticflickr.com/65535/48072950498_a6114c7644_n.jpg",
    "id_album": "-768622073",
    "description": "Nisekoi_804739",
    "title": "Nisekoi_804739",
    "link_img": "https://live.staticflickr.com/65535/48072950498_dd6a78856f_o.jpg",
    "id_image": "Nisekoi_804739",
    "count_view": 0
  },
  {
    "link_thumb": "https://live.staticflickr.com/65535/48072920431_edf1ce16dc_n.jpg",
    "id_album": "-768622073",
    "description": "Nisekoi_816379",
    "title": "Nisekoi_816379",
    "link_img": "https://live.staticflickr.com/65535/48072920431_cdd9cb6398_o.jpg",
    "id_image": "Nisekoi_816379",
    "count_view": 0
  },
  {
    "link_thumb": "https://live.staticflickr.com/65535/48072984711_c3aca9759f_n.jpg",
    "id_album": "-768622073",
    "description": "Nisekoi_816556",
    "title": "Nisekoi_816556",
    "link_img": "https://live.staticflickr.com/65535/48072984711_e297c4ea47_o.jpg",
    "id_image": "Nisekoi_816556",
    "count_view": 0
  },
  {
    "link_thumb": "https://live.staticflickr.com/65535/48073022966_f0a46c8b88_n.jpg",
    "id_album": "-768622073",
    "description": "Nisekoi_816615",
    "title": "Nisekoi_816615",
    "link_img": "https://live.staticflickr.com/65535/48073022966_ec573e068f_o.jpg",
    "id_image": "Nisekoi_816615",
    "count_view": 0
  },
  {
    "link_thumb": "https://live.staticflickr.com/65535/48073076991_350c8071db_n.jpg",
    "id_album": "-768622073",
    "description": "Nisekoi_838323",
    "title": "Nisekoi_838323",
    "link_img": "https://live.staticflickr.com/65535/48073076991_137e9e9695_o.jpg",
    "id_image": "Nisekoi_838323",
    "count_view": 0
  },
  {
    "link_thumb": "https://live.staticflickr.com/65535/48073135663_f08885ae85_n.jpg",
    "id_album": "-768622073",
    "description": "Nisekoi_864710",
    "title": "Nisekoi_864710",
    "link_img": "https://live.staticflickr.com/65535/48073135663_d469913045_o.jpg",
    "id_image": "Nisekoi_864710",
    "count_view": 0
  },
  {
    "link_thumb": "https://live.staticflickr.com/65535/48073538722_11c2deca3b_n.jpg",
    "id_album": "-768622073",
    "description": "Noragami_921557",
    "title": "Noragami_921557",
    "link_img": "https://live.staticflickr.com/65535/48073538722_a8c208e994_o.jpg",
    "id_image": "Noragami_921557",
    "count_view": 0
  },
  {
    "link_thumb": "https://live.staticflickr.com/65535/48073655966_541b558125_n.jpg",
    "id_album": "-768622073",
    "description": "OnePiece_319163",
    "title": "OnePiece_319163",
    "link_img": "https://live.staticflickr.com/65535/48073655966_47946cf68c_o.jpg",
    "id_image": "OnePiece_319163",
    "count_view": 0
  },
  {
    "link_thumb": "https://live.staticflickr.com/65535/48073755346_3a8ef3fc97_n.jpg",
    "id_album": "-768622073",
    "description": "OnePiece_672623",
    "title": "OnePiece_672623",
    "link_img": "https://live.staticflickr.com/65535/48073755346_c568ea8420_o.jpg",
    "id_image": "OnePiece_672623",
    "count_view": 0
  },
  {
    "link_thumb": "https://live.staticflickr.com/65535/48073888182_bb0bbd9a27_n.jpg",
    "id_album": "-768622073",
    "description": "OnePiece_721547",
    "title": "OnePiece_721547",
    "link_img": "https://live.staticflickr.com/65535/48073888182_2f28814740_o.jpg",
    "id_image": "OnePiece_721547",
    "count_view": 0
  },
  {
    "link_thumb": "https://live.staticflickr.com/65535/48074229653_1bafc3c3b1_n.jpg",
    "id_album": "-768622073",
    "description": "OnePunchMan_656724",
    "title": "OnePunchMan_656724",
    "link_img": "https://live.staticflickr.com/65535/48074229653_8a06b57a1f_o.jpg",
    "id_image": "OnePunchMan_656724",
    "count_view": 0
  },
  {
    "link_thumb": "https://live.staticflickr.com/65535/48074214856_5427b91039_n.jpg",
    "id_album": "-768622073",
    "description": "OnePunchMan_668524",
    "title": "OnePunchMan_668524",
    "link_img": "https://live.staticflickr.com/65535/48074214856_6b00da70b5_o.jpg",
    "id_image": "OnePunchMan_668524",
    "count_view": 0
  },
  {
    "link_thumb": "https://live.staticflickr.com/65535/48074413992_902c11f300_n.jpg",
    "id_album": "-768622073",
    "description": "OnePunchMan_946890",
    "title": "OnePunchMan_946890",
    "link_img": "https://live.staticflickr.com/65535/48074413992_aa17732824_o.jpg",
    "id_image": "OnePunchMan_946890",
    "count_view": 0
  },
  {
    "link_thumb": "https://live.staticflickr.com/65535/48074425116_4595572a0f_n.jpg",
    "id_album": "-768622073",
    "description": "Oreimo_648177",
    "title": "Oreimo_648177",
    "link_img": "https://live.staticflickr.com/65535/48074425116_e6b17b7c70_o.jpg",
    "id_image": "Oreimo_648177",
    "count_view": 0
  },
  {
    "link_thumb": "https://live.staticflickr.com/65535/48074842232_89e5273722_n.jpg",
    "id_album": "-768622073",
    "description": "Original_200777",
    "title": "Original_200777",
    "link_img": "https://live.staticflickr.com/65535/48074842232_e87b6fa9b6_o.jpg",
    "id_image": "Original_200777",
    "count_view": 0
  },
  {
    "link_thumb": "https://live.staticflickr.com/65535/48074991037_191c812903_n.jpg",
    "id_album": "-768622073",
    "description": "Original_245200",
    "title": "Original_245200",
    "link_img": "https://live.staticflickr.com/65535/48074991037_21f39987aa_o.jpg",
    "id_image": "Original_245200",
    "count_view": 0
  },
  {
    "link_thumb": "https://live.staticflickr.com/65535/48074924611_3df520e8f9_n.jpg",
    "id_album": "-768622073",
    "description": "Original_265825",
    "title": "Original_265825",
    "link_img": "https://live.staticflickr.com/65535/48074924611_534d4d8282_o.jpg",
    "id_image": "Original_265825",
    "count_view": 0
  },
  {
    "link_thumb": "https://live.staticflickr.com/65535/48075267178_c7f07f8d99_n.jpg",
    "id_album": "-768622073",
    "description": "Original_555125",
    "title": "Original_555125",
    "link_img": "https://live.staticflickr.com/65535/48075267178_b5caa97872_o.jpg",
    "id_image": "Original_555125",
    "count_view": 0
  },
  {
    "link_thumb": "https://live.staticflickr.com/65535/48075270793_d1df4f1a96_n.jpg",
    "id_album": "-768622073",
    "description": "Original_556369",
    "title": "Original_556369",
    "link_img": "https://live.staticflickr.com/65535/48075270793_6a43f3fe17_o.jpg",
    "id_image": "Original_556369",
    "count_view": 0
  },
  {
    "link_thumb": "https://live.staticflickr.com/65535/48075323451_b5a556e69e_n.jpg",
    "id_album": "-768622073",
    "description": "Original_575336",
    "title": "Original_575336",
    "link_img": "https://live.staticflickr.com/65535/48075323451_a8f1118574_o.jpg",
    "id_image": "Original_575336",
    "count_view": 0
  },
  {
    "link_thumb": "https://live.staticflickr.com/65535/48075471358_26ce7b8971_n.jpg",
    "id_album": "-768622073",
    "description": "Original_665098",
    "title": "Original_665098",
    "link_img": "https://live.staticflickr.com/65535/48075471358_1513cd4927_o.jpg",
    "id_image": "Original_665098",
    "count_view": 0
  },
  {
    "link_thumb": "https://live.staticflickr.com/65535/48075436051_6e1d11f767_n.jpg",
    "id_album": "-768622073",
    "description": "Original_669576",
    "title": "Original_669576",
    "link_img": "https://live.staticflickr.com/65535/48075436051_bc2c986b12_o.jpg",
    "id_image": "Original_669576",
    "count_view": 0
  },
  {
    "link_thumb": "https://live.staticflickr.com/65535/48075545352_6fda06d512_n.jpg",
    "id_album": "-768622073",
    "description": "Original_670473",
    "title": "Original_670473",
    "link_img": "https://live.staticflickr.com/65535/48075545352_7d0c10c3c7_o.jpg",
    "id_image": "Original_670473",
    "count_view": 0
  },
  {
    "link_thumb": "https://live.staticflickr.com/65535/48075484578_a9b4e273fb_n.jpg",
    "id_album": "-768622073",
    "description": "Original_671043",
    "title": "Original_671043",
    "link_img": "https://live.staticflickr.com/65535/48075484578_9961b0ca18_o.jpg",
    "id_image": "Original_671043",
    "count_view": 0
  },
  {
    "link_thumb": "https://live.staticflickr.com/65535/48075452271_be57b08ae4_n.jpg",
    "id_album": "-768622073",
    "description": "Original_672766",
    "title": "Original_672766",
    "link_img": "https://live.staticflickr.com/65535/48075452271_d46b76ba08_o.jpg",
    "id_image": "Original_672766",
    "count_view": 0
  },
  {
    "link_thumb": "https://live.staticflickr.com/65535/48075454016_31d0c300b6_n.jpg",
    "id_album": "-768622073",
    "description": "Original_672791",
    "title": "Original_672791",
    "link_img": "https://live.staticflickr.com/65535/48075454016_a086510e45_o.jpg",
    "id_image": "Original_672791",
    "count_view": 0
  },
  {
    "link_thumb": "https://live.staticflickr.com/65535/48075494408_41e5ac3fc6_n.jpg",
    "id_album": "-768622073",
    "description": "Original_673454",
    "title": "Original_673454",
    "link_img": "https://live.staticflickr.com/65535/48075494408_21a69bf594_o.jpg",
    "id_image": "Original_673454",
    "count_view": 0
  },
  {
    "link_thumb": "https://live.staticflickr.com/65535/48075563237_d837fd1ec8_n.jpg",
    "id_album": "-768622073",
    "description": "Original_674719",
    "title": "Original_674719",
    "link_img": "https://live.staticflickr.com/65535/48075563237_b1ec443ab7_o.jpg",
    "id_image": "Original_674719",
    "count_view": 0
  },
  {
    "link_thumb": "https://live.staticflickr.com/65535/48075506463_c595383a92_n.jpg",
    "id_album": "-768622073",
    "description": "Original_676579",
    "title": "Original_676579",
    "link_img": "https://live.staticflickr.com/65535/48075506463_a267924948_o.jpg",
    "id_image": "Original_676579",
    "count_view": 0
  },
  {
    "link_thumb": "https://live.staticflickr.com/65535/48075529503_9fbe9368c9_n.jpg",
    "id_album": "-768622073",
    "description": "Original_678861",
    "title": "Original_678861",
    "link_img": "https://live.staticflickr.com/65535/48075529503_3ac8f24489_o.jpg",
    "id_image": "Original_678861",
    "count_view": 0
  },
  {
    "link_thumb": "https://live.staticflickr.com/65535/48075601272_84ec69da53_n.jpg",
    "id_album": "-768622073",
    "description": "Original_679727",
    "title": "Original_679727",
    "link_img": "https://live.staticflickr.com/65535/48075601272_69a312d7b6_o.jpg",
    "id_image": "Original_679727",
    "count_view": 0
  },
  {
    "link_thumb": "https://live.staticflickr.com/65535/48075608162_206a19489a_n.jpg",
    "id_album": "-768622073",
    "description": "Original_680935",
    "title": "Original_680935",
    "link_img": "https://live.staticflickr.com/65535/48075608162_ca3b4dd2d5_o.jpg",
    "id_image": "Original_680935",
    "count_view": 0
  },
  {
    "link_thumb": "https://live.staticflickr.com/65535/48075542148_669ab7d7be_n.jpg",
    "id_album": "-768622073",
    "description": "Original_681305",
    "title": "Original_681305",
    "link_img": "https://live.staticflickr.com/65535/48075542148_7cdf384c5a_o.jpg",
    "id_image": "Original_681305",
    "count_view": 0
  },
  {
    "link_thumb": "https://live.staticflickr.com/65535/48075542483_8aacc9dcab_n.jpg",
    "id_album": "-768622073",
    "description": "Original_681349",
    "title": "Original_681349",
    "link_img": "https://live.staticflickr.com/65535/48075542483_db0a7e15c5_o.jpg",
    "id_image": "Original_681349",
    "count_view": 0
  },
  {
    "link_thumb": "https://live.staticflickr.com/65535/48075506116_0c4704ae78_n.jpg",
    "id_album": "-768622073",
    "description": "Original_681361",
    "title": "Original_681361",
    "link_img": "https://live.staticflickr.com/65535/48075506116_74e3c7c332_o.jpg",
    "id_image": "Original_681361",
    "count_view": 0
  },
  {
    "link_thumb": "https://live.staticflickr.com/65535/48075506741_de949eb1d1_n.jpg",
    "id_album": "-768622073",
    "description": "Original_681368",
    "title": "Original_681368",
    "link_img": "https://live.staticflickr.com/65535/48075506741_91926c69db_o.jpg",
    "id_image": "Original_681368",
    "count_view": 0
  },
  {
    "link_thumb": "https://live.staticflickr.com/65535/48075513006_52c1e8571a_n.jpg",
    "id_album": "-768622073",
    "description": "Original_682378",
    "title": "Original_682378",
    "link_img": "https://live.staticflickr.com/65535/48075513006_6eeb3ec7e6_o.jpg",
    "id_image": "Original_682378",
    "count_view": 0
  },
  {
    "link_thumb": "https://live.staticflickr.com/65535/48075515226_c3305444f5_n.jpg",
    "id_album": "-768622073",
    "description": "Original_682556",
    "title": "Original_682556",
    "link_img": "https://live.staticflickr.com/65535/48075515226_852ec3725d_o.jpg",
    "id_image": "Original_682556",
    "count_view": 0
  },
  {
    "link_thumb": "https://live.staticflickr.com/65535/48075530771_3b79c1d6a6_n.jpg",
    "id_album": "-768622073",
    "description": "Original_684575",
    "title": "Original_684575",
    "link_img": "https://live.staticflickr.com/65535/48075530771_4c6b153f35_o.jpg",
    "id_image": "Original_684575",
    "count_view": 0
  },
  {
    "link_thumb": "https://live.staticflickr.com/65535/48075570133_8d76502080_n.jpg",
    "id_album": "-768622073",
    "description": "Original_684691",
    "title": "Original_684691",
    "link_img": "https://live.staticflickr.com/65535/48075570133_5706694503_o.jpg",
    "id_image": "Original_684691",
    "count_view": 0
  },
  {
    "link_thumb": "https://live.staticflickr.com/65535/48075637117_b5f559ab9c_n.jpg",
    "id_album": "-768622073",
    "description": "Original_684693",
    "title": "Original_684693",
    "link_img": "https://live.staticflickr.com/65535/48075637117_f5c29ebd40_o.jpg",
    "id_image": "Original_684693",
    "count_view": 0
  },
  {
    "link_thumb": "https://live.staticflickr.com/65535/48075571963_5635794878_n.jpg",
    "id_album": "-768622073",
    "description": "Original_684732",
    "title": "Original_684732",
    "link_img": "https://live.staticflickr.com/65535/48075571963_055e720b38_o.jpg",
    "id_image": "Original_684732",
    "count_view": 0
  },
  {
    "link_thumb": "https://live.staticflickr.com/65535/48075644142_17daa48fc6_n.jpg",
    "id_album": "-768622073",
    "description": "Original_685856",
    "title": "Original_685856",
    "link_img": "https://live.staticflickr.com/65535/48075644142_5cdf6331b1_o.jpg",
    "id_image": "Original_685856",
    "count_view": 0
  },
  {
    "link_thumb": "https://live.staticflickr.com/65535/48075587123_0502fca7c2_n.jpg",
    "id_album": "-768622073",
    "description": "Original_687974",
    "title": "Original_687974",
    "link_img": "https://live.staticflickr.com/65535/48075587123_a477572ca0_o.jpg",
    "id_image": "Original_687974",
    "count_view": 0
  },
  {
    "link_thumb": "https://live.staticflickr.com/65535/48075588778_c479fe4b9a_n.jpg",
    "id_album": "-768622073",
    "description": "Original_688298",
    "title": "Original_688298",
    "link_img": "https://live.staticflickr.com/65535/48075588778_bc13a220d6_o.jpg",
    "id_image": "Original_688298",
    "count_view": 0
  },
  {
    "link_thumb": "https://live.staticflickr.com/65535/48075551231_bb371d6ae7_n.jpg",
    "id_album": "-768622073",
    "description": "Original_688454",
    "title": "Original_688454",
    "link_img": "https://live.staticflickr.com/65535/48075551231_473d0da89d_o.jpg",
    "id_image": "Original_688454",
    "count_view": 0
  },
  {
    "link_thumb": "https://live.staticflickr.com/65535/48075688227_996451e6b7_n.jpg",
    "id_album": "-768622073",
    "description": "Original_692510",
    "title": "Original_692510",
    "link_img": "https://live.staticflickr.com/65535/48075688227_cb54cdb575_o.jpg",
    "id_image": "Original_692510",
    "count_view": 0
  },
  {
    "link_thumb": "https://live.staticflickr.com/65535/48075716737_f1e5217f32_n.jpg",
    "id_album": "-768622073",
    "description": "Original_695314",
    "title": "Original_695314",
    "link_img": "https://live.staticflickr.com/65535/48075716737_d9cbba192c_o.jpg",
    "id_image": "Original_695314",
    "count_view": 0
  },
  {
    "link_thumb": "https://live.staticflickr.com/65535/48075653648_d4c7fc7516_n.jpg",
    "id_album": "-768622073",
    "description": "Original_695685",
    "title": "Original_695685",
    "link_img": "https://live.staticflickr.com/65535/48075653648_f194b2447b_o.jpg",
    "id_image": "Original_695685",
    "count_view": 0
  },
  {
    "link_thumb": "https://live.staticflickr.com/65535/48075663433_122fa6f665_n.jpg",
    "id_album": "-768622073",
    "description": "Original_696833",
    "title": "Original_696833",
    "link_img": "https://live.staticflickr.com/65535/48075663433_1522cebebb_o.jpg",
    "id_image": "Original_696833",
    "count_view": 0
  },
  {
    "link_thumb": "https://live.staticflickr.com/65535/48075730002_e6e378abf7_n.jpg",
    "id_album": "-768622073",
    "description": "Original_696861",
    "title": "Original_696861",
    "link_img": "https://live.staticflickr.com/65535/48075730002_15997bf296_o.jpg",
    "id_image": "Original_696861",
    "count_view": 0
  },
  {
    "link_thumb": "https://live.staticflickr.com/65535/48075633186_0871879eb4_n.jpg",
    "id_album": "-768622073",
    "description": "Original_697512",
    "title": "Original_697512",
    "link_img": "https://live.staticflickr.com/65535/48075633186_5b80c7def0_o.jpg",
    "id_image": "Original_697512",
    "count_view": 0
  },
  {
    "link_thumb": "https://live.staticflickr.com/65535/48075738162_c29992efe9_n.jpg",
    "id_album": "-768622073",
    "description": "Original_697755",
    "title": "Original_697755",
    "link_img": "https://live.staticflickr.com/65535/48075738162_3cf4ce21ae_o.jpg",
    "id_image": "Original_697755",
    "count_view": 0
  },
  {
    "link_thumb": "https://live.staticflickr.com/65535/48075740197_1828f86523_n.jpg",
    "id_album": "-768622073",
    "description": "Original_698048",
    "title": "Original_698048",
    "link_img": "https://live.staticflickr.com/65535/48075740197_4e84827f22_o.jpg",
    "id_image": "Original_698048",
    "count_view": 0
  },
  {
    "link_thumb": "https://live.staticflickr.com/65535/48075737128_e050fdb614_n.jpg",
    "id_album": "-768622073",
    "description": "Original_707876",
    "title": "Original_707876",
    "link_img": "https://live.staticflickr.com/65535/48075737128_3bc088634d_o.jpg",
    "id_image": "Original_707876",
    "count_view": 0
  },
  {
    "link_thumb": "https://live.staticflickr.com/65535/48075760368_186b88084d_n.jpg",
    "id_album": "-768622073",
    "description": "Original_711250",
    "title": "Original_711250",
    "link_img": "https://live.staticflickr.com/65535/48075760368_fb241dac69_o.jpg",
    "id_image": "Original_711250",
    "count_view": 0
  },
  {
    "link_thumb": "https://live.staticflickr.com/65535/48075761088_22b120934c_n.jpg",
    "id_album": "-768622073",
    "description": "Original_711293",
    "title": "Original_711293",
    "link_img": "https://live.staticflickr.com/65535/48075761088_2ab92b4559_o.jpg",
    "id_image": "Original_711293",
    "count_view": 0
  },
  {
    "link_thumb": "https://live.staticflickr.com/65535/48075724641_4c42b04674_n.jpg",
    "id_album": "-768622073",
    "description": "Original_711968",
    "title": "Original_711968",
    "link_img": "https://live.staticflickr.com/65535/48075724641_a9ec331c9d_o.jpg",
    "id_image": "Original_711968",
    "count_view": 0
  },
  {
    "link_thumb": "https://live.staticflickr.com/65535/48075836787_9eba920559_n.jpg",
    "id_album": "-768622073",
    "description": "Original_712280",
    "title": "Original_712280",
    "link_img": "https://live.staticflickr.com/65535/48075836787_70208027ab_o.jpg",
    "id_image": "Original_712280",
    "count_view": 0
  },
  {
    "link_thumb": "https://live.staticflickr.com/65535/48075735416_b83fbe17c5_n.jpg",
    "id_album": "-768622073",
    "description": "Original_712772",
    "title": "Original_712772",
    "link_img": "https://live.staticflickr.com/65535/48075735416_ee182f77b7_o.jpg",
    "id_image": "Original_712772",
    "count_view": 0
  },
  {
    "link_thumb": "https://live.staticflickr.com/65535/48075785543_758cc760e1_n.jpg",
    "id_album": "-768622073",
    "description": "Original_713235",
    "title": "Original_713235",
    "link_img": "https://live.staticflickr.com/65535/48075785543_bdaa33926b_o.jpg",
    "id_image": "Original_713235",
    "count_view": 0
  },
  {
    "link_thumb": "https://live.staticflickr.com/65535/48075778746_98f2991ccb_n.jpg",
    "id_album": "-768622073",
    "description": "Original_715405",
    "title": "Original_715405",
    "link_img": "https://live.staticflickr.com/65535/48075778746_dea79101a9_o.jpg",
    "id_image": "Original_715405",
    "count_view": 0
  },
  {
    "link_thumb": "https://live.staticflickr.com/65535/48075889822_4240d7d08e_n.jpg",
    "id_album": "-768622073",
    "description": "Original_715650",
    "title": "Original_715650",
    "link_img": "https://live.staticflickr.com/65535/48075889822_41e80f593f_o.jpg",
    "id_image": "Original_715650",
    "count_view": 0
  },
  {
    "link_thumb": "https://live.staticflickr.com/65535/48075949862_3280e1d051_n.jpg",
    "id_album": "-768622073",
    "description": "Original_724356",
    "title": "Original_724356",
    "link_img": "https://live.staticflickr.com/65535/48075949862_8c2dfc2538_o.jpg",
    "id_image": "Original_724356",
    "count_view": 0
  },
  {
    "link_thumb": "https://live.staticflickr.com/65535/48075950087_56c39b9e4c_n.jpg",
    "id_album": "-768622073",
    "description": "Original_724358",
    "title": "Original_724358",
    "link_img": "https://live.staticflickr.com/65535/48075950087_c99676600b_o.jpg",
    "id_image": "Original_724358",
    "count_view": 0
  },
  {
    "link_thumb": "https://live.staticflickr.com/65535/48075921613_00229ef4b8_n.jpg",
    "id_album": "-768622073",
    "description": "Original_728084",
    "title": "Original_728084",
    "link_img": "https://live.staticflickr.com/65535/48075921613_a4e38e7877_o.jpg",
    "id_image": "Original_728084",
    "count_view": 0
  },
  {
    "link_thumb": "https://live.staticflickr.com/65535/48075902441_6822e51204_n.jpg",
    "id_album": "-768622073",
    "description": "Original_733407",
    "title": "Original_733407",
    "link_img": "https://live.staticflickr.com/65535/48075902441_92f64860e4_o.jpg",
    "id_image": "Original_733407",
    "count_view": 0
  },
  {
    "link_thumb": "https://live.staticflickr.com/65535/48077110607_57f13af300_n.jpg",
    "id_album": "-768622073",
    "description": "Original_773277",
    "title": "Original_773277",
    "link_img": "https://live.staticflickr.com/65535/48077110607_6a2b3c9cfb_o.jpg",
    "id_image": "Original_773277",
    "count_view": 0
  },
  {
    "link_thumb": "https://live.staticflickr.com/65535/48077118037_cf52690c07_n.jpg",
    "id_album": "-768622073",
    "description": "Original_774048",
    "title": "Original_774048",
    "link_img": "https://live.staticflickr.com/65535/48077118037_ef7fa4e141_o.jpg",
    "id_image": "Original_774048",
    "count_view": 0
  },
  {
    "link_thumb": "https://live.staticflickr.com/65535/48077021246_99bbf67065_n.jpg",
    "id_album": "-768622073",
    "description": "Original_774348",
    "title": "Original_774348",
    "link_img": "https://live.staticflickr.com/65535/48077021246_d8ebc02cf3_o.jpg",
    "id_image": "Original_774348",
    "count_view": 0
  },
  {
    "link_thumb": "https://live.staticflickr.com/65535/48077057643_64f13b6898_n.jpg",
    "id_album": "-768622073",
    "description": "Original_774349",
    "title": "Original_774349",
    "link_img": "https://live.staticflickr.com/65535/48077057643_d865ebd921_o.jpg",
    "id_image": "Original_774349",
    "count_view": 0
  },
  {
    "link_thumb": "https://live.staticflickr.com/65535/48077428083_cb1ed12d28_n.jpg",
    "id_album": "-768622073",
    "description": "Original_792170",
    "title": "Original_792170",
    "link_img": "https://live.staticflickr.com/65535/48077428083_ae95531b29_o.jpg",
    "id_image": "Original_792170",
    "count_view": 0
  },
  {
    "link_thumb": "https://live.staticflickr.com/65535/48077436403_fb281f3d68_n.jpg",
    "id_album": "-768622073",
    "description": "Original_792657",
    "title": "Original_792657",
    "link_img": "https://live.staticflickr.com/65535/48077436403_119fdfb99f_o.jpg",
    "id_image": "Original_792657",
    "count_view": 0
  },
  {
    "link_thumb": "https://live.staticflickr.com/65535/48077805391_f65cd019c7_n.jpg",
    "id_album": "-768622073",
    "description": "Original_838143",
    "title": "Original_838143",
    "link_img": "https://live.staticflickr.com/65535/48077805391_190ff5fb11_o.jpg",
    "id_image": "Original_838143",
    "count_view": 0
  },
  {
    "link_thumb": "https://live.staticflickr.com/65535/48077871253_498e65a433_n.jpg",
    "id_album": "-768622073",
    "description": "Original_840038",
    "title": "Original_840038",
    "link_img": "https://live.staticflickr.com/65535/48077871253_7035144be5_o.jpg",
    "id_image": "Original_840038",
    "count_view": 0
  },
  {
    "link_thumb": "https://live.staticflickr.com/65535/48077901198_57a569a2ff_n.jpg",
    "id_album": "-768622073",
    "description": "Original_840453",
    "title": "Original_840453",
    "link_img": "https://live.staticflickr.com/65535/48077901198_6d779b86e0_o.jpg",
    "id_image": "Original_840453",
    "count_view": 0
  },
  {
    "link_thumb": "https://live.staticflickr.com/65535/48077928428_ef9b15d9af_n.jpg",
    "id_album": "-768622073",
    "description": "Original_842489",
    "title": "Original_842489",
    "link_img": "https://live.staticflickr.com/65535/48077928428_7d831c2da3_o.jpg",
    "id_image": "Original_842489",
    "count_view": 0
  },
  {
    "link_thumb": "https://live.staticflickr.com/65535/48077928983_e740b74de4_n.jpg",
    "id_album": "-768622073",
    "description": "Original_842491",
    "title": "Original_842491",
    "link_img": "https://live.staticflickr.com/65535/48077928983_a20b9326c4_o.jpg",
    "id_image": "Original_842491",
    "count_view": 0
  },
  {
    "link_thumb": "https://live.staticflickr.com/65535/48077894931_79183234cf_n.jpg",
    "id_album": "-768622073",
    "description": "Original_842498",
    "title": "Original_842498",
    "link_img": "https://live.staticflickr.com/65535/48077894931_c42fb2d818_o.jpg",
    "id_image": "Original_842498",
    "count_view": 0
  },
  {
    "link_thumb": "https://live.staticflickr.com/65535/48077896941_09e5c948f2_n.jpg",
    "id_album": "-768622073",
    "description": "Original_842794",
    "title": "Original_842794",
    "link_img": "https://live.staticflickr.com/65535/48077896941_a85379476e_o.jpg",
    "id_image": "Original_842794",
    "count_view": 0
  },
  {
    "link_thumb": "https://live.staticflickr.com/65535/48078000832_d2d8310fd4_n.jpg",
    "id_album": "-768622073",
    "description": "Original_842898",
    "title": "Original_842898",
    "link_img": "https://live.staticflickr.com/65535/48078000832_b2ea1e9e45_o.jpg",
    "id_image": "Original_842898",
    "count_view": 0
  },
  {
    "link_thumb": "https://live.staticflickr.com/65535/48077905201_6b742347c9_n.jpg",
    "id_album": "-768622073",
    "description": "Original_842998",
    "title": "Original_842998",
    "link_img": "https://live.staticflickr.com/65535/48077905201_a317e9b45a_o.jpg",
    "id_image": "Original_842998",
    "count_view": 0
  },
  {
    "link_thumb": "https://live.staticflickr.com/65535/48078005542_33ceffd410_n.jpg",
    "id_album": "-768622073",
    "description": "Original_843096",
    "title": "Original_843096",
    "link_img": "https://live.staticflickr.com/65535/48078005542_e87f5d70ed_o.jpg",
    "id_image": "Original_843096",
    "count_view": 0
  },
  {
    "link_thumb": "https://live.staticflickr.com/65535/48078015747_09639becb8_n.jpg",
    "id_album": "-768622073",
    "description": "Original_843355",
    "title": "Original_843355",
    "link_img": "https://live.staticflickr.com/65535/48078015747_dfa9c41006_o.jpg",
    "id_image": "Original_843355",
    "count_view": 0
  },
  {
    "link_thumb": "https://live.staticflickr.com/65535/48077954093_7b1603e8fe_n.jpg",
    "id_album": "-768622073",
    "description": "Original_843447",
    "title": "Original_843447",
    "link_img": "https://live.staticflickr.com/65535/48077954093_a41a97c8a4_o.jpg",
    "id_image": "Original_843447",
    "count_view": 0
  },
  {
    "link_thumb": "https://live.staticflickr.com/65535/48078022882_6b348205e7_n.jpg",
    "id_album": "-768622073",
    "description": "Original_843589",
    "title": "Original_843589",
    "link_img": "https://live.staticflickr.com/65535/48078022882_8e0dbc5755_o.jpg",
    "id_image": "Original_843589",
    "count_view": 0
  },
  {
    "link_thumb": "https://live.staticflickr.com/65535/48077960733_2a17a74648_n.jpg",
    "id_album": "-768622073",
    "description": "Original_843776",
    "title": "Original_843776",
    "link_img": "https://live.staticflickr.com/65535/48077960733_5b6d9f6418_o.jpg",
    "id_image": "Original_843776",
    "count_view": 0
  },
  {
    "link_thumb": "https://live.staticflickr.com/65535/48077928111_229e417425_n.jpg",
    "id_album": "-768622073",
    "description": "Original_843788",
    "title": "Original_843788",
    "link_img": "https://live.staticflickr.com/65535/48077928111_03a820a467_o.jpg",
    "id_image": "Original_843788",
    "count_view": 0
  },
  {
    "link_thumb": "https://live.staticflickr.com/65535/48078030912_6ecc744ea5_n.jpg",
    "id_album": "-768622073",
    "description": "Original_843923",
    "title": "Original_843923",
    "link_img": "https://live.staticflickr.com/65535/48078030912_b148d402a9_o.jpg",
    "id_image": "Original_843923",
    "count_view": 0
  },
  {
    "link_thumb": "https://live.staticflickr.com/65535/48077933621_c3b5d8687b_n.jpg",
    "id_album": "-768622073",
    "description": "Original_843930",
    "title": "Original_843930",
    "link_img": "https://live.staticflickr.com/65535/48077933621_2848260267_o.jpg",
    "id_image": "Original_843930",
    "count_view": 0
  },
  {
    "link_thumb": "https://live.staticflickr.com/65535/48077937241_dfd0e75f8d_n.jpg",
    "id_album": "-768622073",
    "description": "Original_843939",
    "title": "Original_843939",
    "link_img": "https://live.staticflickr.com/65535/48077937241_4cd8284932_o.jpg",
    "id_image": "Original_843939",
    "count_view": 0
  },
  {
    "link_thumb": "https://live.staticflickr.com/65535/48078041117_df070a26f6_n.jpg",
    "id_album": "-768622073",
    "description": "Original_844055",
    "title": "Original_844055",
    "link_img": "https://live.staticflickr.com/65535/48078041117_8123f2bd3d_o.jpg",
    "id_image": "Original_844055",
    "count_view": 0
  },
  {
    "link_thumb": "https://live.staticflickr.com/65535/48077980408_d0585cb9e9_n.jpg",
    "id_album": "-768622073",
    "description": "Original_844097",
    "title": "Original_844097",
    "link_img": "https://live.staticflickr.com/65535/48077980408_4dd6d6d401_o.jpg",
    "id_image": "Original_844097",
    "count_view": 0
  },
  {
    "link_thumb": "https://live.staticflickr.com/65535/48078046192_0ba99afdf0_n.jpg",
    "id_album": "-768622073",
    "description": "Original_844099",
    "title": "Original_844099",
    "link_img": "https://live.staticflickr.com/65535/48078046192_3501f1b414_o.jpg",
    "id_image": "Original_844099",
    "count_view": 0
  },
  {
    "link_thumb": "https://live.staticflickr.com/65535/48077996698_2b56b5cffa_n.jpg",
    "id_album": "-768622073",
    "description": "Original_844963",
    "title": "Original_844963",
    "link_img": "https://live.staticflickr.com/65535/48077996698_bda7c97090_o.jpg",
    "id_image": "Original_844963",
    "count_view": 0
  },
  {
    "link_thumb": "https://live.staticflickr.com/65535/48077973486_fc2922b8e9_n.jpg",
    "id_album": "-768622073",
    "description": "Original_845095",
    "title": "Original_845095",
    "link_img": "https://live.staticflickr.com/65535/48077973486_2e4cc4b3af_o.jpg",
    "id_image": "Original_845095",
    "count_view": 0
  },
  {
    "link_thumb": "https://live.staticflickr.com/65535/48077974326_4b6c27db84_n.jpg",
    "id_album": "-768622073",
    "description": "Original_845100",
    "title": "Original_845100",
    "link_img": "https://live.staticflickr.com/65535/48077974326_a159f4ece9_o.jpg",
    "id_image": "Original_845100",
    "count_view": 0
  },
  {
    "link_thumb": "https://live.staticflickr.com/65535/48078010653_361ed14683_n.jpg",
    "id_album": "-768622073",
    "description": "Original_845125",
    "title": "Original_845125",
    "link_img": "https://live.staticflickr.com/65535/48078010653_3ca301e144_o.jpg",
    "id_image": "Original_845125",
    "count_view": 0
  },
  {
    "link_thumb": "https://live.staticflickr.com/65535/48078084527_a5059143cb_n.jpg",
    "id_album": "-768622073",
    "description": "Original_845499",
    "title": "Original_845499",
    "link_img": "https://live.staticflickr.com/65535/48078084527_61b5854a59_o.jpg",
    "id_image": "Original_845499",
    "count_view": 0
  },
  {
    "link_thumb": "https://live.staticflickr.com/65535/48077987651_e2601038de_n.jpg",
    "id_album": "-768622073",
    "description": "Original_845502",
    "title": "Original_845502",
    "link_img": "https://live.staticflickr.com/65535/48077987651_360df0e54e_o.jpg",
    "id_image": "Original_845502",
    "count_view": 0
  },
  {
    "link_thumb": "https://live.staticflickr.com/65535/48078022123_fcce744810_n.jpg",
    "id_album": "-768622073",
    "description": "Original_845537",
    "title": "Original_845537",
    "link_img": "https://live.staticflickr.com/65535/48078022123_34f3687db8_o.jpg",
    "id_image": "Original_845537",
    "count_view": 0
  },
  {
    "link_thumb": "https://live.staticflickr.com/65535/48077991686_c5803da0b7_n.jpg",
    "id_album": "-768622073",
    "description": "Original_845542",
    "title": "Original_845542",
    "link_img": "https://live.staticflickr.com/65535/48077991686_888faa80ee_o.jpg",
    "id_image": "Original_845542",
    "count_view": 0
  },
  {
    "link_thumb": "https://live.staticflickr.com/65535/48077995986_ab7699c981_n.jpg",
    "id_album": "-768622073",
    "description": "Original_845559",
    "title": "Original_845559",
    "link_img": "https://live.staticflickr.com/65535/48077995986_4222c34e98_o.jpg",
    "id_image": "Original_845559",
    "count_view": 0
  },
  {
    "link_thumb": "https://live.staticflickr.com/65535/48078028463_b3d9ec5d38_n.jpg",
    "id_album": "-768622073",
    "description": "Original_845560",
    "title": "Original_845560",
    "link_img": "https://live.staticflickr.com/65535/48078028463_420bd98ee0_o.jpg",
    "id_image": "Original_845560",
    "count_view": 0
  },
  {
    "link_thumb": "https://live.staticflickr.com/65535/48078095027_1feac0218e_n.jpg",
    "id_album": "-768622073",
    "description": "Original_845562",
    "title": "Original_845562",
    "link_img": "https://live.staticflickr.com/65535/48078095027_feb372bda9_o.jpg",
    "id_image": "Original_845562",
    "count_view": 0
  },
  {
    "link_thumb": "https://live.staticflickr.com/65535/48078110077_5605f5a584_n.jpg",
    "id_album": "-768622073",
    "description": "Original_845705",
    "title": "Original_845705",
    "link_img": "https://live.staticflickr.com/65535/48078110077_cddffbbe15_o.jpg",
    "id_image": "Original_845705",
    "count_view": 0
  },
  {
    "link_thumb": "https://live.staticflickr.com/65535/48078120842_12d07ca4ae_n.jpg",
    "id_album": "-768622073",
    "description": "Original_846088",
    "title": "Original_846088",
    "link_img": "https://live.staticflickr.com/65535/48078120842_dd9f2d3669_o.jpg",
    "id_image": "Original_846088",
    "count_view": 0
  },
  {
    "link_thumb": "https://live.staticflickr.com/65535/48078056733_ebb92c49cc_n.jpg",
    "id_album": "-768622073",
    "description": "Original_846299",
    "title": "Original_846299",
    "link_img": "https://live.staticflickr.com/65535/48078056733_7a053507e4_o.jpg",
    "id_image": "Original_846299",
    "count_view": 0
  },
  {
    "link_thumb": "https://live.staticflickr.com/65535/48078130432_1f641fbdc0_n.jpg",
    "id_album": "-768622073",
    "description": "Original_846451",
    "title": "Original_846451",
    "link_img": "https://live.staticflickr.com/65535/48078130432_9c4780d9c7_o.jpg",
    "id_image": "Original_846451",
    "count_view": 0
  },
  {
    "link_thumb": "https://live.staticflickr.com/65535/48078135747_41ce0425b9_n.jpg",
    "id_album": "-768622073",
    "description": "Original_846470",
    "title": "Original_846470",
    "link_img": "https://live.staticflickr.com/65535/48078135747_aa1c984cca_o.jpg",
    "id_image": "Original_846470",
    "count_view": 0
  },
  {
    "link_thumb": "https://live.staticflickr.com/65535/48078040766_e2bd550c99_n.jpg",
    "id_album": "-768622073",
    "description": "Original_846504",
    "title": "Original_846504",
    "link_img": "https://live.staticflickr.com/65535/48078040766_acee7f2466_o.jpg",
    "id_image": "Original_846504",
    "count_view": 0
  },
  {
    "link_thumb": "https://live.staticflickr.com/65535/48078075628_4a19c0192e_n.jpg",
    "id_album": "-768622073",
    "description": "Original_846520",
    "title": "Original_846520",
    "link_img": "https://live.staticflickr.com/65535/48078075628_f53551d075_o.jpg",
    "id_image": "Original_846520",
    "count_view": 0
  },
  {
    "link_thumb": "https://live.staticflickr.com/65535/48078080878_bcdf4f0839_n.jpg",
    "id_album": "-768622073",
    "description": "Original_846552",
    "title": "Original_846552",
    "link_img": "https://live.staticflickr.com/65535/48078080878_08683fe018_o.jpg",
    "id_image": "Original_846552",
    "count_view": 0
  },
  {
    "link_thumb": "https://live.staticflickr.com/65535/48078082093_0d9b6d379e_n.jpg",
    "id_album": "-768622073",
    "description": "Original_846568",
    "title": "Original_846568",
    "link_img": "https://live.staticflickr.com/65535/48078082093_58eebe4bd7_o.jpg",
    "id_image": "Original_846568",
    "count_view": 0
  },
  {
    "link_thumb": "https://live.staticflickr.com/65535/48078082318_f4ebc0b694_n.jpg",
    "id_album": "-768622073",
    "description": "Original_846569",
    "title": "Original_846569",
    "link_img": "https://live.staticflickr.com/65535/48078082318_2955b6be50_o.jpg",
    "id_image": "Original_846569",
    "count_view": 0
  },
  {
    "link_thumb": "https://live.staticflickr.com/65535/48078151087_404de4c184_n.jpg",
    "id_album": "-768622073",
    "description": "Original_846582",
    "title": "Original_846582",
    "link_img": "https://live.staticflickr.com/65535/48078151087_a683dd8a85_o.jpg",
    "id_image": "Original_846582",
    "count_view": 0
  },
  {
    "link_thumb": "https://live.staticflickr.com/65535/48078151277_abc7beb4ba_n.jpg",
    "id_album": "-768622073",
    "description": "Original_846583",
    "title": "Original_846583",
    "link_img": "https://live.staticflickr.com/65535/48078151277_c442b94e35_o.jpg",
    "id_image": "Original_846583",
    "count_view": 0
  },
  {
    "link_thumb": "https://live.staticflickr.com/65535/48078153132_8533984124_n.jpg",
    "id_album": "-768622073",
    "description": "Original_846610",
    "title": "Original_846610",
    "link_img": "https://live.staticflickr.com/65535/48078153132_52fef6ab47_o.jpg",
    "id_image": "Original_846610",
    "count_view": 0
  },
  {
    "link_thumb": "https://live.staticflickr.com/65535/48078055036_4018d782e2_n.jpg",
    "id_album": "-768622073",
    "description": "Original_846616",
    "title": "Original_846616",
    "link_img": "https://live.staticflickr.com/65535/48078055036_edbc2e09dd_o.jpg",
    "id_image": "Original_846616",
    "count_view": 0
  },
  {
    "link_thumb": "https://live.staticflickr.com/65535/48078086508_e31f818c81_n.jpg",
    "id_album": "-768622073",
    "description": "Original_846618",
    "title": "Original_846618",
    "link_img": "https://live.staticflickr.com/65535/48078086508_9abef1eff2_o.jpg",
    "id_image": "Original_846618",
    "count_view": 0
  },
  {
    "link_thumb": "https://live.staticflickr.com/65535/48078063976_d8d0fc4be0_n.jpg",
    "id_album": "-768622073",
    "description": "Original_846845",
    "title": "Original_846845",
    "link_img": "https://live.staticflickr.com/65535/48078063976_67460b3e3c_o.jpg",
    "id_image": "Original_846845",
    "count_view": 0
  },
  {
    "link_thumb": "https://live.staticflickr.com/65535/48078064621_3aa7499261_n.jpg",
    "id_album": "-768622073",
    "description": "Original_846849",
    "title": "Original_846849",
    "link_img": "https://live.staticflickr.com/65535/48078064621_a0d9afeaa0_o.jpg",
    "id_image": "Original_846849",
    "count_view": 0
  },
  {
    "link_thumb": "https://live.staticflickr.com/65535/48078164587_6e58ddf278_n.jpg",
    "id_album": "-768622073",
    "description": "Original_846968",
    "title": "Original_846968",
    "link_img": "https://live.staticflickr.com/65535/48078164587_29ef194a45_o.jpg",
    "id_image": "Original_846968",
    "count_view": 0
  },
  {
    "link_thumb": "https://live.staticflickr.com/65535/48078098063_5a6447d1d3_n.jpg",
    "id_album": "-768622073",
    "description": "Original_846974",
    "title": "Original_846974",
    "link_img": "https://live.staticflickr.com/65535/48078098063_d7751305e1_o.jpg",
    "id_image": "Original_846974",
    "count_view": 0
  },
  {
    "link_thumb": "https://live.staticflickr.com/65535/48078070441_bbcbb1d575_n.jpg",
    "id_album": "-768622073",
    "description": "Original_847003",
    "title": "Original_847003",
    "link_img": "https://live.staticflickr.com/65535/48078070441_e991409455_o.jpg",
    "id_image": "Original_847003",
    "count_view": 0
  },
  {
    "link_thumb": "https://live.staticflickr.com/65535/48078071561_3442e67f3d_n.jpg",
    "id_album": "-768622073",
    "description": "Original_847012",
    "title": "Original_847012",
    "link_img": "https://live.staticflickr.com/65535/48078071561_56b2ba81ce_o.jpg",
    "id_image": "Original_847012",
    "count_view": 0
  },
  {
    "link_thumb": "https://live.staticflickr.com/65535/48078081256_306dda4244_n.jpg",
    "id_album": "-768622073",
    "description": "Original_847110",
    "title": "Original_847110",
    "link_img": "https://live.staticflickr.com/65535/48078081256_8427150d53_o.jpg",
    "id_image": "Original_847110",
    "count_view": 0
  },
  {
    "link_thumb": "https://live.staticflickr.com/65535/48078112183_47b4dac2fe_n.jpg",
    "id_album": "-768622073",
    "description": "Original_847174",
    "title": "Original_847174",
    "link_img": "https://live.staticflickr.com/65535/48078112183_47de08efe5_o.jpg",
    "id_image": "Original_847174",
    "count_view": 0
  },
  {
    "link_thumb": "https://live.staticflickr.com/65535/48078084151_30a9b9307d_n.jpg",
    "id_album": "-768622073",
    "description": "Original_847328",
    "title": "Original_847328",
    "link_img": "https://live.staticflickr.com/65535/48078084151_d9f09115e8_o.jpg",
    "id_image": "Original_847328",
    "count_view": 0
  },
  {
    "link_thumb": "https://live.staticflickr.com/65535/48078182137_e85cbdeba2_n.jpg",
    "id_album": "-768622073",
    "description": "Original_847329",
    "title": "Original_847329",
    "link_img": "https://live.staticflickr.com/65535/48078182137_4c1c410cac_o.jpg",
    "id_image": "Original_847329",
    "count_view": 0
  },
  {
    "link_thumb": "https://live.staticflickr.com/65535/48078116668_4487bae370_n.jpg",
    "id_album": "-768622073",
    "description": "Original_847420",
    "title": "Original_847420",
    "link_img": "https://live.staticflickr.com/65535/48078116668_9e58b9d77a_o.jpg",
    "id_image": "Original_847420",
    "count_view": 0
  },
  {
    "link_thumb": "https://live.staticflickr.com/65535/48078116908_c653c35811_n.jpg",
    "id_album": "-768622073",
    "description": "Original_847421",
    "title": "Original_847421",
    "link_img": "https://live.staticflickr.com/65535/48078116908_3dfd6bdd51_o.jpg",
    "id_image": "Original_847421",
    "count_view": 0
  },
  {
    "link_thumb": "https://live.staticflickr.com/65535/48078117913_aaeab48708_n.jpg",
    "id_album": "-768622073",
    "description": "Original_847436",
    "title": "Original_847436",
    "link_img": "https://live.staticflickr.com/65535/48078117913_9de6b61238_o.jpg",
    "id_image": "Original_847436",
    "count_view": 0
  },
  {
    "link_thumb": "https://live.staticflickr.com/65535/48078185677_96b5f83ce5_n.jpg",
    "id_album": "-768622073",
    "description": "Original_847468",
    "title": "Original_847468",
    "link_img": "https://live.staticflickr.com/65535/48078185677_55e50b3f73_o.jpg",
    "id_image": "Original_847468",
    "count_view": 0
  },
  {
    "link_thumb": "https://live.staticflickr.com/65535/48078120883_93b48398ec_n.jpg",
    "id_album": "-768622073",
    "description": "Original_847492",
    "title": "Original_847492",
    "link_img": "https://live.staticflickr.com/65535/48078120883_84748c4a1b_o.jpg",
    "id_image": "Original_847492",
    "count_view": 0
  },
  {
    "link_thumb": "https://live.staticflickr.com/65535/48078133833_716968de0b_n.jpg",
    "id_album": "-768622073",
    "description": "Original_847629",
    "title": "Original_847629",
    "link_img": "https://live.staticflickr.com/65535/48078133833_b3be6f2fd8_o.jpg",
    "id_image": "Original_847629",
    "count_view": 0
  },
  {
    "link_thumb": "https://live.staticflickr.com/65535/48078136428_c1772f2964_n.jpg",
    "id_album": "-768622073",
    "description": "Original_847668",
    "title": "Original_847668",
    "link_img": "https://live.staticflickr.com/65535/48078136428_f96edf429b_o.jpg",
    "id_image": "Original_847668",
    "count_view": 0
  },
  {
    "link_thumb": "https://live.staticflickr.com/65535/48078203607_da60578765_n.jpg",
    "id_album": "-768622073",
    "description": "Original_847676",
    "title": "Original_847676",
    "link_img": "https://live.staticflickr.com/65535/48078203607_3b6b4afda7_o.jpg",
    "id_image": "Original_847676",
    "count_view": 0
  },
  {
    "link_thumb": "https://live.staticflickr.com/65535/48078117311_d38a181168_n.jpg",
    "id_album": "-768622073",
    "description": "Original_847755",
    "title": "Original_847755",
    "link_img": "https://live.staticflickr.com/65535/48078117311_ca26c01727_o.jpg",
    "id_image": "Original_847755",
    "count_view": 0
  },
  {
    "link_thumb": "https://live.staticflickr.com/65535/48078117986_4d746cb360_n.jpg",
    "id_album": "-768622073",
    "description": "Original_847757",
    "title": "Original_847757",
    "link_img": "https://live.staticflickr.com/65535/48078117986_a171d7c816_o.jpg",
    "id_image": "Original_847757",
    "count_view": 0
  },
  {
    "link_thumb": "https://live.staticflickr.com/65535/48078216002_b6ff8fa417_n.jpg",
    "id_album": "-768622073",
    "description": "Original_847758",
    "title": "Original_847758",
    "link_img": "https://live.staticflickr.com/65535/48078216002_785967fef6_o.jpg",
    "id_image": "Original_847758",
    "count_view": 0
  },
  {
    "link_thumb": "https://live.staticflickr.com/65535/48078150248_3ceee4b2cc_n.jpg",
    "id_album": "-768622073",
    "description": "Original_847761",
    "title": "Original_847761",
    "link_img": "https://live.staticflickr.com/65535/48078150248_ab85720a5c_o.jpg",
    "id_image": "Original_847761",
    "count_view": 0
  },
  {
    "link_thumb": "https://live.staticflickr.com/65535/48078119921_1e92aa64ec_n.jpg",
    "id_album": "-768622073",
    "description": "Original_847763",
    "title": "Original_847763",
    "link_img": "https://live.staticflickr.com/65535/48078119921_7728930586_o.jpg",
    "id_image": "Original_847763",
    "count_view": 0
  },
  {
    "link_thumb": "https://live.staticflickr.com/65535/48078219357_f2706e1e4e_n.jpg",
    "id_album": "-768622073",
    "description": "Original_847768",
    "title": "Original_847768",
    "link_img": "https://live.staticflickr.com/65535/48078219357_153c76c319_o.jpg",
    "id_image": "Original_847768",
    "count_view": 0
  },
  {
    "link_thumb": "https://live.staticflickr.com/65535/48078223932_3fd889d65c_n.jpg",
    "id_album": "-768622073",
    "description": "Original_847855",
    "title": "Original_847855",
    "link_img": "https://live.staticflickr.com/65535/48078223932_afe082ec85_o.jpg",
    "id_image": "Original_847855",
    "count_view": 0
  },
  {
    "link_thumb": "https://live.staticflickr.com/65535/48078157463_90e7353652_n.jpg",
    "id_album": "-768622073",
    "description": "Original_847858",
    "title": "Original_847858",
    "link_img": "https://live.staticflickr.com/65535/48078157463_79fd0a1e0f_o.jpg",
    "id_image": "Original_847858",
    "count_view": 0
  },
  {
    "link_thumb": "https://live.staticflickr.com/65535/48078157718_48e8d2fc27_n.jpg",
    "id_album": "-768622073",
    "description": "Original_847859",
    "title": "Original_847859",
    "link_img": "https://live.staticflickr.com/65535/48078157718_dd625d691e_o.jpg",
    "id_image": "Original_847859",
    "count_view": 0
  },
  {
    "link_thumb": "https://live.staticflickr.com/65535/48078237402_fff18ce769_n.jpg",
    "id_album": "-768622073",
    "description": "Original_848021",
    "title": "Original_848021",
    "link_img": "https://live.staticflickr.com/65535/48078237402_b9484edb13_o.jpg",
    "id_image": "Original_848021",
    "count_view": 0
  },
  {
    "link_thumb": "https://live.staticflickr.com/65535/48078243352_6dd8ca85cf_n.jpg",
    "id_album": "-768622073",
    "description": "Original_848069",
    "title": "Original_848069",
    "link_img": "https://live.staticflickr.com/65535/48078243352_449cdf1939_o.jpg",
    "id_image": "Original_848069",
    "count_view": 0
  },
  {
    "link_thumb": "https://live.staticflickr.com/65535/48078182543_7be6d3db44_n.jpg",
    "id_album": "-768622073",
    "description": "Original_848258",
    "title": "Original_848258",
    "link_img": "https://live.staticflickr.com/65535/48078182543_d24db9275e_o.jpg",
    "id_image": "Original_848258",
    "count_view": 0
  },
  {
    "link_thumb": "https://live.staticflickr.com/65535/48078155891_05332692c3_n.jpg",
    "id_album": "-768622073",
    "description": "Original_848352",
    "title": "Original_848352",
    "link_img": "https://live.staticflickr.com/65535/48078155891_e84e67ec4a_o.jpg",
    "id_image": "Original_848352",
    "count_view": 0
  },
  {
    "link_thumb": "https://live.staticflickr.com/65535/48078158661_3eb4bcec91_n.jpg",
    "id_album": "-768622073",
    "description": "Original_848454",
    "title": "Original_848454",
    "link_img": "https://live.staticflickr.com/65535/48078158661_91c82cbc39_o.jpg",
    "id_image": "Original_848454",
    "count_view": 0
  },
  {
    "link_thumb": "https://live.staticflickr.com/65535/48078258627_cfdf00097b_n.jpg",
    "id_album": "-768622073",
    "description": "Original_848461",
    "title": "Original_848461",
    "link_img": "https://live.staticflickr.com/65535/48078258627_32fce52d86_o.jpg",
    "id_image": "Original_848461",
    "count_view": 0
  }
]