[
  {
    "link_thumb": "https://live.staticflickr.com/65535/51568288805_c7d7324f63_n.jpg",
    "id_album": "-1029026589",
    "description": "ANIME_PIC_93a62c9fc24536a7fed81baf761691ef,[Sad],[isGirlAnime],[isCuteAnime],[isGirlsHatsHoodieAnime],[isGirlsLoliAnime],[isSadAnimeGirl],[isSadAnime]",
    "title": "ANIME_PIC_93a62c9fc24536a7fed81baf761691ef",
    "link_img": "https://live.staticflickr.com/65535/51568288805_147692a808_o.jpg",
    "id_image": "ANIME_PIC_93a62c9fc24536a7fed81baf761691ef",
    "count_view": 0
  },
  {
    "link_thumb": "https://live.staticflickr.com/65535/51567353571_9041a07daa_n.jpg",
    "id_album": "-1029026589",
    "description": "ANIME_PIC_93b274b8a05321644b6cb2c6baf51da2,[Sad],[isGirlAnime],[isCuteAnime],[isSadAnimeGirl],[isSadAnime]",
    "title": "ANIME_PIC_93b274b8a05321644b6cb2c6baf51da2",
    "link_img": "https://live.staticflickr.com/65535/51567353571_c71e619ceb_o.jpg",
    "id_image": "ANIME_PIC_93b274b8a05321644b6cb2c6baf51da2",
    "count_view": 0
  },
  {
    "link_thumb": "https://live.staticflickr.com/65535/51567353811_b59c250c5c_n.jpg",
    "id_album": "-1029026589",
    "description": "ANIME_PIC_93e24b0fa5a3cf4e88a37a0da6886d90,[Sad],[isGirlAnime],[isCuteAnime],[isSadAnimeGirl],[isSadAnime]",
    "title": "ANIME_PIC_93e24b0fa5a3cf4e88a37a0da6886d90",
    "link_img": "https://live.staticflickr.com/65535/51567353811_fa785e7b8c_o.png",
    "id_image": "ANIME_PIC_93e24b0fa5a3cf4e88a37a0da6886d90",
    "count_view": 0
  },
  {
    "link_thumb": "https://live.staticflickr.com/65535/51566559572_25859f51ed_n.jpg",
    "id_album": "-1029026589",
    "description": "ANIME_PIC_93f2971fa528b503df9d9f4586410a00,[Sad],[isGirlAnime],[isSadAnimeGirl],[isSadAnime]",
    "title": "ANIME_PIC_93f2971fa528b503df9d9f4586410a00",
    "link_img": "https://live.staticflickr.com/65535/51566559572_572faf38e1_o.jpg",
    "id_image": "ANIME_PIC_93f2971fa528b503df9d9f4586410a00",
    "count_view": 0
  },
  {
    "link_thumb": "https://live.staticflickr.com/65535/51568043144_df06130a50_n.jpg",
    "id_album": "-1029026589",
    "description": "ANIME_PIC_93f5ce459465dac28dbae26937bb07ce,[Sad],[isGirlAnime],[isCuteAnime],[isSadAnimeGirl],[isSadAnime]",
    "title": "ANIME_PIC_93f5ce459465dac28dbae26937bb07ce",
    "link_img": "https://live.staticflickr.com/65535/51568043144_f5f1aed576_o.jpg",
    "id_image": "ANIME_PIC_93f5ce459465dac28dbae26937bb07ce",
    "count_view": 0
  },
  {
    "link_thumb": "https://live.staticflickr.com/65535/51566559992_015c325b1e_n.jpg",
    "id_album": "-1029026589",
    "description": "ANIME_PIC_94029e5dc22ed6ed278cd72242d8ef73,[Sad],[isGirlAnime],[isCuteAnime],[isSadAnimeGirl],[isSadAnime]",
    "title": "ANIME_PIC_94029e5dc22ed6ed278cd72242d8ef73",
    "link_img": "https://live.staticflickr.com/65535/51566559992_74198c51c2_o.jpg",
    "id_image": "ANIME_PIC_94029e5dc22ed6ed278cd72242d8ef73",
    "count_view": 0
  },
  {
    "link_thumb": "https://live.staticflickr.com/65535/51568043524_bf9457db55_n.jpg",
    "id_album": "-1029026589",
    "description": "ANIME_PIC_940e6712e31f2b82c08aaf753cc5f42f,[Sad],[isGirlAnime],[isCuteAnime],[isSadAnimeGirl],[isSadAnime]",
    "title": "ANIME_PIC_940e6712e31f2b82c08aaf753cc5f42f",
    "link_img": "https://live.staticflickr.com/65535/51568043524_eb0413066e_o.png",
    "id_image": "ANIME_PIC_940e6712e31f2b82c08aaf753cc5f42f",
    "count_view": 0
  },
  {
    "link_thumb": "https://live.staticflickr.com/65535/51567355036_41f016ee96_n.jpg",
    "id_album": "-1029026589",
    "description": "ANIME_PIC_940f50fad0deaca26ec2ba74acfb1371,[Sad],[isGirlAnime],[isCuteAnime],[isSadAnimeGirl],[isSadAnime]",
    "title": "ANIME_PIC_940f50fad0deaca26ec2ba74acfb1371",
    "link_img": "https://live.staticflickr.com/65535/51567355036_eec8201dca_o.png",
    "id_image": "ANIME_PIC_940f50fad0deaca26ec2ba74acfb1371",
    "count_view": 0
  },
  {
    "link_thumb": "https://live.staticflickr.com/65535/51568291335_3523c9410e_n.jpg",
    "id_album": "-1029026589",
    "description": "ANIME_PIC_941e42013fbb4793b4e2f7997b58aa19,[Sad],[isGirlAnime],[isCuteAnime],[isGirlsLoliAnime],[isSadAnimeGirl],[isSadAnime]",
    "title": "ANIME_PIC_941e42013fbb4793b4e2f7997b58aa19",
    "link_img": "https://live.staticflickr.com/65535/51568291335_c05a9ddefe_o.jpg",
    "id_image": "ANIME_PIC_941e42013fbb4793b4e2f7997b58aa19",
    "count_view": 0
  },
  {
    "link_thumb": "https://live.staticflickr.com/65535/51567355961_8607e713ab_n.jpg",
    "id_album": "-1029026589",
    "description": "ANIME_PIC_9431b33f54401b4449adf5465f94baa1,[Sad],[isGirlAnime],[isCuteAnime],[isGirlsHornsAnime],[isGirlsLoliAnime],[isSadAnimeGirl],[isSadAnime]",
    "title": "ANIME_PIC_9431b33f54401b4449adf5465f94baa1",
    "link_img": "https://live.staticflickr.com/65535/51567355961_69e2ee8996_o.jpg",
    "id_image": "ANIME_PIC_9431b33f54401b4449adf5465f94baa1",
    "count_view": 0
  },
  {
    "link_thumb": "https://live.staticflickr.com/65535/51568045044_16272a49c1_n.jpg",
    "id_album": "-1029026589",
    "description": "ANIME_PIC_943a0d58a5aa36ffd38352de1e62a6ac,[Sad],[isGirlAnime],[isGirlEarsNekoAnime],[isSadAnimeGirl],[isSadAnime]",
    "title": "ANIME_PIC_943a0d58a5aa36ffd38352de1e62a6ac",
    "link_img": "https://live.staticflickr.com/65535/51568045044_c539ec14ff_o.jpg",
    "id_image": "ANIME_PIC_943a0d58a5aa36ffd38352de1e62a6ac",
    "count_view": 0
  },
  {
    "link_thumb": "https://live.staticflickr.com/65535/51568045249_01c77905d7_n.jpg",
    "id_album": "-1029026589",
    "description": "ANIME_PIC_943aedd2c6d3fc330d084d63e34a1a20,[Sad],[isGirlAnime],[isCuteAnime],[isGirlsLoliAnime],[isSadAnimeGirl],[isSadAnime]",
    "title": "ANIME_PIC_943aedd2c6d3fc330d084d63e34a1a20",
    "link_img": "https://live.staticflickr.com/65535/51568045249_a4d0a06fc6_o.png",
    "id_image": "ANIME_PIC_943aedd2c6d3fc330d084d63e34a1a20",
    "count_view": 0
  },
  {
    "link_thumb": "https://live.staticflickr.com/65535/51568045589_44864005dc_n.jpg",
    "id_album": "-1029026589",
    "description": "ANIME_PIC_943be762d6af31932f23b4cbfd8f9b60,[Sad],[isGirlAnime],[isCuteAnime],[isSadAnimeGirl],[isSadAnime]",
    "title": "ANIME_PIC_943be762d6af31932f23b4cbfd8f9b60",
    "link_img": "https://live.staticflickr.com/65535/51568045589_cdabc1b70f_o.png",
    "id_image": "ANIME_PIC_943be762d6af31932f23b4cbfd8f9b60",
    "count_view": 0
  },
  {
    "link_thumb": "https://live.staticflickr.com/65535/51568045849_e509162cfe_n.jpg",
    "id_album": "-1029026589",
    "description": "ANIME_PIC_943fc8df9d6b6815991bd69fefda377e,[Sad],[isGirlAnime],[isCuteAnime],[isSadAnimeGirl],[isSadAnime]",
    "title": "ANIME_PIC_943fc8df9d6b6815991bd69fefda377e",
    "link_img": "https://live.staticflickr.com/65535/51568045849_6e1945f004_o.jpg",
    "id_image": "ANIME_PIC_943fc8df9d6b6815991bd69fefda377e",
    "count_view": 0
  },
  {
    "link_thumb": "https://live.staticflickr.com/65535/51568046024_d5e818e5f8_n.jpg",
    "id_album": "-1029026589",
    "description": "ANIME_PIC_944668fc558e8c4068efe8324cbe1186,[Sad],[isGirlAnime],[isCuteAnime],[isGirlsLoliAnime],[isSadAnimeGirl],[isSadAnime]",
    "title": "ANIME_PIC_944668fc558e8c4068efe8324cbe1186",
    "link_img": "https://live.staticflickr.com/65535/51568046024_7634267151_o.jpg",
    "id_image": "ANIME_PIC_944668fc558e8c4068efe8324cbe1186",
    "count_view": 0
  },
  {
    "link_thumb": "https://live.staticflickr.com/65535/51568292910_cec7079e6e_n.jpg",
    "id_album": "-1029026589",
    "description": "ANIME_PIC_944b9d0f40d19dd4ae0e990e5e3039e5,[Sad],[isGirlAnime],[isCuteAnime],[isGirlsLoliAnime],[isSadAnimeGirl],[isSadAnime]",
    "title": "ANIME_PIC_944b9d0f40d19dd4ae0e990e5e3039e5",
    "link_img": "https://live.staticflickr.com/65535/51568292910_2fa5e71531_o.jpg",
    "id_image": "ANIME_PIC_944b9d0f40d19dd4ae0e990e5e3039e5",
    "count_view": 0
  },
  {
    "link_thumb": "https://live.staticflickr.com/65535/51568046494_80e0c66415_n.jpg",
    "id_album": "-1029026589",
    "description": "ANIME_PIC_945987b1d944aadfbaa229e5b0acd705,[Sad],[isGirlAnime],[isCuteAnime],[isSadAnimeGirl],[isSadAnime]",
    "title": "ANIME_PIC_945987b1d944aadfbaa229e5b0acd705",
    "link_img": "https://live.staticflickr.com/65535/51568046494_523c9d0240_o.jpg",
    "id_image": "ANIME_PIC_945987b1d944aadfbaa229e5b0acd705",
    "count_view": 0
  },
  {
    "link_thumb": "https://live.staticflickr.com/65535/51566563217_7a56c479ed_n.jpg",
    "id_album": "-1029026589",
    "description": "ANIME_PIC_945e2d8ac9535ef99c5dc2eb18463bca,[Sad],[isGirlAnime],[isCuteAnime],[isSadAnimeGirl],[isSadAnime]",
    "title": "ANIME_PIC_945e2d8ac9535ef99c5dc2eb18463bca",
    "link_img": "https://live.staticflickr.com/65535/51566563217_7f5d8ed532_o.jpg",
    "id_image": "ANIME_PIC_945e2d8ac9535ef99c5dc2eb18463bca",
    "count_view": 0
  },
  {
    "link_thumb": "https://live.staticflickr.com/65535/51568293645_24451f0e86_n.jpg",
    "id_album": "-1029026589",
    "description": "ANIME_PIC_94657175fe3f7415c67fad8be7bbce31,[Sad],[isGirlAnime],[isCuteAnime],[isGirlsLoliAnime],[isSadAnimeGirl],[isSadAnime]",
    "title": "ANIME_PIC_94657175fe3f7415c67fad8be7bbce31",
    "link_img": "https://live.staticflickr.com/65535/51568293645_2c6f650fb6_o.jpg",
    "id_image": "ANIME_PIC_94657175fe3f7415c67fad8be7bbce31",
    "count_view": 0
  },
  {
    "link_thumb": "https://live.staticflickr.com/65535/51567602488_c3674b34ee_n.jpg",
    "id_album": "-1029026589",
    "description": "ANIME_PIC_9467648f95cadb9a610b7e7a6d812595,[Sad],[isGirlAnime],[isCuteAnime],[isSadAnimeGirl],[isSadAnime]",
    "title": "ANIME_PIC_9467648f95cadb9a610b7e7a6d812595",
    "link_img": "https://live.staticflickr.com/65535/51567602488_cc93cec339_o.jpg",
    "id_image": "ANIME_PIC_9467648f95cadb9a610b7e7a6d812595",
    "count_view": 0
  },
  {
    "link_thumb": "https://live.staticflickr.com/65535/51568047444_ca9d785534_n.jpg",
    "id_album": "-1029026589",
    "description": "ANIME_PIC_947ca2a32c85b557e9bfeb1f296185ec,[Sad],[isGirlAnime],[isCuteAnime],[isSadAnimeGirl],[isSadAnime]",
    "title": "ANIME_PIC_947ca2a32c85b557e9bfeb1f296185ec",
    "link_img": "https://live.staticflickr.com/65535/51568047444_faba5c6ef9_o.jpg",
    "id_image": "ANIME_PIC_947ca2a32c85b557e9bfeb1f296185ec",
    "count_view": 0
  },
  {
    "link_thumb": "https://live.staticflickr.com/65535/51566564082_8c788179b7_n.jpg",
    "id_album": "-1029026589",
    "description": "ANIME_PIC_94a1a59a90665d3af00a845f0ff63b11,[Sad],[isGirlAnime],[isCuteAnime],[isGirlsLoliAnime],[isSadAnimeGirl],[isSadAnime]",
    "title": "ANIME_PIC_94a1a59a90665d3af00a845f0ff63b11",
    "link_img": "https://live.staticflickr.com/65535/51566564082_1468722c82_o.png",
    "id_image": "ANIME_PIC_94a1a59a90665d3af00a845f0ff63b11",
    "count_view": 0
  },
  {
    "link_thumb": "https://live.staticflickr.com/65535/51568048149_257b04c78b_n.jpg",
    "id_album": "-1029026589",
    "description": "ANIME_PIC_94c2d41ab9624993f3010eae9e8d7d46,[Sad],[isGirlAnime],[isCuteAnime],[isGirlsLoliAnime],[isSadAnimeGirl],[isSadAnime]",
    "title": "ANIME_PIC_94c2d41ab9624993f3010eae9e8d7d46",
    "link_img": "https://live.staticflickr.com/65535/51568048149_a508db99d5_o.jpg",
    "id_image": "ANIME_PIC_94c2d41ab9624993f3010eae9e8d7d46",
    "count_view": 0
  },
  {
    "link_thumb": "https://live.staticflickr.com/65535/51566564702_8b998eb978_n.jpg",
    "id_album": "-1029026589",
    "description": "ANIME_PIC_94c91ecbd10a82c6935e6c0368517cfe,[Sad],[isGirlAnime],[isCuteAnime],[isGirlsHatsHoodieAnime],[isGirlsLoliAnime],[isSadAnimeGirl],[isSadAnime]",
    "title": "ANIME_PIC_94c91ecbd10a82c6935e6c0368517cfe",
    "link_img": "https://live.staticflickr.com/65535/51566564702_257737fc11_o.jpg",
    "id_image": "ANIME_PIC_94c91ecbd10a82c6935e6c0368517cfe",
    "count_view": 0
  },
  {
    "link_thumb": "https://live.staticflickr.com/65535/51567603873_c3a8cd3ae5_n.jpg",
    "id_album": "-1029026589",
    "description": "ANIME_PIC_94c92970009ad3294716aa2a42aac6ff,[Sad],[isGirlAnime],[isCuteAnime],[isGirlsLoliAnime],[isSadAnimeGirl],[isSadAnime]",
    "title": "ANIME_PIC_94c92970009ad3294716aa2a42aac6ff",
    "link_img": "https://live.staticflickr.com/65535/51567603873_9f44aed7ab_o.png",
    "id_image": "ANIME_PIC_94c92970009ad3294716aa2a42aac6ff",
    "count_view": 0
  },
  {
    "link_thumb": "https://live.staticflickr.com/65535/51568295425_8240711369_n.jpg",
    "id_album": "-1029026589",
    "description": "ANIME_PIC_94cd0aedf167d62a33028473bab98488,[Sad],[isGirlAnime],[isCuteAnime],[isBlackAnime],[isSadAnimeGirl],[isSadAnime]",
    "title": "ANIME_PIC_94cd0aedf167d62a33028473bab98488",
    "link_img": "https://live.staticflickr.com/65535/51568295425_7e97d769ce_o.jpg",
    "id_image": "ANIME_PIC_94cd0aedf167d62a33028473bab98488",
    "count_view": 0
  },
  {
    "link_thumb": "https://live.staticflickr.com/65535/51566565352_9fd05411cc_n.jpg",
    "id_album": "-1029026589",
    "description": "ANIME_PIC_9506eac280efc39a85621b93f73ec804,[Sad],[isGirlAnime],[isCuteAnime],[isSadAnimeGirl],[isSadAnime]",
    "title": "ANIME_PIC_9506eac280efc39a85621b93f73ec804",
    "link_img": "https://live.staticflickr.com/65535/51566565352_2d93195902_o.jpg",
    "id_image": "ANIME_PIC_9506eac280efc39a85621b93f73ec804",
    "count_view": 0
  },
  {
    "link_thumb": "https://live.staticflickr.com/65535/51567360326_e7c38131b8_n.jpg",
    "id_album": "-1029026589",
    "description": "ANIME_PIC_95166422f656eec82ca9b59d186436dc,[Sad],[isGirlAnime],[isCuteAnime],[isGirlEarsNekoAnime],[isGirlsHatsHoodieAnime],[isGirlsLoliAnime],[isSadAnimeGirl],[isSadAnime]",
    "title": "ANIME_PIC_95166422f656eec82ca9b59d186436dc",
    "link_img": "https://live.staticflickr.com/65535/51567360326_cd2e04e148_o.png",
    "id_image": "ANIME_PIC_95166422f656eec82ca9b59d186436dc",
    "count_view": 0
  },
  {
    "link_thumb": "https://live.staticflickr.com/65535/51566565757_4c65c9e61a_n.jpg",
    "id_album": "-1029026589",
    "description": "ANIME_PIC_95202bd988d6c1f7f4a48decd0b7b9b2,[Sad],[isGirlAnime],[isSadAnimeGirl],[isSadAnime]",
    "title": "ANIME_PIC_95202bd988d6c1f7f4a48decd0b7b9b2",
    "link_img": "https://live.staticflickr.com/65535/51566565757_2d6bf8ee03_o.jpg",
    "id_image": "ANIME_PIC_95202bd988d6c1f7f4a48decd0b7b9b2",
    "count_view": 0
  },
  {
    "link_thumb": "https://live.staticflickr.com/65535/51568296390_60e8b05c65_n.jpg",
    "id_album": "-1029026589",
    "description": "ANIME_PIC_952ae4269a661df8366736ebe88df96a,[Sad],[isGirlAnime],[isCuteAnime],[isGirlsLoliAnime],[isSadAnimeGirl],[isSadAnime]",
    "title": "ANIME_PIC_952ae4269a661df8366736ebe88df96a",
    "link_img": "https://live.staticflickr.com/65535/51568296390_938eeceed3_o.jpg",
    "id_image": "ANIME_PIC_952ae4269a661df8366736ebe88df96a",
    "count_view": 0
  },
  {
    "link_thumb": "https://live.staticflickr.com/65535/51567605273_5565451020_n.jpg",
    "id_album": "-1029026589",
    "description": "ANIME_PIC_95397d64261075a4ca8b285078965626,[Sad],[isGirlAnime],[isCuteAnime],[isSadAnimeGirl],[isSadAnime]",
    "title": "ANIME_PIC_95397d64261075a4ca8b285078965626",
    "link_img": "https://live.staticflickr.com/65535/51567605273_38a0baa2fc_o.jpg",
    "id_image": "ANIME_PIC_95397d64261075a4ca8b285078965626",
    "count_view": 0
  },
  {
    "link_thumb": "https://live.staticflickr.com/65535/51566566432_dd32c29414_n.jpg",
    "id_album": "-1029026589",
    "description": "ANIME_PIC_9542a3c4ffc5109c5ae0c4512b1eb35d,[Sad],[isGirlAnime],[isCuteAnime],[isGirlEarsNekoAnime],[isSadAnimeGirl],[isSadAnime]",
    "title": "ANIME_PIC_9542a3c4ffc5109c5ae0c4512b1eb35d",
    "link_img": "https://live.staticflickr.com/65535/51566566432_a3c7a98e73_o.jpg",
    "id_image": "ANIME_PIC_9542a3c4ffc5109c5ae0c4512b1eb35d",
    "count_view": 0
  },
  {
    "link_thumb": "https://live.staticflickr.com/65535/51567605588_bee64c74d0_n.jpg",
    "id_album": "-1029026589",
    "description": "ANIME_PIC_955d9aa0a9526a0a08f55771489a099e,[Sad],[isGirlAnime],[isCuteAnime],[isGirlsLoliAnime],[isSadAnimeGirl],[isSadAnime]",
    "title": "ANIME_PIC_955d9aa0a9526a0a08f55771489a099e",
    "link_img": "https://live.staticflickr.com/65535/51567605588_26d9863961_o.jpg",
    "id_image": "ANIME_PIC_955d9aa0a9526a0a08f55771489a099e",
    "count_view": 0
  },
  {
    "link_thumb": "https://live.staticflickr.com/65535/51568050394_b807778982_n.jpg",
    "id_album": "-1029026589",
    "description": "ANIME_PIC_956307a7da187bf6c8a2c29bf08de84d,[Sad],[isGirlAnime],[isCuteAnime],[isGirlsHatsHoodieAnime],[isSadAnimeGirl],[isSadAnime]",
    "title": "ANIME_PIC_956307a7da187bf6c8a2c29bf08de84d",
    "link_img": "https://live.staticflickr.com/65535/51568050394_9b7097400f_o.jpg",
    "id_image": "ANIME_PIC_956307a7da187bf6c8a2c29bf08de84d",
    "count_view": 0
  },
  {
    "link_thumb": "https://live.staticflickr.com/65535/51566567222_439a7a5dcf_n.jpg",
    "id_album": "-1029026589",
    "description": "ANIME_PIC_9569a5f603043b520a435477a94bc231,[Sad],[isGirlAnime],[isCuteAnime],[isSadAnimeGirl],[isSadAnime]",
    "title": "ANIME_PIC_9569a5f603043b520a435477a94bc231",
    "link_img": "https://live.staticflickr.com/65535/51566567222_6ab488336d_o.jpg",
    "id_image": "ANIME_PIC_9569a5f603043b520a435477a94bc231",
    "count_view": 0
  },
  {
    "link_thumb": "https://live.staticflickr.com/65535/51566567417_e6a0b0372d_n.jpg",
    "id_album": "-1029026589",
    "description": "ANIME_PIC_957d1bc52860e126189c4d704a57ac52,[Sad],[isGirlAnime],[isCuteAnime],[isGirlsHatsHoodieAnime],[isGirlsLoliAnime],[isSadAnimeGirl],[isSadAnime]",
    "title": "ANIME_PIC_957d1bc52860e126189c4d704a57ac52",
    "link_img": "https://live.staticflickr.com/65535/51566567417_5525b451fa_o.jpg",
    "id_image": "ANIME_PIC_957d1bc52860e126189c4d704a57ac52",
    "count_view": 0
  },
  {
    "link_thumb": "https://live.staticflickr.com/65535/51567362531_d7ac306ed4_n.jpg",
    "id_album": "-1029026589",
    "description": "ANIME_PIC_95864c5de2651dece6bfb5b156b367fb,[Sad],[isGirlAnime],[isSadAnimeGirl],[isSadAnime]",
    "title": "ANIME_PIC_95864c5de2651dece6bfb5b156b367fb",
    "link_img": "https://live.staticflickr.com/65535/51567362531_b2534ce177_o.jpg",
    "id_image": "ANIME_PIC_95864c5de2651dece6bfb5b156b367fb",
    "count_view": 0
  },
  {
    "link_thumb": "https://live.staticflickr.com/65535/51566567942_24d2d8f8b9_n.jpg",
    "id_album": "-1029026589",
    "description": "ANIME_PIC_95b4242646fd99bcba4332a23cff6d05,[Sad],[isGirlAnime],[isCuteAnime],[isSadAnimeGirl],[isSadAnime]",
    "title": "ANIME_PIC_95b4242646fd99bcba4332a23cff6d05",
    "link_img": "https://live.staticflickr.com/65535/51566567942_25d211d9dd_o.jpg",
    "id_image": "ANIME_PIC_95b4242646fd99bcba4332a23cff6d05",
    "count_view": 0
  },
  {
    "link_thumb": "https://live.staticflickr.com/65535/51568298620_6038a63c6a_n.jpg",
    "id_album": "-1029026589",
    "description": "ANIME_PIC_95b69ea2121c2930e0c474d23dc16ba6,[Sad],[isGirlAnime],[isCuteAnime],[isSadAnimeGirl],[isSadAnime]",
    "title": "ANIME_PIC_95b69ea2121c2930e0c474d23dc16ba6",
    "link_img": "https://live.staticflickr.com/65535/51568298620_51e581230c_o.jpg",
    "id_image": "ANIME_PIC_95b69ea2121c2930e0c474d23dc16ba6",
    "count_view": 0
  },
  {
    "link_thumb": "https://live.staticflickr.com/65535/51567363326_c6953c2e07_n.jpg",
    "id_album": "-1029026589",
    "description": "ANIME_PIC_95cb2a90e086747d51b6b7a97ee4f39a,[Sad],[isGirlAnime],[isCuteAnime],[isSadAnimeGirl],[isSadAnime]",
    "title": "ANIME_PIC_95cb2a90e086747d51b6b7a97ee4f39a",
    "link_img": "https://live.staticflickr.com/65535/51567363326_21c474aed9_o.jpg",
    "id_image": "ANIME_PIC_95cb2a90e086747d51b6b7a97ee4f39a",
    "count_view": 0
  },
  {
    "link_thumb": "https://live.staticflickr.com/65535/51567363761_4a0af70784_n.jpg",
    "id_album": "-1029026589",
    "description": "ANIME_PIC_95d36f8107d3c31dcfb1b19819066be6,[Sad],[isGirlAnime],[isSadAnimeGirl],[isSadAnime]",
    "title": "ANIME_PIC_95d36f8107d3c31dcfb1b19819066be6",
    "link_img": "https://live.staticflickr.com/65535/51567363761_09dc93d663_o.png",
    "id_image": "ANIME_PIC_95d36f8107d3c31dcfb1b19819066be6",
    "count_view": 0
  },
  {
    "link_thumb": "https://live.staticflickr.com/65535/51568052909_1fc44a1d23_n.jpg",
    "id_album": "-1029026589",
    "description": "ANIME_PIC_95ec7803f595b7536157ed5734448063,[Sad],[isGirlAnime],[isGirlsHatsHoodieAnime],[isSadAnimeGirl],[isSadAnime]",
    "title": "ANIME_PIC_95ec7803f595b7536157ed5734448063",
    "link_img": "https://live.staticflickr.com/65535/51568052909_3259c42d0b_o.jpg",
    "id_image": "ANIME_PIC_95ec7803f595b7536157ed5734448063",
    "count_view": 0
  },
  {
    "link_thumb": "https://live.staticflickr.com/65535/51568053224_6e77e03149_n.jpg",
    "id_album": "-1029026589",
    "description": "ANIME_PIC_95ef32bf85ec3a09ed73490f6930a168,[Sad],[isGirlAnime],[isCuteAnime],[isGirlsHatsHoodieAnime],[isSadAnimeGirl],[isSadAnime]",
    "title": "ANIME_PIC_95ef32bf85ec3a09ed73490f6930a168",
    "link_img": "https://live.staticflickr.com/65535/51568053224_f080e85e22_o.png",
    "id_image": "ANIME_PIC_95ef32bf85ec3a09ed73490f6930a168",
    "count_view": 0
  },
  {
    "link_thumb": "https://live.staticflickr.com/65535/51566570212_678e959447_n.jpg",
    "id_album": "-1029026589",
    "description": "ANIME_PIC_95f28c467b0a7736cd6cf8ec58c42411,[Sad],[isGirlAnime],[isCuteAnime],[isGirlsLoliAnime],[isSadAnimeGirl],[isSadAnime]",
    "title": "ANIME_PIC_95f28c467b0a7736cd6cf8ec58c42411",
    "link_img": "https://live.staticflickr.com/65535/51566570212_50df31497d_o.jpg",
    "id_image": "ANIME_PIC_95f28c467b0a7736cd6cf8ec58c42411",
    "count_view": 0
  },
  {
    "link_thumb": "https://live.staticflickr.com/65535/51567609543_cfa0c29457_n.jpg",
    "id_album": "-1029026589",
    "description": "ANIME_PIC_95ffd19a659cf323fcef8fd63c870da3,[Sad],[isGirlAnime],[isCuteAnime],[isGirlsLoliAnime],[isSadAnimeGirl],[isSadAnime]",
    "title": "ANIME_PIC_95ffd19a659cf323fcef8fd63c870da3",
    "link_img": "https://live.staticflickr.com/65535/51567609543_8ffcf0549d_o.jpg",
    "id_image": "ANIME_PIC_95ffd19a659cf323fcef8fd63c870da3",
    "count_view": 0
  },
  {
    "link_thumb": "https://live.staticflickr.com/65535/51567609958_df1c059944_n.jpg",
    "id_album": "-1029026589",
    "description": "ANIME_PIC_960637248261769c8cfa0537f5193f00,[Sad],[isGirlAnime],[isCuteAnime],[isSadAnimeGirl],[isSadAnime]",
    "title": "ANIME_PIC_960637248261769c8cfa0537f5193f00",
    "link_img": "https://live.staticflickr.com/65535/51567609958_5eb2a3b622_o.png",
    "id_image": "ANIME_PIC_960637248261769c8cfa0537f5193f00",
    "count_view": 0
  },
  {
    "link_thumb": "https://live.staticflickr.com/65535/51567610908_0e9511e62e_n.jpg",
    "id_album": "-1029026589",
    "description": "ANIME_PIC_96293a12d32474dc976a4933ce78788e,[Sad],[isGirlAnime],[isCuteAnime],[isGirlsHatsHoodieAnime],[isGirlsLoliAnime],[isSadAnimeGirl],[isSadAnime]",
    "title": "ANIME_PIC_96293a12d32474dc976a4933ce78788e",
    "link_img": "https://live.staticflickr.com/65535/51567610908_04b31f0c5d_o.png",
    "id_image": "ANIME_PIC_96293a12d32474dc976a4933ce78788e",
    "count_view": 0
  },
  {
    "link_thumb": "https://live.staticflickr.com/65535/51568303055_384c19a080_n.jpg",
    "id_album": "-1029026589",
    "description": "ANIME_PIC_964848bd433d7ca6265813f9f3a0c856,[Sad],[isGirlAnime],[isCuteAnime],[isGirlsLoliAnime],[isSadAnimeGirl],[isSadAnime]",
    "title": "ANIME_PIC_964848bd433d7ca6265813f9f3a0c856",
    "link_img": "https://live.staticflickr.com/65535/51568303055_51485ee2ee_o.jpg",
    "id_image": "ANIME_PIC_964848bd433d7ca6265813f9f3a0c856",
    "count_view": 0
  },
  {
    "link_thumb": "https://live.staticflickr.com/65535/51567612108_08915b51cf_n.jpg",
    "id_album": "-1029026589",
    "description": "ANIME_PIC_965a7b2f550142286c456f1f82aca7cd,[Sad],[isGirlAnime],[isCuteAnime],[isSadAnimeGirl],[isSadAnime]",
    "title": "ANIME_PIC_965a7b2f550142286c456f1f82aca7cd",
    "link_img": "https://live.staticflickr.com/65535/51567612108_da0ec0e50f_o.jpg",
    "id_image": "ANIME_PIC_965a7b2f550142286c456f1f82aca7cd",
    "count_view": 0
  },
  {
    "link_thumb": "https://live.staticflickr.com/65535/51568056764_5a7c762f9c_n.jpg",
    "id_album": "-1029026589",
    "description": "ANIME_PIC_965ac5a0edde7376f00c49c467847778,[Sad],[isGirlAnime],[isCuteAnime],[isSadAnimeGirl],[isSadAnime]",
    "title": "ANIME_PIC_965ac5a0edde7376f00c49c467847778",
    "link_img": "https://live.staticflickr.com/65535/51568056764_356e06d937_o.jpg",
    "id_image": "ANIME_PIC_965ac5a0edde7376f00c49c467847778",
    "count_view": 0
  },
  {
    "link_thumb": "https://live.staticflickr.com/65535/51568304215_8f424aeb5f_n.jpg",
    "id_album": "-1029026589",
    "description": "ANIME_PIC_967eae3dbff50edbeca1176732db70f4,[Sad],[isGirlAnime],[isCuteAnime],[isGirlsLoliAnime],[isSadAnimeGirl],[isSadAnime]",
    "title": "ANIME_PIC_967eae3dbff50edbeca1176732db70f4",
    "link_img": "https://live.staticflickr.com/65535/51568304215_e7c33a88df_o.png",
    "id_image": "ANIME_PIC_967eae3dbff50edbeca1176732db70f4",
    "count_view": 0
  },
  {
    "link_thumb": "https://live.staticflickr.com/65535/51568057904_ca176e5cdc_n.jpg",
    "id_album": "-1029026589",
    "description": "ANIME_PIC_9685e698a029acf46970fbee776dc9a8,[Sad],[isGirlAnime],[isCuteAnime],[isGirlsLoliAnime],[isSadAnimeGirl],[isSadAnime]",
    "title": "ANIME_PIC_9685e698a029acf46970fbee776dc9a8",
    "link_img": "https://live.staticflickr.com/65535/51568057904_3a68588ff1_o.png",
    "id_image": "ANIME_PIC_9685e698a029acf46970fbee776dc9a8",
    "count_view": 0
  },
  {
    "link_thumb": "https://live.staticflickr.com/65535/51567369961_882389224e_n.jpg",
    "id_album": "-1029026589",
    "description": "ANIME_PIC_968d90f28fd32daeeff4718769970b31,[Sad],[isGirlAnime],[isCuteAnime],[isGirlsLoliAnime],[isSadAnimeGirl],[isSadAnime]",
    "title": "ANIME_PIC_968d90f28fd32daeeff4718769970b31",
    "link_img": "https://live.staticflickr.com/65535/51567369961_9d0c4551d5_o.jpg",
    "id_image": "ANIME_PIC_968d90f28fd32daeeff4718769970b31",
    "count_view": 0
  },
  {
    "link_thumb": "https://live.staticflickr.com/65535/51566575217_9311970258_n.jpg",
    "id_album": "-1029026589",
    "description": "ANIME_PIC_969e191d9d89fb60650f68adc069fccf,[Sad],[isGirlAnime],[isCuteAnime],[isGirlsHatsHoodieAnime],[isGirlsLoliAnime],[isSadAnimeGirl],[isSadAnime]",
    "title": "ANIME_PIC_969e191d9d89fb60650f68adc069fccf",
    "link_img": "https://live.staticflickr.com/65535/51566575217_064c9c7951_o.jpg",
    "id_image": "ANIME_PIC_969e191d9d89fb60650f68adc069fccf",
    "count_view": 0
  },
  {
    "link_thumb": "https://live.staticflickr.com/65535/51566575807_96916eb465_n.jpg",
    "id_album": "-1029026589",
    "description": "ANIME_PIC_96b3520f5dd562230e495bf7fbafec95,[Sad],[isGirlAnime],[isCuteAnime],[isGirlEarsNekoAnime],[isSadAnimeGirl],[isSadAnime]",
    "title": "ANIME_PIC_96b3520f5dd562230e495bf7fbafec95",
    "link_img": "https://live.staticflickr.com/65535/51566575807_c94b10c5ae_o.jpg",
    "id_image": "ANIME_PIC_96b3520f5dd562230e495bf7fbafec95",
    "count_view": 0
  },
  {
    "link_thumb": "https://live.staticflickr.com/65535/51566576232_872c0a5d68_n.jpg",
    "id_album": "-1029026589",
    "description": "ANIME_PIC_96b8b5c08d72278d956d3f2a4deca5de,[Sad],[isGirlAnime],[isSadAnimeGirl],[isSadAnime]",
    "title": "ANIME_PIC_96b8b5c08d72278d956d3f2a4deca5de",
    "link_img": "https://live.staticflickr.com/65535/51566576232_6ba9353bfa_o.jpg",
    "id_image": "ANIME_PIC_96b8b5c08d72278d956d3f2a4deca5de",
    "count_view": 0
  },
  {
    "link_thumb": "https://live.staticflickr.com/65535/51568307195_1a907d668c_n.jpg",
    "id_album": "-1029026589",
    "description": "ANIME_PIC_96c3726799cf1890261f0b65aeb17328,[Sad],[isGirlAnime],[isCuteAnime],[isGirlsLoliAnime],[isSadAnimeGirl],[isSadAnime]",
    "title": "ANIME_PIC_96c3726799cf1890261f0b65aeb17328",
    "link_img": "https://live.staticflickr.com/65535/51568307195_22cd5d03b7_o.jpg",
    "id_image": "ANIME_PIC_96c3726799cf1890261f0b65aeb17328",
    "count_view": 0
  },
  {
    "link_thumb": "https://live.staticflickr.com/65535/51567616878_f25a0e51be_n.jpg",
    "id_album": "-1029026589",
    "description": "ANIME_PIC_96c5c47c72191c5eabdb6db43315252e,[Sad],[isGirlAnime],[isCuteAnime],[isGirlsLoliAnime],[isSadAnimeGirl],[isSadAnime]",
    "title": "ANIME_PIC_96c5c47c72191c5eabdb6db43315252e",
    "link_img": "https://live.staticflickr.com/65535/51567616878_b578c07109_o.png",
    "id_image": "ANIME_PIC_96c5c47c72191c5eabdb6db43315252e",
    "count_view": 0
  },
  {
    "link_thumb": "https://live.staticflickr.com/65535/51567617478_ed127cd04b_n.jpg",
    "id_album": "-1029026589",
    "description": "ANIME_PIC_96db7c71090e0ebb6cfacd770dcf5c9a,[Sad],[isGirlAnime],[isCuteAnime],[isGirlEarsNekoAnime],[isGirlsLoliAnime],[isSadAnimeGirl],[isSadAnime]",
    "title": "ANIME_PIC_96db7c71090e0ebb6cfacd770dcf5c9a",
    "link_img": "https://live.staticflickr.com/65535/51567617478_b859688013_o.png",
    "id_image": "ANIME_PIC_96db7c71090e0ebb6cfacd770dcf5c9a",
    "count_view": 0
  },
  {
    "link_thumb": "https://live.staticflickr.com/65535/51567618268_c8d7f00a36_n.jpg",
    "id_album": "-1029026589",
    "description": "ANIME_PIC_96db97b65a8c0136a3ff15ff73839352,[Sad],[isGirlAnime],[isGirlsHatsHoodieAnime],[isGirlsLoliAnime],[isSadAnimeGirl],[isSadAnime]",
    "title": "ANIME_PIC_96db97b65a8c0136a3ff15ff73839352",
    "link_img": "https://live.staticflickr.com/65535/51567618268_06ea786043_o.jpg",
    "id_image": "ANIME_PIC_96db97b65a8c0136a3ff15ff73839352",
    "count_view": 0
  },
  {
    "link_thumb": "https://live.staticflickr.com/65535/51566579492_9f963bf89d_n.jpg",
    "id_album": "-1029026589",
    "description": "ANIME_PIC_96fa401093fcdc88fc99daebee553258,[Sad],[isGirlAnime],[isGirlFaceMasksAnime],[isSadAnimeGirl],[isSadAnime]",
    "title": "ANIME_PIC_96fa401093fcdc88fc99daebee553258",
    "link_img": "https://live.staticflickr.com/65535/51566579492_4e4af329f3_o.jpg",
    "id_image": "ANIME_PIC_96fa401093fcdc88fc99daebee553258",
    "count_view": 0
  },
  {
    "link_thumb": "https://live.staticflickr.com/65535/51566579952_8cb8722618_n.jpg",
    "id_album": "-1029026589",
    "description": "ANIME_PIC_9705353b7de4c6ab11dd97be82804e11,[Sad],[isGirlAnime],[isCuteAnime],[isGirlsHatsHoodieAnime],[isGirlsLoliAnime],[isSadAnimeGirl],[isSadAnime]",
    "title": "ANIME_PIC_9705353b7de4c6ab11dd97be82804e11",
    "link_img": "https://live.staticflickr.com/65535/51566579952_680b57c9e4_o.jpg",
    "id_image": "ANIME_PIC_9705353b7de4c6ab11dd97be82804e11",
    "count_view": 0
  },
  {
    "link_thumb": "https://live.staticflickr.com/65535/51567619933_78037c9416_n.jpg",
    "id_album": "-1029026589",
    "description": "ANIME_PIC_970dc99d5e5704bc6d74fcfb3619dafc,[Sad],[isGirlAnime],[isCuteAnime],[isGirlsLoliAnime],[isSadAnimeGirl],[isSadAnime]",
    "title": "ANIME_PIC_970dc99d5e5704bc6d74fcfb3619dafc",
    "link_img": "https://live.staticflickr.com/65535/51567619933_e56cd66f35_o.jpg",
    "id_image": "ANIME_PIC_970dc99d5e5704bc6d74fcfb3619dafc",
    "count_view": 0
  },
  {
    "link_thumb": "https://live.staticflickr.com/65535/51568311050_05756527cf_n.jpg",
    "id_album": "-1029026589",
    "description": "ANIME_PIC_9720d021812c8d2dbf47678c216e5ef3,[Sad],[isGirlAnime],[isSadAnimeGirl],[isSadAnime]",
    "title": "ANIME_PIC_9720d021812c8d2dbf47678c216e5ef3",
    "link_img": "https://live.staticflickr.com/65535/51568311050_dee36f6fb0_o.jpg",
    "id_image": "ANIME_PIC_9720d021812c8d2dbf47678c216e5ef3",
    "count_view": 0
  },
  {
    "link_thumb": "https://live.staticflickr.com/65535/51568311530_0899a598d5_n.jpg",
    "id_album": "-1029026589",
    "description": "ANIME_PIC_9721fbe5e178cb1c7a4ffa40734802fe,[Sad],[isGirlAnime],[isCuteAnime],[isGirlsLoliAnime],[isSadAnimeGirl],[isSadAnime]",
    "title": "ANIME_PIC_9721fbe5e178cb1c7a4ffa40734802fe",
    "link_img": "https://live.staticflickr.com/65535/51568311530_bebec6bf51_o.png",
    "id_image": "ANIME_PIC_9721fbe5e178cb1c7a4ffa40734802fe",
    "count_view": 0
  },
  {
    "link_thumb": "https://live.staticflickr.com/65535/51567376941_ca70963775_n.jpg",
    "id_album": "-1029026589",
    "description": "ANIME_PIC_9726fdb73a42530dad71c382bdc6c15f,[Sad],[isGirlAnime],[isCuteAnime],[isGirlsLoliAnime],[isSadAnimeGirl],[isSadAnime]",
    "title": "ANIME_PIC_9726fdb73a42530dad71c382bdc6c15f",
    "link_img": "https://live.staticflickr.com/65535/51567376941_2dc96539f5_o.png",
    "id_image": "ANIME_PIC_9726fdb73a42530dad71c382bdc6c15f",
    "count_view": 0
  },
  {
    "link_thumb": "https://live.staticflickr.com/65535/51566582672_e20ce10690_n.jpg",
    "id_album": "-1029026589",
    "description": "ANIME_PIC_972a41e885b9d942d745019aa23b33ae,[Sad],[isGirlAnime],[isCuteAnime],[isGirlsLoliAnime],[isSadAnimeGirl],[isSadAnime]",
    "title": "ANIME_PIC_972a41e885b9d942d745019aa23b33ae",
    "link_img": "https://live.staticflickr.com/65535/51566582672_ccec883698_o.png",
    "id_image": "ANIME_PIC_972a41e885b9d942d745019aa23b33ae",
    "count_view": 0
  },
  {
    "link_thumb": "https://live.staticflickr.com/65535/51566583572_94a8a3dc64_n.jpg",
    "id_album": "-1029026589",
    "description": "ANIME_PIC_9732674357533b54781f595ad98e3481,[Sad],[isGirlAnime],[isBlackAnime],[isGirlsHornsAnime],[isSadAnimeGirl],[isSadAnime]",
    "title": "ANIME_PIC_9732674357533b54781f595ad98e3481",
    "link_img": "https://live.staticflickr.com/65535/51566583572_3a4d1f94a8_o.jpg",
    "id_image": "ANIME_PIC_9732674357533b54781f595ad98e3481",
    "count_view": 0
  },
  {
    "link_thumb": "https://live.staticflickr.com/65535/51568314405_1d3aa81e77_n.jpg",
    "id_album": "-1029026589",
    "description": "ANIME_PIC_97346e9b55b89835a3e62dd185624b65,[Sad],[isGirlAnime],[isBlackAnime],[isSadAnimeGirl],[isSadAnime]",
    "title": "ANIME_PIC_97346e9b55b89835a3e62dd185624b65",
    "link_img": "https://live.staticflickr.com/65535/51568314405_9dc3b6747c_o.jpg",
    "id_image": "ANIME_PIC_97346e9b55b89835a3e62dd185624b65",
    "count_view": 0
  },
  {
    "link_thumb": "https://live.staticflickr.com/65535/51566584492_f42b19dc05_n.jpg",
    "id_album": "-1029026589",
    "description": "ANIME_PIC_974892b7f8702f971eb793252f4ef57e,[Sad],[isGirlAnime],[isCuteAnime],[isSadAnimeGirl],[isSadAnime]",
    "title": "ANIME_PIC_974892b7f8702f971eb793252f4ef57e",
    "link_img": "https://live.staticflickr.com/65535/51566584492_5cdfbd905c_o.jpg",
    "id_image": "ANIME_PIC_974892b7f8702f971eb793252f4ef57e",
    "count_view": 0
  },
  {
    "link_thumb": "https://live.staticflickr.com/65535/51566584947_a2237b3f64_n.jpg",
    "id_album": "-1029026589",
    "description": "ANIME_PIC_976b041e597fe4f0de9ab8c3934ab06c,[Sad],[isGirlAnime],[isCuteAnime],[isGirlsHatsHoodieAnime],[isGirlsLoliAnime],[isSadAnimeGirl],[isSadAnime]",
    "title": "ANIME_PIC_976b041e597fe4f0de9ab8c3934ab06c",
    "link_img": "https://live.staticflickr.com/65535/51566584947_0912ffe6f9_o.jpg",
    "id_image": "ANIME_PIC_976b041e597fe4f0de9ab8c3934ab06c",
    "count_view": 0
  },
  {
    "link_thumb": "https://live.staticflickr.com/65535/51568315940_7ef102be2a_n.jpg",
    "id_album": "-1029026589",
    "description": "ANIME_PIC_97741c0fcf1e532b7d54e487a4df6019,[Sad],[isGirlAnime],[isCuteAnime],[isGirlsLoliAnime],[isSadAnimeGirl],[isSadAnime]",
    "title": "ANIME_PIC_97741c0fcf1e532b7d54e487a4df6019",
    "link_img": "https://live.staticflickr.com/65535/51568315940_ba99df6520_o.jpg",
    "id_image": "ANIME_PIC_97741c0fcf1e532b7d54e487a4df6019",
    "count_view": 0
  },
  {
    "link_thumb": "https://live.staticflickr.com/65535/51567380821_14e2e230fa_n.jpg",
    "id_album": "-1029026589",
    "description": "ANIME_PIC_978221071a4e92efb3e50c3f9aa53ada,[Sad],[isGirlAnime],[isCuteAnime],[isGirlsLoliAnime],[isSadAnimeGirl],[isSadAnime]",
    "title": "ANIME_PIC_978221071a4e92efb3e50c3f9aa53ada",
    "link_img": "https://live.staticflickr.com/65535/51567380821_54ffb11453_o.png",
    "id_image": "ANIME_PIC_978221071a4e92efb3e50c3f9aa53ada",
    "count_view": 0
  },
  {
    "link_thumb": "https://live.staticflickr.com/65535/51568317120_e95505a8a6_n.jpg",
    "id_album": "-1029026589",
    "description": "ANIME_PIC_9787396598c88a545bb6bfe28e1727ba,[Sad],[isGirlAnime],[isCuteAnime],[isGirlEarsNekoAnime],[isSadAnimeGirl],[isSadAnime]",
    "title": "ANIME_PIC_9787396598c88a545bb6bfe28e1727ba",
    "link_img": "https://live.staticflickr.com/65535/51568317120_692bbd7b32_o.png",
    "id_image": "ANIME_PIC_9787396598c88a545bb6bfe28e1727ba",
    "count_view": 0
  },
  {
    "link_thumb": "https://live.staticflickr.com/65535/51566587412_b2b2e91a7e_n.jpg",
    "id_album": "-1029026589",
    "description": "ANIME_PIC_978e8c1b75bd795807fe7bfe494b2d7f,[Sad],[isGirlAnime],[isCuteAnime],[isSadAnimeGirl],[isSadAnime]",
    "title": "ANIME_PIC_978e8c1b75bd795807fe7bfe494b2d7f",
    "link_img": "https://live.staticflickr.com/65535/51566587412_644f92bd5a_o.jpg",
    "id_image": "ANIME_PIC_978e8c1b75bd795807fe7bfe494b2d7f",
    "count_view": 0
  },
  {
    "link_thumb": "https://live.staticflickr.com/65535/51566587802_a2a8d1ae3c_n.jpg",
    "id_album": "-1029026589",
    "description": "ANIME_PIC_97a7e3ec9aa7aa6735e09c874a81fe0c,[Sad],[isGirlAnime],[isCuteAnime],[isGirlsHatsHoodieAnime],[isGirlsLoliAnime],[isSadAnimeGirl],[isSadAnime]",
    "title": "ANIME_PIC_97a7e3ec9aa7aa6735e09c874a81fe0c",
    "link_img": "https://live.staticflickr.com/65535/51566587802_2990351ffe_o.png",
    "id_image": "ANIME_PIC_97a7e3ec9aa7aa6735e09c874a81fe0c",
    "count_view": 0
  },
  {
    "link_thumb": "https://live.staticflickr.com/65535/51566588497_85ee03abe0_n.jpg",
    "id_album": "-1029026589",
    "description": "ANIME_PIC_97ca8013416594b56044d76126476993,[Sad],[isGirlAnime],[isCuteAnime],[isGirlsLoliAnime],[isSadAnimeGirl],[isSadAnime]",
    "title": "ANIME_PIC_97ca8013416594b56044d76126476993",
    "link_img": "https://live.staticflickr.com/65535/51566588497_e93d631750_o.jpg",
    "id_image": "ANIME_PIC_97ca8013416594b56044d76126476993",
    "count_view": 0
  },
  {
    "link_thumb": "https://live.staticflickr.com/65535/51567628423_9f5970128a_n.jpg",
    "id_album": "-1029026589",
    "description": "ANIME_PIC_97cf0984e79a307bfce563aaa0c29258,[Sad],[isGirlAnime],[isCuteAnime],[isSadAnimeGirl],[isSadAnime]",
    "title": "ANIME_PIC_97cf0984e79a307bfce563aaa0c29258",
    "link_img": "https://live.staticflickr.com/65535/51567628423_259bd4bbfd_o.jpg",
    "id_image": "ANIME_PIC_97cf0984e79a307bfce563aaa0c29258",
    "count_view": 0
  },
  {
    "link_thumb": "https://live.staticflickr.com/65535/51568072689_bd4f4d6399_n.jpg",
    "id_album": "-1029026589",
    "description": "ANIME_PIC_97d50957de94685504d9e47809675c24,[Sad],[isGirlAnime],[isCuteAnime],[isGirlEarsNekoAnime],[isSadAnimeGirl],[isSadAnime]",
    "title": "ANIME_PIC_97d50957de94685504d9e47809675c24",
    "link_img": "https://live.staticflickr.com/65535/51568072689_89f7abecdf_o.jpg",
    "id_image": "ANIME_PIC_97d50957de94685504d9e47809675c24",
    "count_view": 0
  },
  {
    "link_thumb": "https://live.staticflickr.com/65535/51568073259_fa2b722ed0_n.jpg",
    "id_album": "-1029026589",
    "description": "ANIME_PIC_97da41515a57ac6ef1cd9f141ca2c632,[Sad],[isGirlAnime],[isCuteAnime],[isSadAnimeGirl],[isSadAnime]",
    "title": "ANIME_PIC_97da41515a57ac6ef1cd9f141ca2c632",
    "link_img": "https://live.staticflickr.com/65535/51568073259_9b49065486_o.jpg",
    "id_image": "ANIME_PIC_97da41515a57ac6ef1cd9f141ca2c632",
    "count_view": 0
  },
  {
    "link_thumb": "https://live.staticflickr.com/65535/51568073684_fda86b030c_n.jpg",
    "id_album": "-1029026589",
    "description": "ANIME_PIC_97f13b568003156e28476e1f7044390d,[Sad],[isGirlAnime],[isCuteAnime],[isSadAnimeGirl],[isSadAnime]",
    "title": "ANIME_PIC_97f13b568003156e28476e1f7044390d",
    "link_img": "https://live.staticflickr.com/65535/51568073684_0de8c2ab54_o.jpg",
    "id_image": "ANIME_PIC_97f13b568003156e28476e1f7044390d",
    "count_view": 0
  },
  {
    "link_thumb": "https://live.staticflickr.com/65535/51567630238_15b7ff68e7_n.jpg",
    "id_album": "-1029026589",
    "description": "ANIME_PIC_980d7ec8037b1fe3366067ed5b1a09b8,[Sad],[isGirlAnime],[isCuteAnime],[isGirlsLoliAnime],[isSadAnimeGirl],[isSadAnime]",
    "title": "ANIME_PIC_980d7ec8037b1fe3366067ed5b1a09b8",
    "link_img": "https://live.staticflickr.com/65535/51567630238_0f0af1099a_o.jpg",
    "id_image": "ANIME_PIC_980d7ec8037b1fe3366067ed5b1a09b8",
    "count_view": 0
  },
  {
    "link_thumb": "https://live.staticflickr.com/65535/51568321665_8583e1c492_n.jpg",
    "id_album": "-1029026589",
    "description": "ANIME_PIC_980f988e1ac4287d302a0f17605b159d,[Sad],[isGirlAnime],[isSadAnimeGirl],[isSadAnime]",
    "title": "ANIME_PIC_980f988e1ac4287d302a0f17605b159d",
    "link_img": "https://live.staticflickr.com/65535/51568321665_ef221b3a36_o.jpg",
    "id_image": "ANIME_PIC_980f988e1ac4287d302a0f17605b159d",
    "count_view": 0
  },
  {
    "link_thumb": "https://live.staticflickr.com/65535/51566591887_d2234ebf54_n.jpg",
    "id_album": "-1029026589",
    "description": "ANIME_PIC_981d0e4186db561d8074c16185e57d94,[Sad],[isGirlAnime],[isSadAnimeGirl],[isSadAnime]",
    "title": "ANIME_PIC_981d0e4186db561d8074c16185e57d94",
    "link_img": "https://live.staticflickr.com/65535/51566591887_f39fcd0835_o.png",
    "id_image": "ANIME_PIC_981d0e4186db561d8074c16185e57d94",
    "count_view": 0
  },
  {
    "link_thumb": "https://live.staticflickr.com/65535/51568322920_4880f33f25_n.jpg",
    "id_album": "-1029026589",
    "description": "ANIME_PIC_981eb755888e5ee243f8301f1eda07dc,[Sad],[isGirlAnime],[isCuteAnime],[isSadAnimeGirl],[isSadAnime]",
    "title": "ANIME_PIC_981eb755888e5ee243f8301f1eda07dc",
    "link_img": "https://live.staticflickr.com/65535/51568322920_cf435ce34d_o.jpg",
    "id_image": "ANIME_PIC_981eb755888e5ee243f8301f1eda07dc",
    "count_view": 0
  },
  {
    "link_thumb": "https://live.staticflickr.com/65535/51568323455_93ee321721_n.jpg",
    "id_album": "-1029026589",
    "description": "ANIME_PIC_9827180f99fd6aed497a9e0702487b01,[Sad],[isGirlAnime],[isCuteAnime],[isSadAnimeGirl],[isSadAnime]",
    "title": "ANIME_PIC_9827180f99fd6aed497a9e0702487b01",
    "link_img": "https://live.staticflickr.com/65535/51568323455_5606c376c0_o.png",
    "id_image": "ANIME_PIC_9827180f99fd6aed497a9e0702487b01",
    "count_view": 0
  },
  {
    "link_thumb": "https://live.staticflickr.com/65535/51567633278_162d3c245a_n.jpg",
    "id_album": "-1029026589",
    "description": "ANIME_PIC_985b4df54936dc2fba5cf16452ba380b,[Sad],[isGirlAnime],[isCuteAnime],[isSadAnimeGirl],[isSadAnime]",
    "title": "ANIME_PIC_985b4df54936dc2fba5cf16452ba380b",
    "link_img": "https://live.staticflickr.com/65535/51567633278_1c4a0c676f_o.jpg",
    "id_image": "ANIME_PIC_985b4df54936dc2fba5cf16452ba380b",
    "count_view": 0
  },
  {
    "link_thumb": "https://live.staticflickr.com/65535/51567388986_1416db2115_n.jpg",
    "id_album": "-1029026589",
    "description": "ANIME_PIC_985df98493bde9e106b11f5af99396ef,[Sad],[isGirlAnime],[isCuteAnime],[isSadAnimeGirl],[isSadAnime]",
    "title": "ANIME_PIC_985df98493bde9e106b11f5af99396ef",
    "link_img": "https://live.staticflickr.com/65535/51567388986_f1c32af050_o.jpg",
    "id_image": "ANIME_PIC_985df98493bde9e106b11f5af99396ef",
    "count_view": 0
  },
  {
    "link_thumb": "https://live.staticflickr.com/65535/51567389561_25de9700b3_n.jpg",
    "id_album": "-1029026589",
    "description": "ANIME_PIC_986a66fd70945d2f4362f63bcaa74a78,[Sad],[isGirlAnime],[isCuteAnime],[isGirlsLoliAnime],[isSadAnimeGirl],[isSadAnime]",
    "title": "ANIME_PIC_986a66fd70945d2f4362f63bcaa74a78",
    "link_img": "https://live.staticflickr.com/65535/51567389561_c0421964ce_o.jpg",
    "id_image": "ANIME_PIC_986a66fd70945d2f4362f63bcaa74a78",
    "count_view": 0
  },
  {
    "link_thumb": "https://live.staticflickr.com/65535/51568078614_0f3bd11ace_n.jpg",
    "id_album": "-1029026589",
    "description": "ANIME_PIC_986bb5b5a2afb5279df8f9552539d767,[Sad],[isGirlAnime],[isCuteAnime],[isSadAnimeGirl],[isSadAnime]",
    "title": "ANIME_PIC_986bb5b5a2afb5279df8f9552539d767",
    "link_img": "https://live.staticflickr.com/65535/51568078614_f058f1a025_o.jpg",
    "id_image": "ANIME_PIC_986bb5b5a2afb5279df8f9552539d767",
    "count_view": 0
  },
  {
    "link_thumb": "https://live.staticflickr.com/65535/51568326390_7375a185ef_n.jpg",
    "id_album": "-1029026589",
    "description": "ANIME_PIC_98784b3bd1964eb75891f0322f0fe254,[Sad],[isGirlAnime],[isCuteAnime],[isGirlsLoliAnime],[isSadAnimeGirl],[isSadAnime]",
    "title": "ANIME_PIC_98784b3bd1964eb75891f0322f0fe254",
    "link_img": "https://live.staticflickr.com/65535/51568326390_fc69b51db0_o.jpg",
    "id_image": "ANIME_PIC_98784b3bd1964eb75891f0322f0fe254",
    "count_view": 0
  },
  {
    "link_thumb": "https://live.staticflickr.com/65535/51568326940_3f718a2d51_n.jpg",
    "id_album": "-1029026589",
    "description": "ANIME_PIC_9882e414b2221d69f03ebe1c2b7c7385,[Sad],[isGirlAnime],[isCuteAnime],[isGirlsHatsHoodieAnime],[isSadAnimeGirl],[isSadAnime]",
    "title": "ANIME_PIC_9882e414b2221d69f03ebe1c2b7c7385",
    "link_img": "https://live.staticflickr.com/65535/51568326940_dbcc1613f3_o.jpg",
    "id_image": "ANIME_PIC_9882e414b2221d69f03ebe1c2b7c7385",
    "count_view": 0
  },
  {
    "link_thumb": "https://live.staticflickr.com/65535/51568327470_8422b712d9_n.jpg",
    "id_album": "-1029026589",
    "description": "ANIME_PIC_9890d68167cbd5744a69b75b2cf5aa63,[Sad],[isGirlAnime],[isCuteAnime],[isGirlsLoliAnime],[isSadAnimeGirl],[isSadAnime]",
    "title": "ANIME_PIC_9890d68167cbd5744a69b75b2cf5aa63",
    "link_img": "https://live.staticflickr.com/65535/51568327470_5db60e1839_o.png",
    "id_image": "ANIME_PIC_9890d68167cbd5744a69b75b2cf5aa63",
    "count_view": 0
  },
  {
    "link_thumb": "https://live.staticflickr.com/65535/51568328060_6622dfa520_n.jpg",
    "id_album": "-1029026589",
    "description": "ANIME_PIC_98a03a2bf3beca23875b3fb76c482d71,[Sad],[isGirlAnime],[isCuteAnime],[isSadAnimeGirl],[isSadAnime]",
    "title": "ANIME_PIC_98a03a2bf3beca23875b3fb76c482d71",
    "link_img": "https://live.staticflickr.com/65535/51568328060_cbba8843b1_o.jpg",
    "id_image": "ANIME_PIC_98a03a2bf3beca23875b3fb76c482d71",
    "count_view": 0
  },
  {
    "link_thumb": "https://live.staticflickr.com/65535/51567637418_2c5dc24536_n.jpg",
    "id_album": "-1029026589",
    "description": "ANIME_PIC_98a26925757eb75b76c2e7177dcb98da,[Sad],[isGirlAnime],[isCuteAnime],[isGirlsLoliAnime],[isSadAnimeGirl],[isSadAnime]",
    "title": "ANIME_PIC_98a26925757eb75b76c2e7177dcb98da",
    "link_img": "https://live.staticflickr.com/65535/51567637418_696620f044_o.png",
    "id_image": "ANIME_PIC_98a26925757eb75b76c2e7177dcb98da",
    "count_view": 0
  },
  {
    "link_thumb": "https://live.staticflickr.com/65535/51566598962_7dab7c7347_n.jpg",
    "id_album": "-1029026589",
    "description": "ANIME_PIC_98a5587a42531bd7f140a9b7ccc9c49c,[Sad],[isGirlAnime],[isCuteAnime],[isSadAnimeGirl],[isSadAnime]",
    "title": "ANIME_PIC_98a5587a42531bd7f140a9b7ccc9c49c",
    "link_img": "https://live.staticflickr.com/65535/51566598962_d5952034b7_o.jpg",
    "id_image": "ANIME_PIC_98a5587a42531bd7f140a9b7ccc9c49c",
    "count_view": 0
  },
  {
    "link_thumb": "https://live.staticflickr.com/65535/51567638823_2b17695cd2_n.jpg",
    "id_album": "-1029026589",
    "description": "ANIME_PIC_98aa2c697b8da71fb0645d801f1bf30c,[Sad],[isGirlAnime],[isCuteAnime],[isGirlsLoliAnime],[isSadAnimeGirl],[isSadAnime]",
    "title": "ANIME_PIC_98aa2c697b8da71fb0645d801f1bf30c",
    "link_img": "https://live.staticflickr.com/65535/51567638823_c886f98868_o.png",
    "id_image": "ANIME_PIC_98aa2c697b8da71fb0645d801f1bf30c",
    "count_view": 0
  },
  {
    "link_thumb": "https://live.staticflickr.com/65535/51568330865_89901277a8_n.jpg",
    "id_album": "-1029026589",
    "description": "ANIME_PIC_98b402485d7bc9edd0bc5b72a0b39810,[Sad],[isGirlAnime],[isCuteAnime],[isGirlsLoliAnime],[isSadAnimeGirl],[isSadAnime]",
    "title": "ANIME_PIC_98b402485d7bc9edd0bc5b72a0b39810",
    "link_img": "https://live.staticflickr.com/65535/51568330865_55b278460b_o.png",
    "id_image": "ANIME_PIC_98b402485d7bc9edd0bc5b72a0b39810",
    "count_view": 0
  },
  {
    "link_thumb": "https://live.staticflickr.com/65535/51566601172_a4df90cca1_n.jpg",
    "id_album": "-1029026589",
    "description": "ANIME_PIC_98b473d78893f1e34dfdd839af8d59c8,[Sad],[isGirlAnime],[isCuteAnime],[isSadAnimeGirl],[isSadAnime]",
    "title": "ANIME_PIC_98b473d78893f1e34dfdd839af8d59c8",
    "link_img": "https://live.staticflickr.com/65535/51566601172_c307670c43_o.jpg",
    "id_image": "ANIME_PIC_98b473d78893f1e34dfdd839af8d59c8",
    "count_view": 0
  },
  {
    "link_thumb": "https://live.staticflickr.com/65535/51567640788_7f4aae1ae9_n.jpg",
    "id_album": "-1029026589",
    "description": "ANIME_PIC_98ba2a48d7ccd8b85e9d599c019c76f9,[Sad],[isGirlAnime],[isSadAnimeGirl],[isSadAnime]",
    "title": "ANIME_PIC_98ba2a48d7ccd8b85e9d599c019c76f9",
    "link_img": "https://live.staticflickr.com/65535/51567640788_9312f15354_o.jpg",
    "id_image": "ANIME_PIC_98ba2a48d7ccd8b85e9d599c019c76f9",
    "count_view": 0
  },
  {
    "link_thumb": "https://live.staticflickr.com/65535/51568084824_c4b928cd8d_n.jpg",
    "id_album": "-1029026589",
    "description": "ANIME_PIC_98e8d4205f7cf92d1e57e1a448b60974,[Sad],[isGirlAnime],[isCuteAnime],[isSadAnimeGirl],[isSadAnime]",
    "title": "ANIME_PIC_98e8d4205f7cf92d1e57e1a448b60974",
    "link_img": "https://live.staticflickr.com/65535/51568084824_85641e0e5e_o.jpg",
    "id_image": "ANIME_PIC_98e8d4205f7cf92d1e57e1a448b60974",
    "count_view": 0
  },
  {
    "link_thumb": "https://live.staticflickr.com/65535/51568085149_3fcdaaf749_n.jpg",
    "id_album": "-1029026589",
    "description": "ANIME_PIC_98f6975d6951f36dcf54a50f012a56f4,[Sad],[isGirlAnime],[isCuteAnime],[isSadAnimeGirl],[isSadAnime]",
    "title": "ANIME_PIC_98f6975d6951f36dcf54a50f012a56f4",
    "link_img": "https://live.staticflickr.com/65535/51568085149_ee4ed35923_o.jpg",
    "id_image": "ANIME_PIC_98f6975d6951f36dcf54a50f012a56f4",
    "count_view": 0
  },
  {
    "link_thumb": "https://live.staticflickr.com/65535/51566602802_0be5da4f58_n.jpg",
    "id_album": "-1029026589",
    "description": "ANIME_PIC_990844a6e8524c36b8d15fc29932975a,[Sad],[isGirlAnime],[isCuteAnime],[isGirlsLoliAnime],[isSadAnimeGirl],[isSadAnime]",
    "title": "ANIME_PIC_990844a6e8524c36b8d15fc29932975a",
    "link_img": "https://live.staticflickr.com/65535/51566602802_9bbfb3e286_o.png",
    "id_image": "ANIME_PIC_990844a6e8524c36b8d15fc29932975a",
    "count_view": 0
  },
  {
    "link_thumb": "https://live.staticflickr.com/65535/51568333645_53d0e0ea01_n.jpg",
    "id_album": "-1029026589",
    "description": "ANIME_PIC_991c1745f1e8d7bcaa92f6042b125b37,[Sad],[isGirlAnime],[isCuteAnime],[isSadAnimeGirl],[isSadAnime]",
    "title": "ANIME_PIC_991c1745f1e8d7bcaa92f6042b125b37",
    "link_img": "https://live.staticflickr.com/65535/51568333645_31eea2c17e_o.jpg",
    "id_image": "ANIME_PIC_991c1745f1e8d7bcaa92f6042b125b37",
    "count_view": 0
  },
  {
    "link_thumb": "https://live.staticflickr.com/65535/51566603812_16729c10bf_n.jpg",
    "id_album": "-1029026589",
    "description": "ANIME_PIC_992ffad541c2a03a3a3a51f53be8a1c0,[Sad],[isGirlAnime],[isCuteAnime],[isBlackAnime],[isGirlsLoliAnime],[isSadAnimeGirl],[isSadAnime]",
    "title": "ANIME_PIC_992ffad541c2a03a3a3a51f53be8a1c0",
    "link_img": "https://live.staticflickr.com/65535/51566603812_55b0b553df_o.png",
    "id_image": "ANIME_PIC_992ffad541c2a03a3a3a51f53be8a1c0",
    "count_view": 0
  },
  {
    "link_thumb": "https://live.staticflickr.com/65535/51566604437_e5070a845f_n.jpg",
    "id_album": "-1029026589",
    "description": "ANIME_PIC_996128782440190e7789b27a138208ad,[Sad],[isGirlAnime],[isCuteAnime],[isGirlsLoliAnime],[isSadAnimeGirl],[isSadAnime]",
    "title": "ANIME_PIC_996128782440190e7789b27a138208ad",
    "link_img": "https://live.staticflickr.com/65535/51566604437_cc902590df_o.png",
    "id_image": "ANIME_PIC_996128782440190e7789b27a138208ad",
    "count_view": 0
  },
  {
    "link_thumb": "https://live.staticflickr.com/65535/51566605117_4651b52fdd_n.jpg",
    "id_album": "-1029026589",
    "description": "ANIME_PIC_99629800687dc351de1d63377b94f8ea,[Sad],[isGirlAnime],[isSadAnimeGirl],[isSadAnime]",
    "title": "ANIME_PIC_99629800687dc351de1d63377b94f8ea",
    "link_img": "https://live.staticflickr.com/65535/51566605117_b1cac5239f_o.png",
    "id_image": "ANIME_PIC_99629800687dc351de1d63377b94f8ea",
    "count_view": 0
  },
  {
    "link_thumb": "https://live.staticflickr.com/65535/51567400496_234c902ec9_n.jpg",
    "id_album": "-1029026589",
    "description": "ANIME_PIC_996bbc6500af13c425aded97d4cc4d40,[Sad],[isGirlAnime],[isCuteAnime],[isGirlsLoliAnime],[isSadAnimeGirl],[isSadAnime]",
    "title": "ANIME_PIC_996bbc6500af13c425aded97d4cc4d40",
    "link_img": "https://live.staticflickr.com/65535/51567400496_a5304e3515_o.jpg",
    "id_image": "ANIME_PIC_996bbc6500af13c425aded97d4cc4d40",
    "count_view": 0
  },
  {
    "link_thumb": "https://live.staticflickr.com/65535/51567400926_1a28d0d703_n.jpg",
    "id_album": "-1029026589",
    "description": "ANIME_PIC_99873b8d0dbbaf361bce85a9101661a1,[Sad],[isGirlAnime],[isCuteAnime],[isGirlsHatsHoodieAnime],[isSadAnimeGirl],[isSadAnime]",
    "title": "ANIME_PIC_99873b8d0dbbaf361bce85a9101661a1",
    "link_img": "https://live.staticflickr.com/65535/51567400926_beeaeb42d3_o.jpg",
    "id_image": "ANIME_PIC_99873b8d0dbbaf361bce85a9101661a1",
    "count_view": 0
  },
  {
    "link_thumb": "https://live.staticflickr.com/65535/51566606987_b9406821a6_n.jpg",
    "id_album": "-1029026589",
    "description": "ANIME_PIC_9992e2d2e8ad5041bc52f61916f10c9a,[Sad],[isGirlAnime],[isCuteAnime],[isSadAnimeGirl],[isSadAnime]",
    "title": "ANIME_PIC_9992e2d2e8ad5041bc52f61916f10c9a",
    "link_img": "https://live.staticflickr.com/65535/51566606987_67ee5a0a12_o.jpg",
    "id_image": "ANIME_PIC_9992e2d2e8ad5041bc52f61916f10c9a",
    "count_view": 0
  },
  {
    "link_thumb": "https://live.staticflickr.com/65535/51568089884_c384c30a80_n.jpg",
    "id_album": "-1029026589",
    "description": "ANIME_PIC_9993213b302591c76c24a40278fd0891,[Sad],[isGirlAnime],[isCuteAnime],[isSadAnimeGirl],[isSadAnime]",
    "title": "ANIME_PIC_9993213b302591c76c24a40278fd0891",
    "link_img": "https://live.staticflickr.com/65535/51568089884_0fb8c2d5aa_o.jpg",
    "id_image": "ANIME_PIC_9993213b302591c76c24a40278fd0891",
    "count_view": 0
  },
  {
    "link_thumb": "https://live.staticflickr.com/65535/51566607782_641058439e_n.jpg",
    "id_album": "-1029026589",
    "description": "ANIME_PIC_999c3e48e07d4cfd6774dae840ad238c,[Sad],[isGirlAnime],[isCuteAnime],[isGirlsLoliAnime],[isSadAnimeGirl],[isSadAnime]",
    "title": "ANIME_PIC_999c3e48e07d4cfd6774dae840ad238c",
    "link_img": "https://live.staticflickr.com/65535/51566607782_5e4ed3b7fc_o.jpg",
    "id_image": "ANIME_PIC_999c3e48e07d4cfd6774dae840ad238c",
    "count_view": 0
  },
  {
    "link_thumb": "https://live.staticflickr.com/65535/51567647358_8b593e2511_n.jpg",
    "id_album": "-1029026589",
    "description": "ANIME_PIC_99a861f5206d656b5b4c8efe3efac58e,[Sad],[isGirlAnime],[isCuteAnime],[isGirlEarsNekoAnime],[isGirlsLoliAnime],[isSadAnimeGirl],[isSadAnime]",
    "title": "ANIME_PIC_99a861f5206d656b5b4c8efe3efac58e",
    "link_img": "https://live.staticflickr.com/65535/51567647358_51ec987c49_o.jpg",
    "id_image": "ANIME_PIC_99a861f5206d656b5b4c8efe3efac58e",
    "count_view": 0
  },
  {
    "link_thumb": "https://live.staticflickr.com/65535/51566608537_544829ff66_n.jpg",
    "id_album": "-1029026589",
    "description": "ANIME_PIC_99bdff43716b95aa2c015b9eceeb85f9,[Sad],[isGirlAnime],[isCuteAnime],[isSadAnimeGirl],[isSadAnime]",
    "title": "ANIME_PIC_99bdff43716b95aa2c015b9eceeb85f9",
    "link_img": "https://live.staticflickr.com/65535/51566608537_0f9f30d155_o.jpg",
    "id_image": "ANIME_PIC_99bdff43716b95aa2c015b9eceeb85f9",
    "count_view": 0
  },
  {
    "link_thumb": "https://live.staticflickr.com/65535/51566608967_7c157691d1_n.jpg",
    "id_album": "-1029026589",
    "description": "ANIME_PIC_99ca6270b27ff25ad43021d327ccd97d,[Sad],[isGirlAnime],[isCuteAnime],[isSadAnimeGirl],[isSadAnime]",
    "title": "ANIME_PIC_99ca6270b27ff25ad43021d327ccd97d",
    "link_img": "https://live.staticflickr.com/65535/51566608967_1ac3346853_o.jpg",
    "id_image": "ANIME_PIC_99ca6270b27ff25ad43021d327ccd97d",
    "count_view": 0
  },
  {
    "link_thumb": "https://live.staticflickr.com/65535/51566609312_fc53c12879_n.jpg",
    "id_album": "-1029026589",
    "description": "ANIME_PIC_99cb36618a6070af1f6fe865433be344,[Sad],[isGirlAnime],[isCuteAnime],[isGirlsLoliAnime],[isSadAnimeGirl],[isSadAnime]",
    "title": "ANIME_PIC_99cb36618a6070af1f6fe865433be344",
    "link_img": "https://live.staticflickr.com/65535/51566609312_72e6dc8968_o.jpg",
    "id_image": "ANIME_PIC_99cb36618a6070af1f6fe865433be344",
    "count_view": 0
  },
  {
    "link_thumb": "https://live.staticflickr.com/65535/51568092369_4273fca94d_n.jpg",
    "id_album": "-1029026589",
    "description": "ANIME_PIC_99d0ab5ef2646de9e35ae5e174e33db2,[Sad],[isGirlAnime],[isCuteAnime],[isSadAnimeGirl],[isSadAnime]",
    "title": "ANIME_PIC_99d0ab5ef2646de9e35ae5e174e33db2",
    "link_img": "https://live.staticflickr.com/65535/51568092369_893299d000_o.png",
    "id_image": "ANIME_PIC_99d0ab5ef2646de9e35ae5e174e33db2",
    "count_view": 0
  },
  {
    "link_thumb": "https://live.staticflickr.com/65535/51568340935_336168050f_n.jpg",
    "id_album": "-1029026589",
    "description": "ANIME_PIC_99d45c87d172e7af57d265d117cbd1db,[Sad],[isGirlAnime],[isCuteAnime],[isSadAnimeGirl],[isSadAnime]",
    "title": "ANIME_PIC_99d45c87d172e7af57d265d117cbd1db",
    "link_img": "https://live.staticflickr.com/65535/51568340935_f1eb1d2e67_o.jpg",
    "id_image": "ANIME_PIC_99d45c87d172e7af57d265d117cbd1db",
    "count_view": 0
  },
  {
    "link_thumb": "https://live.staticflickr.com/65535/51567405666_96a1070cb9_n.jpg",
    "id_album": "-1029026589",
    "description": "ANIME_PIC_99da6d281cc83afc50221362bcb06838,[Sad],[isGirlAnime],[isCuteAnime],[isSadAnimeGirl],[isSadAnime]",
    "title": "ANIME_PIC_99da6d281cc83afc50221362bcb06838",
    "link_img": "https://live.staticflickr.com/65535/51567405666_ae3da0a1c0_o.jpg",
    "id_image": "ANIME_PIC_99da6d281cc83afc50221362bcb06838",
    "count_view": 0
  },
  {
    "link_thumb": "https://live.staticflickr.com/65535/51567651013_d55f16fb51_n.jpg",
    "id_album": "-1029026589",
    "description": "ANIME_PIC_99f5832ba92918b865172077f5eb0619,[Sad],[isGirlAnime],[isCuteAnime],[isGirlsLoliAnime],[isSadAnimeGirl],[isSadAnime]",
    "title": "ANIME_PIC_99f5832ba92918b865172077f5eb0619",
    "link_img": "https://live.staticflickr.com/65535/51567651013_2c320e60cc_o.png",
    "id_image": "ANIME_PIC_99f5832ba92918b865172077f5eb0619",
    "count_view": 0
  },
  {
    "link_thumb": "https://live.staticflickr.com/65535/51568343115_e761996a43_n.jpg",
    "id_album": "-1029026589",
    "description": "ANIME_PIC_9a13cb9117509292b39a82e7ee889f5c,[Sad],[isGirlAnime],[isSadAnimeGirl],[isSadAnime]",
    "title": "ANIME_PIC_9a13cb9117509292b39a82e7ee889f5c",
    "link_img": "https://live.staticflickr.com/65535/51568343115_6b4ffe992f_o.jpg",
    "id_image": "ANIME_PIC_9a13cb9117509292b39a82e7ee889f5c",
    "count_view": 0
  },
  {
    "link_thumb": "https://live.staticflickr.com/65535/51567652713_0076235534_n.jpg",
    "id_album": "-1029026589",
    "description": "ANIME_PIC_9a1576f32c39c46f92deed1563d3d5bc,[Sad],[isGirlAnime],[isCuteAnime],[isGirlsLoliAnime],[isSadAnimeGirl],[isSadAnime]",
    "title": "ANIME_PIC_9a1576f32c39c46f92deed1563d3d5bc",
    "link_img": "https://live.staticflickr.com/65535/51567652713_8997871bbb_o.jpg",
    "id_image": "ANIME_PIC_9a1576f32c39c46f92deed1563d3d5bc",
    "count_view": 0
  },
  {
    "link_thumb": "https://live.staticflickr.com/65535/51566613792_bfaa294a51_n.jpg",
    "id_album": "-1029026589",
    "description": "ANIME_PIC_9a1d94f2fadcabeadcf8f345c7fe1421,[Sad],[isGirlAnime],[isCuteAnime],[isGirlFaceMasksAnime],[isSadAnimeGirl],[isSadAnime]",
    "title": "ANIME_PIC_9a1d94f2fadcabeadcf8f345c7fe1421",
    "link_img": "https://live.staticflickr.com/65535/51566613792_c758482182_o.jpg",
    "id_image": "ANIME_PIC_9a1d94f2fadcabeadcf8f345c7fe1421",
    "count_view": 0
  },
  {
    "link_thumb": "https://live.staticflickr.com/65535/51568096604_e98f8ee2b7_n.jpg",
    "id_album": "-1029026589",
    "description": "ANIME_PIC_9a36c86ce1f82560a4a9cd19085a9d89,[Sad],[isGirlAnime],[isCuteAnime],[isGirlsLoliAnime],[isSadAnimeGirl],[isSadAnime]",
    "title": "ANIME_PIC_9a36c86ce1f82560a4a9cd19085a9d89",
    "link_img": "https://live.staticflickr.com/65535/51568096604_45956f0d46_o.jpg",
    "id_image": "ANIME_PIC_9a36c86ce1f82560a4a9cd19085a9d89",
    "count_view": 0
  },
  {
    "link_thumb": "https://live.staticflickr.com/65535/51568097074_4ffd03e9dd_n.jpg",
    "id_album": "-1029026589",
    "description": "ANIME_PIC_9a691a1bca6d96f83d1e7fa0efda154c,[Sad],[isGirlAnime],[isCuteAnime],[isSadAnimeGirl],[isSadAnime]",
    "title": "ANIME_PIC_9a691a1bca6d96f83d1e7fa0efda154c",
    "link_img": "https://live.staticflickr.com/65535/51568097074_1e52c389ba_o.jpg",
    "id_image": "ANIME_PIC_9a691a1bca6d96f83d1e7fa0efda154c",
    "count_view": 0
  },
  {
    "link_thumb": "https://live.staticflickr.com/65535/51568097489_d5ab3b0c96_n.jpg",
    "id_album": "-1029026589",
    "description": "ANIME_PIC_9a694bed389f94b8f59cfd401f0d9ba4,[Sad],[isGirlAnime],[isCuteAnime],[isSadAnimeGirl],[isSadAnime]",
    "title": "ANIME_PIC_9a694bed389f94b8f59cfd401f0d9ba4",
    "link_img": "https://live.staticflickr.com/65535/51568097489_c331f62ee6_o.jpg",
    "id_image": "ANIME_PIC_9a694bed389f94b8f59cfd401f0d9ba4",
    "count_view": 0
  },
  {
    "link_thumb": "https://live.staticflickr.com/65535/51567654893_62fd39fd6a_n.jpg",
    "id_album": "-1029026589",
    "description": "ANIME_PIC_9a705360f195d81db53ddcf1c0bc3b79,[Sad],[isGirlAnime],[isCuteAnime],[isSadAnimeGirl],[isSadAnime]",
    "title": "ANIME_PIC_9a705360f195d81db53ddcf1c0bc3b79",
    "link_img": "https://live.staticflickr.com/65535/51567654893_07a08db899_o.jpg",
    "id_image": "ANIME_PIC_9a705360f195d81db53ddcf1c0bc3b79",
    "count_view": 0
  },
  {
    "link_thumb": "https://live.staticflickr.com/65535/51568346280_ea71a84a32_n.jpg",
    "id_album": "-1029026589",
    "description": "ANIME_PIC_9a75b45e54e74870290f8b8eadbfb8d7,[Sad],[isGirlAnime],[isCuteAnime],[isGirlsLoliAnime],[isSadAnimeGirl],[isSadAnime]",
    "title": "ANIME_PIC_9a75b45e54e74870290f8b8eadbfb8d7",
    "link_img": "https://live.staticflickr.com/65535/51568346280_25a92746d2_o.png",
    "id_image": "ANIME_PIC_9a75b45e54e74870290f8b8eadbfb8d7",
    "count_view": 0
  },
  {
    "link_thumb": "https://live.staticflickr.com/65535/51568347105_15490942b2_n.jpg",
    "id_album": "-1029026589",
    "description": "ANIME_PIC_9a80df54e009c55623c1a2c859b0d35a,[Sad],[isGirlAnime],[isCuteAnime],[isSadAnimeGirl],[isSadAnime]",
    "title": "ANIME_PIC_9a80df54e009c55623c1a2c859b0d35a",
    "link_img": "https://live.staticflickr.com/65535/51568347105_cdc300ab37_o.jpg",
    "id_image": "ANIME_PIC_9a80df54e009c55623c1a2c859b0d35a",
    "count_view": 0
  },
  {
    "link_thumb": "https://live.staticflickr.com/65535/51566617107_6583b8ffbd_n.jpg",
    "id_album": "-1029026589",
    "description": "ANIME_PIC_9a83e6e2391d6e51c14df8e7854d6694,[Sad],[isGirlAnime],[isCuteAnime],[isGirlsLoliAnime],[isSadAnimeGirl],[isSadAnime]",
    "title": "ANIME_PIC_9a83e6e2391d6e51c14df8e7854d6694",
    "link_img": "https://live.staticflickr.com/65535/51566617107_3fc51a0a47_o.png",
    "id_image": "ANIME_PIC_9a83e6e2391d6e51c14df8e7854d6694",
    "count_view": 0
  },
  {
    "link_thumb": "https://live.staticflickr.com/65535/51567657283_505a94253f_n.jpg",
    "id_album": "-1029026589",
    "description": "ANIME_PIC_9aa77f6724c55c5f357ed2709f8b61da,[Sad],[isGirlAnime],[isSadAnimeGirl],[isSadAnime]",
    "title": "ANIME_PIC_9aa77f6724c55c5f357ed2709f8b61da",
    "link_img": "https://live.staticflickr.com/65535/51567657283_83d1e0c325_o.jpg",
    "id_image": "ANIME_PIC_9aa77f6724c55c5f357ed2709f8b61da",
    "count_view": 0
  },
  {
    "link_thumb": "https://live.staticflickr.com/65535/51567657753_95382cca70_n.jpg",
    "id_album": "-1029026589",
    "description": "ANIME_PIC_9aa971a48b930105bd2ad0bbb017f5f0,[Sad],[isGirlAnime],[isCuteAnime],[isSadAnimeGirl],[isSadAnime]",
    "title": "ANIME_PIC_9aa971a48b930105bd2ad0bbb017f5f0",
    "link_img": "https://live.staticflickr.com/65535/51567657753_f995461374_o.jpg",
    "id_image": "ANIME_PIC_9aa971a48b930105bd2ad0bbb017f5f0",
    "count_view": 0
  },
  {
    "link_thumb": "https://live.staticflickr.com/65535/51566618477_a3430723c7_n.jpg",
    "id_album": "-1029026589",
    "description": "ANIME_PIC_9ac4d9b7c3e6d17aca09e392c513d908,[Sad],[isGirlAnime],[isCuteAnime],[isGirlsLoliAnime],[isSadAnimeGirl],[isSadAnime]",
    "title": "ANIME_PIC_9ac4d9b7c3e6d17aca09e392c513d908",
    "link_img": "https://live.staticflickr.com/65535/51566618477_50620d3a62_o.jpg",
    "id_image": "ANIME_PIC_9ac4d9b7c3e6d17aca09e392c513d908",
    "count_view": 0
  },
  {
    "link_thumb": "https://live.staticflickr.com/65535/51568101324_a2a6da1a73_n.jpg",
    "id_album": "-1029026589",
    "description": "ANIME_PIC_9ac4e2591322cd4b21559a38782ed852,[Sad],[isGirlAnime],[isCuteAnime],[isGirlsLoliAnime],[isSadAnimeGirl],[isSadAnime]",
    "title": "ANIME_PIC_9ac4e2591322cd4b21559a38782ed852",
    "link_img": "https://live.staticflickr.com/65535/51568101324_9f8d5d9be4_o.jpg",
    "id_image": "ANIME_PIC_9ac4e2591322cd4b21559a38782ed852",
    "count_view": 0
  },
  {
    "link_thumb": "https://live.staticflickr.com/65535/51567658968_c181fa5f95_n.jpg",
    "id_album": "-1029026589",
    "description": "ANIME_PIC_9ac92ba3567784b0df49ae0a4a24c960,[Sad],[isGirlAnime],[isSadAnimeGirl],[isSadAnime]",
    "title": "ANIME_PIC_9ac92ba3567784b0df49ae0a4a24c960",
    "link_img": "https://live.staticflickr.com/65535/51567658968_388e6f9d3b_o.jpg",
    "id_image": "ANIME_PIC_9ac92ba3567784b0df49ae0a4a24c960",
    "count_view": 0
  },
  {
    "link_thumb": "https://live.staticflickr.com/65535/51568350210_9b845cd0eb_n.jpg",
    "id_album": "-1029026589",
    "description": "ANIME_PIC_9acdddf17eba759ab8ea2136195f5f42,[Sad],[isGirlAnime],[isCuteAnime],[isGirlsHatsHoodieAnime],[isSadAnimeGirl],[isSadAnime]",
    "title": "ANIME_PIC_9acdddf17eba759ab8ea2136195f5f42",
    "link_img": "https://live.staticflickr.com/65535/51568350210_0c6e549bed_o.jpg",
    "id_image": "ANIME_PIC_9acdddf17eba759ab8ea2136195f5f42",
    "count_view": 0
  },
  {
    "link_thumb": "https://live.staticflickr.com/65535/51568350685_ae78709646_n.jpg",
    "id_album": "-1029026589",
    "description": "ANIME_PIC_9af1bfdacec1cb9bc2f8b839f08c3d42,[Sad],[isGirlAnime],[isCuteAnime],[isGirlsLoliAnime],[isSadAnimeGirl],[isSadAnime]",
    "title": "ANIME_PIC_9af1bfdacec1cb9bc2f8b839f08c3d42",
    "link_img": "https://live.staticflickr.com/65535/51568350685_990de7f2ec_o.jpg",
    "id_image": "ANIME_PIC_9af1bfdacec1cb9bc2f8b839f08c3d42",
    "count_view": 0
  },
  {
    "link_thumb": "https://live.staticflickr.com/65535/51568102889_8b4a6517df_n.jpg",
    "id_album": "-1029026589",
    "description": "ANIME_PIC_9b12899f2f48966d419bca4b9293957c,[Sad],[isGirlAnime],[isCuteAnime],[isGirlEarsNekoAnime],[isSadAnimeGirl],[isSadAnime]",
    "title": "ANIME_PIC_9b12899f2f48966d419bca4b9293957c",
    "link_img": "https://live.staticflickr.com/65535/51568102889_4bce6eddca_o.jpg",
    "id_image": "ANIME_PIC_9b12899f2f48966d419bca4b9293957c",
    "count_view": 0
  },
  {
    "link_thumb": "https://live.staticflickr.com/65535/51567415671_5f8224356e_n.jpg",
    "id_album": "-1029026589",
    "description": "ANIME_PIC_9b1370de4060cb084ec3392a97fd38b5,[Sad],[isGirlAnime],[isCuteAnime],[isGirlsLoliAnime],[isSadAnimeGirl],[isSadAnime]",
    "title": "ANIME_PIC_9b1370de4060cb084ec3392a97fd38b5",
    "link_img": "https://live.staticflickr.com/65535/51567415671_8633a2c799_o.jpg",
    "id_image": "ANIME_PIC_9b1370de4060cb084ec3392a97fd38b5",
    "count_view": 0
  },
  {
    "link_thumb": "https://live.staticflickr.com/65535/51568352030_61745db83a_n.jpg",
    "id_album": "-1029026589",
    "description": "ANIME_PIC_9b13f781f5db06a52af2c12d0dc22ac9,[Sad],[isGirlAnime],[isCuteAnime],[isGirlsLoliAnime],[isSadAnimeGirl],[isSadAnime]",
    "title": "ANIME_PIC_9b13f781f5db06a52af2c12d0dc22ac9",
    "link_img": "https://live.staticflickr.com/65535/51568352030_cfdfabc148_o.jpg",
    "id_image": "ANIME_PIC_9b13f781f5db06a52af2c12d0dc22ac9",
    "count_view": 0
  },
  {
    "link_thumb": "https://live.staticflickr.com/65535/51567661383_11ed954307_n.jpg",
    "id_album": "-1029026589",
    "description": "ANIME_PIC_9b151100e7a2c461b7e64cccc31e8853,[Sad],[isGirlAnime],[isCuteAnime],[isGirlsLoliAnime],[isSadAnimeGirl],[isSadAnime]",
    "title": "ANIME_PIC_9b151100e7a2c461b7e64cccc31e8853",
    "link_img": "https://live.staticflickr.com/65535/51567661383_d23866d28e_o.jpg",
    "id_image": "ANIME_PIC_9b151100e7a2c461b7e64cccc31e8853",
    "count_view": 0
  },
  {
    "link_thumb": "https://live.staticflickr.com/65535/51567416716_71ff437e0b_n.jpg",
    "id_album": "-1029026589",
    "description": "ANIME_PIC_9b1ac57a378d513bfb64d47ce600d8b1,[Sad],[isGirlAnime],[isSadAnimeGirl],[isSadAnime]",
    "title": "ANIME_PIC_9b1ac57a378d513bfb64d47ce600d8b1",
    "link_img": "https://live.staticflickr.com/65535/51567416716_297ca8ac12_o.jpg",
    "id_image": "ANIME_PIC_9b1ac57a378d513bfb64d47ce600d8b1",
    "count_view": 0
  },
  {
    "link_thumb": "https://live.staticflickr.com/65535/51568104774_49f74cd35b_n.jpg",
    "id_album": "-1029026589",
    "description": "ANIME_PIC_9b1edc0d25cfbbab46208d0e2cde097a,[Sad],[isGirlAnime],[isCuteAnime],[isSadAnimeGirl],[isSadAnime]",
    "title": "ANIME_PIC_9b1edc0d25cfbbab46208d0e2cde097a",
    "link_img": "https://live.staticflickr.com/65535/51568104774_6a43782e7b_o.jpg",
    "id_image": "ANIME_PIC_9b1edc0d25cfbbab46208d0e2cde097a",
    "count_view": 0
  },
  {
    "link_thumb": "https://live.staticflickr.com/65535/51566622867_1d12572802_n.jpg",
    "id_album": "-1029026589",
    "description": "ANIME_PIC_9b214b15003e9877ed6688c17ddaf87d,[Sad],[isGirlAnime],[isCuteAnime],[isGirlEarsNekoAnime],[isGirlFaceMasksAnime],[isGirlsLoliAnime],[isSadAnimeGirl],[isSadAnime]",
    "title": "ANIME_PIC_9b214b15003e9877ed6688c17ddaf87d",
    "link_img": "https://live.staticflickr.com/65535/51566622867_e1a933a83d_o.jpg",
    "id_image": "ANIME_PIC_9b214b15003e9877ed6688c17ddaf87d",
    "count_view": 0
  },
  {
    "link_thumb": "https://live.staticflickr.com/65535/51567662843_71a426f393_n.jpg",
    "id_album": "-1029026589",
    "description": "ANIME_PIC_9b3095ec88e1593b2daac40990f9b2fa,[Sad],[isGirlAnime],[isCuteAnime],[isGirlsLoliAnime],[isSadAnimeGirl],[isSadAnime]",
    "title": "ANIME_PIC_9b3095ec88e1593b2daac40990f9b2fa",
    "link_img": "https://live.staticflickr.com/65535/51567662843_edd8a4fb2b_o.png",
    "id_image": "ANIME_PIC_9b3095ec88e1593b2daac40990f9b2fa",
    "count_view": 0
  },
  {
    "link_thumb": "https://live.staticflickr.com/65535/51566623642_b3422ee5f5_n.jpg",
    "id_album": "-1029026589",
    "description": "ANIME_PIC_9b37a919f4bec4ed5f2fef3b9551e063,[Sad],[isGirlAnime],[isCuteAnime],[isSadAnimeGirl],[isSadAnime]",
    "title": "ANIME_PIC_9b37a919f4bec4ed5f2fef3b9551e063",
    "link_img": "https://live.staticflickr.com/65535/51566623642_32450f6ec9_o.jpg",
    "id_image": "ANIME_PIC_9b37a919f4bec4ed5f2fef3b9551e063",
    "count_view": 0
  },
  {
    "link_thumb": "https://live.staticflickr.com/65535/51568354465_0a120074c0_n.jpg",
    "id_album": "-1029026589",
    "description": "ANIME_PIC_9b3e20bf0fa2f968f54db9f8a340a266,[Sad],[isGirlAnime],[isCuteAnime],[isGirlEarsNekoAnime],[isGirlsLoliAnime],[isSadAnimeGirl],[isSadAnime]",
    "title": "ANIME_PIC_9b3e20bf0fa2f968f54db9f8a340a266",
    "link_img": "https://live.staticflickr.com/65535/51568354465_bd5489ace6_o.jpg",
    "id_image": "ANIME_PIC_9b3e20bf0fa2f968f54db9f8a340a266",
    "count_view": 0
  },
  {
    "link_thumb": "https://live.staticflickr.com/65535/51568106774_4937a8318b_n.jpg",
    "id_album": "-1029026589",
    "description": "ANIME_PIC_9b485ad41f2043f0c0e29387026deb98,[Sad],[isGirlAnime],[isCuteAnime],[isGirlsHatsHoodieAnime],[isGirlsLoliAnime],[isSadAnimeGirl],[isGirlsSharpCanineToothAnime],[isSadAnime]",
    "title": "ANIME_PIC_9b485ad41f2043f0c0e29387026deb98",
    "link_img": "https://live.staticflickr.com/65535/51568106774_441f5dea4f_o.jpg",
    "id_image": "ANIME_PIC_9b485ad41f2043f0c0e29387026deb98",
    "count_view": 0
  },
  {
    "link_thumb": "https://live.staticflickr.com/65535/51566624617_ecb308112a_n.jpg",
    "id_album": "-1029026589",
    "description": "ANIME_PIC_9b5a0477f5c054b7f77d97be560cf2b7,[Sad],[isGirlAnime],[isGirlsHatsHoodieAnime],[isSadAnimeGirl],[isSadAnime]",
    "title": "ANIME_PIC_9b5a0477f5c054b7f77d97be560cf2b7",
    "link_img": "https://live.staticflickr.com/65535/51566624617_c106332440_o.jpg",
    "id_image": "ANIME_PIC_9b5a0477f5c054b7f77d97be560cf2b7",
    "count_view": 0
  },
  {
    "link_thumb": "https://live.staticflickr.com/65535/51567664623_0b5de1ea3b_n.jpg",
    "id_album": "-1029026589",
    "description": "ANIME_PIC_9b5a887049d011813e63344edec797f7,[Sad],[isGirlAnime],[isCuteAnime],[isGirlEarsNekoAnime],[isGirlsLoliAnime],[isSadAnimeGirl],[isSadAnime]",
    "title": "ANIME_PIC_9b5a887049d011813e63344edec797f7",
    "link_img": "https://live.staticflickr.com/65535/51567664623_2d2c18d37d_o.jpg",
    "id_image": "ANIME_PIC_9b5a887049d011813e63344edec797f7",
    "count_view": 0
  },
  {
    "link_thumb": "https://live.staticflickr.com/65535/51568108019_870330798d_n.jpg",
    "id_album": "-1029026589",
    "description": "ANIME_PIC_9b5ca82a69ae2bd3841bae7fa2cc9c01,[Sad],[isGirlAnime],[isSadAnimeGirl],[isSadAnime]",
    "title": "ANIME_PIC_9b5ca82a69ae2bd3841bae7fa2cc9c01",
    "link_img": "https://live.staticflickr.com/65535/51568108019_023d08439e_o.jpg",
    "id_image": "ANIME_PIC_9b5ca82a69ae2bd3841bae7fa2cc9c01",
    "count_view": 0
  },
  {
    "link_thumb": "https://live.staticflickr.com/65535/51567665283_e335baf38d_n.jpg",
    "id_album": "-1029026589",
    "description": "ANIME_PIC_9b610c2d8c632ed4fbc5fbd658482ec3,[Sad],[isGirlAnime],[isCuteAnime],[isSadAnimeGirl],[isSadAnime]",
    "title": "ANIME_PIC_9b610c2d8c632ed4fbc5fbd658482ec3",
    "link_img": "https://live.staticflickr.com/65535/51567665283_9dc725a38a_o.jpg",
    "id_image": "ANIME_PIC_9b610c2d8c632ed4fbc5fbd658482ec3",
    "count_view": 0
  },
  {
    "link_thumb": "https://live.staticflickr.com/65535/51566625827_a42f81866e_n.jpg",
    "id_album": "-1029026589",
    "description": "ANIME_PIC_9b65e0f557b08a72cf8671f6caa92ae5,[Sad],[isGirlAnime],[isCuteAnime],[isSadAnimeGirl],[isSadAnime]",
    "title": "ANIME_PIC_9b65e0f557b08a72cf8671f6caa92ae5",
    "link_img": "https://live.staticflickr.com/65535/51566625827_da38094394_o.png",
    "id_image": "ANIME_PIC_9b65e0f557b08a72cf8671f6caa92ae5",
    "count_view": 0
  },
  {
    "link_thumb": "https://live.staticflickr.com/65535/51567421186_8dd7f2b051_n.jpg",
    "id_album": "-1029026589",
    "description": "ANIME_PIC_9b76a34283f17c8fe48558e84763cbe4,[Sad],[isGirlAnime],[isCuteAnime],[isSadAnimeGirl],[isSadAnime]",
    "title": "ANIME_PIC_9b76a34283f17c8fe48558e84763cbe4",
    "link_img": "https://live.staticflickr.com/65535/51567421186_8f0fbdb35b_o.png",
    "id_image": "ANIME_PIC_9b76a34283f17c8fe48558e84763cbe4",
    "count_view": 0
  },
  {
    "link_thumb": "https://live.staticflickr.com/65535/51567666838_7cee1d15c5_n.jpg",
    "id_album": "-1029026589",
    "description": "ANIME_PIC_9b7a27a532c58a06957b092893a9f6af,[Sad],[isGirlAnime],[isCuteAnime],[isSadAnimeGirl],[isSadAnime]",
    "title": "ANIME_PIC_9b7a27a532c58a06957b092893a9f6af",
    "link_img": "https://live.staticflickr.com/65535/51567666838_02a201fc3e_o.jpg",
    "id_image": "ANIME_PIC_9b7a27a532c58a06957b092893a9f6af",
    "count_view": 0
  },
  {
    "link_thumb": "https://live.staticflickr.com/65535/51567422021_37dc3ea1ff_n.jpg",
    "id_album": "-1029026589",
    "description": "ANIME_PIC_9b81fffd005b1f3dad7f3549ef900801,[Sad],[isGirlAnime],[isCuteAnime],[isSadAnimeGirl],[isSadAnime]",
    "title": "ANIME_PIC_9b81fffd005b1f3dad7f3549ef900801",
    "link_img": "https://live.staticflickr.com/65535/51567422021_c892da2346_o.jpg",
    "id_image": "ANIME_PIC_9b81fffd005b1f3dad7f3549ef900801",
    "count_view": 0
  },
  {
    "link_thumb": "https://live.staticflickr.com/65535/51567667528_8c8f51b7c5_n.jpg",
    "id_album": "-1029026589",
    "description": "ANIME_PIC_9b9ca96c62ab080e8c13f3016f5fbd8e,[Sad],[isGirlAnime],[isCuteAnime],[isSadAnimeGirl],[isSadAnime]",
    "title": "ANIME_PIC_9b9ca96c62ab080e8c13f3016f5fbd8e",
    "link_img": "https://live.staticflickr.com/65535/51567667528_44ccafda95_o.jpg",
    "id_image": "ANIME_PIC_9b9ca96c62ab080e8c13f3016f5fbd8e",
    "count_view": 0
  },
  {
    "link_thumb": "https://live.staticflickr.com/65535/51567422901_b96c7aea97_n.jpg",
    "id_album": "-1029026589",
    "description": "ANIME_PIC_9ba257dbbd1a57fd28664fde63b7de22,[Sad],[isGirlAnime],[isSadAnimeGirl],[isSadAnime]",
    "title": "ANIME_PIC_9ba257dbbd1a57fd28664fde63b7de22",
    "link_img": "https://live.staticflickr.com/65535/51567422901_be7f9876e5_o.jpg",
    "id_image": "ANIME_PIC_9ba257dbbd1a57fd28664fde63b7de22",
    "count_view": 0
  },
  {
    "link_thumb": "https://live.staticflickr.com/65535/51567668418_17ff1685d6_n.jpg",
    "id_album": "-1029026589",
    "description": "ANIME_PIC_9ba788e6a15ebf1a740a74879e20385c,[Sad],[isGirlAnime],[isCuteAnime],[isGirlsLoliAnime],[isSadAnimeGirl],[isSadAnime]",
    "title": "ANIME_PIC_9ba788e6a15ebf1a740a74879e20385c",
    "link_img": "https://live.staticflickr.com/65535/51567668418_70a0ec9b49_o.jpg",
    "id_image": "ANIME_PIC_9ba788e6a15ebf1a740a74879e20385c",
    "count_view": 0
  },
  {
    "link_thumb": "https://live.staticflickr.com/65535/51568111454_708bfd3096_n.jpg",
    "id_album": "-1029026589",
    "description": "ANIME_PIC_9bad06ab66373dfe831d8de57ba751c9,[Sad],[isGirlAnime],[isSadAnimeGirl],[isSadAnime]",
    "title": "ANIME_PIC_9bad06ab66373dfe831d8de57ba751c9",
    "link_img": "https://live.staticflickr.com/65535/51568111454_714d7a37dd_o.png",
    "id_image": "ANIME_PIC_9bad06ab66373dfe831d8de57ba751c9",
    "count_view": 0
  },
  {
    "link_thumb": "https://live.staticflickr.com/65535/51568112014_4799ac86fe_n.jpg",
    "id_album": "-1029026589",
    "description": "ANIME_PIC_9bb117d558821e6a0ef78587572e289a,[Sad],[isGirlAnime],[isCuteAnime],[isGirlsLoliAnime],[isSadAnimeGirl],[isSadAnime]",
    "title": "ANIME_PIC_9bb117d558821e6a0ef78587572e289a",
    "link_img": "https://live.staticflickr.com/65535/51568112014_c715c525a1_o.jpg",
    "id_image": "ANIME_PIC_9bb117d558821e6a0ef78587572e289a",
    "count_view": 0
  },
  {
    "link_thumb": "https://live.staticflickr.com/65535/51567669748_329dd23fe2_n.jpg",
    "id_album": "-1029026589",
    "description": "ANIME_PIC_9bc12943dc358a640cfbd94b98408815,[Sad],[isGirlAnime],[isCuteAnime],[isGirlsLoliAnime],[isSadAnimeGirl],[isSadAnime]",
    "title": "ANIME_PIC_9bc12943dc358a640cfbd94b98408815",
    "link_img": "https://live.staticflickr.com/65535/51567669748_88db3859e8_o.png",
    "id_image": "ANIME_PIC_9bc12943dc358a640cfbd94b98408815",
    "count_view": 0
  },
  {
    "link_thumb": "https://live.staticflickr.com/65535/51568361125_69bbf49165_n.jpg",
    "id_album": "-1029026589",
    "description": "ANIME_PIC_9bc53dd08db7e5069491c08e8dbc49fb,[Sad],[isGirlAnime],[isCuteAnime],[isGirlsHatsHoodieAnime],[isGirlsLoliAnime],[isSadAnimeGirl],[isSadAnime]",
    "title": "ANIME_PIC_9bc53dd08db7e5069491c08e8dbc49fb",
    "link_img": "https://live.staticflickr.com/65535/51568361125_01840bfa0b_o.jpg",
    "id_image": "ANIME_PIC_9bc53dd08db7e5069491c08e8dbc49fb",
    "count_view": 0
  },
  {
    "link_thumb": "https://live.staticflickr.com/65535/51567670833_35519aed48_n.jpg",
    "id_album": "-1029026589",
    "description": "ANIME_PIC_9bc883caa620c8d5473e4594850e14a1,[Sad],[isGirlAnime],[isCuteAnime],[isGirlsLoliAnime],[isSadAnimeGirl],[isSadAnime]",
    "title": "ANIME_PIC_9bc883caa620c8d5473e4594850e14a1",
    "link_img": "https://live.staticflickr.com/65535/51567670833_2732096957_o.jpg",
    "id_image": "ANIME_PIC_9bc883caa620c8d5473e4594850e14a1",
    "count_view": 0
  },
  {
    "link_thumb": "https://live.staticflickr.com/65535/51568361660_7fca11077e_n.jpg",
    "id_album": "-1029026589",
    "description": "ANIME_PIC_9bcb483ec3d17bda343b8888833aa537,[Sad],[isGirlAnime],[isCuteAnime],[isGirlsLoliAnime],[isSadAnimeGirl],[isSadAnime]",
    "title": "ANIME_PIC_9bcb483ec3d17bda343b8888833aa537",
    "link_img": "https://live.staticflickr.com/65535/51568361660_bb6e8c136f_o.png",
    "id_image": "ANIME_PIC_9bcb483ec3d17bda343b8888833aa537",
    "count_view": 0
  },
  {
    "link_thumb": "https://live.staticflickr.com/65535/51568114339_11026c8f9f_n.jpg",
    "id_album": "-1029026589",
    "description": "ANIME_PIC_9beaa52a4613df16a0ab9850d33fd622,[Sad],[isGirlAnime],[isCuteAnime],[isGirlsLoliAnime],[isSadAnimeGirl],[isSadAnime]",
    "title": "ANIME_PIC_9beaa52a4613df16a0ab9850d33fd622",
    "link_img": "https://live.staticflickr.com/65535/51568114339_d8f89a52de_o.jpg",
    "id_image": "ANIME_PIC_9beaa52a4613df16a0ab9850d33fd622",
    "count_view": 0
  },
  {
    "link_thumb": "https://live.staticflickr.com/65535/51567426851_9eb9ae95ca_n.jpg",
    "id_album": "-1029026589",
    "description": "ANIME_PIC_9bf9c06b31d592993efe5342bdc3774c,[Sad],[isGirlAnime],[isCuteAnime],[isSadAnimeGirl],[isSadAnime]",
    "title": "ANIME_PIC_9bf9c06b31d592993efe5342bdc3774c",
    "link_img": "https://live.staticflickr.com/65535/51567426851_9e814ca5f1_o.jpg",
    "id_image": "ANIME_PIC_9bf9c06b31d592993efe5342bdc3774c",
    "count_view": 0
  },
  {
    "link_thumb": "https://live.staticflickr.com/65535/51568114869_74b9d4cf54_n.jpg",
    "id_album": "-1029026589",
    "description": "ANIME_PIC_9c051a47797b795a3bc4dfe01f9957cb,[Sad],[isGirlAnime],[isCuteAnime],[isSadAnimeGirl],[isSadAnime]",
    "title": "ANIME_PIC_9c051a47797b795a3bc4dfe01f9957cb",
    "link_img": "https://live.staticflickr.com/65535/51568114869_f93d6c65ab_o.jpg",
    "id_image": "ANIME_PIC_9c051a47797b795a3bc4dfe01f9957cb",
    "count_view": 0
  },
  {
    "link_thumb": "https://live.staticflickr.com/65535/51567427541_9c7091c57e_n.jpg",
    "id_album": "-1029026589",
    "description": "ANIME_PIC_9c1788cfc90d1079422dec8cb67ec0a6,[Sad],[isGirlAnime],[isCuteAnime],[isSadAnimeGirl],[isSadAnime]",
    "title": "ANIME_PIC_9c1788cfc90d1079422dec8cb67ec0a6",
    "link_img": "https://live.staticflickr.com/65535/51567427541_95daabefd3_o.jpg",
    "id_image": "ANIME_PIC_9c1788cfc90d1079422dec8cb67ec0a6",
    "count_view": 0
  },
  {
    "link_thumb": "https://live.staticflickr.com/65535/51566632417_ea02ee02ec_n.jpg",
    "id_album": "-1029026589",
    "description": "ANIME_PIC_9c1aac34ad1c1dfc20b0cca6688b7d09,[Sad],[isGirlAnime],[isSadAnimeGirl],[isSadAnime]",
    "title": "ANIME_PIC_9c1aac34ad1c1dfc20b0cca6688b7d09",
    "link_img": "https://live.staticflickr.com/65535/51566632417_1391d97999_o.jpg",
    "id_image": "ANIME_PIC_9c1aac34ad1c1dfc20b0cca6688b7d09",
    "count_view": 0
  },
  {
    "link_thumb": "https://live.staticflickr.com/65535/51567672963_3192ec6f05_n.jpg",
    "id_album": "-1029026589",
    "description": "ANIME_PIC_9c1d5440ae87318ca2e547af4c53c090,[Sad],[isGirlAnime],[isCuteAnime],[isGirlEarsNekoAnime],[isGirlsLoliAnime],[isSadAnimeGirl],[isSadAnime]",
    "title": "ANIME_PIC_9c1d5440ae87318ca2e547af4c53c090",
    "link_img": "https://live.staticflickr.com/65535/51567672963_d3c1c79915_o.jpg",
    "id_image": "ANIME_PIC_9c1d5440ae87318ca2e547af4c53c090",
    "count_view": 0
  },
  {
    "link_thumb": "https://live.staticflickr.com/65535/51568363875_d4d167d81e_n.jpg",
    "id_album": "-1029026589",
    "description": "ANIME_PIC_9c1fd3ea33dbde0cdd99519f19fa79bf,[Sad],[isGirlAnime],[isCuteAnime],[isGirlEarsNekoAnime],[isGirlsHatsHoodieAnime],[isGirlsLoliAnime],[isSadAnimeGirl],[isSadAnime]",
    "title": "ANIME_PIC_9c1fd3ea33dbde0cdd99519f19fa79bf",
    "link_img": "https://live.staticflickr.com/65535/51568363875_6927bbc45e_o.png",
    "id_image": "ANIME_PIC_9c1fd3ea33dbde0cdd99519f19fa79bf",
    "count_view": 0
  },
  {
    "link_thumb": "https://live.staticflickr.com/65535/51566634252_ac754cd125_n.jpg",
    "id_album": "-1029026589",
    "description": "ANIME_PIC_9c22bc3871ffe7273df5aba8dd3131c5,[Sad],[isGirlAnime],[isSadAnimeGirl],[isSadAnime]",
    "title": "ANIME_PIC_9c22bc3871ffe7273df5aba8dd3131c5",
    "link_img": "https://live.staticflickr.com/65535/51566634252_927a2021fe_o.jpg",
    "id_image": "ANIME_PIC_9c22bc3871ffe7273df5aba8dd3131c5",
    "count_view": 0
  },
  {
    "link_thumb": "https://live.staticflickr.com/65535/51567430261_aec84a9405_n.jpg",
    "id_album": "-1029026589",
    "description": "ANIME_PIC_9c29d86de9043326ab52c7052b388f15,[Sad],[isGirlAnime],[isCuteAnime],[isSadAnimeGirl],[isSadAnime]",
    "title": "ANIME_PIC_9c29d86de9043326ab52c7052b388f15",
    "link_img": "https://live.staticflickr.com/65535/51567430261_2de12a4c6c_o.png",
    "id_image": "ANIME_PIC_9c29d86de9043326ab52c7052b388f15",
    "count_view": 0
  },
  {
    "link_thumb": "https://live.staticflickr.com/65535/51567675298_9e6e6c7b9f_n.jpg",
    "id_album": "-1029026589",
    "description": "ANIME_PIC_9c35ae180976446260de224623638c86,[Sad],[isGirlAnime],[isCuteAnime],[isGirlsLoliAnime],[isSadAnimeGirl],[isSadAnime]",
    "title": "ANIME_PIC_9c35ae180976446260de224623638c86",
    "link_img": "https://live.staticflickr.com/65535/51567675298_7af663f0c5_o.jpg",
    "id_image": "ANIME_PIC_9c35ae180976446260de224623638c86",
    "count_view": 0
  },
  {
    "link_thumb": "https://live.staticflickr.com/65535/51568366310_1d9363cb2f_n.jpg",
    "id_album": "-1029026589",
    "description": "ANIME_PIC_9c3d1fa42cbc592348eeb69ddfd43825,[Sad],[isGirlAnime],[isSadAnimeGirl],[isSadAnime]",
    "title": "ANIME_PIC_9c3d1fa42cbc592348eeb69ddfd43825",
    "link_img": "https://live.staticflickr.com/65535/51568366310_821c482573_o.png",
    "id_image": "ANIME_PIC_9c3d1fa42cbc592348eeb69ddfd43825",
    "count_view": 0
  },
  {
    "link_thumb": "https://live.staticflickr.com/65535/51568119694_d7b389874d_n.jpg",
    "id_album": "-1029026589",
    "description": "ANIME_PIC_9c5b7c437fb10173c7705088bf9b7848,[Sad],[isGirlAnime],[isCuteAnime],[isGirlsLoliAnime],[isSadAnimeGirl],[isSadAnime]",
    "title": "ANIME_PIC_9c5b7c437fb10173c7705088bf9b7848",
    "link_img": "https://live.staticflickr.com/65535/51568119694_8abc006101_o.png",
    "id_image": "ANIME_PIC_9c5b7c437fb10173c7705088bf9b7848",
    "count_view": 0
  },
  {
    "link_thumb": "https://live.staticflickr.com/65535/51568368380_874aa04a5f_n.jpg",
    "id_album": "-1029026589",
    "description": "ANIME_PIC_9c6c5e48933b8c9322df4fa5bc4dda86,[Sad],[isGirlAnime],[isCuteAnime],[isGirlsLoliAnime],[isSadAnimeGirl],[isSadAnime]",
    "title": "ANIME_PIC_9c6c5e48933b8c9322df4fa5bc4dda86",
    "link_img": "https://live.staticflickr.com/65535/51568368380_2bcf03dfcf_o.jpg",
    "id_image": "ANIME_PIC_9c6c5e48933b8c9322df4fa5bc4dda86",
    "count_view": 0
  },
  {
    "link_thumb": "https://live.staticflickr.com/65535/51568120699_4d54076674_n.jpg",
    "id_album": "-1029026589",
    "description": "ANIME_PIC_9c7cf16c2bac1513f1472ce0f80f3071,[Sad],[isGirlAnime],[isCuteAnime],[isSadAnimeGirl],[isSadAnime]",
    "title": "ANIME_PIC_9c7cf16c2bac1513f1472ce0f80f3071",
    "link_img": "https://live.staticflickr.com/65535/51568120699_8bcd7a3ce3_o.jpg",
    "id_image": "ANIME_PIC_9c7cf16c2bac1513f1472ce0f80f3071",
    "count_view": 0
  },
  {
    "link_thumb": "https://live.staticflickr.com/65535/51567433456_6806682e3d_n.jpg",
    "id_album": "-1029026589",
    "description": "ANIME_PIC_9c917190043ad4a217ce644b1eb6b4e0,[Sad],[isGirlAnime],[isCuteAnime],[isGirlsLoliAnime],[isSadAnimeGirl],[isSadAnime]",
    "title": "ANIME_PIC_9c917190043ad4a217ce644b1eb6b4e0",
    "link_img": "https://live.staticflickr.com/65535/51567433456_3a6358f7d5_o.jpg",
    "id_image": "ANIME_PIC_9c917190043ad4a217ce644b1eb6b4e0",
    "count_view": 0
  },
  {
    "link_thumb": "https://live.staticflickr.com/65535/51566638662_be0de7d192_n.jpg",
    "id_album": "-1029026589",
    "description": "ANIME_PIC_9c943727625ef603636015a725db9c53,[Sad],[isGirlAnime],[isCuteAnime],[isGirlsLoliAnime],[isSadAnimeGirl],[isSadAnime]",
    "title": "ANIME_PIC_9c943727625ef603636015a725db9c53",
    "link_img": "https://live.staticflickr.com/65535/51566638662_9f2ff42f32_o.jpg",
    "id_image": "ANIME_PIC_9c943727625ef603636015a725db9c53",
    "count_view": 0
  },
  {
    "link_thumb": "https://live.staticflickr.com/65535/51567434251_7b8a03dc05_n.jpg",
    "id_album": "-1029026589",
    "description": "ANIME_PIC_9c9e6b2decf399db5a5a02021b9822fb,[Sad],[isGirlAnime],[isCuteAnime],[isGirlsLoliAnime],[isSadAnimeGirl],[isSadAnime]",
    "title": "ANIME_PIC_9c9e6b2decf399db5a5a02021b9822fb",
    "link_img": "https://live.staticflickr.com/65535/51567434251_fc04fed41b_o.png",
    "id_image": "ANIME_PIC_9c9e6b2decf399db5a5a02021b9822fb",
    "count_view": 0
  },
  {
    "link_thumb": "https://live.staticflickr.com/65535/51566639717_dc064f1d6f_n.jpg",
    "id_album": "-1029026589",
    "description": "ANIME_PIC_9ca1dad6517879a20aed78aebbe26020,[Sad],[isGirlAnime],[isCuteAnime],[isGirlsLoliAnime],[isSadAnimeGirl],[isSadAnime]",
    "title": "ANIME_PIC_9ca1dad6517879a20aed78aebbe26020",
    "link_img": "https://live.staticflickr.com/65535/51566639717_57464bfbb5_o.png",
    "id_image": "ANIME_PIC_9ca1dad6517879a20aed78aebbe26020",
    "count_view": 0
  },
  {
    "link_thumb": "https://live.staticflickr.com/65535/51566640197_89b25f8516_n.jpg",
    "id_album": "-1029026589",
    "description": "ANIME_PIC_9cac4ee543bbbdc42a3f90a5c09cb9d6,[Sad],[isGirlAnime],[isCuteAnime],[isSadAnimeGirl],[isSadAnime]",
    "title": "ANIME_PIC_9cac4ee543bbbdc42a3f90a5c09cb9d6",
    "link_img": "https://live.staticflickr.com/65535/51566640197_9261cdcc33_o.png",
    "id_image": "ANIME_PIC_9cac4ee543bbbdc42a3f90a5c09cb9d6",
    "count_view": 0
  },
  {
    "link_thumb": "https://live.staticflickr.com/65535/51567435921_e8886c37ee_n.jpg",
    "id_album": "-1029026589",
    "description": "ANIME_PIC_9cca6827b149668948e1cda19b4c04f5,[Sad],[isGirlAnime],[isCuteAnime],[isGirlsHatsHoodieAnime],[isGirlsLoliAnime],[isSadAnimeGirl],[isSadAnime]",
    "title": "ANIME_PIC_9cca6827b149668948e1cda19b4c04f5",
    "link_img": "https://live.staticflickr.com/65535/51567435921_445afd93bf_o.jpg",
    "id_image": "ANIME_PIC_9cca6827b149668948e1cda19b4c04f5",
    "count_view": 0
  },
  {
    "link_thumb": "https://live.staticflickr.com/65535/51568124114_406e999693_n.jpg",
    "id_album": "-1029026589",
    "description": "ANIME_PIC_9cdb4344d1bf2136bff92dd3b7b4e840,[Sad],[isGirlAnime],[isCuteAnime],[isGirlsLoliAnime],[isSadAnimeGirl],[isSadAnime]",
    "title": "ANIME_PIC_9cdb4344d1bf2136bff92dd3b7b4e840",
    "link_img": "https://live.staticflickr.com/65535/51568124114_dee20728fe_o.jpg",
    "id_image": "ANIME_PIC_9cdb4344d1bf2136bff92dd3b7b4e840",
    "count_view": 0
  },
  {
    "link_thumb": "https://live.staticflickr.com/65535/51568372385_d19405a9b4_n.jpg",
    "id_album": "-1029026589",
    "description": "ANIME_PIC_9cea8824579d19cc69e5c172b9d5a5a1,[Sad],[isGirlAnime],[isCuteAnime],[isGirlsHatsHoodieAnime],[isGirlsLoliAnime],[isSadAnimeGirl],[isSadAnime]",
    "title": "ANIME_PIC_9cea8824579d19cc69e5c172b9d5a5a1",
    "link_img": "https://live.staticflickr.com/65535/51568372385_8900e0e45a_o.jpg",
    "id_image": "ANIME_PIC_9cea8824579d19cc69e5c172b9d5a5a1",
    "count_view": 0
  },
  {
    "link_thumb": "https://live.staticflickr.com/65535/51567682238_f744ebb316_n.jpg",
    "id_album": "-1029026589",
    "description": "ANIME_PIC_9cef2fe1a822635676ccb26f980e093a,[Sad],[isGirlAnime],[isCuteAnime],[isGirlFaceMasksAnime],[isGirlsLoliAnime],[isSadAnimeGirl],[isSadAnime]",
    "title": "ANIME_PIC_9cef2fe1a822635676ccb26f980e093a",
    "link_img": "https://live.staticflickr.com/65535/51567682238_51475d465b_o.jpg",
    "id_image": "ANIME_PIC_9cef2fe1a822635676ccb26f980e093a",
    "count_view": 0
  },
  {
    "link_thumb": "https://live.staticflickr.com/65535/51567682488_095c5e9992_n.jpg",
    "id_album": "-1029026589",
    "description": "ANIME_PIC_9d03e43e332b6e30513822a2768849dc,[Sad],[isGirlAnime],[isCuteAnime],[isGirlEarsNekoAnime],[isGirlsLoliAnime],[isSadAnimeGirl],[isSadAnime]",
    "title": "ANIME_PIC_9d03e43e332b6e30513822a2768849dc",
    "link_img": "https://live.staticflickr.com/65535/51567682488_8303069fee_o.png",
    "id_image": "ANIME_PIC_9d03e43e332b6e30513822a2768849dc",
    "count_view": 0
  },
  {
    "link_thumb": "https://live.staticflickr.com/65535/51567682933_960e942a1a_n.jpg",
    "id_album": "-1029026589",
    "description": "ANIME_PIC_9d0651fa121fd8ab99714d67cb998eb3,[Sad],[isGirlAnime],[isCuteAnime],[isGirlsLoliAnime],[isSadAnimeGirl],[isSadAnime]",
    "title": "ANIME_PIC_9d0651fa121fd8ab99714d67cb998eb3",
    "link_img": "https://live.staticflickr.com/65535/51567682933_5329ecdc23_o.jpg",
    "id_image": "ANIME_PIC_9d0651fa121fd8ab99714d67cb998eb3",
    "count_view": 0
  },
  {
    "link_thumb": "https://live.staticflickr.com/65535/51568374070_ae0330aa7b_n.jpg",
    "id_album": "-1029026589",
    "description": "ANIME_PIC_9d13e28bbfc3af1a17ce299cf80ab74a,[Sad],[isGirlAnime],[isCuteAnime],[isGirlsLoliAnime],[isSadAnimeGirl],[isSadAnime]",
    "title": "ANIME_PIC_9d13e28bbfc3af1a17ce299cf80ab74a",
    "link_img": "https://live.staticflickr.com/65535/51568374070_acfbb8497c_o.png",
    "id_image": "ANIME_PIC_9d13e28bbfc3af1a17ce299cf80ab74a",
    "count_view": 0
  },
  {
    "link_thumb": "https://live.staticflickr.com/65535/51568375675_7f337c6b0a_n.jpg",
    "id_album": "-1029026589",
    "description": "ANIME_PIC_9d18478ad5ae1fa9336112f20c291490,[Sad],[isGirlAnime],[isCuteAnime],[isSadAnimeGirl],[isSadAnime]",
    "title": "ANIME_PIC_9d18478ad5ae1fa9336112f20c291490",
    "link_img": "https://live.staticflickr.com/65535/51568375675_5785e840d5_o.png",
    "id_image": "ANIME_PIC_9d18478ad5ae1fa9336112f20c291490",
    "count_view": 0
  },
  {
    "link_thumb": "https://live.staticflickr.com/65535/51568376465_eba555c1ec_n.jpg",
    "id_album": "-1029026589",
    "description": "ANIME_PIC_9d1922975c7d63fd3ddfd1a287597001,[Sad],[isGirlAnime],[isCuteAnime],[isSadAnimeGirl],[isSadAnime]",
    "title": "ANIME_PIC_9d1922975c7d63fd3ddfd1a287597001",
    "link_img": "https://live.staticflickr.com/65535/51568376465_57481e00b4_o.jpg",
    "id_image": "ANIME_PIC_9d1922975c7d63fd3ddfd1a287597001",
    "count_view": 0
  },
  {
    "link_thumb": "https://live.staticflickr.com/65535/51568807719_9567793d77_n.jpg",
    "id_album": "-1029026589",
    "description": "ANIME_PIC_9d1c97eed38a97e71de1e2b7551d073f,[Sad],[isGirlAnime],[isCuteAnime],[isSadAnimeGirl],[isSadAnime]",
    "title": "ANIME_PIC_9d1c97eed38a97e71de1e2b7551d073f",
    "link_img": "https://live.staticflickr.com/65535/51568807719_0b5c8bc0e5_o.jpg",
    "id_image": "ANIME_PIC_9d1c97eed38a97e71de1e2b7551d073f",
    "count_view": 0
  },
  {
    "link_thumb": "https://live.staticflickr.com/65535/51566647332_763276f7f7_n.jpg",
    "id_album": "-1029026589",
    "description": "ANIME_PIC_9d39ff314f63bd75118c1b4b088e431e,[Sad],[isGirlAnime],[isCuteAnime],[isGirlEarsNekoAnime],[isGirlsHatsHoodieAnime],[isGirlsLoliAnime],[isSadAnimeGirl],[isSadAnime]",
    "title": "ANIME_PIC_9d39ff314f63bd75118c1b4b088e431e",
    "link_img": "https://live.staticflickr.com/65535/51566647332_1829cc9c8f_o.jpg",
    "id_image": "ANIME_PIC_9d39ff314f63bd75118c1b4b088e431e",
    "count_view": 0
  },
  {
    "link_thumb": "https://live.staticflickr.com/65535/51566647697_5bbe737132_n.jpg",
    "id_album": "-1029026589",
    "description": "ANIME_PIC_9d3bc797607b11e4ff5711c5730152eb,[Sad],[isGirlAnime],[isCuteAnime],[isGirlsHatsHoodieAnime],[isGirlsLoliAnime],[isSadAnimeGirl],[isSadAnime]",
    "title": "ANIME_PIC_9d3bc797607b11e4ff5711c5730152eb",
    "link_img": "https://live.staticflickr.com/65535/51566647697_6cbd9d7b99_o.jpg",
    "id_image": "ANIME_PIC_9d3bc797607b11e4ff5711c5730152eb",
    "count_view": 0
  },
  {
    "link_thumb": "https://live.staticflickr.com/65535/51568130134_781d22db39_n.jpg",
    "id_album": "-1029026589",
    "description": "ANIME_PIC_9d47412d859a910b9651c23d09f7233a,[Sad],[isGirlAnime],[isCuteAnime],[isGirlsHatsHoodieAnime],[isSadAnimeGirl],[isSadAnime]",
    "title": "ANIME_PIC_9d47412d859a910b9651c23d09f7233a",
    "link_img": "https://live.staticflickr.com/65535/51568130134_93693b4a5b_o.jpg",
    "id_image": "ANIME_PIC_9d47412d859a910b9651c23d09f7233a",
    "count_view": 0
  },
  {
    "link_thumb": "https://live.staticflickr.com/65535/51567688223_cb36fc7e9b_n.jpg",
    "id_album": "-1029026589",
    "description": "ANIME_PIC_9d4b577247f2d01560bbac1f7318f6fd,[Sad],[isGirlAnime],[isSadAnimeGirl],[isSadAnime]",
    "title": "ANIME_PIC_9d4b577247f2d01560bbac1f7318f6fd",
    "link_img": "https://live.staticflickr.com/65535/51567688223_d5383978b2_o.jpg",
    "id_image": "ANIME_PIC_9d4b577247f2d01560bbac1f7318f6fd",
    "count_view": 0
  },
  {
    "link_thumb": "https://live.staticflickr.com/65535/51567688548_7f20c0c6bb_n.jpg",
    "id_album": "-1029026589",
    "description": "ANIME_PIC_9d550c671fa14ec7eda0cca05934190f,[Sad],[isGirlAnime],[isCuteAnime],[isGirlEarsNekoAnime],[isGirlsHatsHoodieAnime],[isGirlsLoliAnime],[isSadAnimeGirl],[isGirlsSharpCanineToothAnime],[isSadAnime]",
    "title": "ANIME_PIC_9d550c671fa14ec7eda0cca05934190f",
    "link_img": "https://live.staticflickr.com/65535/51567688548_eed11979e2_o.jpg",
    "id_image": "ANIME_PIC_9d550c671fa14ec7eda0cca05934190f",
    "count_view": 0
  },
  {
    "link_thumb": "https://live.staticflickr.com/65535/51567444471_9c137c4a42_n.jpg",
    "id_album": "-1029026589",
    "description": "ANIME_PIC_9d7b02a5fa6896acf8814859c39fd315,[Sad],[isGirlAnime],[isCuteAnime],[isGirlsLoliAnime],[isSadAnimeGirl],[isSadAnime]",
    "title": "ANIME_PIC_9d7b02a5fa6896acf8814859c39fd315",
    "link_img": "https://live.staticflickr.com/65535/51567444471_73552932db_o.jpg",
    "id_image": "ANIME_PIC_9d7b02a5fa6896acf8814859c39fd315",
    "count_view": 0
  }
]