[
  {
    "total_img": 462,
    "number_page": 3,
    "title": "One Piece",
    "tag": "Marshall D Teach, Green Hair, King Baum One Piece, Straw Hat, Wink, Black Hair, High Heels, Weapon, Blood, Choper, Belo Betty, Musician, Shorts, Umbrella, Bikini, Nico Robin, Hair, Glove, Lindbergh One Piece, Niji Vinsmoke, Dracule Mihawk, Chibi, Black Dress, Uryu Ishida, Smile, Skirt, Rob Lucci, Hody Jones One Piece, Bunny Ears, Enel One Piece, Donquixote Rosinante, Orange Hair, Jinbe One Piece, Angry, Monkey, Kinemon One Piece, Dragon, Buggy One Piece, Japanese Clothes, Izo One Piece, Boa Hancock, Watch, Fish, Fossa One Piece, Charlotte Perospero, Santoryu One Piece, Nature, Dragon Monkey D, Judge Vinsmoke, Brown Hair, Calendar, Ichiji Vinsmoke, Karasu One Piece, Couch, Pink Hair, Monkey D Garp, Usopp One Piece, Tie, Blue Eyes, Thigh Boots, Holiday, Brook One Piece, Ghost, Boots, Fire, Hat, Ship, Mermaid, Tom One Piece, Nurse, Nami One Piece, Scar, Underwater, Tattoo, Alcohol, Mother Caramel, Long Hair, Silvers Rayleigh, Chinjao One Piece, Perona One Piece, Bracelet, Shirahoshi One Piece, Curiel One Piece, Headdress, Trafalgar Law, Killer One Piece, Tsuru One Piece, Glasses, Beads, Zeo One Piece, Smoking, Beard, Hannyabal One Piece, Capone Bege, Sitting, Ikaros Much One Piece, Nefertari Vivi, Blonde, Sadi One Piece, Gild Tesoro, orange Color, Morley One Piece, Thousand Sunny, Crocodile One Piece, Sunny One Piece, Skeleton, Thatch One Piece, Katana, Bartholomew Kuma, Eating, Gear Fourth, Basil Hawkins, Reiju Vinsmoke, Gothic, Cape, Minokoala One Piece, Sunset, Conis One Piece, Dobon One Piece, Pirate, Sabo One Piece, Sky, Bartolomeo One Piece, Shiliew One Piece, Crying, Purple Flower, Dosun One Piece, Sogeking One Piece, Cigarette, Prometheus One Piece, Sword, White Hair, Pistol, Komurasaki One Piece, Goat, Horns, Braid, Carrot One Piece, Flame, Earrings, Penguin One Piece, One Piece Film Gold, Gun, Purple Eyes, Jacket, Scarf, Baby 5 One Piece, Kiku One Piece, Iceburg One Piece, Red Hair, Flying, Blush, Belt, Pantyhose, Yellow, Charlotte Linlin, Portgas D Ace, Charlotte Katakuri, Man, Charlotte Cracker, Smoker One Piece, Chain, Momonosuke One Piece, One Piece Film Stampede, Chair, Rose, Charlotte Pudding, Sakazuki One Piece, Baggy One Piece, Queen the Plague, Monkey D Dragon, Inuarashi One Piece, Daruma One Piece, Minotaurus One Piece, Fisher Tiger One Piece, Headband, Monet One Piece, Urouge One Piece, Rebecca One Piece, Cigar, Temple, Roronoa Zoro, Monkey D Luffy, Funny, Halloween, Sanji One Piece, Domino One Piece, Black Eyes, Pink Dress, Snow, Franky One Piece, OTama One Piece, Minimalist, Drink, Smoke, Donquixote Corazon, Twinitails, Haruta One Piece, Bubble, Onigashima Island, Anime, One Piece, Woman, Blue Gorilla One Piece, Crew, Jewelry Bonney, Parrot, Shichibukai One Piece, Drinking, Marco One Piece, Bleach, Yellow Eyes, Boy, Flag, Bepo One Piece, Koala One Piece, Going Merry One Piece, Red Eyes, Marineford, Kuzan One Piece, Kanjuro One Piece, Shinobu One Piece, Cap, Fantasy, X Drake One Piece, Groom, Clown, Saldeath One Piece, Shanks One Piece, Rakuyo One Piece, Donquixote Doflamingo, Eustass One Piece, Benn Beckman, Magellan One Piece, Barefoot, Jugram Haschwalth, Short Hair, Jolly Roger, Shutenmaru One Piece, Haki One Piece, Scratchmen Apoo, Necklace, Sai One Piece, Flower, Gekko Moriah, Dress, Galdino One Piece, King the Wildfire, Edward Newgate, Kaido One Piece, Pappug One Piece, Zipper, Bride, Logo, Eustass Kid, Yonji Vinsmoke, Blue Hair, One Piece Film Z, Tony Tony Chopper, X Drake, Cloud, Skull, Tashigi One Piece, Gol D Roger, Urashima One Piece",
    "description": "One Piece",
    "link_thumb": "https://live.staticflickr.com/65535/48073571756_fdcf70b174_n.jpg",
    "id_album": "1471169071",
    "total_view": 462
  },
  {
    "total_img": 50,
    "number_page": 1,
    "title": "Brook One Piece",
    "tag": "Brook One Piece,",
    "description": "Brook One Piece",
    "link_thumb": "https://live.staticflickr.com/65535/48074252837_031b025b26_n.jpg",
    "id_album": "879908109",
    "total_view": 50
  },
  {
    "total_img": 54,
    "number_page": 1,
    "title": "Franky One Piece",
    "tag": "Franky One Piece,",
    "description": "Franky One Piece",
    "link_thumb": "https://live.staticflickr.com/65535/48074252837_031b025b26_n.jpg",
    "id_album": "-790593425",
    "total_view": 54
  },
  {
    "total_img": 185,
    "number_page": 1,
    "title": "Monkey D Luffy",
    "tag": "Monkey D Luffy,",
    "description": "Monkey D Luffy",
    "link_thumb": "https://live.staticflickr.com/65535/48074252837_031b025b26_n.jpg",
    "id_album": "821062617",
    "total_view": 185
  },
  {
    "total_img": 76,
    "number_page": 1,
    "title": "Nami One Piece",
    "tag": "Nami One Piece,",
    "description": "Nami One Piece",
    "link_thumb": "https://live.staticflickr.com/65535/48074252837_031b025b26_n.jpg",
    "id_album": "1214710640",
    "total_view": 76
  },
  {
    "total_img": 63,
    "number_page": 1,
    "title": "Nico Robin",
    "tag": "Nico Robin,",
    "description": "Nico Robin",
    "link_thumb": "https://live.staticflickr.com/65535/48074252837_031b025b26_n.jpg",
    "id_album": "-932676306",
    "total_view": 63
  },
  {
    "total_img": 94,
    "number_page": 1,
    "title": "Roronoa Zoro",
    "tag": "Roronoa Zoro,",
    "description": "Roronoa Zoro",
    "link_thumb": "https://live.staticflickr.com/65535/48074252837_031b025b26_n.jpg",
    "id_album": "1735248993",
    "total_view": 94
  },
  {
    "total_img": 85,
    "number_page": 1,
    "title": "Sanji One Piece",
    "tag": "Sanji One Piece,",
    "description": "Sanji One Piece",
    "link_thumb": "https://live.staticflickr.com/65535/48074252837_031b025b26_n.jpg",
    "id_album": "1948310035",
    "total_view": 85
  },
  {
    "total_img": 71,
    "number_page": 1,
    "title": "Tony Tony Chopper",
    "tag": "Tony Tony Chopper,",
    "description": "Tony Tony Chopper",
    "link_thumb": "https://live.staticflickr.com/65535/48074252837_031b025b26_n.jpg",
    "id_album": "-681625156",
    "total_view": 71
  },
  {
    "total_img": 64,
    "number_page": 1,
    "title": "Usopp One Piece",
    "tag": "Usopp One Piece,",
    "description": "Usopp One Piece",
    "link_thumb": "https://live.staticflickr.com/65535/48074252837_031b025b26_n.jpg",
    "id_album": "-572800967",
    "total_view": 64
  }
]