[
  {
    "link_thumb": "https://live.staticflickr.com/65535/48061742803_641e52d6e4_n.jpg",
    "id_album": "74939055",
    "description": "Touhou_761436",
    "title": "Touhou_761436",
    "link_img": "https://live.staticflickr.com/65535/48061742803_e2b2454c1c_o.jpg",
    "id_image": "Touhou_761436",
    "count_view": 0
  },
  {
    "link_thumb": "https://live.staticflickr.com/65535/48061788313_cb107bd253_n.jpg",
    "id_album": "74939055",
    "description": "Touhou_761871",
    "title": "Touhou_761871",
    "link_img": "https://live.staticflickr.com/65535/48061788313_582887c464_o.jpg",
    "id_image": "Touhou_761871",
    "count_view": 0
  },
  {
    "link_thumb": "https://live.staticflickr.com/65535/48061835568_99b7c73588_n.jpg",
    "id_album": "74939055",
    "description": "Touhou_762055",
    "title": "Touhou_762055",
    "link_img": "https://live.staticflickr.com/65535/48061835568_017ab89832_o.jpg",
    "id_image": "Touhou_762055",
    "count_view": 0
  },
  {
    "link_thumb": "https://live.staticflickr.com/65535/48062210526_629cfdfd32_n.jpg",
    "id_album": "74939055",
    "description": "Touhou_775354",
    "title": "Touhou_775354",
    "link_img": "https://live.staticflickr.com/65535/48062210526_2a0f3bbdc7_o.jpg",
    "id_image": "Touhou_775354",
    "count_view": 0
  },
  {
    "link_thumb": "https://live.staticflickr.com/65535/48062823221_2e8b53d620_n.jpg",
    "id_album": "74939055",
    "description": "Touhou_951404",
    "title": "Touhou_951404",
    "link_img": "https://live.staticflickr.com/65535/48062823221_7a1409c585_o.jpg",
    "id_image": "Touhou_951404",
    "count_view": 0
  }
]