[
  {
    "total_img": 67,
    "number_page": 1,
    "title": "Rewrite",
    "tag": "Akane Senri, Haruhiko Yoshino, Sakuya Ohtori, Inoue Rewrite, Chibi, Kagari Rewrite, Rewrite, Chihaya Ohtori, Lucia Konohana, Shizuru Nakatsu, Kotori Kanbe, Sakuya Ootori, Kotarou Tennouji, Senri Akane",
    "description": "Rewrite",
    "link_thumb": "https://live.staticflickr.com/65535/48053140887_6084ace0c2_n.jpg",
    "id_album": "-1384447695",
    "total_view": 67
  },
  {
    "total_img": 6,
    "number_page": 1,
    "title": "Akane Senri",
    "tag": "Akane Senri,",
    "description": "Akane Senri",
    "link_thumb": "https://live.staticflickr.com/65535/48053136248_eda1929278_n.jpg",
    "id_album": "-1576334479",
    "total_view": 6
  },
  {
    "total_img": 6,
    "number_page": 1,
    "title": "Chihaya Ohtori",
    "tag": "Chihaya Ohtori,",
    "description": "Chihaya Ohtori",
    "link_thumb": "https://live.staticflickr.com/65535/48053135123_b183e726ec_n.jpg",
    "id_album": "1943588703",
    "total_view": 6
  },
  {
    "total_img": 11,
    "number_page": 1,
    "title": "Kagari Rewrite",
    "tag": "Kagari Rewrite,",
    "description": "Kagari Rewrite",
    "link_thumb": "https://live.staticflickr.com/65535/48053137373_bc4d2730ed_n.jpg",
    "id_album": "684156586",
    "total_view": 11
  },
  {
    "total_img": 12,
    "number_page": 1,
    "title": "Kotori Kanbe",
    "tag": "Kotori Kanbe,",
    "description": "Kotori Kanbe",
    "link_thumb": "https://live.staticflickr.com/65535/48053091766_c5f846cc18_n.jpg",
    "id_album": "1250109344",
    "total_view": 12
  },
  {
    "total_img": 6,
    "number_page": 1,
    "title": "Lucia Konohana",
    "tag": "Lucia Konohana,",
    "description": "Lucia Konohana",
    "link_thumb": "https://live.staticflickr.com/65535/48053136443_a1e5feaae6_n.jpg",
    "id_album": "1603362350",
    "total_view": 6
  },
  {
    "total_img": 8,
    "number_page": 1,
    "title": "Shizuru Nakatsu",
    "tag": "Shizuru Nakatsu,",
    "description": "Shizuru Nakatsu",
    "link_thumb": "https://live.staticflickr.com/65535/48053090891_3a8da06bc0_n.jpg",
    "id_album": "-1650090362",
    "total_view": 8
  }
]