[
  {
    "total_img": 1385,
    "number_page": 7,
    "title": "Original 3",
    "tag": "Water, Ball, Heart, Green Hair, Creature, Wink, Staff, Black Hair, Monochrome, Weapon, Dream, Goggles, Helmet, Valkyrie Drive, Umbrella, Shorts, Rifle, Eagle, Bike, Glove, Smile, Spring, Sea, Park, Tarot Original Character, Skirt, Statue, Pink Flower, Floating Island, Battlefield, Building, Orange Hair, Lips, Waterfall, Cruise Ship, Train Station, Dragon, Tiger, Cloak, Japanese Clothes, Star, Tail, Stairs, Feather, Ocean, Fish, Lamp Post, Yuri, Face, Food, Military, Nature, Original Anime, Mummy, Artistic, Blue, Nekomimi, Brown Hair, Pink Hair, Red, Blue Eyes, Thigh Boots, Hoodie, Cyberpunk, Ghost, Fire, Kitsune, Hat, Sunrise, Animal Ears, Zinnia Silane, Ice Cream, Futuristic, Green Eyes, Stars, Pumpkin, Underwater, Sparkles, Tattoo, Snowfall, Long Hair, Thigh Highs, Beach, Winter, Light, Kimono, Crow, Headdress, Heterochromia, Camera, Purple Hair, Oriental, Popsicle, Cute, Tea Cup, Puppy, Monster Hunter, Paint, Shizuku Kantoku, Heckler  Koch G36, Water Drop, M16 Rifle, Glasses, Twins, Bridge, Smoking, Warehouse, Relax, Bird, Sitting, Fishing, While Hair, Blonde, Twintails, Field, School, Rainbow, Armor, Classroom, Room, Katana, Broken Glass, Scenery, Battlefield 4, Pink Eyes, School Uniform, 5 Nenme no Houkago, Gothic, Cape, Cosmos, Battlefield 1, Ruin, Cowgirl, Sunset, Jellyfish, Candle, Apple, White, Pointed Ears, Sleeping, Grey Hair, Pen, Lying Down, Duck, Blossom, Robot, Tears, Sky, Moon, Colorful, Shark, Balloon, Asian, Cigarette, Sword, Shirt, Ribbon, White Hair, Bokeh, Horns, Braid, Planet, Child, Dog, Akame Akame Ga Kill, Gun, Purple Eyes, Scarf, Demon, Violinist, Mask, Reflection, House, Witch Hat, Deer, Aqua Eyes, Red Hair, Sci Fi, Letter, Lollipop, Colors, Blush, Pantyhose, Animal, Wheelchair, Heckler  Koch USP, Train, Hamster, Chain, Lantern, Water Lily, Glass, Rabbit, Rose, Silhouette, Original 3, While Eyes, Kurumi Kantoku, Sunbeam, Wings, Monster, River, Witch, Guitar, Warrior, 88 Original Character, Koi, Horoscope, Road, Headband, Lunch, Miyaguchi Kanna, Sweater, Elsword, Grey Eyes, Sunlight, Halloween, Ferris Wheel, Pillow, Black Eyes, Snow, Night, Digital Art, Mecha, Summer, Hatsune Miku, Uniform, Drink, Grass, Smoke, Cityscape, Bubble, Rain, Anime, Tyrannosaurus Rex, Sakura L Original Character, Horse, Candy, Tree, Goldfish, Woman, Coat, Rock, Japan, Violin, Bow, Yellow Eyes, Boy, Red Eyes, Piano, Cap, Pink, Love, Mage, Dark, Cat, Fantasy, Fall, Library, Fairy, Bench, Orange Eyes, Cherry Blossom, Butterfly, Sunshine, Burger, Barefoot, Dinosaur, Polychromatic, Phone, bow Clothing, Horizon, Short Hair, Lamp, Swimsuit, Necklace, Flower, Dress, Cat Girl, Brown Eyes, Magic, Red Dress, Bag, Blue Dress, Heckler  Koch HK416, Spirit, Bride, Blue Hair, Bat, Cloud, Instrument, Forest, Petal, Yukata, Wizard",
    "description": "Original 3",
    "link_thumb": "https://live.staticflickr.com/65535/48075832457_d9de5066d9_n.jpg",
    "id_album": "1164985822",
    "total_view": 1385
  },
  {
    "total_img": 18,
    "number_page": 1,
    "title": "Red",
    "tag": "Red,",
    "description": "Red",
    "link_thumb": "https://live.staticflickr.com/65535/48064309227_1b4193aa38_n.jpg",
    "id_album": "-1029288732",
    "total_view": 18
  }
]