[
  {
    "total_img": 51,
    "number_page": 1,
    "title": "Everlasting Summer",
    "tag": "Building, Water, Night, Boat House, Black, Visual Novel, Semyon Everlasting Summer, Everlasting Summer, Slavya Everlasting Summer, Ulyana Everlasting Summer, Hospital, Cirno Touhou, Room, Nature, Guitar, Space, Bus, Original Anime, Pier, Cat Girl, Road, House, Boy, Painting, Piano, Blue Hair, Yulya Everlasting Summer, Car, Dark, Instrument, Fantasy, Forest, Man, Seashore, Boat",
    "description": "Everlasting Summer",
    "link_thumb": "https://live.staticflickr.com/65535/47973012311_ea0541a526_n.jpg",
    "id_album": "461598950",
    "total_view": 51
  },
  {
    "total_img": 3,
    "number_page": 1,
    "title": "Bus",
    "tag": "Bus,",
    "description": "Bus",
    "link_thumb": "https://live.staticflickr.com/65535/48092793557_a3db7de690_n.jpg",
    "id_album": "-174616951",
    "total_view": 3
  },
  {
    "total_img": 1376,
    "number_page": 7,
    "title": "Original Anime",
    "tag": "Original Anime,",
    "description": "Original Anime",
    "link_thumb": "https://live.staticflickr.com/65535/48066086398_88977312bf_n.jpg",
    "id_album": "-335032857",
    "total_view": 1376
  }
]