[
  {
    "total_img": 8,
    "number_page": 1,
    "title": "Zannen na Oretachi no Seishun Jijou",
    "tag": "Sakuya Aikawa, Michitarou Matsuzaki, Zannen na Oretachi no Seishun Jijou, Yoshitsuge Ninomae, Rinne Sumeragi, Natsume Shinonome, Chimachi Nanaoka",
    "description": "Zannen na Oretachi no Seishun Jijou",
    "link_thumb": "https://live.staticflickr.com/65535/48067036912_024d753ca7_n.jpg",
    "id_album": "1568387804",
    "total_view": 8
  },
  {
    "total_img": 4,
    "number_page": 1,
    "title": "Rinne Sumeragi",
    "tag": "Rinne Sumeragi,",
    "description": "Rinne Sumeragi",
    "link_thumb": "https://live.staticflickr.com/65535/48067041107_16514cf661_n.jpg",
    "id_album": "-1761611524",
    "total_view": 4
  }
]