[
  {
    "link_thumb": "https://live.staticflickr.com/65535/48071738608_2e0f58068c_n.jpg",
    "id_album": "-1762563462",
    "description": "NaginoAsukara_523421",
    "title": "NaginoAsukara_523421",
    "link_img": "https://live.staticflickr.com/65535/48071738608_5fc77d764b_o.jpg",
    "id_image": "NaginoAsukara_523421",
    "count_view": 0
  },
  {
    "link_thumb": "https://live.staticflickr.com/65535/48071691436_8fdd52573e_n.jpg",
    "id_album": "-1762563462",
    "description": "NaginoAsukara_711017",
    "title": "NaginoAsukara_711017",
    "link_img": "https://live.staticflickr.com/65535/48071691436_6389513963_o.jpg",
    "id_image": "NaginoAsukara_711017",
    "count_view": 0
  },
  {
    "link_thumb": "https://live.staticflickr.com/65535/48071692116_1648e84371_n.jpg",
    "id_album": "-1762563462",
    "description": "NaginoAsukara_745575",
    "title": "NaginoAsukara_745575",
    "link_img": "https://live.staticflickr.com/65535/48071692116_397bfa48e3_o.jpg",
    "id_image": "NaginoAsukara_745575",
    "count_view": 0
  },
  {
    "link_thumb": "https://live.staticflickr.com/65535/48071795507_c889a1ab4b_n.jpg",
    "id_album": "-1762563462",
    "description": "NaginoAsukara_872892",
    "title": "NaginoAsukara_872892",
    "link_img": "https://live.staticflickr.com/65535/48071795507_94af089d19_o.jpg",
    "id_image": "NaginoAsukara_872892",
    "count_view": 0
  },
  {
    "link_thumb": "https://live.staticflickr.com/65535/48071693976_930bbcbbff_n.jpg",
    "id_album": "-1762563462",
    "description": "NaginoAsukara_954581",
    "title": "NaginoAsukara_954581",
    "link_img": "https://live.staticflickr.com/65535/48071693976_fb5c657a6e_o.jpg",
    "id_image": "NaginoAsukara_954581",
    "count_view": 0
  }
]