[
  {
    "total_img": 805,
    "number_page": 5,
    "title": "Attack On Titan",
    "tag": "Sky, Nanaba Attack On Titan, Nac Tias, Ian Dietrich, Black Hair, Crying, Weapon, Armored Titan, Blood, Beast Titan, Rita Iglehaut, Sword, Book, White Hair, Rifle, Mike Zacharias, Flame, Gun, Jacket, Purple Eyes, Scarf, Attack On Titan, Chibi, Luke Siss, Black Dress, Smile, Blade, Zeke Yeager, Petra Ral, Belt, Blush, 104Th Trainees Squad, Historia Reiss, Carla Yeager, Man, Titan, Rico Brzenska, Furlan Church, Marco Bott, Angry, Thomas Wagner, Stationary Guard, Stocking, Soldier, Wings, Scouting Legion, Survey Cops, Stairs, Jean Kirstein, Anka Rheinberger, Warrior, Artistic, Erd Gin, Dot Pixis, Brown Hair, Couch, Blue Eyes, Ymir Attack on Titan, Fire, Boots, Bertolt Hoover, Eld Jinn, Gunther Schultz, Black Eyes, Pink Dress, Green Eyes, Night, Uniform, Glow, Long Hair, Mylius Zeramuski, Anime, Horse, Mitabi Jarnach, Tree, Headdress, Bertholdt Hoover, Woman, Connie Springer, Erwin Smith, Yellow Eyes, Boy, Red Eyes, Attack on Titan, Military Police Brigade, Dark, Reiner Braun, Sad, Glasses, Fantasy, Mikasa Ackerman, Ponytail, Auruo Bossard, Hange Zoe, Wings Of Freedom, Purple Dress, Isabel Magnolia, Sitting, Annie Leonhart, Shingeki No Kyojin, Blonde, Knife, Mina Carolina, Monitor, Eren Yeager, Emblem, Short Hair, Hug, Armin Arlert, Kenny Ackerman, Flower, Dress, Brown Eyes, Red Dress, Blue Dress, Cape, Sasha Blouse, Green Dress, Sunset, Glowing Eyes, Battle, Colossal Titan, Cloud, Lying Down, Forest, Levi Ackerman, Oluo Bozado, Tears",
    "description": "Attack On Titan",
    "link_thumb": "https://live.staticflickr.com/65535/47893882681_c2753134a3_n.jpg",
    "id_album": "-358721474",
    "total_view": 805
  },
  {
    "total_img": 76,
    "number_page": 1,
    "title": "Annie Leonhart",
    "tag": "Annie Leonhart,",
    "description": "Annie Leonhart",
    "link_thumb": "https://live.staticflickr.com/65535/47105507034_f3b7c3a856_n.jpg",
    "id_album": "261579017",
    "total_view": 76
  },
  {
    "total_img": 31,
    "number_page": 1,
    "title": "Hange Zoe",
    "tag": "Hange Zoe,",
    "description": "Hange Zoe",
    "link_thumb": "https://live.staticflickr.com/65535/47105524364_644f966f63_n.jpg",
    "id_album": "48871745",
    "total_view": 31
  },
  {
    "total_img": 74,
    "number_page": 1,
    "title": "Historia Reiss",
    "tag": "Historia Reiss,",
    "description": "Historia Reiss",
    "link_thumb": "https://live.staticflickr.com/65535/40928384973_df89150cae_n.jpg",
    "id_album": "-1390107653",
    "total_view": 74
  },
  {
    "total_img": 371,
    "number_page": 2,
    "title": "Mikasa Ackerman",
    "tag": "Mikasa Ackerman,",
    "description": "Mikasa Ackerman",
    "link_thumb": "https://live.staticflickr.com/65535/47960674132_aa22ffe15d_n.jpg",
    "id_album": "1595583438",
    "total_view": 371
  },
  {
    "total_img": 68,
    "number_page": 1,
    "title": "Sasha Blouse",
    "tag": "Sasha Blouse,",
    "description": "Sasha Blouse",
    "link_thumb": "https://live.staticflickr.com/65535/46978682365_58a91356ce_n.jpg",
    "id_album": "2111771733",
    "total_view": 68
  },
  {
    "total_img": 41,
    "number_page": 1,
    "title": "Ymir Attack on Titan",
    "tag": "Ymir Attack on Titan,",
    "description": "Ymir Attack on Titan",
    "link_thumb": "https://live.staticflickr.com/65535/40928384973_df89150cae_n.jpg",
    "id_album": "1263797642",
    "total_view": 41
  }
]