[
  {
    "total_img": 6,
    "number_page": 1,
    "title": "Gang Road Joker",
    "tag": "Gang Road Joker, Book, Street, School Uniform, Imabeppu Komomo, Boy",
    "description": "Gang Road Joker",
    "link_thumb": "https://live.staticflickr.com/65535/47983869227_0cb08c5fe0_n.jpg",
    "id_album": "990141096",
    "total_view": 6
  },
  {
    "total_img": 2585,
    "number_page": 13,
    "title": "Boy",
    "tag": "Boy,",
    "description": "Boy",
    "link_thumb": "https://live.staticflickr.com/65535/51541746745_541d4f2e57_n.jpg",
    "id_album": "-1694302085",
    "total_view": 2226
  }
]