[
  {
    "total_img": 152,
    "number_page": 1,
    "title": "Violet Evergarden",
    "tag": "Green Eyes, Night, Stars, Uniform, Monochrome, Crying, Lake, Long Hair, Tombstone, Aidan Field, Rain, Anime, Ribbon, Umbrella, Blur, Tree, Luculia Marlborough, Braid, Hood, Typewriter, Spencer Marlborough, Glove, Suitcase, Smile, Aqua Eyes, Letter, Cattleya Baudelaire, Blush, Claudia Hodgins, Erica Brown, Building, Cherry Blossom, Lux Sibyl, Anne Magnolia, Blonde, Charlotte Abelfreyja Drossel, Sunbeam, Mountain, Gilbert Bougainvillea, bow Clothing, Short Hair, Face, Oscar Webster, Necklace, Dress, Violet Evergarden Character, Violet Evergarden Anime, Blue Eyes, Violet Evergarden, Iris Cannary, Lying Down, Petal, Clara Magnolia",
    "description": "Violet Evergarden",
    "link_thumb": "https://live.staticflickr.com/65535/48064086537_312be9c90d_n.jpg",
    "id_album": "658887505",
    "total_view": 152
  },
  {
    "total_img": 67,
    "number_page": 1,
    "title": "Aqua Eyes",
    "tag": "Aqua Eyes,",
    "description": "Aqua Eyes",
    "link_thumb": "https://live.staticflickr.com/65535/48066498592_45d83fb9bf_n.jpg",
    "id_album": "-287276594",
    "total_view": 67
  },
  {
    "total_img": 771,
    "number_page": 4,
    "title": "Blonde",
    "tag": "Blonde,",
    "description": "Blonde",
    "link_thumb": "https://live.staticflickr.com/65535/48066912028_16d8f475b6_n.jpg",
    "id_album": "-768622073",
    "total_view": 771
  },
  {
    "total_img": 146,
    "number_page": 1,
    "title": "Violet Evergarden Character",
    "tag": "Violet Evergarden Character,",
    "description": "Violet Evergarden Character",
    "link_thumb": "https://live.staticflickr.com/65535/48064148257_c55d382115_n.jpg",
    "id_album": "945591653",
    "total_view": 146
  }
]