[
  {
    "total_img": 993,
    "number_page": 5,
    "title": "Girls Dark",
    "tag": "Girls Dark,",
    "description": "Girls Dark",
    "link_thumb": "https://live.staticflickr.com/65535/49878716433_f82f39db9d_n.jpg",
    "id_album": "442854827",
    "total_view": 993
  },
  {
    "total_img": 408,
    "number_page": 3,
    "title": "Girls Scarf",
    "tag": "Girls Scarf,",
    "description": "Girls Scarf",
    "link_thumb": "https://live.staticflickr.com/65535/50154389436_963ec8b4b6_n.jpg",
    "id_album": "257140738",
    "total_view": 408
  },
  {
    "total_img": 636,
    "number_page": 4,
    "title": "Girls Weapon",
    "tag": "Girls Weapon,",
    "description": "Girls Weapon",
    "link_thumb": "https://live.staticflickr.com/65535/50056613791_abda415054_n.jpg",
    "id_album": "771816625",
    "total_view": 636
  }
]