[
  {
    "link_thumb": "https://live.staticflickr.com/65535/51551002238_074ec638d1_n.jpg",
    "id_album": "-89234980",
    "description": "ANIME_PIC_2ebec2091daaa179b5a79e207f6fcd31,[GirlsCuteCool],[isGirlAnime],[isCuteAnime]",
    "title": "ANIME_PIC_2ebec2091daaa179b5a79e207f6fcd31",
    "link_img": "https://live.staticflickr.com/65535/51551002238_8bcdf57a4a_o.png",
    "id_image": "ANIME_PIC_2ebec2091daaa179b5a79e207f6fcd31",
    "count_view": 0
  },
  {
    "link_thumb": "https://live.staticflickr.com/65535/51551675960_6a14dab6fe_n.jpg",
    "id_album": "-89234980",
    "description": "ANIME_PIC_2ebf55c4040e4815d5acc157472642ba,[GirlsCuteCool],[isGirlAnime],[isCuteAnime],[isSadAnimeGirl],[isSadAnime]",
    "title": "ANIME_PIC_2ebf55c4040e4815d5acc157472642ba",
    "link_img": "https://live.staticflickr.com/65535/51551675960_bebe28489e_o.jpg",
    "id_image": "ANIME_PIC_2ebf55c4040e4815d5acc157472642ba",
    "count_view": 0
  },
  {
    "link_thumb": "https://live.staticflickr.com/65535/51549967247_9233e73097_n.jpg",
    "id_album": "-89234980",
    "description": "ANIME_PIC_2ebfc4f2448443334ab2eaba7a23f706,[GirlsCuteCool],[isGirlAnime],[isCuteAnime]",
    "title": "ANIME_PIC_2ebfc4f2448443334ab2eaba7a23f706",
    "link_img": "https://live.staticflickr.com/65535/51549967247_b8a7e6886f_o.png",
    "id_image": "ANIME_PIC_2ebfc4f2448443334ab2eaba7a23f706",
    "count_view": 0
  },
  {
    "link_thumb": "https://live.staticflickr.com/65535/51551676770_b01164a0db_n.jpg",
    "id_album": "-89234980",
    "description": "ANIME_PIC_2ec14f869864cf83c5410c86051c0db8,[GirlsCuteCool],[isGirlAnime],[isCuteAnime],[isGirlsLoliAnime],[isSadAnimeGirl],[isSadAnime]",
    "title": "ANIME_PIC_2ec14f869864cf83c5410c86051c0db8",
    "link_img": "https://live.staticflickr.com/65535/51551676770_469e6507f0_o.jpg",
    "id_image": "ANIME_PIC_2ec14f869864cf83c5410c86051c0db8",
    "count_view": 0
  },
  {
    "link_thumb": "https://live.staticflickr.com/65535/51551677280_02f8f0c45e_n.jpg",
    "id_album": "-89234980",
    "description": "ANIME_PIC_2ec53fcb46e0592c908a0fc68afd9c34,[GirlsCuteCool],[isGirlAnime],[isCuteAnime],[isGirlsLoliAnime],[isSadAnimeGirl],[isSadAnime]",
    "title": "ANIME_PIC_2ec53fcb46e0592c908a0fc68afd9c34",
    "link_img": "https://live.staticflickr.com/65535/51551677280_e40bb2c19e_o.jpg",
    "id_image": "ANIME_PIC_2ec53fcb46e0592c908a0fc68afd9c34",
    "count_view": 0
  },
  {
    "link_thumb": "https://live.staticflickr.com/65535/51550769836_51ccec7ed5_n.jpg",
    "id_album": "-89234980",
    "description": "ANIME_PIC_2ec81772a4abf0f5f9b53c306896418f,[GirlsCuteCool],[isGirlAnime],[isCuteAnime]",
    "title": "ANIME_PIC_2ec81772a4abf0f5f9b53c306896418f",
    "link_img": "https://live.staticflickr.com/65535/51550769836_5ae8d15e6e_o.png",
    "id_image": "ANIME_PIC_2ec81772a4abf0f5f9b53c306896418f",
    "count_view": 0
  },
  {
    "link_thumb": "https://live.staticflickr.com/65535/51551678525_6ac5422458_n.jpg",
    "id_album": "-89234980",
    "description": "ANIME_PIC_2ec9c9155b1fce00a692c8278e3e6887,[GirlsCuteCool],[isGirlAnime],[isCuteAnime]",
    "title": "ANIME_PIC_2ec9c9155b1fce00a692c8278e3e6887",
    "link_img": "https://live.staticflickr.com/65535/51551678525_440bf1a4d5_o.png",
    "id_image": "ANIME_PIC_2ec9c9155b1fce00a692c8278e3e6887",
    "count_view": 0
  },
  {
    "link_thumb": "https://live.staticflickr.com/65535/51549970007_f8066984a1_n.jpg",
    "id_album": "-89234980",
    "description": "ANIME_PIC_2ecaf942b1e121e73fa03a93d83be938,[GirlsCuteCool],[isGirlAnime],[isCuteAnime],[isGirlsHatsHoodieAnime],[isGirlsLoliAnime]",
    "title": "ANIME_PIC_2ecaf942b1e121e73fa03a93d83be938",
    "link_img": "https://live.staticflickr.com/65535/51549970007_d6e07d05aa_o.jpg",
    "id_image": "ANIME_PIC_2ecaf942b1e121e73fa03a93d83be938",
    "count_view": 0
  },
  {
    "link_thumb": "https://live.staticflickr.com/65535/51549970412_46140d0913_n.jpg",
    "id_album": "-89234980",
    "description": "ANIME_PIC_2ecc33adb8f707c3b2597dd25ca2f255,[GirlsCuteCool],[isGirlAnime],[isCuteAnime],[isGirlsLoliAnime],[isSadAnimeGirl],[isSadAnime]",
    "title": "ANIME_PIC_2ecc33adb8f707c3b2597dd25ca2f255",
    "link_img": "https://live.staticflickr.com/65535/51549970412_715360b623_o.png",
    "id_image": "ANIME_PIC_2ecc33adb8f707c3b2597dd25ca2f255",
    "count_view": 0
  },
  {
    "link_thumb": "https://live.staticflickr.com/65535/51551485524_8a26576215_n.jpg",
    "id_album": "-89234980",
    "description": "ANIME_PIC_2eceac9cce984b87610be07b569c7e0d,[GirlsCuteCool],[isGirlAnime],[isCuteAnime],[isGirlEarsNekoAnime],[isGirlsLoliAnime]",
    "title": "ANIME_PIC_2eceac9cce984b87610be07b569c7e0d",
    "link_img": "https://live.staticflickr.com/65535/51551485524_9748b8ee24_o.png",
    "id_image": "ANIME_PIC_2eceac9cce984b87610be07b569c7e0d",
    "count_view": 0
  },
  {
    "link_thumb": "https://live.staticflickr.com/65535/51551680530_957fbf7c47_n.jpg",
    "id_album": "-89234980",
    "description": "ANIME_PIC_2ecff96f9d2946f72c276ea9db32688b,[GirlsCuteCool],[isGirlAnime],[isCuteAnime]",
    "title": "ANIME_PIC_2ecff96f9d2946f72c276ea9db32688b",
    "link_img": "https://live.staticflickr.com/65535/51551680530_ac39341c62_o.jpg",
    "id_image": "ANIME_PIC_2ecff96f9d2946f72c276ea9db32688b",
    "count_view": 0
  },
  {
    "link_thumb": "https://live.staticflickr.com/65535/51549972107_9fa2f59d7a_n.jpg",
    "id_album": "-89234980",
    "description": "ANIME_PIC_2ed130ae356b0eb9c52e387d262b7d98,[GirlsCuteCool],[isGirlAnime],[isCuteAnime],[isGirlsHatsHoodieAnime],[isGirlsSharpCanineToothAnime]",
    "title": "ANIME_PIC_2ed130ae356b0eb9c52e387d262b7d98",
    "link_img": "https://live.staticflickr.com/65535/51549972107_144d0411ca_o.png",
    "id_image": "ANIME_PIC_2ed130ae356b0eb9c52e387d262b7d98",
    "count_view": 0
  },
  {
    "link_thumb": "https://live.staticflickr.com/65535/51551681605_459b125eaa_n.jpg",
    "id_album": "-89234980",
    "description": "ANIME_PIC_2ed7572ac5ce7bbac8577deee9da9f7c,[GirlsCuteCool],[isGirlAnime],[isCuteAnime],[isGirlEarsNekoAnime],[isGirlsLoliAnime]",
    "title": "ANIME_PIC_2ed7572ac5ce7bbac8577deee9da9f7c",
    "link_img": "https://live.staticflickr.com/65535/51551681605_cb1134fe4d_o.jpg",
    "id_image": "ANIME_PIC_2ed7572ac5ce7bbac8577deee9da9f7c",
    "count_view": 0
  },
  {
    "link_thumb": "https://live.staticflickr.com/65535/51551487654_bbd031f879_n.jpg",
    "id_album": "-89234980",
    "description": "ANIME_PIC_2ed7c0f43624d3146ee8651b8539db8f,[GirlsCuteCool],[isGirlAnime],[isCuteAnime],[isGirlsLoliAnime],[isSadAnimeGirl],[isSadAnime]",
    "title": "ANIME_PIC_2ed7c0f43624d3146ee8651b8539db8f",
    "link_img": "https://live.staticflickr.com/65535/51551487654_b8a95b684a_o.jpg",
    "id_image": "ANIME_PIC_2ed7c0f43624d3146ee8651b8539db8f",
    "count_view": 0
  },
  {
    "link_thumb": "https://live.staticflickr.com/65535/50055975013_1be2f750bc_n.jpg",
    "id_album": "-89234980",
    "description": "ANIME_PIC_2ed85d44ef333708fba3869213a083a1,[isGirlAnime],[isCuteAnime],[Girls Cute Cool],[GirlsCuteCool],[isGirlsHornsAnime],[isGirlsLoliAnime]",
    "title": "ANIME_PIC_2ed85d44ef333708fba3869213a083a1",
    "link_img": "https://live.staticflickr.com/65535/50055975013_e3a84571f1_o.jpg",
    "id_image": "ANIME_PIC_2ed85d44ef333708fba3869213a083a1",
    "count_view": 0
  },
  {
    "link_thumb": "https://live.staticflickr.com/65535/51550774366_83e3a96e60_n.jpg",
    "id_album": "-89234980",
    "description": "ANIME_PIC_2ed8ca7c12d309b65aacd7fb0e9a1c63,[GirlsCuteCool],[isGirlAnime],[isCuteAnime],[isGirlsHatsHoodieAnime],[isGirlsLoliAnime]",
    "title": "ANIME_PIC_2ed8ca7c12d309b65aacd7fb0e9a1c63",
    "link_img": "https://live.staticflickr.com/65535/51550774366_a09888e3b6_o.jpg",
    "id_image": "ANIME_PIC_2ed8ca7c12d309b65aacd7fb0e9a1c63",
    "count_view": 0
  },
  {
    "link_thumb": "https://live.staticflickr.com/65535/51549973942_a69dc39132_n.jpg",
    "id_album": "-89234980",
    "description": "ANIME_PIC_2ed9b902f61f74a3ec68985a1ae37e26,[GirlsCuteCool],[isGirlAnime],[isCuteAnime]",
    "title": "ANIME_PIC_2ed9b902f61f74a3ec68985a1ae37e26",
    "link_img": "https://live.staticflickr.com/65535/51549973942_19065d2be5_o.jpg",
    "id_image": "ANIME_PIC_2ed9b902f61f74a3ec68985a1ae37e26",
    "count_view": 0
  },
  {
    "link_thumb": "https://live.staticflickr.com/65535/51550775111_591557d4bc_n.jpg",
    "id_album": "-89234980",
    "description": "ANIME_PIC_2edd0ade060b2087ba55817ddb9c5b58,[GirlsCuteCool],[isBoyAnime],[isCoupleAnime],[isGirlAnime],[isCuteAnime]",
    "title": "ANIME_PIC_2edd0ade060b2087ba55817ddb9c5b58",
    "link_img": "https://live.staticflickr.com/65535/51550775111_e39f31810a_o.png",
    "id_image": "ANIME_PIC_2edd0ade060b2087ba55817ddb9c5b58",
    "count_view": 0
  },
  {
    "link_thumb": "https://live.staticflickr.com/65535/51551683645_3545530c87_n.jpg",
    "id_album": "-89234980",
    "description": "ANIME_PIC_2ee05aca894244303ebbed4248ff009a,[GirlsCuteCool],[isGirlAnime],[isCuteAnime],[isGirlsLoliAnime]",
    "title": "ANIME_PIC_2ee05aca894244303ebbed4248ff009a",
    "link_img": "https://live.staticflickr.com/65535/51551683645_2085503d17_o.png",
    "id_image": "ANIME_PIC_2ee05aca894244303ebbed4248ff009a",
    "count_view": 0
  },
  {
    "link_thumb": "https://live.staticflickr.com/65535/51549975332_7c6e167ca9_n.jpg",
    "id_album": "-89234980",
    "description": "ANIME_PIC_2ee193bec9df7a863f577c4b00e62b77,[GirlsCuteCool],[isGirlAnime],[isCuteAnime],[isGirlsHatsHoodieAnime]",
    "title": "ANIME_PIC_2ee193bec9df7a863f577c4b00e62b77",
    "link_img": "https://live.staticflickr.com/65535/51549975332_6082f10da9_o.jpg",
    "id_image": "ANIME_PIC_2ee193bec9df7a863f577c4b00e62b77",
    "count_view": 0
  },
  {
    "link_thumb": "https://live.staticflickr.com/65535/51551011523_76d6718289_n.jpg",
    "id_album": "-89234980",
    "description": "ANIME_PIC_2ee7310701af12247aa08731870d4aa3,[GirlsCuteCool],[isGirlAnime],[isCuteAnime],[isGirlsHatsHoodieAnime],[isGirlsLoliAnime],[isGirlsSharpCanineToothAnime]",
    "title": "ANIME_PIC_2ee7310701af12247aa08731870d4aa3",
    "link_img": "https://live.staticflickr.com/65535/51551011523_82bd78da14_o.jpg",
    "id_image": "ANIME_PIC_2ee7310701af12247aa08731870d4aa3",
    "count_view": 0
  },
  {
    "link_thumb": "https://live.staticflickr.com/65535/51549976317_9127fdb829_n.jpg",
    "id_album": "-89234980",
    "description": "ANIME_PIC_2ee9e82993396e8251f1e8a7c8a25f87,[GirlsCuteCool],[isGirlAnime],[isCuteAnime]",
    "title": "ANIME_PIC_2ee9e82993396e8251f1e8a7c8a25f87",
    "link_img": "https://live.staticflickr.com/65535/51549976317_04289cddd9_o.jpg",
    "id_image": "ANIME_PIC_2ee9e82993396e8251f1e8a7c8a25f87",
    "count_view": 0
  },
  {
    "link_thumb": "https://live.staticflickr.com/65535/51550777606_fd348ca56b_n.jpg",
    "id_album": "-89234980",
    "description": "ANIME_PIC_2eedfa013c5495e4fef2d99751979e24,[GirlsCuteCool],[isGirlAnime],[isCuteAnime],[isGirlsHatsHoodieAnime],[isGirlsLoliAnime]",
    "title": "ANIME_PIC_2eedfa013c5495e4fef2d99751979e24",
    "link_img": "https://live.staticflickr.com/65535/51550777606_fd88857e3f_o.jpg",
    "id_image": "ANIME_PIC_2eedfa013c5495e4fef2d99751979e24",
    "count_view": 0
  },
  {
    "link_thumb": "https://live.staticflickr.com/65535/51551012853_3ede466753_n.jpg",
    "id_album": "-89234980",
    "description": "ANIME_PIC_2eeeab6178f238ed68d7d7bb4e87f25e,[GirlsCuteCool],[isGirlAnime],[isCuteAnime]",
    "title": "ANIME_PIC_2eeeab6178f238ed68d7d7bb4e87f25e",
    "link_img": "https://live.staticflickr.com/65535/51551012853_18424ccdc3_o.png",
    "id_image": "ANIME_PIC_2eeeab6178f238ed68d7d7bb4e87f25e",
    "count_view": 0
  },
  {
    "link_thumb": "https://live.staticflickr.com/65535/51551013578_3d80000f5b_n.jpg",
    "id_album": "-89234980",
    "description": "ANIME_PIC_2ef013083c50494f9554066ed28189ae,[GirlsCuteCool],[isGirlAnime],[isCuteAnime],[isGirlsLoliAnime]",
    "title": "ANIME_PIC_2ef013083c50494f9554066ed28189ae",
    "link_img": "https://live.staticflickr.com/65535/51551013578_5a8796b69c_o.jpg",
    "id_image": "ANIME_PIC_2ef013083c50494f9554066ed28189ae",
    "count_view": 0
  },
  {
    "link_thumb": "https://live.staticflickr.com/65535/51550779261_032daa2d20_n.jpg",
    "id_album": "-89234980",
    "description": "ANIME_PIC_2ef0a34f76d1299d433cacdd1ede03cb,[GirlsCuteCool],[isGirlAnime],[isCuteAnime],[isSadAnimeGirl],[isSadAnime]",
    "title": "ANIME_PIC_2ef0a34f76d1299d433cacdd1ede03cb",
    "link_img": "https://live.staticflickr.com/65535/51550779261_8476aa2e5c_o.jpg",
    "id_image": "ANIME_PIC_2ef0a34f76d1299d433cacdd1ede03cb",
    "count_view": 0
  },
  {
    "link_thumb": "https://live.staticflickr.com/65535/51551014278_57b3f48e28_n.jpg",
    "id_album": "-89234980",
    "description": "ANIME_PIC_2ef4697530e4a2ee87983a39e1cd70be,[GirlsCuteCool],[isGirlAnime],[isCuteAnime]",
    "title": "ANIME_PIC_2ef4697530e4a2ee87983a39e1cd70be",
    "link_img": "https://live.staticflickr.com/65535/51551014278_e708aa00c7_o.jpg",
    "id_image": "ANIME_PIC_2ef4697530e4a2ee87983a39e1cd70be",
    "count_view": 0
  },
  {
    "link_thumb": "https://live.staticflickr.com/65535/51551014718_fe04957668_n.jpg",
    "id_album": "-89234980",
    "description": "ANIME_PIC_2efb05cf97e04fa885b4820e891f48f4,[GirlsCuteCool],[isGirlAnime],[isCuteAnime],[isGirlsLoliAnime]",
    "title": "ANIME_PIC_2efb05cf97e04fa885b4820e891f48f4",
    "link_img": "https://live.staticflickr.com/65535/51551014718_f148b3ae29_o.png",
    "id_image": "ANIME_PIC_2efb05cf97e04fa885b4820e891f48f4",
    "count_view": 0
  },
  {
    "link_thumb": "https://live.staticflickr.com/65535/51551015343_30f8213581_n.jpg",
    "id_album": "-89234980",
    "description": "ANIME_PIC_2efbefeb94ad40f3c748d5e426c5caf6,[GirlsCuteCool],[isGirlAnime],[isCuteAnime],[isSadAnimeGirl],[isSadAnime]",
    "title": "ANIME_PIC_2efbefeb94ad40f3c748d5e426c5caf6",
    "link_img": "https://live.staticflickr.com/65535/51551015343_22088b0dda_o.jpg",
    "id_image": "ANIME_PIC_2efbefeb94ad40f3c748d5e426c5caf6",
    "count_view": 0
  },
  {
    "link_thumb": "https://live.staticflickr.com/65535/51551688930_fc8c431cd4_n.jpg",
    "id_album": "-89234980",
    "description": "ANIME_PIC_2f05b5e5f20da7fc7f43707ced41edce,[GirlsCuteCool],[isGirlAnime],[isCuteAnime],[isGirlEarsNekoAnime],[isGirlsHatsHoodieAnime],[isGirlsLoliAnime],[isSadAnimeGirl],[isSadAnime]",
    "title": "ANIME_PIC_2f05b5e5f20da7fc7f43707ced41edce",
    "link_img": "https://live.staticflickr.com/65535/51551688930_505136179c_o.jpg",
    "id_image": "ANIME_PIC_2f05b5e5f20da7fc7f43707ced41edce",
    "count_view": 0
  },
  {
    "link_thumb": "https://live.staticflickr.com/65535/51551689390_f1a32a2b3e_n.jpg",
    "id_album": "-89234980",
    "description": "ANIME_PIC_2f07c8c0661616e78210489fe5fbe9f4,[GirlsCuteCool],[isGirlAnime],[isCuteAnime],[isGirlsLoliAnime],[isGirlsSharpCanineToothAnime]",
    "title": "ANIME_PIC_2f07c8c0661616e78210489fe5fbe9f4",
    "link_img": "https://live.staticflickr.com/65535/51551689390_93ab5da5fb_o.jpg",
    "id_image": "ANIME_PIC_2f07c8c0661616e78210489fe5fbe9f4",
    "count_view": 0
  },
  {
    "link_thumb": "https://live.staticflickr.com/65535/51551689805_17a397c980_n.jpg",
    "id_album": "-89234980",
    "description": "ANIME_PIC_2f0fbb580281cb99d4afd970f5daad94,[GirlsCuteCool],[isGirlAnime],[isCuteAnime]",
    "title": "ANIME_PIC_2f0fbb580281cb99d4afd970f5daad94",
    "link_img": "https://live.staticflickr.com/65535/51551689805_4d639ffb2f_o.jpg",
    "id_image": "ANIME_PIC_2f0fbb580281cb99d4afd970f5daad94",
    "count_view": 0
  },
  {
    "link_thumb": "https://live.staticflickr.com/65535/51549981107_4ddb454bc3_n.jpg",
    "id_album": "-89234980",
    "description": "ANIME_PIC_2f1111ff03c02951cfbd5d47bccec2cf,[GirlsCuteCool],[isGirlAnime],[isCuteAnime],[isGirlEarsNekoAnime],[isGirlsLoliAnime],[isSadAnimeGirl],[isSadAnime]",
    "title": "ANIME_PIC_2f1111ff03c02951cfbd5d47bccec2cf",
    "link_img": "https://live.staticflickr.com/65535/51549981107_5eecaa3536_o.png",
    "id_image": "ANIME_PIC_2f1111ff03c02951cfbd5d47bccec2cf",
    "count_view": 0
  },
  {
    "link_thumb": "https://live.staticflickr.com/65535/51551496424_a708c84e49_n.jpg",
    "id_album": "-89234980",
    "description": "ANIME_PIC_2f13b8748a8895f9cb21d96802fe0a20,[GirlsCuteCool],[isGirlAnime],[isCuteAnime]",
    "title": "ANIME_PIC_2f13b8748a8895f9cb21d96802fe0a20",
    "link_img": "https://live.staticflickr.com/65535/51551496424_996004bb64_o.png",
    "id_image": "ANIME_PIC_2f13b8748a8895f9cb21d96802fe0a20",
    "count_view": 0
  },
  {
    "link_thumb": "https://live.staticflickr.com/65535/51551691365_f280e78ee1_n.jpg",
    "id_album": "-89234980",
    "description": "ANIME_PIC_2f16e3f1f737f8f64bf268fff429ba03,[GirlsCuteCool],[isGirlAnime],[isCuteAnime],[isSadAnimeGirl],[isSadAnime]",
    "title": "ANIME_PIC_2f16e3f1f737f8f64bf268fff429ba03",
    "link_img": "https://live.staticflickr.com/65535/51551691365_1c9ffd873c_o.jpg",
    "id_image": "ANIME_PIC_2f16e3f1f737f8f64bf268fff429ba03",
    "count_view": 0
  },
  {
    "link_thumb": "https://live.staticflickr.com/65535/51549982427_8b1322f70d_n.jpg",
    "id_album": "-89234980",
    "description": "ANIME_PIC_2f171ef4c38b1dc9e6d9734fa74f5d37,[GirlsCuteCool],[isGirlAnime],[isCuteAnime],[isGirlsLoliAnime]",
    "title": "ANIME_PIC_2f171ef4c38b1dc9e6d9734fa74f5d37",
    "link_img": "https://live.staticflickr.com/65535/51549982427_c89febd8b5_o.jpg",
    "id_image": "ANIME_PIC_2f171ef4c38b1dc9e6d9734fa74f5d37",
    "count_view": 0
  },
  {
    "link_thumb": "https://live.staticflickr.com/65535/51551497679_70d34f2c15_n.jpg",
    "id_album": "-89234980",
    "description": "ANIME_PIC_2f1d7a40493c4cfcc3ee9e62112a1141,[GirlsCuteCool],[isGirlAnime],[isCuteAnime],[isGirlsLoliAnime],[isSadAnimeGirl],[isSadAnime]",
    "title": "ANIME_PIC_2f1d7a40493c4cfcc3ee9e62112a1141",
    "link_img": "https://live.staticflickr.com/65535/51551497679_e094cea90d_o.jpg",
    "id_image": "ANIME_PIC_2f1d7a40493c4cfcc3ee9e62112a1141",
    "count_view": 0
  },
  {
    "link_thumb": "https://live.staticflickr.com/65535/51551692515_fb3cbd05ee_n.jpg",
    "id_album": "-89234980",
    "description": "ANIME_PIC_2f2137501d2ea48e11926c257288af95,[GirlsCuteCool],[isGirlAnime],[isCuteAnime]",
    "title": "ANIME_PIC_2f2137501d2ea48e11926c257288af95",
    "link_img": "https://live.staticflickr.com/65535/51551692515_f9a3391aa6_o.jpg",
    "id_image": "ANIME_PIC_2f2137501d2ea48e11926c257288af95",
    "count_view": 0
  },
  {
    "link_thumb": "https://live.staticflickr.com/65535/51551019418_6ae033c435_n.jpg",
    "id_album": "-89234980",
    "description": "ANIME_PIC_2f220c305fb8141f54e951703c60afd2,[GirlsCuteCool],[isBoyAnime],[isGirlAnime],[isCuteAnime]",
    "title": "ANIME_PIC_2f220c305fb8141f54e951703c60afd2",
    "link_img": "https://live.staticflickr.com/65535/51551019418_a3caa69da6_o.jpg",
    "id_image": "ANIME_PIC_2f220c305fb8141f54e951703c60afd2",
    "count_view": 0
  },
  {
    "link_thumb": "https://live.staticflickr.com/65535/51551498774_70b5f33e8c_n.jpg",
    "id_album": "-89234980",
    "description": "ANIME_PIC_2f256693488b6c1095f4f6741e01a7e7,[GirlsCuteCool],[isGirlAnime],[isCuteAnime],[isGirlsLoliAnime],[isSadAnimeGirl],[isSadAnime]",
    "title": "ANIME_PIC_2f256693488b6c1095f4f6741e01a7e7",
    "link_img": "https://live.staticflickr.com/65535/51551498774_ca9e897236_o.jpg",
    "id_image": "ANIME_PIC_2f256693488b6c1095f4f6741e01a7e7",
    "count_view": 0
  },
  {
    "link_thumb": "https://live.staticflickr.com/65535/51550785226_07bf9494f2_n.jpg",
    "id_album": "-89234980",
    "description": "ANIME_PIC_2f2694bfbffbfb5fef1a77b518fe035d,[GirlsCuteCool],[isGirlAnime],[isCuteAnime],[isGirlsHatsHoodieAnime],[isGirlsLoliAnime]",
    "title": "ANIME_PIC_2f2694bfbffbfb5fef1a77b518fe035d",
    "link_img": "https://live.staticflickr.com/65535/51550785226_b40184bf04_o.jpg",
    "id_image": "ANIME_PIC_2f2694bfbffbfb5fef1a77b518fe035d",
    "count_view": 0
  },
  {
    "link_thumb": "https://live.staticflickr.com/65535/51549984747_26d645e39f_n.jpg",
    "id_album": "-89234980",
    "description": "ANIME_PIC_2f2799707b7de1e493518aa3366201db,[GirlsCuteCool],[isGirlAnime],[isCuteAnime]",
    "title": "ANIME_PIC_2f2799707b7de1e493518aa3366201db",
    "link_img": "https://live.staticflickr.com/65535/51549984747_59c39a55de_o.jpg",
    "id_image": "ANIME_PIC_2f2799707b7de1e493518aa3366201db",
    "count_view": 0
  },
  {
    "link_thumb": "https://live.staticflickr.com/65535/51549985192_5e22d5d58f_n.jpg",
    "id_album": "-89234980",
    "description": "ANIME_PIC_2f2afa9c1e054f167f33a30c1a0bde0d,[GirlsCuteCool],[isGirlAnime],[isCuteAnime],[isGirlsLoliAnime]",
    "title": "ANIME_PIC_2f2afa9c1e054f167f33a30c1a0bde0d",
    "link_img": "https://live.staticflickr.com/65535/51549985192_1e73214538_o.png",
    "id_image": "ANIME_PIC_2f2afa9c1e054f167f33a30c1a0bde0d",
    "count_view": 0
  },
  {
    "link_thumb": "https://live.staticflickr.com/65535/51551694780_ff4905bd1b_n.jpg",
    "id_album": "-89234980",
    "description": "ANIME_PIC_2f2dd0b88e4b771b6d0673c6cf3daddd,[GirlsCuteCool],[isGirlAnime],[isCuteAnime],[isGirlsHatsHoodieAnime]",
    "title": "ANIME_PIC_2f2dd0b88e4b771b6d0673c6cf3daddd",
    "link_img": "https://live.staticflickr.com/65535/51551694780_5a2d8ef8a7_o.png",
    "id_image": "ANIME_PIC_2f2dd0b88e4b771b6d0673c6cf3daddd",
    "count_view": 0
  },
  {
    "link_thumb": "https://live.staticflickr.com/65535/51549986387_042ff2c892_n.jpg",
    "id_album": "-89234980",
    "description": "ANIME_PIC_2f31b68734c6fd22824a705ca7716be6,[GirlsCuteCool],[isGirlAnime],[isCuteAnime],[isSadAnimeGirl],[isSadAnime]",
    "title": "ANIME_PIC_2f31b68734c6fd22824a705ca7716be6",
    "link_img": "https://live.staticflickr.com/65535/51549986387_caaf11bb19_o.jpg",
    "id_image": "ANIME_PIC_2f31b68734c6fd22824a705ca7716be6",
    "count_view": 0
  },
  {
    "link_thumb": "https://live.staticflickr.com/65535/51550787596_15267a20a8_n.jpg",
    "id_album": "-89234980",
    "description": "ANIME_PIC_2f31ef4b3acda9d03830d23b5dab019b,[GirlsCuteCool],[isGirlAnime],[isCuteAnime],[isGirlEarsNekoAnime],[isGirlsLoliAnime]",
    "title": "ANIME_PIC_2f31ef4b3acda9d03830d23b5dab019b",
    "link_img": "https://live.staticflickr.com/65535/51550787596_7df899e3bc_o.jpg",
    "id_image": "ANIME_PIC_2f31ef4b3acda9d03830d23b5dab019b",
    "count_view": 0
  },
  {
    "link_thumb": "https://live.staticflickr.com/65535/51551501739_522f4c7b14_n.jpg",
    "id_album": "-89234980",
    "description": "ANIME_PIC_2f324139cfa19153dee3bf47484ca5c6,[GirlsCuteCool],[isGirlAnime],[isCuteAnime]",
    "title": "ANIME_PIC_2f324139cfa19153dee3bf47484ca5c6",
    "link_img": "https://live.staticflickr.com/65535/51551501739_8500e11ce4_o.jpg",
    "id_image": "ANIME_PIC_2f324139cfa19153dee3bf47484ca5c6",
    "count_view": 0
  },
  {
    "link_thumb": "https://live.staticflickr.com/65535/51551696450_c76a2af807_n.jpg",
    "id_album": "-89234980",
    "description": "ANIME_PIC_2f3267a19349a3dbd4adcd0066c60555,[GirlsCuteCool],[isGirlAnime],[isCuteAnime],[isGirlsHornsAnime]",
    "title": "ANIME_PIC_2f3267a19349a3dbd4adcd0066c60555",
    "link_img": "https://live.staticflickr.com/65535/51551696450_45f480a611_o.jpg",
    "id_image": "ANIME_PIC_2f3267a19349a3dbd4adcd0066c60555",
    "count_view": 0
  },
  {
    "link_thumb": "https://live.staticflickr.com/65535/51550788966_9b2003ba1d_n.jpg",
    "id_album": "-89234980",
    "description": "ANIME_PIC_2f349aef99edf84d61c0f5fdb2c575ed,[GirlsCuteCool],[isGirlAnime],[isCuteAnime]",
    "title": "ANIME_PIC_2f349aef99edf84d61c0f5fdb2c575ed",
    "link_img": "https://live.staticflickr.com/65535/51550788966_8161d55817_o.jpg",
    "id_image": "ANIME_PIC_2f349aef99edf84d61c0f5fdb2c575ed",
    "count_view": 0
  },
  {
    "link_thumb": "https://live.staticflickr.com/65535/51549988082_1e9f00e575_n.jpg",
    "id_album": "-89234980",
    "description": "ANIME_PIC_2f3702459791f3c27d38072b2780495c,[GirlsCuteCool],[isBoyAnime],[isGirlAnime],[isCuteAnime]",
    "title": "ANIME_PIC_2f3702459791f3c27d38072b2780495c",
    "link_img": "https://live.staticflickr.com/65535/51549988082_e760e36243_o.jpg",
    "id_image": "ANIME_PIC_2f3702459791f3c27d38072b2780495c",
    "count_view": 0
  },
  {
    "link_thumb": "https://live.staticflickr.com/65535/51549988437_2fdeb52658_n.jpg",
    "id_album": "-89234980",
    "description": "ANIME_PIC_2f38b09941c5f3d42221bc0f2f7ad787,[GirlsCuteCool],[isGirlAnime],[isCuteAnime],[isGirlEarsNekoAnime],[isGirlsLoliAnime]",
    "title": "ANIME_PIC_2f38b09941c5f3d42221bc0f2f7ad787",
    "link_img": "https://live.staticflickr.com/65535/51549988437_f565b102bd_o.png",
    "id_image": "ANIME_PIC_2f38b09941c5f3d42221bc0f2f7ad787",
    "count_view": 0
  },
  {
    "link_thumb": "https://live.staticflickr.com/65535/51551504284_814bd8fc71_n.jpg",
    "id_album": "-89234980",
    "description": "ANIME_PIC_2f3f77d08e8fbce99138bf711f3f15da,[GirlsCuteCool],[isGirlAnime],[isCuteAnime]",
    "title": "ANIME_PIC_2f3f77d08e8fbce99138bf711f3f15da",
    "link_img": "https://live.staticflickr.com/65535/51551504284_2be00a3250_o.jpg",
    "id_image": "ANIME_PIC_2f3f77d08e8fbce99138bf711f3f15da",
    "count_view": 0
  },
  {
    "link_thumb": "https://live.staticflickr.com/65535/51550791306_0ddcebbf58_n.jpg",
    "id_album": "-89234980",
    "description": "ANIME_PIC_2f442cb1c89d6494c9393a214ba984bd,[GirlsCuteCool],[isGirlAnime],[isCuteAnime],[isGirlEarsNekoAnime],[isGirlsLoliAnime]",
    "title": "ANIME_PIC_2f442cb1c89d6494c9393a214ba984bd",
    "link_img": "https://live.staticflickr.com/65535/51550791306_48ec63f2cf_o.png",
    "id_image": "ANIME_PIC_2f442cb1c89d6494c9393a214ba984bd",
    "count_view": 0
  },
  {
    "link_thumb": "https://live.staticflickr.com/65535/51551505159_ceacdbd204_n.jpg",
    "id_album": "-89234980",
    "description": "ANIME_PIC_2f453d93cf98b1ae972f7826e3e8e7aa,[GirlsCuteCool],[isGirlAnime],[isCuteAnime],[isGirlEarsNekoAnime],[isGirlsLoliAnime]",
    "title": "ANIME_PIC_2f453d93cf98b1ae972f7826e3e8e7aa",
    "link_img": "https://live.staticflickr.com/65535/51551505159_6d23010faa_o.png",
    "id_image": "ANIME_PIC_2f453d93cf98b1ae972f7826e3e8e7aa",
    "count_view": 0
  },
  {
    "link_thumb": "https://live.staticflickr.com/65535/51551505804_b83959b5b6_n.jpg",
    "id_album": "-89234980",
    "description": "ANIME_PIC_2f45443c490c478fc29f1f21abad5c87,[GirlsCuteCool],[isGirlAnime],[isCuteAnime],[isGirlEarsNekoAnime],[isGirlsHatsHoodieAnime]",
    "title": "ANIME_PIC_2f45443c490c478fc29f1f21abad5c87",
    "link_img": "https://live.staticflickr.com/65535/51551505804_2b34a5596a_o.jpg",
    "id_image": "ANIME_PIC_2f45443c490c478fc29f1f21abad5c87",
    "count_view": 0
  },
  {
    "link_thumb": "https://live.staticflickr.com/65535/51551700565_d4564f60b6_n.jpg",
    "id_album": "-89234980",
    "description": "ANIME_PIC_2f470858a994fd3ad2d8a418c8dad9a3,[GirlsCuteCool],[isGirlAnime],[isCuteAnime]",
    "title": "ANIME_PIC_2f470858a994fd3ad2d8a418c8dad9a3",
    "link_img": "https://live.staticflickr.com/65535/51551700565_357d7ceee1_o.jpg",
    "id_image": "ANIME_PIC_2f470858a994fd3ad2d8a418c8dad9a3",
    "count_view": 0
  },
  {
    "link_thumb": "https://live.staticflickr.com/65535/51551506549_74f2b6815c_n.jpg",
    "id_album": "-89234980",
    "description": "ANIME_PIC_2f47da37abd50c1272986c2736857f33,[GirlsCuteCool],[isGirlAnime],[isCuteAnime],[isGirlsLoliAnime]",
    "title": "ANIME_PIC_2f47da37abd50c1272986c2736857f33",
    "link_img": "https://live.staticflickr.com/65535/51551506549_61740060dd_o.png",
    "id_image": "ANIME_PIC_2f47da37abd50c1272986c2736857f33",
    "count_view": 0
  },
  {
    "link_thumb": "https://live.staticflickr.com/65535/51550793931_5b57f45ba7_n.jpg",
    "id_album": "-89234980",
    "description": "ANIME_PIC_2f4abeaebb9fb41cc43e178f869f4822,[GirlsCuteCool],[isGirlAnime],[isCuteAnime],[isGirlsHatsHoodieAnime],[isGirlsLoliAnime]",
    "title": "ANIME_PIC_2f4abeaebb9fb41cc43e178f869f4822",
    "link_img": "https://live.staticflickr.com/65535/51550793931_81f8a1e133_o.jpg",
    "id_image": "ANIME_PIC_2f4abeaebb9fb41cc43e178f869f4822",
    "count_view": 0
  },
  {
    "link_thumb": "https://live.staticflickr.com/65535/51550794381_55b3fe8f08_n.jpg",
    "id_album": "-89234980",
    "description": "ANIME_PIC_2f517b25fa2d1ffbee06091186c95fff,[GirlsCuteCool],[isGirlAnime],[isCuteAnime],[isGirlsHatsHoodieAnime],[isGirlsLoliAnime],[isSadAnimeGirl],[isSadAnime]",
    "title": "ANIME_PIC_2f517b25fa2d1ffbee06091186c95fff",
    "link_img": "https://live.staticflickr.com/65535/51550794381_16361ba8a7_o.jpg",
    "id_image": "ANIME_PIC_2f517b25fa2d1ffbee06091186c95fff",
    "count_view": 0
  },
  {
    "link_thumb": "https://live.staticflickr.com/65535/51551029348_fd60283f96_n.jpg",
    "id_album": "-89234980",
    "description": "ANIME_PIC_2f51b21cad63bbcf0b17b7fead0ff17b,[GirlsCuteCool],[isGirlAnime],[isCuteAnime],[isGirlsLoliAnime]",
    "title": "ANIME_PIC_2f51b21cad63bbcf0b17b7fead0ff17b",
    "link_img": "https://live.staticflickr.com/65535/51551029348_62d8efd3dd_o.png",
    "id_image": "ANIME_PIC_2f51b21cad63bbcf0b17b7fead0ff17b",
    "count_view": 0
  },
  {
    "link_thumb": "https://live.staticflickr.com/65535/51551508684_d013015d4c_n.jpg",
    "id_album": "-89234980",
    "description": "ANIME_PIC_2f5237fd5bb36dde50cc37db22c8e7d2,[GirlsCuteCool],[isGirlAnime],[isCuteAnime]",
    "title": "ANIME_PIC_2f5237fd5bb36dde50cc37db22c8e7d2",
    "link_img": "https://live.staticflickr.com/65535/51551508684_bd3aca1090_o.jpg",
    "id_image": "ANIME_PIC_2f5237fd5bb36dde50cc37db22c8e7d2",
    "count_view": 0
  },
  {
    "link_thumb": "https://live.staticflickr.com/65535/51551030133_7b84d00cf5_n.jpg",
    "id_album": "-89234980",
    "description": "ANIME_PIC_2f53eda32280693da355ae0434109953,[GirlsCuteCool],[isGirlAnime],[isCuteAnime],[isGirlsHatsHoodieAnime],[isGirlsLoliAnime]",
    "title": "ANIME_PIC_2f53eda32280693da355ae0434109953",
    "link_img": "https://live.staticflickr.com/65535/51551030133_318429b629_o.png",
    "id_image": "ANIME_PIC_2f53eda32280693da355ae0434109953",
    "count_view": 0
  },
  {
    "link_thumb": "https://live.staticflickr.com/65535/51550796131_a0fb9d0f5e_n.jpg",
    "id_album": "-89234980",
    "description": "ANIME_PIC_2f57d2402f23e9c67368d67e1290888e,[GirlsCuteCool],[isGirlAnime],[isCuteAnime],[isGirlsLoliAnime],[isSadAnimeGirl],[isSadAnime]",
    "title": "ANIME_PIC_2f57d2402f23e9c67368d67e1290888e",
    "link_img": "https://live.staticflickr.com/65535/51550796131_9a5e2a3456_o.jpg",
    "id_image": "ANIME_PIC_2f57d2402f23e9c67368d67e1290888e",
    "count_view": 0
  },
  {
    "link_thumb": "https://live.staticflickr.com/65535/51551704675_8306e4be75_n.jpg",
    "id_album": "-89234980",
    "description": "ANIME_PIC_2f5aab9484261a0ca5d2653518176812,[GirlsCuteCool],[isGirlAnime],[isCuteAnime]",
    "title": "ANIME_PIC_2f5aab9484261a0ca5d2653518176812",
    "link_img": "https://live.staticflickr.com/65535/51551704675_1456b917db_o.png",
    "id_image": "ANIME_PIC_2f5aab9484261a0ca5d2653518176812",
    "count_view": 0
  },
  {
    "link_thumb": "https://live.staticflickr.com/65535/51551510744_47700a717e_n.jpg",
    "id_album": "-89234980",
    "description": "ANIME_PIC_2f66b51ed82b8b2395fbbb1eafe9fe60,[GirlsCuteCool],[isGirlAnime],[isCuteAnime]",
    "title": "ANIME_PIC_2f66b51ed82b8b2395fbbb1eafe9fe60",
    "link_img": "https://live.staticflickr.com/65535/51551510744_28cf9f5f01_o.jpg",
    "id_image": "ANIME_PIC_2f66b51ed82b8b2395fbbb1eafe9fe60",
    "count_view": 0
  },
  {
    "link_thumb": "https://live.staticflickr.com/65535/51551032223_77d497ed32_n.jpg",
    "id_album": "-89234980",
    "description": "ANIME_PIC_2f67157585d3f25318b6502a41dcaebc,[GirlsCuteCool],[isGirlAnime],[isCuteAnime],[isGirlsLoliAnime]",
    "title": "ANIME_PIC_2f67157585d3f25318b6502a41dcaebc",
    "link_img": "https://live.staticflickr.com/65535/51551032223_56f7870400_o.jpg",
    "id_image": "ANIME_PIC_2f67157585d3f25318b6502a41dcaebc",
    "count_view": 0
  },
  {
    "link_thumb": "https://live.staticflickr.com/65535/51550797941_f4636800a9_n.jpg",
    "id_album": "-89234980",
    "description": "ANIME_PIC_2f67c33305f110e6efa296497d640379,[GirlsCuteCool],[isGirlAnime],[isCuteAnime],[isGirlEarsNekoAnime],[isGirlFaceMasksAnime],[isGirlsLoliAnime]",
    "title": "ANIME_PIC_2f67c33305f110e6efa296497d640379",
    "link_img": "https://live.staticflickr.com/65535/51550797941_b1f18196e3_o.jpg",
    "id_image": "ANIME_PIC_2f67c33305f110e6efa296497d640379",
    "count_view": 0
  },
  {
    "link_thumb": "https://live.staticflickr.com/65535/51551511694_7906d2dd49_n.jpg",
    "id_album": "-89234980",
    "description": "ANIME_PIC_2f6862f573b55eff4601a9306dd114b5,[GirlsCuteCool],[isGirlAnime],[isCuteAnime],[isGirlsHatsHoodieAnime],[isGirlsLoliAnime]",
    "title": "ANIME_PIC_2f6862f573b55eff4601a9306dd114b5",
    "link_img": "https://live.staticflickr.com/65535/51551511694_70e175d8c5_o.jpg",
    "id_image": "ANIME_PIC_2f6862f573b55eff4601a9306dd114b5",
    "count_view": 0
  },
  {
    "link_thumb": "https://live.staticflickr.com/65535/51550798541_4f5c328a6c_n.jpg",
    "id_album": "-89234980",
    "description": "ANIME_PIC_2f688b58a57c32187dacbf4b1417c728,[GirlsCuteCool],[isGirlAnime],[isCuteAnime]",
    "title": "ANIME_PIC_2f688b58a57c32187dacbf4b1417c728",
    "link_img": "https://live.staticflickr.com/65535/51550798541_4bcb8c1ae9_o.jpg",
    "id_image": "ANIME_PIC_2f688b58a57c32187dacbf4b1417c728",
    "count_view": 0
  },
  {
    "link_thumb": "https://live.staticflickr.com/65535/51551512479_680cde3488_n.jpg",
    "id_album": "-89234980",
    "description": "ANIME_PIC_2f6aa478e95401bc6774a2a03f90d3dd,[GirlsCuteCool],[isGirlAnime],[isCuteAnime]",
    "title": "ANIME_PIC_2f6aa478e95401bc6774a2a03f90d3dd",
    "link_img": "https://live.staticflickr.com/65535/51551512479_fe438ea099_o.png",
    "id_image": "ANIME_PIC_2f6aa478e95401bc6774a2a03f90d3dd",
    "count_view": 0
  },
  {
    "link_thumb": "https://live.staticflickr.com/65535/51550799761_10588fb9cb_n.jpg",
    "id_album": "-89234980",
    "description": "ANIME_PIC_2f6ac1253c5d61792a1af19b785b7892,[GirlsCuteCool],[isGirlAnime],[isCuteAnime]",
    "title": "ANIME_PIC_2f6ac1253c5d61792a1af19b785b7892",
    "link_img": "https://live.staticflickr.com/65535/51550799761_76f5369e7c_o.jpg",
    "id_image": "ANIME_PIC_2f6ac1253c5d61792a1af19b785b7892",
    "count_view": 0
  },
  {
    "link_thumb": "https://live.staticflickr.com/65535/51551034623_4ecf15daeb_n.jpg",
    "id_album": "-89234980",
    "description": "ANIME_PIC_2f6ce5249fd0e48fd6600b9927cc9604,[GirlsCuteCool],[isGirlAnime],[isCuteAnime]",
    "title": "ANIME_PIC_2f6ce5249fd0e48fd6600b9927cc9604",
    "link_img": "https://live.staticflickr.com/65535/51551034623_ac18147a90_o.jpg",
    "id_image": "ANIME_PIC_2f6ce5249fd0e48fd6600b9927cc9604",
    "count_view": 0
  },
  {
    "link_thumb": "https://live.staticflickr.com/65535/51551035323_8f0505f129_n.jpg",
    "id_album": "-89234980",
    "description": "ANIME_PIC_2f6dbe81b320a0189ad3c4495f783c1e,[GirlsCuteCool],[isGirlAnime],[isCuteAnime]",
    "title": "ANIME_PIC_2f6dbe81b320a0189ad3c4495f783c1e",
    "link_img": "https://live.staticflickr.com/65535/51551035323_25bd6794a5_o.jpg",
    "id_image": "ANIME_PIC_2f6dbe81b320a0189ad3c4495f783c1e",
    "count_view": 0
  },
  {
    "link_thumb": "https://live.staticflickr.com/65535/51551035888_0832831dd7_n.jpg",
    "id_album": "-89234980",
    "description": "ANIME_PIC_2f6e8a485f1e4d28dc2b195541dd5fc7,[GirlsCuteCool],[isGirlAnime],[isCuteAnime],[isGirlsHatsHoodieAnime],[isGirlsLoliAnime]",
    "title": "ANIME_PIC_2f6e8a485f1e4d28dc2b195541dd5fc7",
    "link_img": "https://live.staticflickr.com/65535/51551035888_fe74a58436_o.jpg",
    "id_image": "ANIME_PIC_2f6e8a485f1e4d28dc2b195541dd5fc7",
    "count_view": 0
  },
  {
    "link_thumb": "https://live.staticflickr.com/65535/51550000872_a68acaef14_n.jpg",
    "id_album": "-89234980",
    "description": "ANIME_PIC_2f739e686d412c0ede4f488dc6068254,[GirlsCuteCool],[isGirlAnime],[isCuteAnime],[isSadAnimeGirl],[isSadAnime]",
    "title": "ANIME_PIC_2f739e686d412c0ede4f488dc6068254",
    "link_img": "https://live.staticflickr.com/65535/51550000872_31ba919d05_o.jpg",
    "id_image": "ANIME_PIC_2f739e686d412c0ede4f488dc6068254",
    "count_view": 0
  },
  {
    "link_thumb": "https://live.staticflickr.com/65535/51551515614_a4b163def8_n.jpg",
    "id_album": "-89234980",
    "description": "ANIME_PIC_2f73fd8538c25661175076fcef88616a,[GirlsCuteCool],[isGirlAnime],[isCuteAnime]",
    "title": "ANIME_PIC_2f73fd8538c25661175076fcef88616a",
    "link_img": "https://live.staticflickr.com/65535/51551515614_fbe59e9c70_o.jpg",
    "id_image": "ANIME_PIC_2f73fd8538c25661175076fcef88616a",
    "count_view": 0
  },
  {
    "link_thumb": "https://live.staticflickr.com/65535/51551515844_3423686a53_n.jpg",
    "id_album": "-89234980",
    "description": "ANIME_PIC_2f77c912840fbd452a39e1e063a920df,[GirlsCuteCool],[isGirlAnime],[isCuteAnime],[isGirlEarsNekoAnime],[isGirlsLoliAnime]",
    "title": "ANIME_PIC_2f77c912840fbd452a39e1e063a920df",
    "link_img": "https://live.staticflickr.com/65535/51551515844_c98958ea88_o.jpg",
    "id_image": "ANIME_PIC_2f77c912840fbd452a39e1e063a920df",
    "count_view": 0
  },
  {
    "link_thumb": "https://live.staticflickr.com/65535/51551710610_b81e2e55b3_n.jpg",
    "id_album": "-89234980",
    "description": "ANIME_PIC_2f788473065c12e28fea7ed74996561a,[GirlsCuteCool],[isGirlAnime],[isCuteAnime]",
    "title": "ANIME_PIC_2f788473065c12e28fea7ed74996561a",
    "link_img": "https://live.staticflickr.com/65535/51551710610_f6f38b645b_o.jpg",
    "id_image": "ANIME_PIC_2f788473065c12e28fea7ed74996561a",
    "count_view": 0
  },
  {
    "link_thumb": "https://live.staticflickr.com/65535/51550803106_08ccb26107_n.jpg",
    "id_album": "-89234980",
    "description": "ANIME_PIC_2f789f8daa92511e40789e6cf9d4f555,[GirlsCuteCool],[isGirlAnime],[isCuteAnime]",
    "title": "ANIME_PIC_2f789f8daa92511e40789e6cf9d4f555",
    "link_img": "https://live.staticflickr.com/65535/51550803106_6e9360a59c_o.jpg",
    "id_image": "ANIME_PIC_2f789f8daa92511e40789e6cf9d4f555",
    "count_view": 0
  },
  {
    "link_thumb": "https://live.staticflickr.com/65535/51551711650_1324b049fd_n.jpg",
    "id_album": "-89234980",
    "description": "ANIME_PIC_2f7afcd79e75d4536aec859cf5f9cb48,[GirlsCuteCool],[isGirlAnime],[isCuteAnime]",
    "title": "ANIME_PIC_2f7afcd79e75d4536aec859cf5f9cb48",
    "link_img": "https://live.staticflickr.com/65535/51551711650_4dc598a214_o.jpg",
    "id_image": "ANIME_PIC_2f7afcd79e75d4536aec859cf5f9cb48",
    "count_view": 0
  },
  {
    "link_thumb": "https://live.staticflickr.com/65535/51551038638_c83fd51c48_n.jpg",
    "id_album": "-89234980",
    "description": "ANIME_PIC_2f7b6dd98b2d78a49a4db4337fd1ffb0,[GirlsCuteCool],[isGirlAnime],[isCuteAnime],[isGirlsHatsHoodieAnime],[isGirlsLoliAnime]",
    "title": "ANIME_PIC_2f7b6dd98b2d78a49a4db4337fd1ffb0",
    "link_img": "https://live.staticflickr.com/65535/51551038638_64b88af310_o.jpg",
    "id_image": "ANIME_PIC_2f7b6dd98b2d78a49a4db4337fd1ffb0",
    "count_view": 0
  },
  {
    "link_thumb": "https://live.staticflickr.com/65535/51552720536_f99372e28d_n.jpg",
    "id_album": "-89234980",
    "description": "ANIME_PIC_2f7c3a6c6b85b2b069aa5cc80e2c5f79,[GirlsCuteCool],[isGirlAnime],[isCuteAnime],[isGirlsLoliAnime]",
    "title": "ANIME_PIC_2f7c3a6c6b85b2b069aa5cc80e2c5f79",
    "link_img": "https://live.staticflickr.com/65535/51552720536_8c7dbbfa53_o.png",
    "id_image": "ANIME_PIC_2f7c3a6c6b85b2b069aa5cc80e2c5f79",
    "count_view": 0
  },
  {
    "link_thumb": "https://live.staticflickr.com/65535/51551040018_92dc7041fe_n.jpg",
    "id_album": "-89234980",
    "description": "ANIME_PIC_2f7f48b6700ccee6630d722f17bb7a72,[GirlsCuteCool],[isGirlAnime],[isCuteAnime],[isGirlsLoliAnime],[isSadAnimeGirl],[isSadAnime]",
    "title": "ANIME_PIC_2f7f48b6700ccee6630d722f17bb7a72",
    "link_img": "https://live.staticflickr.com/65535/51551040018_80047a077e_o.jpg",
    "id_image": "ANIME_PIC_2f7f48b6700ccee6630d722f17bb7a72",
    "count_view": 0
  },
  {
    "link_thumb": "https://live.staticflickr.com/65535/51551713575_550c7d34c4_n.jpg",
    "id_album": "-89234980",
    "description": "ANIME_PIC_2f81aeb21eb74ab4b496e4590c735ecf,[GirlsCuteCool],[isGirlAnime],[isCuteAnime],[isSadAnimeGirl],[isSadAnime]",
    "title": "ANIME_PIC_2f81aeb21eb74ab4b496e4590c735ecf",
    "link_img": "https://live.staticflickr.com/65535/51551713575_e2e7a4b45c_o.jpg",
    "id_image": "ANIME_PIC_2f81aeb21eb74ab4b496e4590c735ecf",
    "count_view": 0
  },
  {
    "link_thumb": "https://live.staticflickr.com/65535/51551040658_37f31498bb_n.jpg",
    "id_album": "-89234980",
    "description": "ANIME_PIC_2f83582f8c31220c83dceb16069c3f3e,[GirlsCuteCool],[isGirlAnime],[isCuteAnime],[isSadAnimeGirl],[isSadAnime]",
    "title": "ANIME_PIC_2f83582f8c31220c83dceb16069c3f3e",
    "link_img": "https://live.staticflickr.com/65535/51551040658_76a469dd07_o.jpg",
    "id_image": "ANIME_PIC_2f83582f8c31220c83dceb16069c3f3e",
    "count_view": 0
  },
  {
    "link_thumb": "https://live.staticflickr.com/65535/51550005992_a6a48dea60_n.jpg",
    "id_album": "-89234980",
    "description": "ANIME_PIC_2f88a50c74ff408cf388270277b53b92,[GirlsCuteCool],[isGirlAnime],[isCuteAnime],[isSadAnimeGirl],[isSadAnime]",
    "title": "ANIME_PIC_2f88a50c74ff408cf388270277b53b92",
    "link_img": "https://live.staticflickr.com/65535/51550005992_2dee7bd1e6_o.jpg",
    "id_image": "ANIME_PIC_2f88a50c74ff408cf388270277b53b92",
    "count_view": 0
  },
  {
    "link_thumb": "https://live.staticflickr.com/65535/51551041608_283d4578e2_n.jpg",
    "id_album": "-89234980",
    "description": "ANIME_PIC_2f8dd7e8f599a8878c3c25530ceae220,[GirlsCuteCool],[isGirlAnime],[isCuteAnime]",
    "title": "ANIME_PIC_2f8dd7e8f599a8878c3c25530ceae220",
    "link_img": "https://live.staticflickr.com/65535/51551041608_a3e6063051_o.png",
    "id_image": "ANIME_PIC_2f8dd7e8f599a8878c3c25530ceae220",
    "count_view": 0
  },
  {
    "link_thumb": "https://live.staticflickr.com/65535/51551715420_d70e06c533_n.jpg",
    "id_album": "-89234980",
    "description": "ANIME_PIC_2f8e48b479cde567787d134db04b93b5,[GirlsCuteCool],[isGirlAnime],[isCuteAnime],[isGirlsHatsHoodieAnime],[isGirlsLoliAnime],[isSadAnimeGirl],[isSadAnime]",
    "title": "ANIME_PIC_2f8e48b479cde567787d134db04b93b5",
    "link_img": "https://live.staticflickr.com/65535/51551715420_5f31ebb0f6_o.jpg",
    "id_image": "ANIME_PIC_2f8e48b479cde567787d134db04b93b5",
    "count_view": 0
  },
  {
    "link_thumb": "https://live.staticflickr.com/65535/51551521349_e9ac6a2383_n.jpg",
    "id_album": "-89234980",
    "description": "ANIME_PIC_2f91ff9c575a7dced0c49849636cbaed,[GirlsCuteCool],[isGirlAnime],[isCuteAnime],[isGirlsLoliAnime]",
    "title": "ANIME_PIC_2f91ff9c575a7dced0c49849636cbaed",
    "link_img": "https://live.staticflickr.com/65535/51551521349_27e88149c5_o.jpg",
    "id_image": "ANIME_PIC_2f91ff9c575a7dced0c49849636cbaed",
    "count_view": 0
  },
  {
    "link_thumb": "https://live.staticflickr.com/65535/51551716275_dfaf6e21f3_n.jpg",
    "id_album": "-89234980",
    "description": "ANIME_PIC_2f9449e6de4afa792e5ae8898b3e7595,[GirlsCuteCool],[isGirlAnime],[isCuteAnime],[isSadAnimeGirl],[isSadAnime]",
    "title": "ANIME_PIC_2f9449e6de4afa792e5ae8898b3e7595",
    "link_img": "https://live.staticflickr.com/65535/51551716275_4bd48e4191_o.jpg",
    "id_image": "ANIME_PIC_2f9449e6de4afa792e5ae8898b3e7595",
    "count_view": 0
  },
  {
    "link_thumb": "https://live.staticflickr.com/65535/51551043408_27ab87ddb6_n.jpg",
    "id_album": "-89234980",
    "description": "ANIME_PIC_2f966b6d60492d52bc221a540039d5de,[GirlsCuteCool],[isGirlAnime],[isCuteAnime],[isGirlsHatsHoodieAnime]",
    "title": "ANIME_PIC_2f966b6d60492d52bc221a540039d5de",
    "link_img": "https://live.staticflickr.com/65535/51551043408_e4b23231a1_o.png",
    "id_image": "ANIME_PIC_2f966b6d60492d52bc221a540039d5de",
    "count_view": 0
  },
  {
    "link_thumb": "https://live.staticflickr.com/65535/51550808926_fbc4f9ae41_n.jpg",
    "id_album": "-89234980",
    "description": "ANIME_PIC_2f9c5196eb5d80901a64704877f29fa6,[GirlsCuteCool],[isGirlAnime],[isCuteAnime],[isGirlsHatsHoodieAnime],[isGirlsLoliAnime]",
    "title": "ANIME_PIC_2f9c5196eb5d80901a64704877f29fa6",
    "link_img": "https://live.staticflickr.com/65535/51550808926_60e63c858a_o.jpg",
    "id_image": "ANIME_PIC_2f9c5196eb5d80901a64704877f29fa6",
    "count_view": 0
  },
  {
    "link_thumb": "https://live.staticflickr.com/65535/51551522819_53410864db_n.jpg",
    "id_album": "-89234980",
    "description": "ANIME_PIC_2f9d7c1dd186773b517c9474a5826f84,[GirlsCuteCool],[isGirlAnime],[isCuteAnime]",
    "title": "ANIME_PIC_2f9d7c1dd186773b517c9474a5826f84",
    "link_img": "https://live.staticflickr.com/65535/51551522819_26cd71b155_o.png",
    "id_image": "ANIME_PIC_2f9d7c1dd186773b517c9474a5826f84",
    "count_view": 0
  },
  {
    "link_thumb": "https://live.staticflickr.com/65535/51551718430_5e4fe14823_n.jpg",
    "id_album": "-89234980",
    "description": "ANIME_PIC_2fa160e45859ef4579db779df8fd1cee,[GirlsCuteCool],[isGirlAnime],[isCuteAnime],[isGirlsLoliAnime],[isSadAnimeGirl],[isSadAnime]",
    "title": "ANIME_PIC_2fa160e45859ef4579db779df8fd1cee",
    "link_img": "https://live.staticflickr.com/65535/51551718430_1ffc8f7021_o.png",
    "id_image": "ANIME_PIC_2fa160e45859ef4579db779df8fd1cee",
    "count_view": 0
  },
  {
    "link_thumb": "https://live.staticflickr.com/65535/51551045843_8951f1dcfc_n.jpg",
    "id_album": "-89234980",
    "description": "ANIME_PIC_2fa1fa1758ff19eb2909998214fbf516,[GirlsCuteCool],[isGirlAnime],[isCuteAnime],[isGirlEarsNekoAnime],[isGirlsLoliAnime]",
    "title": "ANIME_PIC_2fa1fa1758ff19eb2909998214fbf516",
    "link_img": "https://live.staticflickr.com/65535/51551045843_670f8474a6_o.jpg",
    "id_image": "ANIME_PIC_2fa1fa1758ff19eb2909998214fbf516",
    "count_view": 0
  },
  {
    "link_thumb": "https://live.staticflickr.com/65535/51551719280_93c7d0c07b_n.jpg",
    "id_album": "-89234980",
    "description": "ANIME_PIC_2fa6bcacf9b98cb8c558aed4f4d50070,[GirlsCuteCool],[isGirlAnime],[isCuteAnime],[isGirlsLoliAnime],[isSadAnimeGirl],[isSadAnime]",
    "title": "ANIME_PIC_2fa6bcacf9b98cb8c558aed4f4d50070",
    "link_img": "https://live.staticflickr.com/65535/51551719280_a4150762c7_o.jpg",
    "id_image": "ANIME_PIC_2fa6bcacf9b98cb8c558aed4f4d50070",
    "count_view": 0
  },
  {
    "link_thumb": "https://live.staticflickr.com/65535/51551046713_4082f2da0b_n.jpg",
    "id_album": "-89234980",
    "description": "ANIME_PIC_2faa347b31cc3dd726855c1c47cf9994,[GirlsCuteCool],[isGirlAnime],[isCuteAnime]",
    "title": "ANIME_PIC_2faa347b31cc3dd726855c1c47cf9994",
    "link_img": "https://live.staticflickr.com/65535/51551046713_d4863f5157_o.png",
    "id_image": "ANIME_PIC_2faa347b31cc3dd726855c1c47cf9994",
    "count_view": 0
  },
  {
    "link_thumb": "https://live.staticflickr.com/65535/51550011632_ef05468367_n.jpg",
    "id_album": "-89234980",
    "description": "ANIME_PIC_2fb00ffca9f27e6af72637ad0b38c449,[GirlsCuteCool],[isGirlAnime],[isCuteAnime],[isGirlsLoliAnime]",
    "title": "ANIME_PIC_2fb00ffca9f27e6af72637ad0b38c449",
    "link_img": "https://live.staticflickr.com/65535/51550011632_1013b70bea_o.jpg",
    "id_image": "ANIME_PIC_2fb00ffca9f27e6af72637ad0b38c449",
    "count_view": 0
  },
  {
    "link_thumb": "https://live.staticflickr.com/65535/51551720485_8f9e2207d0_n.jpg",
    "id_album": "-89234980",
    "description": "ANIME_PIC_2fb12a2b91dcd1415bdf456802c88fef,[GirlsCuteCool],[isGirlAnime],[isCuteAnime],[isGirlEarsNekoAnime],[isGirlsLoliAnime]",
    "title": "ANIME_PIC_2fb12a2b91dcd1415bdf456802c88fef",
    "link_img": "https://live.staticflickr.com/65535/51551720485_a690cdf420_o.png",
    "id_image": "ANIME_PIC_2fb12a2b91dcd1415bdf456802c88fef",
    "count_view": 0
  },
  {
    "link_thumb": "https://live.staticflickr.com/65535/51550813071_02ec5096a4_n.jpg",
    "id_album": "-89234980",
    "description": "ANIME_PIC_2fb2772b92003276882a6c5113fac1bf,[GirlsCuteCool],[isGirlAnime],[isCuteAnime],[isGirlsHatsHoodieAnime],[isGirlsLoliAnime],[isSadAnimeGirl],[isSadAnime]",
    "title": "ANIME_PIC_2fb2772b92003276882a6c5113fac1bf",
    "link_img": "https://live.staticflickr.com/65535/51550813071_85c2c74d90_o.jpg",
    "id_image": "ANIME_PIC_2fb2772b92003276882a6c5113fac1bf",
    "count_view": 0
  },
  {
    "link_thumb": "https://live.staticflickr.com/65535/51551721425_9de229bb2e_n.jpg",
    "id_album": "-89234980",
    "description": "ANIME_PIC_2fb85714a863ddf1c2c0db0c73dad979,[GirlsCuteCool],[isGirlAnime],[isCuteAnime],[isGirlsHatsHoodieAnime],[isGirlsLoliAnime],[isSadAnimeGirl],[isSadAnime]",
    "title": "ANIME_PIC_2fb85714a863ddf1c2c0db0c73dad979",
    "link_img": "https://live.staticflickr.com/65535/51551721425_e2bbb16f61_o.png",
    "id_image": "ANIME_PIC_2fb85714a863ddf1c2c0db0c73dad979",
    "count_view": 0
  },
  {
    "link_thumb": "https://live.staticflickr.com/65535/51551721940_d8e3265ddb_n.jpg",
    "id_album": "-89234980",
    "description": "ANIME_PIC_2fb954ade4153f4b29cd110543adda25,[GirlsCuteCool],[isGirlAnime],[isCuteAnime],[isGirlsLoliAnime],[isSadAnimeGirl],[isSadAnime]",
    "title": "ANIME_PIC_2fb954ade4153f4b29cd110543adda25",
    "link_img": "https://live.staticflickr.com/65535/51551721940_fa4650b8b5_o.jpg",
    "id_image": "ANIME_PIC_2fb954ade4153f4b29cd110543adda25",
    "count_view": 0
  },
  {
    "link_thumb": "https://live.staticflickr.com/65535/51551722455_76f945f56b_n.jpg",
    "id_album": "-89234980",
    "description": "ANIME_PIC_2fbd0fd8c1cadc91bb45435ebc260f15,[GirlsCuteCool],[isGirlAnime],[isCuteAnime]",
    "title": "ANIME_PIC_2fbd0fd8c1cadc91bb45435ebc260f15",
    "link_img": "https://live.staticflickr.com/65535/51551722455_307c424847_o.jpg",
    "id_image": "ANIME_PIC_2fbd0fd8c1cadc91bb45435ebc260f15",
    "count_view": 0
  },
  {
    "link_thumb": "https://live.staticflickr.com/65535/51550814586_48afa2f083_n.jpg",
    "id_album": "-89234980",
    "description": "ANIME_PIC_2fbd2c96f0a247a2074da72717c2cf5a,[GirlsCuteCool],[isGirlAnime],[isCuteAnime]",
    "title": "ANIME_PIC_2fbd2c96f0a247a2074da72717c2cf5a",
    "link_img": "https://live.staticflickr.com/65535/51550814586_cfef6d0225_o.png",
    "id_image": "ANIME_PIC_2fbd2c96f0a247a2074da72717c2cf5a",
    "count_view": 0
  },
  {
    "link_thumb": "https://live.staticflickr.com/65535/51551050403_fe86c17e65_n.jpg",
    "id_album": "-89234980",
    "description": "ANIME_PIC_2fbda61c40336ad197a99153886b0833,[GirlsCuteCool],[isGirlAnime],[isCuteAnime],[isGirlsLoliAnime]",
    "title": "ANIME_PIC_2fbda61c40336ad197a99153886b0833",
    "link_img": "https://live.staticflickr.com/65535/51551050403_6c6dc112b8_o.png",
    "id_image": "ANIME_PIC_2fbda61c40336ad197a99153886b0833",
    "count_view": 0
  },
  {
    "link_thumb": "https://live.staticflickr.com/65535/51551528959_a3d371751d_n.jpg",
    "id_album": "-89234980",
    "description": "ANIME_PIC_2fbea1bdf3d354aa49e20a371e5efd57,[GirlsCuteCool],[isGirlAnime],[isCuteAnime]",
    "title": "ANIME_PIC_2fbea1bdf3d354aa49e20a371e5efd57",
    "link_img": "https://live.staticflickr.com/65535/51551528959_cf6e0c5374_o.jpg",
    "id_image": "ANIME_PIC_2fbea1bdf3d354aa49e20a371e5efd57",
    "count_view": 0
  },
  {
    "link_thumb": "https://live.staticflickr.com/65535/51550015452_09f3b0d9f5_n.jpg",
    "id_album": "-89234980",
    "description": "ANIME_PIC_2fc7e6ab76cd589370064ed9b448b3ba,[GirlsCuteCool],[isGirlAnime],[isCuteAnime],[isGirlsSharpCanineToothAnime]",
    "title": "ANIME_PIC_2fc7e6ab76cd589370064ed9b448b3ba",
    "link_img": "https://live.staticflickr.com/65535/51550015452_9504bcb4ba_o.jpg",
    "id_image": "ANIME_PIC_2fc7e6ab76cd589370064ed9b448b3ba",
    "count_view": 0
  },
  {
    "link_thumb": "https://live.staticflickr.com/65535/51551051373_714c7f9daa_n.jpg",
    "id_album": "-89234980",
    "description": "ANIME_PIC_2fc8570b9488b9b7768c086e246b9d88,[GirlsCuteCool],[isGirlAnime],[isCuteAnime],[isGirlsLoliAnime],[isSadAnimeGirl],[isSadAnime]",
    "title": "ANIME_PIC_2fc8570b9488b9b7768c086e246b9d88",
    "link_img": "https://live.staticflickr.com/65535/51551051373_ddc21e13fb_o.jpg",
    "id_image": "ANIME_PIC_2fc8570b9488b9b7768c086e246b9d88",
    "count_view": 0
  },
  {
    "link_thumb": "https://live.staticflickr.com/65535/51551529894_e6f074428b_n.jpg",
    "id_album": "-89234980",
    "description": "ANIME_PIC_2fcbf989c66ab92760ae6fa9ab5f4e3f,[GirlsCuteCool],[isGirlAnime],[isCuteAnime],[isGirlsLoliAnime]",
    "title": "ANIME_PIC_2fcbf989c66ab92760ae6fa9ab5f4e3f",
    "link_img": "https://live.staticflickr.com/65535/51551529894_00772e9109_o.jpg",
    "id_image": "ANIME_PIC_2fcbf989c66ab92760ae6fa9ab5f4e3f",
    "count_view": 0
  },
  {
    "link_thumb": "https://live.staticflickr.com/65535/51551725140_fa0dd54ba8_n.jpg",
    "id_album": "-89234980",
    "description": "ANIME_PIC_2fcee4fab548c48a4c79e2683547db5a,[GirlsCuteCool],[isGirlAnime],[isCuteAnime]",
    "title": "ANIME_PIC_2fcee4fab548c48a4c79e2683547db5a",
    "link_img": "https://live.staticflickr.com/65535/51551725140_32524f5a25_o.jpg",
    "id_image": "ANIME_PIC_2fcee4fab548c48a4c79e2683547db5a",
    "count_view": 0
  },
  {
    "link_thumb": "https://live.staticflickr.com/65535/51551530899_55b18314c0_n.jpg",
    "id_album": "-89234980",
    "description": "ANIME_PIC_2fd164f8fba98ea0069454f3f71f286d,[GirlsCuteCool],[isGirlAnime],[isCuteAnime],[isGirlsHatsHoodieAnime],[isGirlsLoliAnime]",
    "title": "ANIME_PIC_2fd164f8fba98ea0069454f3f71f286d",
    "link_img": "https://live.staticflickr.com/65535/51551530899_526f3b86ba_o.jpg",
    "id_image": "ANIME_PIC_2fd164f8fba98ea0069454f3f71f286d",
    "count_view": 0
  },
  {
    "link_thumb": "https://live.staticflickr.com/65535/51550017727_b1973123bc_n.jpg",
    "id_album": "-89234980",
    "description": "ANIME_PIC_2fd1c55f596435b6a59e4d11d8a8fb0e,[GirlsCuteCool],[isGirlAnime],[isCuteAnime],[isGirlsLoliAnime]",
    "title": "ANIME_PIC_2fd1c55f596435b6a59e4d11d8a8fb0e",
    "link_img": "https://live.staticflickr.com/65535/51550017727_6efcb867af_o.png",
    "id_image": "ANIME_PIC_2fd1c55f596435b6a59e4d11d8a8fb0e",
    "count_view": 0
  },
  {
    "link_thumb": "https://live.staticflickr.com/65535/51551053763_aa4a0ea4a3_n.jpg",
    "id_album": "-89234980",
    "description": "ANIME_PIC_2fd98f6444fe057973acce13ee7edd04,[GirlsCuteCool],[isGirlAnime],[isCuteAnime],[isGirlsHatsHoodieAnime],[isGirlsLoliAnime]",
    "title": "ANIME_PIC_2fd98f6444fe057973acce13ee7edd04",
    "link_img": "https://live.staticflickr.com/65535/51551053763_65cfee3d34_o.jpg",
    "id_image": "ANIME_PIC_2fd98f6444fe057973acce13ee7edd04",
    "count_view": 0
  },
  {
    "link_thumb": "https://live.staticflickr.com/65535/51551532399_ef35aa906c_n.jpg",
    "id_album": "-89234980",
    "description": "ANIME_PIC_2fdec84bd5bff991bbd33c8ea73f2ea2,[GirlsCuteCool],[isGirlAnime],[isCuteAnime],[isGirlsHatsHoodieAnime],[isGirlsLoliAnime]",
    "title": "ANIME_PIC_2fdec84bd5bff991bbd33c8ea73f2ea2",
    "link_img": "https://live.staticflickr.com/65535/51551532399_1202ef0c0b_o.jpg",
    "id_image": "ANIME_PIC_2fdec84bd5bff991bbd33c8ea73f2ea2",
    "count_view": 0
  },
  {
    "link_thumb": "https://live.staticflickr.com/65535/51551727560_ee381f5254_n.jpg",
    "id_album": "-89234980",
    "description": "ANIME_PIC_2fdf30ed745852bde5336d0bc9afd9de,[GirlsCuteCool],[isGirlAnime],[isCuteAnime]",
    "title": "ANIME_PIC_2fdf30ed745852bde5336d0bc9afd9de",
    "link_img": "https://live.staticflickr.com/65535/51551727560_c662a1fc54_o.jpg",
    "id_image": "ANIME_PIC_2fdf30ed745852bde5336d0bc9afd9de",
    "count_view": 0
  },
  {
    "link_thumb": "https://live.staticflickr.com/65535/51550019267_d53dbdc548_n.jpg",
    "id_album": "-89234980",
    "description": "ANIME_PIC_2fe53ce5a323a26b55a19cf36a09fd1f,[GirlsCuteCool],[isGirlAnime],[isCuteAnime],[isGirlsLoliAnime]",
    "title": "ANIME_PIC_2fe53ce5a323a26b55a19cf36a09fd1f",
    "link_img": "https://live.staticflickr.com/65535/51550019267_898ec8fde9_o.png",
    "id_image": "ANIME_PIC_2fe53ce5a323a26b55a19cf36a09fd1f",
    "count_view": 0
  },
  {
    "link_thumb": "https://live.staticflickr.com/65535/51550820666_b67f120804_n.jpg",
    "id_album": "-89234980",
    "description": "ANIME_PIC_2fe80ea7db67b09aff5209806d35ebb8,[GirlsCuteCool],[isGirlAnime],[isCuteAnime]",
    "title": "ANIME_PIC_2fe80ea7db67b09aff5209806d35ebb8",
    "link_img": "https://live.staticflickr.com/65535/51550820666_675256be6a_o.png",
    "id_image": "ANIME_PIC_2fe80ea7db67b09aff5209806d35ebb8",
    "count_view": 0
  },
  {
    "link_thumb": "https://live.staticflickr.com/65535/51550020877_d9f2c44bf6_n.jpg",
    "id_album": "-89234980",
    "description": "ANIME_PIC_2fe8d4ba70e2cf6aae68537ba3eaff51,[GirlsCuteCool],[isGirlAnime],[isCuteAnime]",
    "title": "ANIME_PIC_2fe8d4ba70e2cf6aae68537ba3eaff51",
    "link_img": "https://live.staticflickr.com/65535/51550020877_8121a7ac51_o.jpg",
    "id_image": "ANIME_PIC_2fe8d4ba70e2cf6aae68537ba3eaff51",
    "count_view": 0
  },
  {
    "link_thumb": "https://live.staticflickr.com/65535/51551729975_45a918aef1_n.jpg",
    "id_album": "-89234980",
    "description": "ANIME_PIC_2fea2c9e30d5c17dff306c878f6c07ef,[GirlsCuteCool],[isGirlAnime],[isCuteAnime],[isGirlsLoliAnime]",
    "title": "ANIME_PIC_2fea2c9e30d5c17dff306c878f6c07ef",
    "link_img": "https://live.staticflickr.com/65535/51551729975_390dff786d_o.jpg",
    "id_image": "ANIME_PIC_2fea2c9e30d5c17dff306c878f6c07ef",
    "count_view": 0
  },
  {
    "link_thumb": "https://live.staticflickr.com/65535/51551730415_28f88663eb_n.jpg",
    "id_album": "-89234980",
    "description": "ANIME_PIC_2ff1d71606c1a62c2db7a5fd7967659d,[GirlsCuteCool],[isGirlAnime],[isCuteAnime],[isGirlsHatsHoodieAnime],[isGirlsLoliAnime]",
    "title": "ANIME_PIC_2ff1d71606c1a62c2db7a5fd7967659d",
    "link_img": "https://live.staticflickr.com/65535/51551730415_8ccf347d3b_o.jpg",
    "id_image": "ANIME_PIC_2ff1d71606c1a62c2db7a5fd7967659d",
    "count_view": 0
  },
  {
    "link_thumb": "https://live.staticflickr.com/65535/51551730770_f251ecd729_n.jpg",
    "id_album": "-89234980",
    "description": "ANIME_PIC_2ff6ccf3db5634b047fc1db8132bafc0,[GirlsCuteCool],[isGirlAnime],[isCuteAnime],[isGirlFaceMasksAnime],[isGirlsLoliAnime]",
    "title": "ANIME_PIC_2ff6ccf3db5634b047fc1db8132bafc0",
    "link_img": "https://live.staticflickr.com/65535/51551730770_9e4874ebab_o.jpg",
    "id_image": "ANIME_PIC_2ff6ccf3db5634b047fc1db8132bafc0",
    "count_view": 0
  },
  {
    "link_thumb": "https://live.staticflickr.com/65535/51551057853_8143855e7a_n.jpg",
    "id_album": "-89234980",
    "description": "ANIME_PIC_2ff7daff6c57e7a15077d492eb013d62,[GirlsCuteCool],[isGirlAnime],[isCuteAnime]",
    "title": "ANIME_PIC_2ff7daff6c57e7a15077d492eb013d62",
    "link_img": "https://live.staticflickr.com/65535/51551057853_5e020ca6ab_o.png",
    "id_image": "ANIME_PIC_2ff7daff6c57e7a15077d492eb013d62",
    "count_view": 0
  },
  {
    "link_thumb": "https://live.staticflickr.com/65535/51550023037_5b963f59e0_n.jpg",
    "id_album": "-89234980",
    "description": "ANIME_PIC_2ffae804d0533761dbe83dcef3639884,[GirlsCuteCool],[isGirlAnime],[isCuteAnime]",
    "title": "ANIME_PIC_2ffae804d0533761dbe83dcef3639884",
    "link_img": "https://live.staticflickr.com/65535/51550023037_0083f9e9d6_o.jpg",
    "id_image": "ANIME_PIC_2ffae804d0533761dbe83dcef3639884",
    "count_view": 0
  },
  {
    "link_thumb": "https://live.staticflickr.com/65535/51551058843_962c5127e3_n.jpg",
    "id_album": "-89234980",
    "description": "ANIME_PIC_2ffb02d9fed03f2d85972207b6bf6859,[GirlsCuteCool],[isGirlAnime],[isCuteAnime]",
    "title": "ANIME_PIC_2ffb02d9fed03f2d85972207b6bf6859",
    "link_img": "https://live.staticflickr.com/65535/51551058843_51aab7b92d_o.png",
    "id_image": "ANIME_PIC_2ffb02d9fed03f2d85972207b6bf6859",
    "count_view": 0
  },
  {
    "link_thumb": "https://live.staticflickr.com/65535/51551732595_c2d9cd5df8_n.jpg",
    "id_album": "-89234980",
    "description": "ANIME_PIC_2ffed336277c71819e548ac9a8d6ede7,[GirlsCuteCool],[isGirlAnime],[isCuteAnime],[isGirlsHatsHoodieAnime],[isGirlsLoliAnime],[isSadAnimeGirl],[isSadAnime]",
    "title": "ANIME_PIC_2ffed336277c71819e548ac9a8d6ede7",
    "link_img": "https://live.staticflickr.com/65535/51551732595_c74391e0e2_o.jpg",
    "id_image": "ANIME_PIC_2ffed336277c71819e548ac9a8d6ede7",
    "count_view": 0
  },
  {
    "link_thumb": "https://live.staticflickr.com/65535/51550024267_17abe83262_n.jpg",
    "id_album": "-89234980",
    "description": "ANIME_PIC_3000273a89ec3fe0f6216e9e92a24174,[GirlsCuteCool],[isGirlAnime],[isCuteAnime]",
    "title": "ANIME_PIC_3000273a89ec3fe0f6216e9e92a24174",
    "link_img": "https://live.staticflickr.com/65535/51550024267_17b3195e50_o.png",
    "id_image": "ANIME_PIC_3000273a89ec3fe0f6216e9e92a24174",
    "count_view": 0
  },
  {
    "link_thumb": "https://live.staticflickr.com/65535/51550825766_13c3f4818b_n.jpg",
    "id_album": "-89234980",
    "description": "ANIME_PIC_3002f5e5d1b7611e92bbcba0ac946f1e,[GirlsCuteCool],[isGirlAnime],[isCuteAnime],[isGirlsHatsHoodieAnime]",
    "title": "ANIME_PIC_3002f5e5d1b7611e92bbcba0ac946f1e",
    "link_img": "https://live.staticflickr.com/65535/51550825766_32543b2798_o.jpg",
    "id_image": "ANIME_PIC_3002f5e5d1b7611e92bbcba0ac946f1e",
    "count_view": 0
  },
  {
    "link_thumb": "https://live.staticflickr.com/65535/51550826116_b88532b892_n.jpg",
    "id_album": "-89234980",
    "description": "ANIME_PIC_30048c9123c6421a6eaea176bedf8971,[GirlsCuteCool],[isGirlAnime],[isCuteAnime]",
    "title": "ANIME_PIC_30048c9123c6421a6eaea176bedf8971",
    "link_img": "https://live.staticflickr.com/65535/51550826116_ea4c3eeb01_o.jpg",
    "id_image": "ANIME_PIC_30048c9123c6421a6eaea176bedf8971",
    "count_view": 0
  },
  {
    "link_thumb": "https://live.staticflickr.com/65535/51551061048_ce53f67875_n.jpg",
    "id_album": "-89234980",
    "description": "ANIME_PIC_30058484a24c79f09baaef7552328542,[GirlsCuteCool],[isGirlAnime],[isCuteAnime]",
    "title": "ANIME_PIC_30058484a24c79f09baaef7552328542",
    "link_img": "https://live.staticflickr.com/65535/51551061048_c62856ca4b_o.png",
    "id_image": "ANIME_PIC_30058484a24c79f09baaef7552328542",
    "count_view": 0
  },
  {
    "link_thumb": "https://live.staticflickr.com/65535/51551734680_07a57ecb78_n.jpg",
    "id_album": "-89234980",
    "description": "ANIME_PIC_3007243369b3ed88d6d2c938fcace0c2,[GirlsCuteCool],[isGirlAnime],[isCuteAnime],[isGirlsLoliAnime]",
    "title": "ANIME_PIC_3007243369b3ed88d6d2c938fcace0c2",
    "link_img": "https://live.staticflickr.com/65535/51551734680_5528ff4c33_o.jpg",
    "id_image": "ANIME_PIC_3007243369b3ed88d6d2c938fcace0c2",
    "count_view": 0
  },
  {
    "link_thumb": "https://live.staticflickr.com/65535/51551061768_b46bdd3478_n.jpg",
    "id_album": "-89234980",
    "description": "ANIME_PIC_3007c0fe48c514fc54c72fe5a4a8cb99,[GirlsCuteCool],[isGirlAnime],[isCuteAnime]",
    "title": "ANIME_PIC_3007c0fe48c514fc54c72fe5a4a8cb99",
    "link_img": "https://live.staticflickr.com/65535/51551061768_d358a49ea7_o.jpg",
    "id_image": "ANIME_PIC_3007c0fe48c514fc54c72fe5a4a8cb99",
    "count_view": 0
  },
  {
    "link_thumb": "https://live.staticflickr.com/65535/51551735300_51c28a7d68_n.jpg",
    "id_album": "-89234980",
    "description": "ANIME_PIC_3007f410e694a7f0301329f70fc76df6,[GirlsCuteCool],[isGirlAnime],[isCuteAnime],[isGirlsLoliAnime]",
    "title": "ANIME_PIC_3007f410e694a7f0301329f70fc76df6",
    "link_img": "https://live.staticflickr.com/65535/51551735300_731d50a205_o.jpg",
    "id_image": "ANIME_PIC_3007f410e694a7f0301329f70fc76df6",
    "count_view": 0
  },
  {
    "link_thumb": "https://live.staticflickr.com/65535/51551062508_6e4e1acd9d_n.jpg",
    "id_album": "-89234980",
    "description": "ANIME_PIC_300a6c2a8af8f2d23ab5615f6d5c02a6,[GirlsCuteCool],[isGirlAnime],[isCuteAnime],[isGirlsLoliAnime]",
    "title": "ANIME_PIC_300a6c2a8af8f2d23ab5615f6d5c02a6",
    "link_img": "https://live.staticflickr.com/65535/51551062508_2a85bf91ef_o.jpg",
    "id_image": "ANIME_PIC_300a6c2a8af8f2d23ab5615f6d5c02a6",
    "count_view": 0
  },
  {
    "link_thumb": "https://live.staticflickr.com/65535/51550828261_910c2d680e_n.jpg",
    "id_album": "-89234980",
    "description": "ANIME_PIC_300d1aa221dad466006418a5c5b13185,[GirlsCuteCool],[isGirlAnime],[isCuteAnime]",
    "title": "ANIME_PIC_300d1aa221dad466006418a5c5b13185",
    "link_img": "https://live.staticflickr.com/65535/51550828261_5024eba0f7_o.jpg",
    "id_image": "ANIME_PIC_300d1aa221dad466006418a5c5b13185",
    "count_view": 0
  },
  {
    "link_thumb": "https://live.staticflickr.com/65535/51550027577_693d4ec8d2_n.jpg",
    "id_album": "-89234980",
    "description": "ANIME_PIC_300d57856cbf181ea05cf267df1eb546,[GirlsCuteCool],[isGirlAnime],[isCuteAnime],[isGirlsLoliAnime],[isSadAnimeGirl],[isSadAnime]",
    "title": "ANIME_PIC_300d57856cbf181ea05cf267df1eb546",
    "link_img": "https://live.staticflickr.com/65535/51550027577_f54e48a515_o.jpg",
    "id_image": "ANIME_PIC_300d57856cbf181ea05cf267df1eb546",
    "count_view": 0
  },
  {
    "link_thumb": "https://live.staticflickr.com/65535/51551542079_36344283e4_n.jpg",
    "id_album": "-89234980",
    "description": "ANIME_PIC_300ead468722624bed2a976edf404cb8,[GirlsCuteCool],[isGirlAnime],[isCuteAnime]",
    "title": "ANIME_PIC_300ead468722624bed2a976edf404cb8",
    "link_img": "https://live.staticflickr.com/65535/51551542079_13efb92937_o.jpg",
    "id_image": "ANIME_PIC_300ead468722624bed2a976edf404cb8",
    "count_view": 0
  },
  {
    "link_thumb": "https://live.staticflickr.com/65535/51551542574_0eac0f80fb_n.jpg",
    "id_album": "-89234980",
    "description": "ANIME_PIC_30140884dbd4dc48799848ec59eac677,[GirlsCuteCool],[isGirlAnime],[isCuteAnime],[isGirlsLoliAnime],[isSadAnimeGirl],[isSadAnime]",
    "title": "ANIME_PIC_30140884dbd4dc48799848ec59eac677",
    "link_img": "https://live.staticflickr.com/65535/51551542574_4f53e564da_o.jpg",
    "id_image": "ANIME_PIC_30140884dbd4dc48799848ec59eac677",
    "count_view": 0
  },
  {
    "link_thumb": "https://live.staticflickr.com/65535/51551542939_25c6b7447a_n.jpg",
    "id_album": "-89234980",
    "description": "ANIME_PIC_3014facffc096a7f20a817b3a2ec1ebd,[GirlsCuteCool],[isGirlAnime],[isCuteAnime],[isGirlsLoliAnime]",
    "title": "ANIME_PIC_3014facffc096a7f20a817b3a2ec1ebd",
    "link_img": "https://live.staticflickr.com/65535/51551542939_9bb5db99e5_o.jpg",
    "id_image": "ANIME_PIC_3014facffc096a7f20a817b3a2ec1ebd",
    "count_view": 0
  },
  {
    "link_thumb": "https://live.staticflickr.com/65535/51551737935_b53165ea18_n.jpg",
    "id_album": "-89234980",
    "description": "ANIME_PIC_3018b745b711c3e0a945bfc5e523b6ba,[GirlsCuteCool],[isGirlAnime],[isCuteAnime],[isGirlsLoliAnime],[isSadAnimeGirl],[isSadAnime]",
    "title": "ANIME_PIC_3018b745b711c3e0a945bfc5e523b6ba",
    "link_img": "https://live.staticflickr.com/65535/51551737935_874a41ea57_o.jpg",
    "id_image": "ANIME_PIC_3018b745b711c3e0a945bfc5e523b6ba",
    "count_view": 0
  },
  {
    "link_thumb": "https://live.staticflickr.com/65535/51550830666_d8b6f3c9d5_n.jpg",
    "id_album": "-89234980",
    "description": "ANIME_PIC_301ad85fcba36b9a33f86dd30249bc5d,[GirlsCuteCool],[isGirlAnime],[isCuteAnime]",
    "title": "ANIME_PIC_301ad85fcba36b9a33f86dd30249bc5d",
    "link_img": "https://live.staticflickr.com/65535/51550830666_e0fbd8ed00_o.jpg",
    "id_image": "ANIME_PIC_301ad85fcba36b9a33f86dd30249bc5d",
    "count_view": 0
  },
  {
    "link_thumb": "https://live.staticflickr.com/65535/51550029912_a36b4cf94f_n.jpg",
    "id_album": "-89234980",
    "description": "ANIME_PIC_301dfbcd26649204544c2068409db80f,[GirlsCuteCool],[isGirlAnime],[isCuteAnime]",
    "title": "ANIME_PIC_301dfbcd26649204544c2068409db80f",
    "link_img": "https://live.staticflickr.com/65535/51550029912_00d93d79f9_o.jpg",
    "id_image": "ANIME_PIC_301dfbcd26649204544c2068409db80f",
    "count_view": 0
  },
  {
    "link_thumb": "https://live.staticflickr.com/65535/51550831376_2d0398c47d_n.jpg",
    "id_album": "-89234980",
    "description": "ANIME_PIC_301ef59f02ef4a96399f92d6c9cfeade,[GirlsCuteCool],[isGirlAnime],[isCuteAnime],[isGirlsLoliAnime]",
    "title": "ANIME_PIC_301ef59f02ef4a96399f92d6c9cfeade",
    "link_img": "https://live.staticflickr.com/65535/51550831376_a08f6a9d1f_o.png",
    "id_image": "ANIME_PIC_301ef59f02ef4a96399f92d6c9cfeade",
    "count_view": 0
  },
  {
    "link_thumb": "https://live.staticflickr.com/65535/51550831966_93e2749b0d_n.jpg",
    "id_album": "-89234980",
    "description": "ANIME_PIC_30209fddb72c8a975bf142d851b325af,[GirlsCuteCool],[isGirlAnime],[isCuteAnime],[isGirlsHatsHoodieAnime],[isGirlsLoliAnime]",
    "title": "ANIME_PIC_30209fddb72c8a975bf142d851b325af",
    "link_img": "https://live.staticflickr.com/65535/51550831966_c3cd3b65c0_o.jpg",
    "id_image": "ANIME_PIC_30209fddb72c8a975bf142d851b325af",
    "count_view": 0
  },
  {
    "link_thumb": "https://live.staticflickr.com/65535/51551545164_25cff9dce0_n.jpg",
    "id_album": "-89234980",
    "description": "ANIME_PIC_30263c394269ab3cd98403f233fad042,[GirlsCuteCool],[isGirlAnime],[isCuteAnime],[isGirlsHatsHoodieAnime],[isGirlsLoliAnime]",
    "title": "ANIME_PIC_30263c394269ab3cd98403f233fad042",
    "link_img": "https://live.staticflickr.com/65535/51551545164_c12189b353_o.jpg",
    "id_image": "ANIME_PIC_30263c394269ab3cd98403f233fad042",
    "count_view": 0
  },
  {
    "link_thumb": "https://live.staticflickr.com/65535/51551066718_a3f1625a56_n.jpg",
    "id_album": "-89234980",
    "description": "ANIME_PIC_30268c6746e14a0e58069d360072ca0b,[GirlsCuteCool],[isGirlAnime],[isCuteAnime],[isGirlsHatsHoodieAnime],[isGirlsLoliAnime]",
    "title": "ANIME_PIC_30268c6746e14a0e58069d360072ca0b",
    "link_img": "https://live.staticflickr.com/65535/51551066718_fa4c3bbe3f_o.jpg",
    "id_image": "ANIME_PIC_30268c6746e14a0e58069d360072ca0b",
    "count_view": 0
  },
  {
    "link_thumb": "https://live.staticflickr.com/65535/51550031732_1297f02fcc_n.jpg",
    "id_album": "-89234980",
    "description": "ANIME_PIC_303120053192d7101ec00c6c10b14989,[GirlsCuteCool],[isGirlAnime],[isCuteAnime],[isGirlsLoliAnime]",
    "title": "ANIME_PIC_303120053192d7101ec00c6c10b14989",
    "link_img": "https://live.staticflickr.com/65535/51550031732_db3006be67_o.jpg",
    "id_image": "ANIME_PIC_303120053192d7101ec00c6c10b14989",
    "count_view": 0
  },
  {
    "link_thumb": "https://live.staticflickr.com/65535/51551546299_edd75242e1_n.jpg",
    "id_album": "-89234980",
    "description": "ANIME_PIC_30321eae52f0480ec597c874ab51505f,[GirlsCuteCool],[isGirlAnime],[isCuteAnime],[isGirlsHatsHoodieAnime],[isGirlsLoliAnime]",
    "title": "ANIME_PIC_30321eae52f0480ec597c874ab51505f",
    "link_img": "https://live.staticflickr.com/65535/51551546299_6a5c1256aa_o.jpg",
    "id_image": "ANIME_PIC_30321eae52f0480ec597c874ab51505f",
    "count_view": 0
  },
  {
    "link_thumb": "https://live.staticflickr.com/65535/51550833866_cd639b2569_n.jpg",
    "id_album": "-89234980",
    "description": "ANIME_PIC_303810a0344de9e9400e99d01f95f17c,[GirlsCuteCool],[isGirlAnime],[isCuteAnime],[isGirlsHatsHoodieAnime],[isGirlsLoliAnime]",
    "title": "ANIME_PIC_303810a0344de9e9400e99d01f95f17c",
    "link_img": "https://live.staticflickr.com/65535/51550833866_ed176a62eb_o.jpg",
    "id_image": "ANIME_PIC_303810a0344de9e9400e99d01f95f17c",
    "count_view": 0
  },
  {
    "link_thumb": "https://live.staticflickr.com/65535/51551068148_91b56843bc_n.jpg",
    "id_album": "-89234980",
    "description": "ANIME_PIC_303b7ed1fcba0c1d9520f76ee34ec37e,[GirlsCuteCool],[isGirlAnime],[isCuteAnime],[isGirlsLoliAnime],[isGirlsSharpCanineToothAnime]",
    "title": "ANIME_PIC_303b7ed1fcba0c1d9520f76ee34ec37e",
    "link_img": "https://live.staticflickr.com/65535/51551068148_af2fcfa920_o.jpg",
    "id_image": "ANIME_PIC_303b7ed1fcba0c1d9520f76ee34ec37e",
    "count_view": 0
  },
  {
    "link_thumb": "https://live.staticflickr.com/65535/51551742550_e807cd9ae9_n.jpg",
    "id_album": "-89234980",
    "description": "ANIME_PIC_30418d4c464cc746f753eb7974aac937,[GirlsCuteCool],[isGirlAnime],[isCuteAnime],[isBlackAnime],[isGirlsHatsHoodieAnime],[isGirlsLoliAnime]",
    "title": "ANIME_PIC_30418d4c464cc746f753eb7974aac937",
    "link_img": "https://live.staticflickr.com/65535/51551742550_e6571fcdd5_o.png",
    "id_image": "ANIME_PIC_30418d4c464cc746f753eb7974aac937",
    "count_view": 0
  },
  {
    "link_thumb": "https://live.staticflickr.com/65535/51550033802_995aa78244_n.jpg",
    "id_album": "-89234980",
    "description": "ANIME_PIC_304275fb1a44203b60c642d6705e481e,[GirlsCuteCool],[isGirlAnime],[isCuteAnime]",
    "title": "ANIME_PIC_304275fb1a44203b60c642d6705e481e",
    "link_img": "https://live.staticflickr.com/65535/51550033802_fff39fcd7b_o.jpg",
    "id_image": "ANIME_PIC_304275fb1a44203b60c642d6705e481e",
    "count_view": 0
  },
  {
    "link_thumb": "https://live.staticflickr.com/65535/51551548204_004e1c24ba_n.jpg",
    "id_album": "-89234980",
    "description": "ANIME_PIC_304494676bea50ede444f432e360292d,[GirlsCuteCool],[isGirlAnime],[isCuteAnime],[isGirlsHatsHoodieAnime],[isGirlsLoliAnime]",
    "title": "ANIME_PIC_304494676bea50ede444f432e360292d",
    "link_img": "https://live.staticflickr.com/65535/51551548204_42019ca3e1_o.jpg",
    "id_image": "ANIME_PIC_304494676bea50ede444f432e360292d",
    "count_view": 0
  },
  {
    "link_thumb": "https://live.staticflickr.com/65535/51550034507_eaebe8bd20_n.jpg",
    "id_album": "-89234980",
    "description": "ANIME_PIC_3047ec207eddf6064274db854f4e9047,[GirlsCuteCool],[isGirlAnime],[isCuteAnime]",
    "title": "ANIME_PIC_3047ec207eddf6064274db854f4e9047",
    "link_img": "https://live.staticflickr.com/65535/51550034507_6edcdac82a_o.jpg",
    "id_image": "ANIME_PIC_3047ec207eddf6064274db854f4e9047",
    "count_view": 0
  },
  {
    "link_thumb": "https://live.staticflickr.com/65535/51550836096_f681bdec48_n.jpg",
    "id_album": "-89234980",
    "description": "ANIME_PIC_30483f112b79884c320b24d1134031a9,[GirlsCuteCool],[isGirlAnime],[isCuteAnime],[isGirlsSharpCanineToothAnime]",
    "title": "ANIME_PIC_30483f112b79884c320b24d1134031a9",
    "link_img": "https://live.staticflickr.com/65535/51550836096_67a0049dd4_o.png",
    "id_image": "ANIME_PIC_30483f112b79884c320b24d1134031a9",
    "count_view": 0
  },
  {
    "link_thumb": "https://live.staticflickr.com/65535/51550836756_daef3921af_n.jpg",
    "id_album": "-89234980",
    "description": "ANIME_PIC_304c56a5bf2c7424e9ce4fc409de9e76,[GirlsCuteCool],[isGirlAnime],[isCuteAnime],[isGirlsLoliAnime]",
    "title": "ANIME_PIC_304c56a5bf2c7424e9ce4fc409de9e76",
    "link_img": "https://live.staticflickr.com/65535/51550836756_399fa7a5db_o.jpg",
    "id_image": "ANIME_PIC_304c56a5bf2c7424e9ce4fc409de9e76",
    "count_view": 0
  },
  {
    "link_thumb": "https://live.staticflickr.com/65535/51551550004_e4cf695492_n.jpg",
    "id_album": "-89234980",
    "description": "ANIME_PIC_304ddb2139eea93a2e84544aabf7a500,[GirlsCuteCool],[isGirlAnime],[isCuteAnime],[isGirlsHatsHoodieAnime],[isGirlsLoliAnime]",
    "title": "ANIME_PIC_304ddb2139eea93a2e84544aabf7a500",
    "link_img": "https://live.staticflickr.com/65535/51551550004_f5d42e221d_o.png",
    "id_image": "ANIME_PIC_304ddb2139eea93a2e84544aabf7a500",
    "count_view": 0
  },
  {
    "link_thumb": "https://live.staticflickr.com/65535/51551550579_b94abdd959_n.jpg",
    "id_album": "-89234980",
    "description": "ANIME_PIC_304f323288244b42e90e97f30cab3e2a,[GirlsCuteCool],[isGirlAnime],[isCuteAnime],[isBlackAnime],[isGirlFaceMasksAnime],[isGirlsLoliAnime]",
    "title": "ANIME_PIC_304f323288244b42e90e97f30cab3e2a",
    "link_img": "https://live.staticflickr.com/65535/51551550579_44ab7b3a34_o.png",
    "id_image": "ANIME_PIC_304f323288244b42e90e97f30cab3e2a",
    "count_view": 0
  },
  {
    "link_thumb": "https://live.staticflickr.com/65535/51551072188_075d1ae333_n.jpg",
    "id_album": "-89234980",
    "description": "ANIME_PIC_3059145433f0ca0e5aa2f49681876fdf,[GirlsCuteCool],[isGirlAnime],[isCuteAnime],[isGirlEarsNekoAnime],[isGirlsLoliAnime]",
    "title": "ANIME_PIC_3059145433f0ca0e5aa2f49681876fdf",
    "link_img": "https://live.staticflickr.com/65535/51551072188_7f175fae89_o.jpg",
    "id_image": "ANIME_PIC_3059145433f0ca0e5aa2f49681876fdf",
    "count_view": 0
  },
  {
    "link_thumb": "https://live.staticflickr.com/65535/51550838851_151143ebfa_n.jpg",
    "id_album": "-89234980",
    "description": "ANIME_PIC_305c8904e1996bee18e6fcbcb089984a,[GirlsCuteCool],[isGirlAnime],[isCuteAnime],[isGirlsLoliAnime],[isSadAnimeGirl],[isSadAnime]",
    "title": "ANIME_PIC_305c8904e1996bee18e6fcbcb089984a",
    "link_img": "https://live.staticflickr.com/65535/51550838851_b1dfc198a9_o.jpg",
    "id_image": "ANIME_PIC_305c8904e1996bee18e6fcbcb089984a",
    "count_view": 0
  },
  {
    "link_thumb": "https://live.staticflickr.com/65535/51551551969_0e1aff509c_n.jpg",
    "id_album": "-89234980",
    "description": "ANIME_PIC_30614954f606e56f174cf1c1d3e9e50c,[GirlsCuteCool],[isGirlAnime],[isCuteAnime],[isGirlsHatsHoodieAnime],[isGirlsLoliAnime]",
    "title": "ANIME_PIC_30614954f606e56f174cf1c1d3e9e50c",
    "link_img": "https://live.staticflickr.com/65535/51551551969_e8434c2d41_o.png",
    "id_image": "ANIME_PIC_30614954f606e56f174cf1c1d3e9e50c",
    "count_view": 0
  },
  {
    "link_thumb": "https://live.staticflickr.com/65535/51550038907_eddbc4c756_n.jpg",
    "id_album": "-89234980",
    "description": "ANIME_PIC_30623856d2d6a9ab02f2189e400e449c,[GirlsCuteCool],[isGirlAnime],[isCuteAnime],[isGirlsLoliAnime]",
    "title": "ANIME_PIC_30623856d2d6a9ab02f2189e400e449c",
    "link_img": "https://live.staticflickr.com/65535/51550038907_52894f6fe4_o.jpg",
    "id_image": "ANIME_PIC_30623856d2d6a9ab02f2189e400e449c",
    "count_view": 0
  },
  {
    "link_thumb": "https://live.staticflickr.com/65535/51550840671_783d984f11_n.jpg",
    "id_album": "-89234980",
    "description": "ANIME_PIC_3067528ae5a9a683008a3b1363f7f978,[GirlsCuteCool],[isGirlAnime],[isCuteAnime],[isGirlsLoliAnime]",
    "title": "ANIME_PIC_3067528ae5a9a683008a3b1363f7f978",
    "link_img": "https://live.staticflickr.com/65535/51550840671_d16f383df2_o.jpg",
    "id_image": "ANIME_PIC_3067528ae5a9a683008a3b1363f7f978",
    "count_view": 0
  },
  {
    "link_thumb": "https://live.staticflickr.com/65535/51551749220_2b4fcb8352_n.jpg",
    "id_album": "-89234980",
    "description": "ANIME_PIC_30680d5dbd92621adf6aa7746aee7957,[GirlsCuteCool],[isGirlAnime],[isCuteAnime]",
    "title": "ANIME_PIC_30680d5dbd92621adf6aa7746aee7957",
    "link_img": "https://live.staticflickr.com/65535/51551749220_c1bd544ba4_o.png",
    "id_image": "ANIME_PIC_30680d5dbd92621adf6aa7746aee7957",
    "count_view": 0
  },
  {
    "link_thumb": "https://live.staticflickr.com/65535/51551750035_da9e45a1ac_n.jpg",
    "id_album": "-89234980",
    "description": "ANIME_PIC_3068ba056baadcc6622a56af5c649984,[GirlsCuteCool],[isGirlAnime],[isCuteAnime],[isGirlsLoliAnime]",
    "title": "ANIME_PIC_3068ba056baadcc6622a56af5c649984",
    "link_img": "https://live.staticflickr.com/65535/51551750035_f4cc69f8a7_o.jpg",
    "id_image": "ANIME_PIC_3068ba056baadcc6622a56af5c649984",
    "count_view": 0
  },
  {
    "link_thumb": "https://live.staticflickr.com/65535/51551076013_48c5cd43a5_n.jpg",
    "id_album": "-89234980",
    "description": "ANIME_PIC_306a747293ce0dc1bd6c30445730e4af,[GirlsCuteCool],[isGirlAnime],[isCuteAnime],[isGirlsLoliAnime],[isSadAnimeGirl],[isSadAnime]",
    "title": "ANIME_PIC_306a747293ce0dc1bd6c30445730e4af",
    "link_img": "https://live.staticflickr.com/65535/51551076013_9f950faa2b_o.jpg",
    "id_image": "ANIME_PIC_306a747293ce0dc1bd6c30445730e4af",
    "count_view": 0
  },
  {
    "link_thumb": "https://live.staticflickr.com/65535/51550041527_fd682de948_n.jpg",
    "id_album": "-89234980",
    "description": "ANIME_PIC_306c21dd8ac65ba63def22d698dc7bdf,[GirlsCuteCool],[isGirlAnime],[isCuteAnime],[isGirlsLoliAnime]",
    "title": "ANIME_PIC_306c21dd8ac65ba63def22d698dc7bdf",
    "link_img": "https://live.staticflickr.com/65535/51550041527_9a8188d210_o.png",
    "id_image": "ANIME_PIC_306c21dd8ac65ba63def22d698dc7bdf",
    "count_view": 0
  },
  {
    "link_thumb": "https://live.staticflickr.com/65535/51551751475_a05e1a0c77_n.jpg",
    "id_album": "-89234980",
    "description": "ANIME_PIC_306d3df6dae53ec7f62335e9a46789a1,[GirlsCuteCool],[isGirlAnime],[isCuteAnime]",
    "title": "ANIME_PIC_306d3df6dae53ec7f62335e9a46789a1",
    "link_img": "https://live.staticflickr.com/65535/51551751475_ee826258f1_o.jpg",
    "id_image": "ANIME_PIC_306d3df6dae53ec7f62335e9a46789a1",
    "count_view": 0
  },
  {
    "link_thumb": "https://live.staticflickr.com/65535/51551752015_f925011d4a_n.jpg",
    "id_album": "-89234980",
    "description": "ANIME_PIC_306ef302be8fbf5f4c6c3fa3f2d9e90c,[GirlsCuteCool],[isGirlAnime],[isCuteAnime],[isGirlEarsNekoAnime],[isGirlsLoliAnime],[isGirlsSharpCanineToothAnime]",
    "title": "ANIME_PIC_306ef302be8fbf5f4c6c3fa3f2d9e90c",
    "link_img": "https://live.staticflickr.com/65535/51551752015_a9c9dbabc3_o.jpg",
    "id_image": "ANIME_PIC_306ef302be8fbf5f4c6c3fa3f2d9e90c",
    "count_view": 0
  },
  {
    "link_thumb": "https://live.staticflickr.com/65535/51550844631_b67a8e9852_n.jpg",
    "id_album": "-89234980",
    "description": "ANIME_PIC_306f719d8bf7029272eee9df3d494fae,[GirlsCuteCool],[isGirlAnime],[isCuteAnime],[isSadAnimeGirl],[isSadAnime]",
    "title": "ANIME_PIC_306f719d8bf7029272eee9df3d494fae",
    "link_img": "https://live.staticflickr.com/65535/51550844631_fd390d005c_o.jpg",
    "id_image": "ANIME_PIC_306f719d8bf7029272eee9df3d494fae",
    "count_view": 0
  },
  {
    "link_thumb": "https://live.staticflickr.com/65535/51550043812_25b17763be_n.jpg",
    "id_album": "-89234980",
    "description": "ANIME_PIC_306fa2ace54c95afbf52a534147aa39b,[GirlsCuteCool],[isBoyAnime],[isGirlAnime],[isCuteAnime]",
    "title": "ANIME_PIC_306fa2ace54c95afbf52a534147aa39b",
    "link_img": "https://live.staticflickr.com/65535/51550043812_38fd6a79fe_o.jpg",
    "id_image": "ANIME_PIC_306fa2ace54c95afbf52a534147aa39b",
    "count_view": 0
  },
  {
    "link_thumb": "https://live.staticflickr.com/65535/51550845491_ba5615fee3_n.jpg",
    "id_album": "-89234980",
    "description": "ANIME_PIC_30754f7bd8c66290cb4f6f6330038dfa,[GirlsCuteCool],[isGirlAnime],[isCuteAnime],[isGirlsHatsHoodieAnime],[isGirlsLoliAnime],[isSadAnimeGirl],[isSadAnime]",
    "title": "ANIME_PIC_30754f7bd8c66290cb4f6f6330038dfa",
    "link_img": "https://live.staticflickr.com/65535/51550845491_bb77eb2ca0_o.jpg",
    "id_image": "ANIME_PIC_30754f7bd8c66290cb4f6f6330038dfa",
    "count_view": 0
  },
  {
    "link_thumb": "https://live.staticflickr.com/65535/51551558329_d3db6be2dd_n.jpg",
    "id_album": "-89234980",
    "description": "ANIME_PIC_3076d83e47d10b840e82f4243e8957cd,[GirlsCuteCool],[isGirlAnime],[isCuteAnime],[isGirlsLoliAnime],[isSadAnimeGirl],[isSadAnime]",
    "title": "ANIME_PIC_3076d83e47d10b840e82f4243e8957cd",
    "link_img": "https://live.staticflickr.com/65535/51551558329_f06a4874bb_o.jpg",
    "id_image": "ANIME_PIC_3076d83e47d10b840e82f4243e8957cd",
    "count_view": 0
  },
  {
    "link_thumb": "https://live.staticflickr.com/65535/51551753990_fcc8c5027f_n.jpg",
    "id_album": "-89234980",
    "description": "ANIME_PIC_307b8e164d87d1974ca2b57fbe4adbc7,[GirlsCuteCool],[isGirlAnime],[isCuteAnime],[isGirlEarsNekoAnime],[isGirlsLoliAnime]",
    "title": "ANIME_PIC_307b8e164d87d1974ca2b57fbe4adbc7",
    "link_img": "https://live.staticflickr.com/65535/51551753990_f2c99d062c_o.jpg",
    "id_image": "ANIME_PIC_307b8e164d87d1974ca2b57fbe4adbc7",
    "count_view": 0
  },
  {
    "link_thumb": "https://live.staticflickr.com/65535/51551559079_8b7c842884_n.jpg",
    "id_album": "-89234980",
    "description": "ANIME_PIC_307f801fb016ec2a67e2aaaf345fe49a,[GirlsCuteCool],[isGirlAnime],[isCuteAnime],[isGirlsHatsHoodieAnime]",
    "title": "ANIME_PIC_307f801fb016ec2a67e2aaaf345fe49a",
    "link_img": "https://live.staticflickr.com/65535/51551559079_ca46c68cd4_o.png",
    "id_image": "ANIME_PIC_307f801fb016ec2a67e2aaaf345fe49a",
    "count_view": 0
  },
  {
    "link_thumb": "https://live.staticflickr.com/65535/51550847711_8d2267ce89_n.jpg",
    "id_album": "-89234980",
    "description": "ANIME_PIC_308c391d6d2120cc612b8ea544e78886,[GirlsCuteCool],[isGirlAnime],[isCuteAnime],[isGirlsLoliAnime]",
    "title": "ANIME_PIC_308c391d6d2120cc612b8ea544e78886",
    "link_img": "https://live.staticflickr.com/65535/51550847711_c1f61d0359_o.jpg",
    "id_image": "ANIME_PIC_308c391d6d2120cc612b8ea544e78886",
    "count_view": 0
  },
  {
    "link_thumb": "https://live.staticflickr.com/65535/51551560699_6a50c3813a_n.jpg",
    "id_album": "-89234980",
    "description": "ANIME_PIC_308f79463ce1046a9f1376a431df071d,[GirlsCuteCool],[isGirlAnime],[isCuteAnime],[isGirlEarsNekoAnime],[isGirlsLoliAnime]",
    "title": "ANIME_PIC_308f79463ce1046a9f1376a431df071d",
    "link_img": "https://live.staticflickr.com/65535/51551560699_90912dc822_o.png",
    "id_image": "ANIME_PIC_308f79463ce1046a9f1376a431df071d",
    "count_view": 0
  },
  {
    "link_thumb": "https://live.staticflickr.com/65535/51551756440_995fe3f539_n.jpg",
    "id_album": "-89234980",
    "description": "ANIME_PIC_30910de1193817b241a84a80a46ae7cf,[GirlsCuteCool],[isGirlAnime],[isCuteAnime]",
    "title": "ANIME_PIC_30910de1193817b241a84a80a46ae7cf",
    "link_img": "https://live.staticflickr.com/65535/51551756440_d03f0fdacc_o.jpg",
    "id_image": "ANIME_PIC_30910de1193817b241a84a80a46ae7cf",
    "count_view": 0
  },
  {
    "link_thumb": "https://live.staticflickr.com/65535/51551082358_62cf25130a_n.jpg",
    "id_album": "-89234980",
    "description": "ANIME_PIC_30959906590d381720ae64ebd8fad565,[GirlsCuteCool],[isGirlAnime],[isCuteAnime]",
    "title": "ANIME_PIC_30959906590d381720ae64ebd8fad565",
    "link_img": "https://live.staticflickr.com/65535/51551082358_131e2a703e_o.jpg",
    "id_image": "ANIME_PIC_30959906590d381720ae64ebd8fad565",
    "count_view": 0
  },
  {
    "link_thumb": "https://live.staticflickr.com/65535/51550048217_01b65af44f_n.jpg",
    "id_album": "-89234980",
    "description": "ANIME_PIC_309606448a4b70f0286357d9d5250306,[GirlsCuteCool],[isGirlAnime],[isCuteAnime]",
    "title": "ANIME_PIC_309606448a4b70f0286357d9d5250306",
    "link_img": "https://live.staticflickr.com/65535/51550048217_14d6e1d60d_o.jpg",
    "id_image": "ANIME_PIC_309606448a4b70f0286357d9d5250306",
    "count_view": 0
  },
  {
    "link_thumb": "https://live.staticflickr.com/65535/51551757490_32fd4a65fa_n.jpg",
    "id_album": "-89234980",
    "description": "ANIME_PIC_30966ac257298d077a18cb1ed2dbc9a3,[GirlsCuteCool],[isGirlAnime],[isCuteAnime],[isGirlsHatsHoodieAnime],[isGirlsLoliAnime]",
    "title": "ANIME_PIC_30966ac257298d077a18cb1ed2dbc9a3",
    "link_img": "https://live.staticflickr.com/65535/51551757490_4f30910d56_o.png",
    "id_image": "ANIME_PIC_30966ac257298d077a18cb1ed2dbc9a3",
    "count_view": 0
  },
  {
    "link_thumb": "https://live.staticflickr.com/65535/51551083523_dd8f303901_n.jpg",
    "id_album": "-89234980",
    "description": "ANIME_PIC_30968c11867bf9190d6e0a894591f10b,[GirlsCuteCool],[isGirlAnime],[isCuteAnime],[isGirlsHatsHoodieAnime],[isGirlsLoliAnime]",
    "title": "ANIME_PIC_30968c11867bf9190d6e0a894591f10b",
    "link_img": "https://live.staticflickr.com/65535/51551083523_bd220d3769_o.jpg",
    "id_image": "ANIME_PIC_30968c11867bf9190d6e0a894591f10b",
    "count_view": 0
  },
  {
    "link_thumb": "https://live.staticflickr.com/65535/51551758305_4a2f4c8958_n.jpg",
    "id_album": "-89234980",
    "description": "ANIME_PIC_309aed098ef1d97259237502f208118b,[GirlsCuteCool],[isGirlAnime],[isCuteAnime],[isGirlsLoliAnime]",
    "title": "ANIME_PIC_309aed098ef1d97259237502f208118b",
    "link_img": "https://live.staticflickr.com/65535/51551758305_736054e594_o.jpg",
    "id_image": "ANIME_PIC_309aed098ef1d97259237502f208118b",
    "count_view": 0
  },
  {
    "link_thumb": "https://live.staticflickr.com/65535/51550049737_6abf1fa46f_n.jpg",
    "id_album": "-89234980",
    "description": "ANIME_PIC_30a0c2614b1b313b264c80fe23997004,[GirlsCuteCool],[isGirlAnime],[isCuteAnime],[isGirlsLoliAnime]",
    "title": "ANIME_PIC_30a0c2614b1b313b264c80fe23997004",
    "link_img": "https://live.staticflickr.com/65535/51550049737_e61c90853c_o.png",
    "id_image": "ANIME_PIC_30a0c2614b1b313b264c80fe23997004",
    "count_view": 0
  },
  {
    "link_thumb": "https://live.staticflickr.com/65535/51551563684_74c4e485eb_n.jpg",
    "id_album": "-89234980",
    "description": "ANIME_PIC_30a35e93001bfeb7eb1a724a5d3a6333,[GirlsCuteCool],[isGirlAnime],[isCuteAnime],[isGirlsHatsHoodieAnime],[isGirlsLoliAnime],[isSadAnimeGirl],[isSadAnime]",
    "title": "ANIME_PIC_30a35e93001bfeb7eb1a724a5d3a6333",
    "link_img": "https://live.staticflickr.com/65535/51551563684_eaea5cda0a_o.jpg",
    "id_image": "ANIME_PIC_30a35e93001bfeb7eb1a724a5d3a6333",
    "count_view": 0
  },
  {
    "link_thumb": "https://live.staticflickr.com/65535/51550050557_e15e7e3a7c_n.jpg",
    "id_album": "-89234980",
    "description": "ANIME_PIC_30a79cf136ebfbeb3c3dccfca523950e,[GirlsCuteCool],[isGirlAnime],[isCuteAnime]",
    "title": "ANIME_PIC_30a79cf136ebfbeb3c3dccfca523950e",
    "link_img": "https://live.staticflickr.com/65535/51550050557_6a35861d3b_o.jpg",
    "id_image": "ANIME_PIC_30a79cf136ebfbeb3c3dccfca523950e",
    "count_view": 0
  },
  {
    "link_thumb": "https://live.staticflickr.com/65535/51551564214_33bb3a37de_n.jpg",
    "id_album": "-89234980",
    "description": "ANIME_PIC_30ab436a0b0787ac23114869edbbd52d,[GirlsCuteCool],[isGirlAnime],[isCuteAnime],[isGirlsLoliAnime]",
    "title": "ANIME_PIC_30ab436a0b0787ac23114869edbbd52d",
    "link_img": "https://live.staticflickr.com/65535/51551564214_3ddd36d8ee_o.png",
    "id_image": "ANIME_PIC_30ab436a0b0787ac23114869edbbd52d",
    "count_view": 0
  },
  {
    "link_thumb": "https://live.staticflickr.com/65535/51551760035_a7c03c1203_n.jpg",
    "id_album": "-89234980",
    "description": "ANIME_PIC_30b78ce4dc8349999e4f56ed379f1ce0,[GirlsCuteCool],[isGirlAnime],[isCuteAnime],[isGirlEarsNekoAnime],[isGirlsLoliAnime]",
    "title": "ANIME_PIC_30b78ce4dc8349999e4f56ed379f1ce0",
    "link_img": "https://live.staticflickr.com/65535/51551760035_cae81a27a7_o.jpg",
    "id_image": "ANIME_PIC_30b78ce4dc8349999e4f56ed379f1ce0",
    "count_view": 0
  },
  {
    "link_thumb": "https://live.staticflickr.com/65535/51550852296_50399d16dc_n.jpg",
    "id_album": "-89234980",
    "description": "ANIME_PIC_30b7dcf0badc5fb61edd7afb3a58f18e,[GirlsCuteCool],[isGirlAnime],[isCuteAnime],[isGirlsLoliAnime]",
    "title": "ANIME_PIC_30b7dcf0badc5fb61edd7afb3a58f18e",
    "link_img": "https://live.staticflickr.com/65535/51550852296_3593334245_o.jpg",
    "id_image": "ANIME_PIC_30b7dcf0badc5fb61edd7afb3a58f18e",
    "count_view": 0
  },
  {
    "link_thumb": "https://live.staticflickr.com/65535/51551760655_c2ce3c3f99_n.jpg",
    "id_album": "-89234980",
    "description": "ANIME_PIC_30b900ab11769ff91115dbe8afef87e7,[GirlsCuteCool],[isGirlAnime],[isCuteAnime]",
    "title": "ANIME_PIC_30b900ab11769ff91115dbe8afef87e7",
    "link_img": "https://live.staticflickr.com/65535/51551760655_3b7819cd0d_o.png",
    "id_image": "ANIME_PIC_30b900ab11769ff91115dbe8afef87e7",
    "count_view": 0
  },
  {
    "link_thumb": "https://live.staticflickr.com/65535/51550053242_242acc2e4b_n.jpg",
    "id_album": "-89234980",
    "description": "ANIME_PIC_30bbcfd885e15e57151857273099333f,[GirlsCuteCool],[isGirlAnime],[isCuteAnime]",
    "title": "ANIME_PIC_30bbcfd885e15e57151857273099333f",
    "link_img": "https://live.staticflickr.com/65535/51550053242_1e37833c28_o.png",
    "id_image": "ANIME_PIC_30bbcfd885e15e57151857273099333f",
    "count_view": 0
  },
  {
    "link_thumb": "https://live.staticflickr.com/65535/51551088453_0dd55ee291_n.jpg",
    "id_album": "-89234980",
    "description": "ANIME_PIC_30bf68a20f464363aed573837035460f,[GirlsCuteCool],[isGirlAnime],[isCuteAnime],[isGirlEarsNekoAnime],[isGirlsLoliAnime],[isGirlsSharpCanineToothAnime]",
    "title": "ANIME_PIC_30bf68a20f464363aed573837035460f",
    "link_img": "https://live.staticflickr.com/65535/51551088453_296488e1f3_o.jpg",
    "id_image": "ANIME_PIC_30bf68a20f464363aed573837035460f",
    "count_view": 0
  },
  {
    "link_thumb": "https://live.staticflickr.com/65535/51551763075_464858d0b6_n.jpg",
    "id_album": "-89234980",
    "description": "ANIME_PIC_30c4b08ed704be362654b49f622d5d87,[GirlsCuteCool],[isGirlAnime],[isCuteAnime],[isSadAnimeGirl],[isSadAnime]",
    "title": "ANIME_PIC_30c4b08ed704be362654b49f622d5d87",
    "link_img": "https://live.staticflickr.com/65535/51551763075_9e4629c89a_o.jpg",
    "id_image": "ANIME_PIC_30c4b08ed704be362654b49f622d5d87",
    "count_view": 0
  },
  {
    "link_thumb": "https://live.staticflickr.com/65535/51551568119_539a164549_n.jpg",
    "id_album": "-89234980",
    "description": "ANIME_PIC_30c8215e2e89b684a4dddc86fdda7eb3,[GirlsCuteCool],[isGirlAnime],[isCuteAnime],[isGirlsLoliAnime]",
    "title": "ANIME_PIC_30c8215e2e89b684a4dddc86fdda7eb3",
    "link_img": "https://live.staticflickr.com/65535/51551568119_3dbc556900_o.jpg",
    "id_image": "ANIME_PIC_30c8215e2e89b684a4dddc86fdda7eb3",
    "count_view": 0
  },
  {
    "link_thumb": "https://live.staticflickr.com/65535/51551763730_ab8a6a9247_n.jpg",
    "id_album": "-89234980",
    "description": "ANIME_PIC_30c8d0131c8bd575c6c014f28bf6bf81,[GirlsCuteCool],[isGirlAnime],[isCuteAnime],[isGirlsLoliAnime],[isSadAnimeGirl],[isSadAnime]",
    "title": "ANIME_PIC_30c8d0131c8bd575c6c014f28bf6bf81",
    "link_img": "https://live.staticflickr.com/65535/51551763730_1a547331a0_o.png",
    "id_image": "ANIME_PIC_30c8d0131c8bd575c6c014f28bf6bf81",
    "count_view": 0
  },
  {
    "link_thumb": "https://live.staticflickr.com/65535/51551764295_4ba28b04ac_n.jpg",
    "id_album": "-89234980",
    "description": "ANIME_PIC_30cd439b2787e743240dd46051e0378a,[GirlsCuteCool],[isGirlAnime],[isCuteAnime]",
    "title": "ANIME_PIC_30cd439b2787e743240dd46051e0378a",
    "link_img": "https://live.staticflickr.com/65535/51551764295_f9f2d065f6_o.jpg",
    "id_image": "ANIME_PIC_30cd439b2787e743240dd46051e0378a",
    "count_view": 0
  },
  {
    "link_thumb": "https://live.staticflickr.com/65535/51551090428_fdc08bee6d_n.jpg",
    "id_album": "-89234980",
    "description": "ANIME_PIC_30ce3fa21da4ed1378c540186ba78275,[GirlsCuteCool],[isGirlAnime],[isCuteAnime],[isGirlsLoliAnime]",
    "title": "ANIME_PIC_30ce3fa21da4ed1378c540186ba78275",
    "link_img": "https://live.staticflickr.com/65535/51551090428_1cf0a5a2b1_o.jpg",
    "id_image": "ANIME_PIC_30ce3fa21da4ed1378c540186ba78275",
    "count_view": 0
  },
  {
    "link_thumb": "https://live.staticflickr.com/65535/51550056492_afb41c2fec_n.jpg",
    "id_album": "-89234980",
    "description": "ANIME_PIC_30d196630e97988e42a85b48ff2b60e4,[GirlsCuteCool],[isGirlAnime],[isCuteAnime]",
    "title": "ANIME_PIC_30d196630e97988e42a85b48ff2b60e4",
    "link_img": "https://live.staticflickr.com/65535/51550056492_32c8ff6454_o.jpg",
    "id_image": "ANIME_PIC_30d196630e97988e42a85b48ff2b60e4",
    "count_view": 0
  },
  {
    "link_thumb": "https://live.staticflickr.com/65535/51550857286_54f2b743fd_n.jpg",
    "id_album": "-89234980",
    "description": "ANIME_PIC_30d60cc3df92118cc8769a765983d3fd,[GirlsCuteCool],[isGirlAnime],[isCuteAnime]",
    "title": "ANIME_PIC_30d60cc3df92118cc8769a765983d3fd",
    "link_img": "https://live.staticflickr.com/65535/51550857286_e6e08e3787_o.jpg",
    "id_image": "ANIME_PIC_30d60cc3df92118cc8769a765983d3fd",
    "count_view": 0
  },
  {
    "link_thumb": "https://live.staticflickr.com/65535/51551570469_8271278e6b_n.jpg",
    "id_album": "-89234980",
    "description": "ANIME_PIC_30d8de5c72781c4bf37c0298bd6e83ab,[GirlsCuteCool],[isGirlAnime],[isCuteAnime]",
    "title": "ANIME_PIC_30d8de5c72781c4bf37c0298bd6e83ab",
    "link_img": "https://live.staticflickr.com/65535/51551570469_9a8baba7b3_o.jpg",
    "id_image": "ANIME_PIC_30d8de5c72781c4bf37c0298bd6e83ab",
    "count_view": 0
  },
  {
    "link_thumb": "https://live.staticflickr.com/65535/51550057442_5ec45069ab_n.jpg",
    "id_album": "-89234980",
    "description": "ANIME_PIC_30d8eed7990b68e1783b01b337eab613,[GirlsCuteCool],[isGirlAnime],[isCuteAnime]",
    "title": "ANIME_PIC_30d8eed7990b68e1783b01b337eab613",
    "link_img": "https://live.staticflickr.com/65535/51550057442_3c58281e4a_o.jpg",
    "id_image": "ANIME_PIC_30d8eed7990b68e1783b01b337eab613",
    "count_view": 0
  }
]