[
  {
    "total_img": 415,
    "number_page": 3,
    "title": "My Hero Academia",
    "tag": "Water, Ochako Uraraka, Green Hair, Nejire Hado, Wink, Shinji Nishiya, Black Hair, Dabi Boku No Hero Academia, High Heels, Crying, Eri My Hero Academia, Wound, Blood, Weapon, Sword, White Hair, Shorts, Bikini, Horns, Zookeeper Boku no Hero Academia, Hood, Flame, Milk, Purple Eyes, Glove, Tsunagu Hakamata, Momo Yaoyorozu, Scarf, Kanto Sero, Tomura Shigaraki, Mask, Koji Koda, Katsuki Bakugou, Chibi, Black Dress, Smile, Minoru Mineta, Red Hair, Fatgum Boku No Hero Academia, Tenya Iida, Skirt, Shoto Todoroki, Renders in Shapes, Pond, Blush, Belt, Pantyhose, Shuichi Iguchi, Shouto Todoroki, Riku Sato, Man, Hitoshi Shinso, Stain Boku No Hero Academia, Angry, Yui Kodai, Moonfish Boku No Hero Academia, Toshinori Yagi, White Dress, Tamaki Amajiki, Shota Aizawa, Japanese Clothes, Denki Kaminari, Fish, Leaf, Face, Cheerleader, Mount Lady Boku No Hero Academia, Eijiro Kirishima, Brown Hair, Sen Kaibara, Chizome Akaguro, Boku no Hero Academia, Ice, Present Mic Boku No Hero Academia, Pink Hair, Jump, Tsuyu Asui, Neito Monoma, Gift, Blue Eyes, Thigh Boots, Bearhead Boku no Hero Academia, Eraserhead Boku No Hero Academia, Boots, Fire, Hat, Hawks Boku No Hero Academia, Halloween, Black Eyes, Kai Chisaki, Green Eyes, Kyoka Jiro, Endeavor Boku no Hero Academia, Snow, Scar, Mecha, Uniform, Smoke, Long Hair, All Might, Kinoko Komori, Taishiro Toyomitsu, Midnight Boku No Hero Academia, Anime, Mustard Boku No Hero Academia, Nana Shimura, Bracelet, Curator Boku no Hero Academia, Kimono, White Eyes, Woman, Collar, Purple Hair, Fumikage Tokoyami, Teeth, Jin Bubaigawara, Enji Todoroki, Tooru Hagakure, Mirio Togata, The Broker Boku No Hero Academia, Himiko Toga, Ochaco Uraraka, Yellow Eyes, Boy, Red Eyes, Itsuka Kendo, Overhaul My Hero Academia, Mina Ashido, Shouta Aizawa, Cat, Glasses, Cementoss Boku No Hero Academia, Muscular Boku No Hero Academia, Collage, Noumu Boku No Hero Academia, Yuga Aoyama, Orange Eyes, Kenji Hikiishi, Toru Hagakure, Socks, Izuku Midoriya, Atsuhiro Sako, Blonde, Rikido Sato, Knife, Ibara Shiozaki, Armor, Short Hair, Hug, Tetsutetsu Tetsutetsu, Cerberus, TwoToned Hair, Mei Hatsume, Sorahiko My Hero Academia, Necklace, Kurogiri Boku No Hero Academia, Flower, Dress, Brown Eyes, Frog, Hizashi Yamada, Pink Eyes, School Uniform, Cape, Uwabami Boku No Hero Academia, My Hero Academia, Quote, Mezo Shoji, Glowing Eyes, Costume, Lightning, Hanta Sero, Forest, Gran Torino Boku No Hero Academia, Yukata, Mashirao Ojiro",
    "description": "My Hero Academia",
    "link_thumb": "https://live.staticflickr.com/65535/48071311623_97fabfc1e8_n.jpg",
    "id_album": "43086357",
    "total_view": 415
  },
  {
    "total_img": 690,
    "number_page": 4,
    "title": "Blush",
    "tag": "Blush,",
    "description": "Blush",
    "link_thumb": "https://live.staticflickr.com/65535/48066945096_efda4835b6_n.jpg",
    "id_album": "1964454893",
    "total_view": 690
  },
  {
    "total_img": 51,
    "number_page": 1,
    "title": "Boku no Hero Academia",
    "tag": "Boku no Hero Academia,",
    "description": "Boku no Hero Academia",
    "link_thumb": "https://live.staticflickr.com/65535/48071704587_3d951bbc6c_n.jpg",
    "id_album": "-1481283836",
    "total_view": 51
  },
  {
    "total_img": 191,
    "number_page": 1,
    "title": "Kimono",
    "tag": "Kimono,",
    "description": "Kimono",
    "link_thumb": "https://live.staticflickr.com/65535/48066764371_7c6ce14d3b_n.jpg",
    "id_album": "35576254",
    "total_view": 191
  },
  {
    "total_img": 17,
    "number_page": 1,
    "title": "Kyoka Jiro",
    "tag": "Kyoka Jiro,",
    "description": "Kyoka Jiro",
    "link_thumb": "https://live.staticflickr.com/65535/48071674697_83e9c3e7cc_n.jpg",
    "id_album": "-446098105",
    "total_view": 17
  },
  {
    "total_img": 104,
    "number_page": 1,
    "title": "Pink Eyes",
    "tag": "Pink Eyes,",
    "description": "Pink Eyes",
    "link_thumb": "https://live.staticflickr.com/65535/48066953706_2771a62522_n.jpg",
    "id_album": "245161063",
    "total_view": 104
  },
  {
    "total_img": 224,
    "number_page": 2,
    "title": "Purple Hair",
    "tag": "Purple Hair,",
    "description": "Purple Hair",
    "link_thumb": "https://live.staticflickr.com/65535/48609891276_d6beb9cf73_n.jpg",
    "id_album": "-84980027",
    "total_view": 224
  },
  {
    "total_img": 807,
    "number_page": 5,
    "title": "Smile",
    "tag": "Smile,",
    "description": "Smile",
    "link_thumb": "https://live.staticflickr.com/65535/48066953706_2771a62522_n.jpg",
    "id_album": "419891285",
    "total_view": 807
  },
  {
    "total_img": 129,
    "number_page": 1,
    "title": "Water",
    "tag": "Water,",
    "description": "Water",
    "link_thumb": "https://live.staticflickr.com/65535/48066865002_2f12560e78_n.jpg",
    "id_album": "78692563",
    "total_view": 129
  }
]