[
  {
    "link_thumb": "https://live.staticflickr.com/65535/47960795471_6497016094_n.jpg",
    "id_album": "-2095179753",
    "description": "Crossover_863974",
    "title": "Crossover_863974",
    "link_img": "https://live.staticflickr.com/65535/47960795471_c632731c45_o.jpg",
    "id_image": "Crossover_863974",
    "count_view": 0
  },
  {
    "link_thumb": "https://live.staticflickr.com/65535/47960776683_87625d6962_n.jpg",
    "id_album": "-2095179753",
    "description": "Crossover_866676",
    "title": "Crossover_866676",
    "link_img": "https://live.staticflickr.com/65535/47960776683_d8cf151438_o.jpg",
    "id_image": "Crossover_866676",
    "count_view": 0
  },
  {
    "link_thumb": "https://live.staticflickr.com/65535/47960766947_fbe351b1d2_n.jpg",
    "id_album": "-2095179753",
    "description": "Crossover_869998",
    "title": "Crossover_869998",
    "link_img": "https://live.staticflickr.com/65535/47960766947_390108365f_o.jpg",
    "id_image": "Crossover_869998",
    "count_view": 0
  },
  {
    "link_thumb": "https://live.staticflickr.com/65535/47960770402_9018c60db3_n.jpg",
    "id_album": "-2095179753",
    "description": "Crossover_874095",
    "title": "Crossover_874095",
    "link_img": "https://live.staticflickr.com/65535/47960770402_5b54d9249f_o.jpg",
    "id_image": "Crossover_874095",
    "count_view": 0
  },
  {
    "link_thumb": "https://live.staticflickr.com/65535/47960828491_9c2f8d4597_n.jpg",
    "id_album": "-2095179753",
    "description": "Crossover_896611",
    "title": "Crossover_896611",
    "link_img": "https://live.staticflickr.com/65535/47960828491_d7cbbe2e09_o.jpg",
    "id_image": "Crossover_896611",
    "count_view": 0
  },
  {
    "link_thumb": "https://live.staticflickr.com/65535/48070409337_db52b7660e_n.jpg",
    "id_album": "-2095179753",
    "description": "MadeInAbyss_860634",
    "title": "MadeInAbyss_860634",
    "link_img": "https://live.staticflickr.com/65535/48070409337_27cf369591_o.jpg",
    "id_image": "MadeInAbyss_860634",
    "count_view": 0
  },
  {
    "link_thumb": "https://live.staticflickr.com/65535/48070409477_aa7d725451_n.jpg",
    "id_album": "-2095179753",
    "description": "MadeInAbyss_860635",
    "title": "MadeInAbyss_860635",
    "link_img": "https://live.staticflickr.com/65535/48070409477_07acb7f50b_o.jpg",
    "id_image": "MadeInAbyss_860635",
    "count_view": 0
  },
  {
    "link_thumb": "https://live.staticflickr.com/65535/48070410022_4cc00e1583_n.jpg",
    "id_album": "-2095179753",
    "description": "MadeInAbyss_863979",
    "title": "MadeInAbyss_863979",
    "link_img": "https://live.staticflickr.com/65535/48070410022_4c1466a282_o.jpg",
    "id_image": "MadeInAbyss_863979",
    "count_view": 0
  },
  {
    "link_thumb": "https://live.staticflickr.com/65535/48070354383_4daefdd81c_n.jpg",
    "id_album": "-2095179753",
    "description": "MadeInAbyss_863998",
    "title": "MadeInAbyss_863998",
    "link_img": "https://live.staticflickr.com/65535/48070354383_7fc200191a_o.jpg",
    "id_image": "MadeInAbyss_863998",
    "count_view": 0
  },
  {
    "link_thumb": "https://live.staticflickr.com/65535/48070305421_23ae1a21a8_n.jpg",
    "id_album": "-2095179753",
    "description": "MadeInAbyss_868544",
    "title": "MadeInAbyss_868544",
    "link_img": "https://live.staticflickr.com/65535/48070305421_eaf7688a1f_o.jpg",
    "id_image": "MadeInAbyss_868544",
    "count_view": 0
  },
  {
    "link_thumb": "https://live.staticflickr.com/65535/48070411717_a81261cc1e_n.jpg",
    "id_album": "-2095179753",
    "description": "MadeInAbyss_868546",
    "title": "MadeInAbyss_868546",
    "link_img": "https://live.staticflickr.com/65535/48070411717_69c32d6d27_o.jpg",
    "id_image": "MadeInAbyss_868546",
    "count_view": 0
  },
  {
    "link_thumb": "https://live.staticflickr.com/65535/48070308026_606764a992_n.jpg",
    "id_album": "-2095179753",
    "description": "MadeInAbyss_904898",
    "title": "MadeInAbyss_904898",
    "link_img": "https://live.staticflickr.com/65535/48070308026_0609568ccd_o.jpg",
    "id_image": "MadeInAbyss_904898",
    "count_view": 0
  },
  {
    "link_thumb": "https://live.staticflickr.com/65535/48070414247_1de8280580_n.jpg",
    "id_album": "-2095179753",
    "description": "MadeInAbyss_904931",
    "title": "MadeInAbyss_904931",
    "link_img": "https://live.staticflickr.com/65535/48070414247_cf4e7b4bbd_o.jpg",
    "id_image": "MadeInAbyss_904931",
    "count_view": 0
  }
]